{
   "pools":[
      {
         "name":"mints",
         "rolls":1,
         "entries":[
            {
               "type":"item",
               "name":"pixelmon:careful_mint",
               "weight":1
            },
            {
               "type":"item",
               "name":"pixelmon:lonely_mint",
               "weight":1
            },
            {
               "type":"item",
               "name":"pixelmon:relaxed_mint",
               "weight":1
            },
            {
               "type":"item",
               "name":"pixelmon:sassy_mint",
               "weight":1
            },
            {
               "type":"item",
               "name":"pixelmon:mild_mint",
               "weight":1
            },
            {
               "type":"item",
               "name":"pixelmon:timid_mint",
               "weight":1
            },
            {
               "type":"item",
               "name":"pixelmon:serious_mint",
               "weight":1
            },
            {
               "type":"item",
               "name":"pixelmon:gentle_mint",
               "weight":1
            },
            {
               "type":"item",
               "name":"pixelmon:lax_mint",
               "weight":1
            },
            {
               "type":"item",
               "name":"pixelmon:hasty_mint",
               "weight":1
            },
            {
               "type":"item",
               "name":"pixelmon:naive_mint",
               "weight":1
            },
            {
               "type":"item",
               "name":"pixelmon:rash_mint",
               "weight":1
            },
            {
               "type":"item",
               "name":"pixelmon:bold_mint",
               "weight":1
            },
            {
               "type":"item",
               "name":"pixelmon:impish_mint",
               "weight":1
            },
            {
               "type":"item",
               "name":"pixelmon:adamant_mint",
               "weight":1
            },
            {
               "type":"item",
               "name":"pixelmon:naughty_mint",
               "weight":1
            },
            {
               "type":"item",
               "name":"pixelmon:calm_mint",
               "weight":1
            },
            {
               "type":"item",
               "name":"pixelmon:jolly_mint",
               "weight":1
            },
            {
               "type":"item",
               "name":"pixelmon:modest_mint",
               "weight":1
            },
            {
               "type":"item",
               "name":"pixelmon:brave_mint",
               "weight":1
            },
            {
               "type":"item",
               "name":"pixelmon:quiet_mint",
               "weight":1
            }
         ]
      }
   ]
}