{
   "pools":[
      {
         "name":"mints",
         "rolls":1,
         "entries":[
            {
               "type":"item",
               "name":"pixelmon:record_record_1",
               "weight":3
            },
            {
               "type":"item",
               "name":"pixelmon:record_record_2",
               "weight":3
            },
            {
               "type":"item",
               "name":"pixelmon:record_record_3",
               "weight":3
            },
            {
               "type":"item",
               "name":"pixelmon:record_record_4",
               "weight":3
            },
            {
               "type":"item",
               "name":"pixelmon:record_record_5",
               "weight":3
            },
            {
               "type":"item",
               "name":"pixelmon:record_record_6",
               "weight":3
            },
            {
               "type":"item",
               "name":"pixelmon:record_record_7",
               "weight":3
            },
            {
               "type":"item",
               "name":"pixelmon:record_record_8",
               "weight":3
            },
            {
               "type":"item",
               "name":"pixelmon:record_record_9",
               "weight":3
            },
            {
               "type":"item",
               "name":"pixelmon:record_record_10",
               "weight":3
            },
            {
               "type":"item",
               "name":"pixelmon:record_record_11",
               "weight":3
            },
            {
               "type":"item",
               "name":"pixelmon:record_record_12",
               "weight":3
            },
            {
               "type":"item",
               "name":"pixelmon:record_record_13",
               "weight":3
            },
            {
               "type":"item",
               "name":"pixelmon:record_record_14",
               "weight":3
            },
            {
               "type":"item",
               "name":"pixelmon:record_record_15",
               "weight":3
            },
            {
               "type":"item",
               "name":"pixelmon:record_record_16",
               "weight":3
            },
            {
               "type":"item",
               "name":"pixelmon:record_record_17",
               "weight":3
            },
            {
               "type":"item",
               "name":"pixelmon:record_record_18",
               "weight":3
            },
            {
               "type":"item",
               "name":"pixelmon:record_record_19",
               "weight":3
            },
            {
               "type":"item",
               "name":"pixelmon:record_record_20",
               "weight":3
            },
            {
               "type":"item",
               "name":"pixelmon:shattered_relic_song_1",
               "weight":1
            },
            {
               "type":"item",
               "name":"pixelmon:shattered_relic_song_2",
               "weight":1
            },
            {
               "type":"item",
               "name":"pixelmon:shattered_relic_song_3",
               "weight":1
            },
            {
               "type":"item",
               "name":"pixelmon:shattered_relic_song_4",
               "weight":1
            },
            {
               "type":"item",
               "name":"minecraft:record_13",
               "weight":3
            },
            {
               "type":"item",
               "name":"minecraft:record_cat",
               "weight":3
            },
            {
               "type":"item",
               "name":"minecraft:record_blocks",
               "weight":3
            },
            {
               "type":"item",
               "name":"minecraft:record_chirp",
               "weight":3
            },
            {
               "type":"item",
               "name":"minecraft:record_far",
               "weight":3
            },
            {
               "type":"item",
               "name":"minecraft:record_mall",
               "weight":3
            },
            {
               "type":"item",
               "name":"minecraft:record_mellohi",
               "weight":3
            },
            {
               "type":"item",
               "name":"minecraft:record_stal",
               "weight":3
            },
            {
               "type":"item",
               "name":"minecraft:record_strad",
               "weight":3
            },
            {
               "type":"item",
               "name":"minecraft:record_ward",
               "weight":3
            },
            {
               "type":"item",
               "name":"minecraft:record_11",
               "weight":3
            },
            {
               "type":"item",
               "name":"minecraft:record_wait",
               "weight":3
            }
         ]
      }
   ]
}