{
   "pools":[
      {
         "name":"ultrajunk",
         "rolls":2,
         "entries":[
            {
               "type":"item",
               "name":"minecraft:pumpkin",
               "weight":1
            },
            {
               "type":"item",
               "name":"minecraft:cactus",
               "weight":1
            },
            {
               "type":"item",
               "name":"minecraft:iron_ingot",
               "weight":1
            },
            {
               "type":"item",
               "name":"minecraft:gold_ingot",
               "weight":1
            },
            {
               "type":"item",
               "name":"minecraft:apple",
               "weight":1
            },
            {
               "type":"item",
               "name":"minecraft:gunpowder",
               "weight":1
            },
            {
               "type":"item",
               "name":"minecraft:feather",
               "weight":1
            },
            {
               "type":"item",
               "name":"minecraft:wheat_seeds",
               "weight":1
            },
            {
               "type":"item",
               "name":"minecraft:flint",
               "weight":1
            },
            {
               "type":"item",
               "name":"minecraft:saddle",
               "weight":1
            },
            {
               "type":"item",
               "name":"minecraft:glowstone_dust",
               "weight":1
            },
            {
               "type":"item",
               "name":"minecraft:experience_bottle",
               "weight":1
            },
            {
               "type":"item",
               "name":"minecraft:emerald",
               "weight":1
            },
            {
               "type":"item",
               "name":"minecraft:lead",
               "weight":1
            },
            {
               "type":"item",
               "name":"minecraft:iron_nugget",
               "weight":1
            },
            {
               "type":"item",
               "name":"minecraft:gold_nugget",
               "weight":1
            },
            {
               "type":"item",
               "name":"minecraft:string",
               "weight":1
            },
            {
               "type":"item",
               "name":"minecraft:redstone",
               "weight":1
            },
            {
               "type":"item",
               "name":"minecraft:blaze_rod",
               "weight":1
            },
            {
               "type":"item",
               "name":"minecraft:prismarine_shard",
               "weight":1
            },
            {
               "type":"item",
               "name":"pixelmon:potion",
               "weight":1
            },
            {
               "type":"item",
               "name":"pixelmon:dawn_stone_shard",
               "weight":1
            },
            {
               "type":"item",
               "name":"pixelmon:shiny_stone_shard",
               "weight":1
            },
            {
               "type":"item",
               "name":"pixelmon:dusk_stone_shard",
               "weight":1
            },
            {
               "type":"item",
               "name":"pixelmon:moon_stone_shard",
               "weight":1
            },
            {
               "type":"item",
               "name":"pixelmon:sun_stone_shard",
               "weight":1
            },
            {
               "type":"item",
               "name":"pixelmon:fire_stone_shard",
               "weight":1
            },
            {
               "type":"item",
               "name":"pixelmon:water_stone_shard",
               "weight":1
            },
            {
               "type":"item",
               "name":"pixelmon:leaf_stone_shard",
               "weight":1
            },
            {
               "type":"item",
               "name":"pixelmon:thunder_stone_shard",
               "weight":1
            },
            {
               "type":"item",
               "name":"pixelmon:wailmer_pail",
               "weight":1
            },
            {
               "type":"item",
               "name":"pixelmon:amethyst",
               "weight":1
            },
            {
               "type":"item",
               "name":"pixelmon:aluminium_ingot",
               "weight":1
            },
            {
               "type":"item",
               "name":"pixelmon:crystal",
               "weight":1
            },
            {
               "type":"item",
               "name":"pixelmon:ice_stone_shard",
               "weight":1
            },
            {
               "type":"item",
               "name":"pixelmon:iron_disc",
               "weight":1
            },
            {
               "type":"item",
               "name":"pixelmon:iron_base",
               "weight":1
            }
         ]
      }
   ]
}