{
	"id": "Water Loot",
	"spawnInfos": [{
			"stringLocationTypes": [
				"Old Rod",
				"Good Rod",
				"Super Rod"
			],
			"condition": {
				"times": [
					"DAY"
				],
				"stringBiomes": [
					"jungles"
				]
			},
			"itemID": "pixelmon:bug_gem",
			"minQuantity": 1,
			"maxQuantity": 1,
			"typeID": "item",
			"rarity": 50
		},
		{
			"stringLocationTypes": [
				"Old Rod",
				"Good Rod",
				"Super Rod"
			],
			"condition": {
				"times": [
					"NIGHT"
				],
				"stringBiomes": [
					"mountainous"
				]
			},
			"itemID": "pixelmon:dragon_gem",
			"minQuantity": 1,
			"maxQuantity": 1,
			"typeID": "item",
			"rarity": 50
		},
		{
			"stringLocationTypes": [
				"Old Rod",
				"Good Rod",
				"Super Rod"
			],
			"condition": {
				"times": [
					"DAY"
				],
				"stringBiomes": [
					"mountainous"
				]
			},
			"itemID": "pixelmon:electric_gem",
			"minQuantity": 1,
			"maxQuantity": 1,
			"typeID": "item",
			"rarity": 50
		},
		{
			"stringLocationTypes": [
				"Old Rod",
				"Good Rod",
				"Super Rod"
			],
			"condition": {
				"times": [
					"DAY"
				],
				"stringBiomes": [
					"flowery"
				]
			},
			"itemID": "pixelmon:fairy_gem",
			"minQuantity": 1,
			"maxQuantity": 1,
			"typeID": "item",
			"rarity": 50
		},
		{
			"stringLocationTypes": [
				"Old Rod",
				"Good Rod",
				"Super Rod"
			],
			"itemID": "minecraft:fish",
			"minQuantity": 1,
			"maxQuantity": 1,
			"typeID": "item",
			"rarity": 50
		},
		{
			"stringLocationTypes": [
				"Old Rod",
				"Good Rod",
				"Super Rod"
			],
			"condition": {
				"times": [
					"NIGHT"
				],
				"stringBiomes": [
					"hills"
				]
			},
			"itemID": "pixelmon:flying_gem",
			"minQuantity": 1,
			"maxQuantity": 1,
			"typeID": "item",
			"rarity": 50
		},
		{
			"stringLocationTypes": [
				"Old Rod",
				"Good Rod",
				"Super Rod"
			],
			"condition": {
				"times": [
					"NIGHT"
				],
				"stringBiomes": [
					"forests"
				]
			},
			"itemID": "pixelmon:ghost_gem",
			"minQuantity": 1,
			"maxQuantity": 1,
			"typeID": "item",
			"rarity": 50
		},
		{
			"stringLocationTypes": [
				"Old Rod",
				"Good Rod",
				"Super Rod"
			],
			"condition": {
				"times": [
					"DAY"
				],
				"stringBiomes": [
					"plains"
				]
			},
			"itemID": "pixelmon:grass_gem",
			"minQuantity": 1,
			"maxQuantity": 1,
			"typeID": "item",
			"rarity": 50
		},
		{
			"stringLocationTypes": [
				"Old Rod",
				"Good Rod",
				"Super Rod"
			],
			"condition": {
				"times": [
					"DUSK"
				],
				"stringBiomes": [
					"cold"
				]
			},
			"itemID": "pixelmon:ice_gem",
			"minQuantity": 1,
			"maxQuantity": 1,
			"typeID": "item",
			"rarity": 50
		},
		{
			"stringLocationTypes": [
				"Old Rod",
				"Good Rod",
				"Super Rod"
			],
			"condition": {
				"times": [
					"DUSK"
				],
				"stringBiomes": [
					"swamps"
				]
			},
			"itemID": "pixelmon:poison_gem",
			"minQuantity": 1,
			"maxQuantity": 1,
			"typeID": "item",
			"rarity": 50
		},
		{
			"stringLocationTypes": [
				"Old Rod",
				"Good Rod",
				"Super Rod"
			],
			"condition": {
				"times": [
					"DAWN"
				],
				"stringBiomes": [
					"birches"
				]
			},
			"itemID": "pixelmon:psychic_gem",
			"minQuantity": 1,
			"maxQuantity": 1,
			"typeID": "item",
			"rarity": 50
		},
		{
			"stringLocationTypes": [
				"Old Rod",
				"Good Rod",
				"Super Rod"
			],
			"condition": {
				"times": [
					"DAWN"
				],
				"stringBiomes": [
					"oceans"
				]
			},
			"itemID": "pixelmon:water_gem",
			"minQuantity": 1,
			"maxQuantity": 1,
			"typeID": "item",
			"rarity": 50
		},
		{
			"stringLocationTypes": [
				"Good Rod",
				"Super Rod"
			],
			"condition": {
				"stringBiomes": [
					"oceans"
				]
			},
			"itemID": "pixelmon:amethyst",
			"minQuantity": 1,
			"maxQuantity": 1,
			"typeID": "item",
			"rarity": 30
		},
		{
			"stringLocationTypes": [
				"Good Rod",
				"Super Rod"
			],
			"condition": {
				"stringBiomes": [
					"swamps"
				]
			},
			"itemID": "pixelmon:black_sludge",
			"minQuantity": 1,
			"maxQuantity": 1,
			"typeID": "item",
			"rarity": 30
		},
		{
			"stringLocationTypes": [
				"Good Rod",
				"Super Rod"
			],
			"condition": {
				"stringBiomes": [
					"oceans"
				]
			},
			"itemID": "pixelmon:crystal",
			"minQuantity": 1,
			"maxQuantity": 1,
			"typeID": "item",
			"rarity": 30
		},
		{
			"stringLocationTypes": [
				"Good Rod",
				"Super Rod"
			],
			"condition": {
				"times": [
					"DAWN"
				],
				"stringBiomes": [
					"taigas"
				]
			},
			"itemID": "pixelmon:dawn_stone_shard",
			"minQuantity": 1,
			"maxQuantity": 2,
			"typeID": "item",
			"rarity": 30
		},
		{
			"stringLocationTypes": [
				"Good Rod",
				"Super Rod"
			],
			"condition": {
				"stringBiomes": [
					"oceans"
				]
			},
			"itemID": "minecraft:diamond",
			"minQuantity": 1,
			"maxQuantity": 1,
			"typeID": "item",
			"rarity": 25
		},
		{
			"stringLocationTypes": [
				"Good Rod",
				"Super Rod"
			],
			"condition": {
				"stringBiomes": [
					"oceans"
				]
			},
			"itemID": "minecraft:emerald",
			"minQuantity": 1,
			"maxQuantity": 1,
			"typeID": "item",
			"rarity": 30
		},
		{
			"stringLocationTypes": [
				"Good Rod",
				"Super Rod"
			],
			"condition": {
				"times": [
					"DUSK"
				],
				"stringBiomes": [
					"forests"
				]
			},
			"itemID": "pixelmon:leaf_stone_shard",
			"minQuantity": 1,
			"maxQuantity": 2,
			"typeID": "item",
			"rarity": 30
		},
		{
			"stringLocationTypes": [
				"Good Rod",
				"Super Rod"
			],
			"condition": {
				"stringBiomes": [
					"oceans"
				]
			},
			"itemID": "pixelmon:ruby",
			"minQuantity": 1,
			"maxQuantity": 1,
			"typeID": "item",
			"rarity": 30
		},
		{
			"stringLocationTypes": [
				"Good Rod",
				"Super Rod"
			],
			"condition": {
				"stringBiomes": [
					"oceans"
				]
			},
			"itemID": "pixelmon:sapphire",
			"minQuantity": 1,
			"maxQuantity": 1,
			"typeID": "item",
			"rarity": 30
		},
		{
			"stringLocationTypes": [
				"Good Rod",
				"Super Rod"
			],
			"condition": {
				"times": [
					"DAY"
				],
				"stringBiomes": [
					"birches"
				]
			},
			"itemID": "pixelmon:sun_stone_shard",
			"minQuantity": 1,
			"maxQuantity": 2,
			"typeID": "item",
			"rarity": 30
		},
		{
			"stringLocationTypes": [
				"Good Rod",
				"Super Rod"
			],
			"condition": {
				"times": [
					"DUSK"
				],
				"stringBiomes": [
					"oceans"
				]
			},
			"itemID": "pixelmon:water_stone_shard",
			"minQuantity": 1,
			"maxQuantity": 2,
			"typeID": "item",
			"rarity": 30
		},
		{
			"stringLocationTypes": [
				"Super Rod"
			],
			"condition": {
				"times": [
					"NIGHT"
				],
				"stringBiomes": [
					"jungles"
				]
			},
			"itemID": "pixelmon:damp_rock",
			"minQuantity": 1,
			"maxQuantity": 1,
			"typeID": "item",
			"rarity": 20
		},
		{
			"stringLocationTypes": [
				"Super Rod"
			],
			"condition": {
				"times": [
					"DAWN"
				],
				"stringBiomes": [
					"taigas"
				]
			},
			"itemID": "pixelmon:dawn_stone",
			"minQuantity": 1,
			"maxQuantity": 1,
			"typeID": "item",
			"rarity": 20
		},
		{
			"stringLocationTypes": [
				"Super Rod"
			],
			"condition": {
				"times": [
					"NIGHT"
				],
				"stringBiomes": [
					"minecraft:deep_ocean"
				]
			},
			"itemID": "pixelmon:deep_sea_scale",
			"minQuantity": 1,
			"maxQuantity": 1,
			"typeID": "item",
			"rarity": 20
		},
		{
			"stringLocationTypes": [
				"Super Rod"
			],
			"condition": {
				"times": [
					"NIGHT"
				],
				"stringBiomes": [
					"minecraft:deep_ocean"
				]
			},
			"itemID": "pixelmon:deep_sea_tooth",
			"minQuantity": 1,
			"maxQuantity": 1,
			"typeID": "item",
			"rarity": 20
		},
		{
			"stringLocationTypes": [
				"Super Rod"
			],
			"condition": {
				"times": [
					"DUSK"
				],
				"stringBiomes": [
					"mystical",
					"dead"
				]
			},
			"itemID": "pixelmon:dusk_stone",
			"minQuantity": 1,
			"maxQuantity": 1,
			"typeID": "item",
			"rarity": 20
		},
		{
			"stringLocationTypes": [
				"Super Rod"
			],
			"condition": {
				"times": [
					"DAWN"
				],
				"stringBiomes": [
					"cold"
				]
			},
			"itemID": "pixelmon:icy_rock",
			"minQuantity": 1,
			"maxQuantity": 1,
			"typeID": "item",
			"rarity": 20
		},
		{
			"stringLocationTypes": [
				"Super Rod"
			],
			"condition": {
				"times": [
					"DUSK"
				],
				"stringBiomes": [
					"forests"
				]
			},
			"itemID": "pixelmon:leaf_stone",
			"minQuantity": 1,
			"maxQuantity": 1,
			"typeID": "item",
			"rarity": 20
		},
		{
			"stringLocationTypes": [
				"Super Rod"
			],
			"condition": {
				"times": [
					"NIGHT"
				],
				"stringBiomes": [
					"minecraft:deep_ocean"
				]
			},
			"itemID": "pixelmon:prism_scale",
			"minQuantity": 1,
			"maxQuantity": 1,
			"typeID": "item",
			"rarity": 20
		},
		{
			"stringLocationTypes": [
				"Super Rod"
			],
			"condition": {
				"times": [
					"DAY"
				],
				"stringBiomes": [
					"birches"
				]
			},
			"itemID": "pixelmon:sun_stone",
			"minQuantity": 1,
			"maxQuantity": 1,
			"typeID": "item",
			"rarity": 20
		},
		{
			"stringLocationTypes": [
				"Super Rod"
			],
			"condition": {
				"times": [
					"DAY"
				],
				"stringBiomes": [
					"oceans"
				]
			},
			"itemID": "pixelmon:water_stone",
			"minQuantity": 1,
			"maxQuantity": 1,
			"typeID": "item",
			"rarity": 20
		},
		{
			"stringLocationTypes": [
				"Good Rod"
			],
			"itemID": "pixelmon:super_rod",
			"minQuantity": 1,
			"maxQuantity": 1,
			"typeID": "item",
			"percentage": 5
		},
		{
			"stringLocationTypes": [
				"Good Rod",
				"Super Rod"
			],
			"condition": {
				"times": [
					"DAY"
				],
				"stringBiomes": [
					"cold"
				]
			},
			"itemID": "pixelmon:ice_stone_shard",
			"minQuantity": 1,
			"maxQuantity": 2,
			"typeID": "item",
			"rarity": 30
		},
		{
			"stringLocationTypes": [
				"Super Rod"
			],
			"condition": {
				"times": [
					"DAY"
				],
				"stringBiomes": [
					"cold"
				]
			},
			"itemID": "pixelmon:ice_stone",
			"minQuantity": 1,
			"maxQuantity": 1,
			"typeID": "item",
			"rarity": 20
		},
		{
			"stringLocationTypes": [
				"Good Rod",
				"Super Rod"
			],
			"condition": {
				"stringBiomes": [
					"oceans"
				]
			},
			"itemID": "pixelmon:pearl",
			"minQuantity": 1,
			"maxQuantity": 1,
			"typeID": "item",
			"rarity": 15
		},
		{
			"stringLocationTypes": [
				"Good Rod",
				"Super Rod"
			],
			"condition": {
				"stringBiomes": [
					"oceans"
				]
			},
			"itemID": "pixelmon:big_pearl",
			"minQuantity": 1,
			"maxQuantity": 1,
			"typeID": "item",
			"rarity": 5
		},
		{
			"stringLocationTypes": [
				"Good Rod",
				"Super Rod"
			],
			"condition": {
				"stringBiomes": [
					"oceans"
				]
			},
			"itemID": "pixelmon:pearl_string",
			"minQuantity": 1,
			"maxQuantity": 1,
			"typeID": "item",
			"rarity": 1
		},
		{
			"stringLocationTypes": [
				"Old Rod",
				"Good Rod",
				"Super Rod"
			],
			"condition": {
				"stringBiomes": [
					"oceans"
				]
			},
			"itemID": "pixelmon:blue_shard",
			"minQuantity": 1,
			"maxQuantity": 1,
			"typeID": "item",
			"percentage": 10
		}
	]
}