# Blender v2.90.0 OBJ File: ''
# www.blender.org
mtllib stage1_far.mtl
o Stage_1_LOD_Stage_1.018
v 0.440128 1.276017 -0.386577
v 0.378574 1.421943 -0.324622
v 0.514365 1.421702 -0.000045
v 0.600357 1.276017 0.000249
v -0.271776 1.421916 -0.324976
v 0.052809 1.421722 -0.460699
v 0.053302 1.276017 -0.546805
v -0.333524 1.276017 -0.386576
v -0.272241 1.421872 0.325341
v -0.407918 1.421664 0.000642
v -0.493752 1.276017 0.000250
v -0.333523 1.276017 0.387075
v 0.053303 1.276017 0.547303
v 0.053573 1.421668 0.461427
v 0.378217 1.421914 0.325673
v 0.440128 1.276017 0.387075
v -0.165917 1.567074 -0.224476
v 0.039017 1.562193 -0.352401
v 0.266502 1.567237 0.232212
v 0.060144 1.561997 0.358986
v 0.466924 1.035818 0.413870
v 0.638252 1.035818 0.000249
v -0.060621 1.567078 0.297652
v -0.180754 1.567092 0.219090
v 0.408658 1.562123 -0.007099
v 0.280362 1.567285 -0.212718
v 0.346519 1.567232 0.113704
v -0.306709 1.561940 0.011620
v -0.531647 1.035818 0.000249
v -0.360319 1.035818 0.413871
v 0.160003 1.567318 -0.291331
v 0.028979 1.729371 -0.375306
v 0.124904 1.730753 -0.308412
v 0.466924 1.035818 -0.413372
v 0.053302 1.035818 -0.584700
v -0.360319 1.035818 -0.413372
v 0.053303 1.035818 0.585198
v 0.406496 0.873674 0.353443
v 0.552794 0.873673 0.000249
v 0.053302 0.873673 -0.499243
v -0.299892 0.873673 -0.352945
v -0.446190 0.873673 0.000249
v -0.299892 0.873674 0.353444
v 0.053303 0.873674 0.499741
v 0.406496 0.873673 -0.352945
v -0.231836 0.800507 0.285388
v 0.053303 0.800507 0.403496
v -0.349944 0.800507 0.000249
v 0.456549 0.800507 0.000249
v 0.338441 0.800507 -0.284890
v 0.053302 0.800507 -0.402998
v -0.231836 0.800507 -0.284889
v 0.338441 0.800507 0.285388
v 0.053303 0.737500 0.150091
v 0.159257 0.737500 0.106203
v -0.052651 0.737500 -0.105705
v -0.096539 0.737500 0.000249
v 0.203144 0.737500 0.000249
v -0.052651 0.737500 0.106203
v 0.159257 0.737500 -0.105705
v 0.053302 0.737500 -0.149593
v 0.194583 1.583743 0.098189
v 0.213468 1.729846 0.146700
v 0.241587 1.730919 0.261995
v 0.130097 1.588310 0.055171
v 0.117768 1.726352 0.079131
v 0.017146 1.726229 0.099002
v 0.041588 1.808913 0.141518
v 0.108661 1.816605 0.145104
v -0.244181 1.566993 -0.107592
v -0.332075 1.729448 0.020023
v -0.262503 1.730879 -0.073828
v -0.016050 1.726648 -0.071178
v 0.084312 1.725909 -0.091548
v 0.059071 1.808704 -0.133731
v -0.008091 1.816780 -0.136785
v -0.151717 1.581043 -0.129766
v -0.027101 1.588235 -0.047420
v -0.113334 1.730095 -0.136969
v 0.175287 1.812062 0.173393
v 0.176279 1.821080 0.248298
v 0.017391 1.821757 -0.307050
v 0.084246 1.814280 -0.280141
v -0.143345 1.731046 -0.251461
v 0.144573 1.729882 -0.191321
v 0.082872 1.819159 -0.204268
v -0.075383 1.812330 -0.164064
v -0.077648 1.821208 -0.238611
v 0.003787 1.837224 -0.221320
v 0.185077 1.581241 -0.198614
v 0.104112 1.588294 -0.075002
v 0.310443 1.731118 -0.188019
v 0.432683 1.729445 -0.014431
v 0.195679 1.730153 -0.159203
v 0.222527 1.812492 -0.120921
v 0.297066 1.821351 -0.122399
v 0.067283 1.729294 0.383834
v 0.080075 1.821702 0.315692
v -0.002024 1.588249 0.082244
v -0.085464 1.581104 0.205874
v -0.045312 1.730013 0.198324
v -0.027601 1.730721 0.315669
v 0.013565 1.814267 0.287915
v 0.016313 1.819295 0.211946
v 0.095210 1.837239 0.229897
v -0.144902 1.730185 -0.089799
v -0.235351 1.814557 -0.032127
v -0.159528 1.819565 -0.028271
v -0.046460 1.726455 -0.026122
v -0.097104 1.730019 0.169654
v -0.212773 1.731077 0.196057
v 0.247588 1.729977 0.099190
v 0.364835 1.730825 0.080763
v 0.336987 1.814452 0.039771
v 0.261189 1.819326 0.037608
v 0.128863 1.726707 -0.062814
v 0.148357 1.726069 0.037733
v 0.190926 1.808942 0.013047
v 0.194586 1.816932 -0.054029
v 0.364524 1.821905 -0.026751
v 0.278985 1.837309 -0.041250
v -0.123404 1.812381 0.131103
v -0.198231 1.821332 0.130954
v -0.264090 1.821945 0.033873
v -0.089559 1.809270 -0.002000
v -0.028075 1.726559 0.074834
v -0.094136 1.816911 0.064995
v -0.178642 1.837397 0.050275
v 0.053302 0.762397 -0.159853
v 0.053302 0.690832 -0.145799
v -0.002588 0.690832 -0.134682
v -0.007966 0.762397 -0.147666
v -0.094612 0.762397 0.061518
v -0.081628 0.690832 0.056139
v -0.049969 0.690832 0.103521
v -0.059907 0.762397 0.113459
v 0.201218 0.762397 -0.061019
v 0.188234 0.690832 -0.055641
v 0.156574 0.690832 -0.103023
v 0.166512 0.762397 -0.112960
v -0.002588 0.690832 0.135180
v -0.007966 0.762397 0.148164
v 0.109193 0.690832 -0.134682
v 0.114571 0.762397 -0.147666
v 0.053303 0.690832 0.146297
v 0.053303 0.762397 0.160351
v 0.109193 0.690832 0.135180
v 0.114571 0.762397 0.148164
v -0.049969 0.690832 -0.103023
v -0.059907 0.762397 -0.112960
v 0.156574 0.690832 0.103521
v 0.166512 0.762397 0.113458
v -0.081628 0.690832 -0.055641
v -0.094612 0.762397 -0.061019
v 0.188234 0.690832 0.056139
v 0.201218 0.762397 0.061518
v -0.092746 0.690832 0.000249
v -0.106799 0.762397 0.000249
v 0.199351 0.690832 0.000249
v 0.213405 0.762397 0.000249
v 0.068790 0.664225 0.037638
v 0.081919 0.664225 0.028866
v 0.024686 0.664225 -0.028368
v 0.015913 0.664225 -0.015238
v 0.090692 0.664225 0.015736
v 0.012833 0.664225 0.000249
v 0.093773 0.664225 0.000249
v 0.015913 0.664225 0.015736
v 0.090692 0.664225 -0.015238
v 0.024686 0.664225 0.028866
v 0.081919 0.664225 -0.028368
v 0.037815 0.664225 0.037638
v 0.068790 0.664225 -0.037141
v 0.053303 0.664225 0.040719
v 0.053303 0.664225 -0.040221
v 0.037815 0.664225 -0.037141
v -0.002014 0.248180 0.085769
v 0.078228 0.254190 0.099314
v 0.071601 0.750671 0.098891
v 0.002196 0.750671 0.075756
v 0.002196 0.750671 -0.063054
v -0.010592 0.240110 -0.061090
v -0.024898 0.257011 0.011257
v -0.020939 0.750671 0.006351
v 0.063350 0.190233 0.285576
v 0.107746 0.161808 0.285048
v 0.150098 0.245948 0.082668
v 0.141006 0.750671 -0.063054
v 0.132191 0.248019 -0.072207
v 0.064532 0.248784 -0.092100
v 0.071601 0.750671 -0.086189
v 0.003930 0.122878 0.267328
v -0.038768 0.170904 0.119073
v -0.008169 0.101878 0.090411
v 0.018617 0.077838 0.257676
v -0.244033 0.165949 0.007564
v -0.240901 0.153672 0.045317
v 0.409995 0.124488 -0.046999
v 0.167936 0.198684 -0.111051
v 0.418676 0.161402 -0.034869
v 0.149862 0.109506 -0.082564
v 0.400641 0.088043 -0.033958
v -0.034895 0.104460 -0.287198
v -0.053190 0.167462 -0.087620
v -0.025490 0.141713 -0.297437
v 0.049463 0.145920 -0.305642
v 0.065041 0.110070 -0.298136
v -0.231569 0.117056 0.057825
v 0.407301 0.126371 0.053688
v 0.188530 0.174753 0.117699
v 0.152849 0.100823 0.082025
v 0.398621 0.089455 0.041558
v -0.222254 0.080494 0.045145
v -0.240949 0.153834 -0.030247
v 0.010958 0.156000 -0.304497
v -0.231634 0.117271 -0.042927
v 0.055636 0.072818 -0.287896
v 0.122433 0.120684 0.275396
v 0.107494 0.076194 0.263727
v -0.008740 0.097325 -0.051868
v -0.222303 0.080655 -0.030419
v -0.019317 0.068610 -0.279692
v 0.018869 0.163455 0.278997
v 0.141006 0.750671 0.075756
v 0.164141 0.750671 0.006351
v 0.171054 0.262810 0.011020
v 0.416655 0.162815 0.040647
v 0.420671 0.174336 0.002738
v -0.408398 0.062814 0.448945
v -0.249844 0.144215 0.312581
v -0.359465 0.144215 -0.025988
v -0.567792 0.062814 -0.041826
v -0.470238 -0.021856 -0.562936
v -0.409737 0.060081 -0.453041
v 0.066965 0.062814 -0.698474
v 0.066965 -0.021807 -0.787800
v 0.461428 0.257709 -0.026420
v 0.345981 0.192101 -0.305436
v 0.056274 0.190931 -0.003701
v 0.066965 -0.021807 0.753987
v 0.605511 -0.021807 0.547507
v 0.542328 0.062814 0.448945
v 0.066965 0.062814 0.645633
v 0.339435 0.225587 0.253617
v 0.862398 -0.021807 -0.026420
v 0.580503 -0.021655 -0.537739
v 0.505556 0.060180 -0.457307
v 0.739020 0.062814 -0.026420
v -0.235091 0.143772 -0.327924
v -0.654482 -0.021807 -0.050410
v -0.319759 0.168216 -0.026420
v -0.212048 0.199862 0.252595
v -0.084070 0.231435 0.338049
v 0.066965 0.164281 0.368042
v -0.471582 -0.021807 0.512126
v -0.111422 0.144215 0.405007
v 0.067179 0.134013 0.417010
v -0.163624 0.062814 0.516888
v 0.369673 0.141899 -0.329153
v 0.527104 0.144215 -0.025988
v 0.067179 0.144215 -0.452631
v 0.066965 0.198672 -0.433150
v -0.197826 -0.021807 0.599424
v 0.411546 0.145544 0.295977
v -0.212048 0.192102 -0.305434
v -0.477855 -0.022630 0.686237
v -0.548908 -0.022630 0.656759
v -0.548756 0.017048 0.754321
v -0.462196 -0.022630 0.799603
v -0.625610 -0.022630 0.703475
v -0.629059 -0.022630 0.816935
v -0.548908 -0.022630 0.862919
v -0.330807 -0.021405 0.682323
v -0.359721 -0.021405 0.670327
v -0.359659 -0.005259 0.710029
v -0.324434 -0.021405 0.728456
v -0.390934 -0.021405 0.689337
v -0.392337 -0.021405 0.735508
v -0.359721 -0.021405 0.754221
v 0.067097 0.102171 -0.026646
vt 0.434969 0.388019
vt 0.500176 0.440442
vt 0.500176 0.388019
vt 0.356589 0.440442
vt 0.285114 0.388019
vt 0.285114 0.440442
vt 0.215751 0.440442
vt 0.151732 0.388019
vt 0.151732 0.440442
vt 0.088516 0.440442
vt 0.088516 0.388019
vt 0.595851 0.388019
vt 0.356589 0.388019
vt 0.434969 0.440442
vt 0.356589 0.516305
vt 0.285114 0.516305
vt 0.017479 0.440442
vt 0.088516 0.516305
vt 0.595851 0.320021
vt 0.055974 0.516305
vt 0.500176 0.516305
vt 0.434969 0.516305
vt 0.595851 0.516305
vt 0.215751 0.516305
vt 0.151732 0.516305
vt 0.215751 0.388019
vt 0.151732 0.320021
vt 0.433134 0.516305
vt 0.524055 0.560565
vt 0.511179 0.580087
vt 0.511179 0.560565
vt 0.356589 0.320021
vt 0.215751 0.320021
vt 0.088516 0.320021
vt 0.501751 0.226216
vt 0.597426 0.226216
vt 0.017479 0.388019
vt 0.434969 0.320021
vt 0.358164 0.226216
vt 0.285114 0.320021
vt 0.153306 0.226216
vt 0.217326 0.226216
vt 0.500176 0.320021
vt 0.019054 0.226216
vt 0.090091 0.226216
vt 0.436544 0.226216
vt 0.153306 0.203604
vt 0.090091 0.203604
vt 0.436544 0.203604
vt 0.286689 0.226216
vt 0.358164 0.203604
vt 0.286689 0.203604
vt 0.217326 0.203604
vt 0.019054 0.203604
vt 0.090091 0.150775
vt 0.597426 0.203604
vt 0.501751 0.203604
vt 0.217326 0.150775
vt 0.597426 0.150775
vt 0.153306 0.150775
vt 0.436544 0.150775
vt 0.501751 0.150775
vt 0.358164 0.150775
vt 0.500658 0.560565
vt 0.490534 0.580087
vt 0.500658 0.580087
vt 0.490534 0.560565
vt 0.479051 0.580087
vt 0.460251 0.561493
vt 0.450890 0.563490
vt 0.524055 0.560565
vt 0.511179 0.580087
vt 0.511179 0.560565
vt 0.479051 0.580087
vt 0.449614 0.586081
vt 0.459006 0.584075
vt 0.479051 0.560565
vt 0.490534 0.580087
vt 0.490534 0.560565
vt 0.442601 0.568491
vt 0.444803 0.577741
vt 0.524055 0.580087
vt 0.442601 0.568491
vt 0.500658 0.580087
vt 0.500658 0.560565
vt 0.500658 0.580087
vt 0.444803 0.577741
vt 0.490534 0.580087
vt 0.467284 0.579047
vt 0.450890 0.563490
vt 0.465101 0.569820
vt 0.455013 0.573819
vt 0.500658 0.560565
vt 0.490534 0.560565
vt 0.524055 0.560565
vt 0.500658 0.580087
vt 0.524055 0.580087
vt 0.449614 0.586081
vt 0.459006 0.584075
vt 0.459006 0.584075
vt 0.524055 0.580087
vt 0.490534 0.560565
vt 0.500658 0.580087
vt 0.490534 0.580087
vt 0.467284 0.579047
vt 0.465101 0.569820
vt 0.479051 0.560565
vt 0.511179 0.580087
vt 0.455013 0.573819
vt 0.500658 0.580087
vt 0.449614 0.586081
vt 0.459006 0.584075
vt 0.524055 0.560565
vt 0.511179 0.560565
vt 0.490534 0.560565
vt 0.490534 0.580087
vt 0.500658 0.560565
vt 0.490534 0.580087
vt 0.500658 0.580087
vt 0.500658 0.580087
vt 0.460251 0.561493
vt 0.450890 0.563490
vt 0.479051 0.560565
vt 0.490534 0.580087
vt 0.490534 0.560565
vt 0.479051 0.580087
vt 0.442601 0.568491
vt 0.444803 0.577741
vt 0.465101 0.569820
vt 0.511179 0.580087
vt 0.490534 0.580087
vt 0.455013 0.573819
vt 0.500658 0.560565
vt 0.511179 0.560565
vt 0.500658 0.560565
vt 0.490534 0.560565
vt 0.460251 0.561493
vt 0.450890 0.563490
vt 0.444803 0.577741
vt 0.524055 0.580087
vt 0.467284 0.579047
vt 0.500658 0.560565
vt 0.479051 0.580087
vt 0.465101 0.569820
vt 0.455013 0.573819
vt 0.479051 0.560565
vt 0.490534 0.560565
vt 0.803113 0.874339
vt 0.811865 0.892578
vt 0.784698 0.892530
vt 0.803083 0.864047
vt 0.821647 0.855080
vt 0.821528 0.882559
vt 0.339261 0.335808
vt 0.321358 0.343964
vt 0.321557 0.316693
vt 0.339421 0.325425
vt 0.331490 0.306568
vt 0.358677 0.306154
vt 0.595851 0.516305
vt 0.595851 0.495555
vt 0.459630 0.516305
vt 0.071684 0.516305
vt 0.239056 0.516305
vt 0.256917 0.516305
vt 0.268943 0.064741
vt 0.247794 0.017156
vt 0.268318 0.017156
vt 0.327402 0.017156
vt 0.308814 0.064741
vt 0.308189 0.017156
vt 0.328027 0.064741
vt 0.308189 0.017156
vt 0.327402 0.017156
vt 0.288288 0.017156
vt 0.308814 0.064741
vt 0.288288 0.017156
vt 0.288913 0.064741
vt 0.268318 0.017156
vt 0.288913 0.064741
vt 0.268943 0.064741
vt 0.247794 0.017156
vt 0.228803 0.064741
vt 0.228178 0.017156
vt 0.228803 0.064741
vt 0.228178 0.017156
vt 0.209167 0.064741
vt 0.208542 0.017156
vt 0.209167 0.064741
vt 0.208542 0.017156
vt 0.367110 0.017156
vt 0.348260 0.064741
vt 0.347635 0.017156
vt 0.367735 0.064741
vt 0.347635 0.017156
vt 0.367110 0.017156
vt 0.328027 0.064741
vt 0.348260 0.064741
vt 0.248419 0.064741
vt 0.228803 0.105066
vt 0.228803 0.105066
vt 0.367735 0.105066
vt 0.367735 0.064741
vt 0.348260 0.105066
vt 0.328027 0.105066
vt 0.308814 0.105066
vt 0.308814 0.105066
vt 0.288913 0.105066
vt 0.268943 0.105066
vt 0.248419 0.105066
vt 0.248419 0.064741
vt 0.752150 0.524417
vt 0.814881 0.920290
vt 0.814881 0.500802
vt 0.887235 0.920319
vt 0.877613 0.524417
vt 0.850976 0.920300
vt 0.688020 0.436052
vt 0.703772 0.430142
vt 0.814881 0.500802
vt 0.850976 0.920300
vt 0.814881 0.920290
vt 0.727947 0.406377
vt 0.814881 0.419112
vt 0.734216 0.393066
vt 0.930162 0.420940
vt 0.814881 0.461592
vt 0.716948 0.420060
vt 0.727947 0.406377
vt 0.814881 0.419112
vt 0.734216 0.393066
vt 0.954696 0.526601
vt 0.957707 0.437937
vt 0.974433 0.441201
vt 0.930162 0.420940
vt 0.919855 0.406377
vt 0.814881 0.461592
vt 0.919855 0.406377
vt 0.675067 0.526601
vt 0.653485 0.440407
vt 0.672747 0.440247
vt 0.912454 0.392124
vt 0.957707 0.437937
vt 0.942395 0.430959
vt 0.877613 0.524417
vt 0.942395 0.430959
vt 0.974433 0.441201
vt 0.640328 0.524860
vt 0.672747 0.440247
vt 0.653485 0.440407
vt 0.989818 0.441636
vt 0.989818 0.441636
vt 0.716948 0.420060
vt 0.742528 0.920319
vt 0.778787 0.920300
vt 0.752150 0.524417
vt 0.778787 0.920300
vt 0.688020 0.436052
vt 0.703772 0.430142
vt 0.964613 0.230931
vt 0.924263 0.148359
vt 0.964613 0.148359
vt 0.886283 0.089565
vt 0.844680 0.148359
vt 0.844680 0.089565
vt 0.703739 0.030787
vt 0.702831 0.019816
vt 0.717854 0.025704
vt 0.711021 0.089565
vt 0.663964 0.148359
vt 0.663964 0.089565
vt 0.713278 0.040442
vt 0.718219 0.026058
vt 0.802668 0.089565
vt 0.756332 0.148359
vt 0.756332 0.089565
vt 0.924263 0.230931
vt 0.886283 0.148359
vt 0.802668 0.148359
vt 0.924263 0.089565
vt 0.733379 0.018637
vt 0.733660 0.031240
vt 0.718987 0.025224
vt 0.730309 0.036049
vt 0.725389 0.040661
vt 0.718843 0.025834
vt 0.718924 0.025655
vt 0.631158 0.230931
vt 0.663964 0.281862
vt 0.631158 0.281862
vt 0.663964 0.230931
vt 0.631158 0.148359
vt 0.756332 0.230931
vt 0.802668 0.281862
vt 0.844680 0.230931
vt 0.844680 0.281862
vt 0.964613 0.281862
vt 0.924263 0.281862
vt 0.886283 0.230931
vt 0.995788 0.089565
vt 0.964613 0.089565
vt 0.711021 0.230931
vt 0.631158 0.089565
vt 0.711230 0.010505
vt 0.724581 0.010265
vt 0.718151 0.024914
vt 0.711021 0.148359
vt 0.711021 0.281862
vt 0.995788 0.281862
vt 0.756332 0.281862
vt 0.995788 0.148359
vt 0.717845 0.025271
vt 0.718664 0.026030
vt 0.718641 0.024913
vt 0.886283 0.281862
vt 0.725709 0.099269
vt 0.726064 0.108047
vt 0.722054 0.106526
vt 0.715115 0.093346
vt 0.722128 0.101169
vt 0.717830 0.114265
vt 0.706352 0.109675
vt 0.710090 0.107457
vt 0.705259 0.099465
vt 0.709101 0.101204
vt 0.717098 0.109907
vt 0.715348 0.097731
vt 0.755378 0.091991
vt 0.755522 0.095564
vt 0.753890 0.094945
vt 0.751067 0.089581
vt 0.753921 0.092764
vt 0.752171 0.098094
vt 0.747501 0.096226
vt 0.749022 0.095324
vt 0.747056 0.092071
vt 0.748619 0.092779
vt 0.751873 0.096321
vt 0.751161 0.091365
vt 0.500658 0.560565
vt 0.595851 0.440442
vt 0.017479 0.516305
vt 0.017479 0.320021
vt 0.019054 0.150775
vt 0.286689 0.150775
vt 0.248419 0.105066
vt 0.209167 0.105066
vt 0.209167 0.105066
vt 0.348260 0.105066
vt 0.367735 0.105066
vt 0.328027 0.105066
vt 0.288913 0.105066
vt 0.268943 0.105066
vt 0.922514 0.542614
vt 0.707249 0.542614
vt 0.912454 0.392124
vt 0.989435 0.524860
vt 0.802668 0.230931
vt 0.995788 0.230931
vn 0.6680 0.3265 -0.6687
vn 0.8325 0.5539 0.0055
vn 0.9459 0.3243 0.0001
vn 0.0078 0.5576 -0.8301
vn -0.6687 0.3263 -0.6681
vn -0.5775 0.5806 -0.5740
vn -0.8371 0.5469 -0.0084
vn -0.6685 0.3256 0.6687
vn -0.5770 0.5737 0.5813
vn -0.0045 0.5478 0.8366
vn 0.0002 0.3245 0.9459
vn 0.6683 0.3263 0.6685
vn 0.0006 0.3249 -0.9458
vn 0.5707 0.5846 -0.5767
vn -0.0184 0.3518 -0.9359
vn -0.6834 0.5548 -0.4746
vn 0.5780 0.5794 0.5746
vn 0.0085 0.3309 0.9436
vn 0.6988 -0.1524 0.6988
vn -0.5518 0.5053 0.6634
vn 0.9398 0.3417 -0.0088
vn 0.4590 0.5753 -0.6770
vn 0.6084 0.5489 0.5732
vn -0.9456 0.3253 0.0015
vn -0.4743 0.5533 0.6848
vn -0.9459 0.3244 -0.0006
vn -0.6988 -0.1524 0.6989
vn 0.5450 0.5239 -0.6546
vn 0.7835 0.2830 -0.5531
vn -0.0000 -0.1524 -0.9883
vn -0.9883 -0.1524 -0.0000
vn 0.0000 -0.1524 0.9883
vn 0.7835 -0.6214 0.0000
vn 0.5540 -0.6214 0.5540
vn 0.6988 -0.1524 -0.6988
vn -0.0000 -0.6214 -0.7835
vn -0.6988 -0.1524 -0.6989
vn -0.5540 -0.6214 0.5540
vn -0.7835 -0.6214 -0.0000
vn 0.9883 -0.1524 -0.0000
vn 0.0000 -0.6214 0.7835
vn 0.5540 -0.6214 -0.5540
vn -0.3332 -0.8820 0.3332
vn 0.0000 -0.8820 0.4712
vn 0.3332 -0.8820 -0.3332
vn -0.5540 -0.6214 -0.5540
vn -0.0000 -0.8820 -0.4712
vn -0.3332 -0.8820 -0.3332
vn -0.4712 -0.8820 -0.0000
vn 0.3332 -0.8820 0.3332
vn 0.0000 -0.9705 0.2413
vn 0.4712 -0.8820 0.0000
vn -0.2413 -0.9705 -0.0000
vn 0.1706 -0.9705 0.1706
vn -0.1706 -0.9705 0.1706
vn 0.1706 -0.9705 -0.1706
vn 0.2413 -0.9705 0.0000
vn -0.0000 -0.9705 -0.2413
vn 0.6719 0.6100 0.4200
vn 0.7816 0.3192 -0.5359
vn 0.8753 0.2861 0.3898
vn 0.5291 0.7681 0.3607
vn 0.1787 0.3550 -0.9176
vn -0.3709 0.7444 -0.5553
vn 0.1102 0.8222 -0.5585
vn -0.5311 0.2792 -0.8000
vn -0.6524 0.5142 -0.5568
vn -0.1693 0.3528 0.9203
vn 0.3793 0.7434 0.5509
vn -0.1006 0.8220 0.5605
vn 0.5065 0.7906 0.3442
vn -0.7515 0.3557 0.5556
vn -0.5956 0.7136 -0.3689
vn 0.5396 0.7488 -0.3848
vn 0.5439 0.7976 0.2607
vn -0.0156 0.2048 -0.9787
vn 0.5538 0.7579 -0.3449
vn -0.8741 0.2966 -0.3847
vn 0.9110 0.3697 0.1829
vn 0.5531 0.8236 0.1260
vn 0.5320 0.3341 0.7780
vn -0.5320 0.7493 0.3944
vn -0.0681 0.7999 -0.5962
vn -0.5466 0.7984 -0.2528
vn 0.0025 0.9997 0.0224
vn 0.3761 0.7259 -0.5758
vn -0.3301 0.7921 0.5135
vn 0.3849 0.2868 -0.8772
vn 0.9794 0.2021 -0.0029
vn -0.3882 0.7498 -0.5359
vn 0.2586 0.7983 -0.5439
vn 0.0612 0.7998 0.5971
vn -0.0009 0.2001 0.9798
vn 0.3399 0.7897 -0.5107
vn -0.9092 0.3667 -0.1971
vn -0.5222 0.3326 -0.7853
vn -0.5582 0.7583 0.3366
vn -0.5503 0.8240 -0.1348
vn 0.1627 -0.5241 -0.8360
vn -0.7929 0.2768 0.5429
vn -0.0004 0.9998 -0.0222
vn 0.2071 0.3708 -0.9053
vn -0.3282 0.7587 -0.5627
vn 0.1424 0.8244 -0.5478
vn 0.7879 0.3460 -0.5093
vn 0.5219 0.3457 0.7798
vn -0.4030 0.2780 0.8720
vn -0.1899 0.3331 0.9236
vn 0.3392 0.7580 0.5571
vn -0.1314 0.8236 0.5517
vn -0.5378 0.3516 -0.7662
vn -0.9173 0.3567 -0.1770
vn -0.5541 0.7439 0.3738
vn -0.5588 0.8225 -0.1063
vn 0.5968 0.7999 -0.0625
vn 0.5459 0.2765 0.7909
vn -0.7829 0.3351 0.5242
vn -0.0223 0.9997 0.0021
vn -0.7095 -0.5271 0.4677
vn 0.3761 0.7491 0.5453
vn -0.2695 0.7975 0.5399
vn -0.5980 0.7998 0.0526
vn -0.9799 0.1989 -0.0135
vn 0.5594 0.7456 -0.3621
vn 0.9117 0.3592 0.1994
vn 0.5560 0.8227 0.1188
vn 0.0219 0.9998 0.0000
vn -0.3771 0.7196 0.5831
vn -0.8328 0.0343 -0.5525
vn -0.0000 -0.6565 -0.7544
vn -0.3755 -0.1927 -0.9066
vn -0.0000 -0.1927 -0.9813
vn -0.9066 -0.1927 0.3755
vn -0.5334 -0.6565 0.5334
vn -0.6939 -0.1927 0.6939
vn 0.6969 -0.6565 -0.2887
vn 0.6939 -0.1927 -0.6939
vn 0.9066 -0.1927 -0.3755
vn -0.3755 -0.1927 0.9066
vn 0.5334 -0.6565 -0.5334
vn 0.3755 -0.1927 -0.9066
vn -0.2887 -0.6565 0.6969
vn 0.0000 -0.1927 0.9813
vn 0.2887 -0.6565 -0.6969
vn 0.0000 -0.6565 0.7544
vn 0.3755 -0.1927 0.9066
vn -0.5334 -0.6565 -0.5334
vn -0.6939 -0.1927 -0.6938
vn 0.5334 -0.6565 0.5334
vn 0.6939 -0.1927 0.6939
vn -0.6969 -0.6565 -0.2887
vn -0.9066 -0.1927 -0.3755
vn 0.6969 -0.6565 0.2887
vn 0.9066 -0.1927 0.3755
vn -0.7544 -0.6565 0.0000
vn -0.9813 -0.1927 0.0000
vn 0.9813 -0.1927 -0.0000
vn -0.6969 -0.6565 0.2887
vn 0.7544 -0.6565 -0.0000
vn 0.2887 -0.6565 0.6969
vn 0.1728 -0.9697 0.1728
vn -0.1728 -0.9697 -0.1728
vn -0.2258 -0.9697 -0.0935
vn 0.2444 -0.9697 0.0000
vn -0.2258 -0.9697 0.0935
vn -0.1728 -0.9697 0.1728
vn 0.1728 -0.9697 -0.1728
vn 0.0935 -0.9697 -0.2258
vn 0.0000 -0.9697 0.2444
vn -0.0935 -0.9697 -0.2258
vn -0.2887 -0.6565 -0.6969
vn 0.0397 0.5618 0.8263
vn -0.7039 0.0057 0.7102
vn -0.5551 0.5466 0.6270
vn -0.7095 0.0118 -0.7046
vn -0.8302 0.5572 0.0156
vn -1.0000 0.0080 -0.0020
vn 0.6976 0.5863 0.4118
vn -0.0088 0.9460 0.3241
vn 0.4979 0.5513 -0.6694
vn 0.0013 0.0142 -0.9999
vn 0.7074 0.0111 -0.7067
vn -0.9701 -0.0752 0.2307
vn -0.6297 -0.5078 0.5879
vn -0.9389 -0.3283 0.1032
vn -0.3988 0.6429 0.6539
vn 0.5535 0.3627 -0.7497
vn 0.3436 0.6621 -0.6659
vn 0.2389 -0.0781 -0.9679
vn 0.5885 -0.3555 -0.7261
vn 0.1467 -0.3664 -0.9188
vn -0.7361 0.0869 -0.6713
vn -0.7446 0.6194 -0.2486
vn -0.9921 -0.1130 -0.0553
vn 0.5217 0.6614 -0.5389
vn 0.8847 -0.0650 -0.4617
vn -0.7086 0.1114 0.6968
vn -0.2817 -0.0789 0.9562
vn 0.6491 0.1136 0.7522
vn 0.1770 -0.3759 0.9096
vn 0.2705 -0.0490 0.9615
vn -0.1784 -0.3801 0.9076
vn -0.3649 0.6485 -0.6681
vn -0.3837 0.9234 -0.0010
vn -0.0597 0.5906 -0.8047
vn -0.1236 0.9204 -0.3709
vn -0.2265 -0.0605 -0.9721
vn 0.5871 -0.5508 0.5932
vn 0.9399 -0.1121 0.3224
vn 0.9171 -0.3554 0.1808
vn -0.1128 -0.3841 -0.9164
vn -0.9073 -0.4170 0.0546
vn -0.7169 0.6131 0.3320
vn 0.7045 0.0129 0.7096
vn -0.0027 0.0008 1.0000
vn 0.8012 0.5971 -0.0403
vn 0.9999 0.0142 -0.0019
vn 0.3557 0.6740 0.6474
vn 0.3334 0.9426 -0.0217
vn -0.4029 0.8523 0.3336
vn -0.5701 0.8215 -0.0128
vn -0.4014 0.8205 0.4070
vn -0.4126 0.8152 -0.4065
vn 0.0183 0.8357 -0.5489
vn 0.0164 0.7259 -0.6876
vn 0.5039 0.8630 -0.0357
vn 0.3612 0.8164 -0.4505
vn -0.0607 0.9981 -0.0117
vn 0.4013 0.8029 0.4407
vn -0.0453 0.8643 0.5010
vn -0.0417 0.7874 0.6150
vn 0.2233 0.8890 0.3997
vn 0.4262 0.7948 -0.4319
vn 0.4920 0.8699 -0.0349
vn 0.5706 0.8209 -0.0247
vn -0.4336 0.9009 -0.0205
vn -0.4001 0.8639 -0.3060
vn 0.3628 0.8587 -0.3619
vn -0.6921 0.7214 -0.0247
vn -0.3626 0.9310 -0.0421
vn -0.4088 0.9023 0.1368
vn -0.0399 0.9222 0.3846
vn 0.1164 0.9035 0.4124
vn -0.1640 0.7639 0.6241
vn 0.0425 0.9000 0.4337
vn -0.2035 0.8210 0.5335
vn 0.5776 0.8155 -0.0362
vn 0.0152 0.7774 -0.6288
vn -0.0007 0.7565 -0.6540
vn -0.4072 0.8249 -0.3920
vn -0.2675 0.7234 0.6365
vn -0.4851 0.7261 0.4874
vn 0.3480 0.8643 0.3632
vn -0.4195 0.8324 -0.3621
vn 0.3650 0.8613 0.3535
vn 0.2921 0.9268 -0.2360
vn -0.0235 0.9261 -0.3766
vn -0.0026 0.9999 -0.0140
vn 0.3445 0.9262 0.1532
vn -0.3398 0.9183 -0.2030
vn -0.3130 0.9309 0.1885
vn 0.0146 0.9392 0.3432
vn 0.3444 0.9262 0.1531
vn -0.1706 -0.9705 -0.1706
vn 0.0935 -0.9697 0.2258
vn 0.2258 -0.9697 0.0935
vn -0.2444 -0.9697 -0.0000
vn 0.2258 -0.9697 -0.0935
vn -0.0935 -0.9697 0.2258
vn 0.0000 -0.9697 -0.2444
vn -0.6211 0.5555 -0.5529
vn 0.5394 0.5541 0.6340
vn 0.8819 -0.3183 -0.3478
vn -0.6082 -0.6310 -0.4816
vn 0.4037 0.7980 -0.4473
usemtl Apricorn_LOD.020
s 1
f 1/1/1 3/2/2 4/3/3
f 6/4/4 8/5/5 5/6/6
f 10/7/7 12/8/8 9/9/9
f 14/10/10 12/8/8 13/11/11
f 3/2/2 16/12/12 4/3/3
f 7/13/13 2/14/14 1/1/1
f 18/15/15 5/6/6 17/16/16
f 15/17/17 20/18/18 14/10/10
f 21/19/19 4/3/3 16/12/12
f 14/10/10 20/18/18 23/20/20
f 25/21/21 2/14/14 26/22/22
f 3/2/2 25/21/21 27/23/23
f 28/24/24 9/9/9 24/25/25
f 11/26/26 30/27/27 12/8/8
f 31/28/28 2/14/14 6/4/4
f 18/29/15 33/30/29 31/31/28
f 1/1/1 35/32/30 7/13/13
f 8/5/5 29/33/31 11/26/26
f 12/8/8 37/34/32 13/11/11
f 39/35/33 21/19/19 38/36/34
f 37/34/32 16/37/12 13/11/11
f 4/3/3 34/38/35 1/1/1
f 40/39/36 36/40/37 35/32/30
f 43/41/38 29/33/31 42/42/39
f 43/41/38 37/34/32 30/27/27
f 39/35/33 34/38/35 22/43/40
f 38/44/34 37/34/32 44/45/41
f 45/46/42 35/32/30 34/38/35
f 36/40/37 42/42/39 29/33/31
f 44/45/41 46/47/43 47/48/44
f 42/42/39 46/47/43 43/41/38
f 39/35/33 50/49/45 45/46/42
f 41/50/46 51/51/47 52/52/48
f 45/46/42 51/51/47 40/39/36
f 41/50/46 48/53/49 42/42/39
f 38/44/34 47/48/44 53/54/50
f 54/55/51 53/54/50 47/48/44
f 39/35/33 53/56/50 49/57/52
f 52/52/48 57/58/53 48/53/49
f 55/59/54 49/57/52 53/56/50
f 54/55/51 46/47/43 59/60/55
f 60/61/56 49/57/52 58/62/57
f 61/63/58 52/52/48 51/51/47
f 61/63/58 50/49/45 60/61/56
f 57/58/53 46/47/43 48/53/49
f 19/64/59 63/65/60 64/66/61
f 62/67/62 66/68/63 63/65/60
f 66/68/63 68/69/64 69/70/65
f 28/71/24 72/72/66 70/73/67
f 73/74/68 75/75/69 76/76/70
f 78/77/71 79/78/72 77/79/73
f 64/66/61 80/80/74 81/81/75
f 32/82/76 83/83/77 33/30/29
f 84/84/78 18/29/15 17/85/16
f 85/86/79 83/83/77 86/87/80
f 85/86/79 75/75/69 74/88/81
f 73/74/68 87/89/82 79/78/72
f 82/90/83 88/91/84 89/92/85
f 89/92/85 75/75/69 86/87/80
f 89/92/85 83/83/77 82/90/83
f 89/92/85 87/89/82 76/76/70
f 31/31/28 85/86/79 90/93/86
f 91/94/87 85/86/79 74/88/81
f 78/77/71 74/88/81 73/74/68
f 84/84/78 87/89/82 88/91/84
f 25/95/21 92/96/88 93/97/89
f 92/96/88 95/98/90 96/99/91
f 77/79/73 84/84/78 17/85/16
f 64/66/61 98/100/92 97/101/93
f 99/102/94 101/103/95 67/104/96
f 101/103/95 103/105/97 104/106/98
f 66/68/63 80/80/74 63/65/60
f 99/102/94 66/68/63 65/107/99
f 101/103/95 68/69/64 67/104/96
f 97/101/93 103/105/97 102/108/100
f 68/69/64 105/109/101 69/70/65
f 81/81/75 105/109/101 98/100/92
f 105/109/101 80/80/74 69/70/65
f 105/109/101 103/105/97 98/100/92
f 106/110/102 107/111/103 108/112/104
f 64/66/61 20/113/18 19/64/59
f 20/113/18 102/108/100 23/114/20
f 78/115/71 106/110/102 109/116/105
f 84/84/78 82/90/83 32/82/76
f 24/117/25 110/118/106 111/119/107
f 112/120/108 114/121/109 115/122/110
f 91/123/87 94/124/111 90/125/86
f 116/126/112 118/127/113 119/128/114
f 92/96/88 120/129/115 93/97/89
f 93/97/89 114/121/109 113/130/116
f 116/126/112 95/98/90 94/124/111
f 112/120/108 118/127/113 117/131/117
f 95/98/90 121/132/118 96/99/91
f 121/132/118 114/121/109 120/129/115
f 96/99/91 121/132/118 120/129/115
f 121/132/118 118/127/113 115/122/110
f 26/133/22 94/124/111 92/96/88
f 25/95/21 113/130/116 27/134/23
f 27/134/23 112/120/108 62/135/62
f 62/135/62 117/131/117 65/136/119
f 65/136/119 116/126/112 91/123/87
f 11/26/26 5/6/6 8/5/5
f 111/119/107 122/137/120 123/138/121
f 111/119/107 124/139/122 71/140/123
f 106/110/102 125/141/124 109/116/105
f 70/73/67 106/110/102 77/142/73
f 126/143/125 125/141/124 127/144/126
f 126/143/125 122/137/120 110/118/106
f 71/140/123 107/111/103 72/72/66
f 107/111/103 128/145/127 108/112/104
f 128/145/127 122/137/120 127/144/126
f 128/145/127 125/141/124 108/112/104
f 123/138/121 128/145/127 124/139/122
f 99/146/94 109/116/105 126/143/125
f 99/146/94 110/118/106 100/147/128
f 28/71/24 111/119/107 71/140/123
f 62/148/129 65/149/119 91/150/87
f 62/151/129 99/152/94 65/153/99
f 62/154/129 91/155/87 78/156/71
f 62/157/129 78/158/71 99/159/94
f 27/23/23 62/160/62 19/161/59
f 31/28/28 90/162/86 26/22/22
f 23/20/20 100/163/128 24/25/25
f 70/164/67 77/165/73 17/16/16
f 130/166/130 132/167/131 129/168/132
f 133/169/133 135/170/134 136/171/135
f 138/172/136 140/173/137 137/174/138
f 135/170/134 142/175/139 136/171/135
f 139/176/140 144/177/141 140/173/137
f 141/178/142 146/179/143 142/175/139
f 143/180/144 129/168/132 144/177/141
f 145/181/145 148/182/146 146/179/143
f 132/167/131 149/183/147 150/184/148
f 148/182/146 151/185/149 152/186/150
f 150/184/148 153/187/151 154/188/152
f 152/186/150 155/189/153 156/190/154
f 154/191/152 157/192/155 158/193/156
f 155/194/153 160/195/157 156/196/154
f 158/193/156 134/197/158 133/169/133
f 159/198/159 137/174/138 160/195/157
f 147/199/160 162/200/161 151/185/149
f 163/201/162 153/187/151 149/183/147
f 162/200/161 155/189/153 151/185/149
f 164/202/163 157/192/155 153/203/151
f 155/194/153 167/204/164 159/198/159
f 157/192/155 168/205/165 134/197/158
f 167/204/164 138/172/136 159/198/159
f 134/197/158 170/206/166 135/170/134
f 138/172/136 171/207/167 139/176/140
f 170/206/166 141/178/142 135/170/134
f 139/176/140 173/208/168 143/180/144
f 141/178/142 174/209/169 145/181/145
f 130/166/130 176/210/170 131/211/171
f 173/208/168 130/166/130 143/180/144
f 174/209/169 147/199/160 145/181/145
f 176/210/170 149/183/147 131/211/171
f 178/212/172 180/213/173 177/214/174
f 181/215/175 183/216/176 184/217/177
f 186/218/178 178/212/172 185/219/179
f 189/220/180 191/221/181 188/222/182
f 192/223/183 194/224/184 195/225/185
f 183/216/176 197/226/186 177/214/174
f 199/227/187 200/228/188 198/229/189
f 201/230/190 198/229/189 202/231/191
f 204/232/192 205/233/193 203/234/194
f 206/235/195 199/227/187 207/236/196
f 193/237/197 197/226/186 208/238/198
f 210/239/199 212/240/200 209/241/201
f 193/237/197 213/242/202 194/224/184
f 183/216/176 214/243/203 196/244/204
f 205/233/193 190/245/205 215/246/206
f 214/243/203 204/232/192 216/247/207
f 201/230/190 207/236/196 199/227/187
f 211/248/208 218/249/209 219/250/210
f 183/216/176 180/213/173 184/217/177
f 204/232/192 221/251/211 216/247/207
f 222/252/212 204/232/192 203/234/194
f 190/245/205 206/235/195 215/246/206
f 178/212/172 223/253/213 185/219/179
f 223/253/213 193/237/197 192/223/183
f 178/212/172 224/254/214 179/255/215
f 224/254/214 226/256/216 225/257/217
f 226/256/216 227/258/218 228/259/219
f 226/256/216 200/228/188 189/220/180
f 210/239/199 186/218/178 218/249/209
f 226/256/216 188/222/182 225/257/217
f 190/245/205 181/215/175 191/221/181
f 230/260/220 232/261/221 229/262/222
f 233/263/223 235/264/224 236/265/225
f 237/266/226 238/267/227 239/268/228
f 241/269/229 243/270/230 240/271/231
f 244/272/232 237/266/226 239/273/228
f 246/274/233 248/275/234 245/276/235
f 231/277/236 234/278/237 232/261/221
f 246/274/233 235/264/224 247/279/238
f 250/280/239 234/278/237 233/263/223
f 251/281/240 252/282/241 239/283/228
f 253/284/242 254/285/243 239/286/228
f 252/282/241 253/284/242 239/287/228
f 250/280/239 229/262/222 232/261/221
f 256/288/244 254/289/243 253/290/242
f 257/291/245 258/292/246 243/270/230
f 247/279/238 260/293/247 248/275/234
f 238/294/227 261/295/248 262/296/249
f 231/277/236 252/297/241 251/298/240
f 235/264/224 249/299/250 261/295/248
f 263/300/251 229/262/222 255/301/252
f 264/302/253 254/289/243 257/291/245
f 263/303/251 243/270/230 258/292/246
f 262/304/249 265/305/254 239/306/228
f 245/276/235 242/307/255 241/269/229
f 260/293/247 244/308/232 264/302/253
f 230/260/220 253/309/242 252/297/241
f 242/307/255 257/291/245 243/270/230
f 264/302/253 248/275/234 260/293/247
f 261/295/248 247/279/238 235/264/224
f 260/293/247 238/294/227 237/310/226
f 258/311/246 230/260/220 229/262/222
f 238/267/227 262/304/249 239/312/228
f 251/298/240 249/299/250 231/277/236
f 239/313/228 254/285/243 244/272/232
f 239/314/228 265/305/254 251/281/240
f 265/315/254 261/295/248 249/299/250
f 266/316/256 267/317/257 268/318/258
f 269/319/259 266/316/256 268/320/258
f 270/321/260 271/322/261 268/323/258
f 271/322/261 272/324/262 268/325/258
f 267/317/257 270/321/260 268/326/258
f 272/324/262 269/319/259 268/327/258
f 273/328/256 274/329/257 275/330/258
f 276/331/263 273/328/256 275/332/258
f 277/333/260 278/334/261 275/335/258
f 278/334/261 279/336/262 275/337/258
f 274/329/257 277/333/260 275/338/258
f 279/336/262 276/331/263 275/339/258
f 15/17/17 13/11/11 16/37/12
f 23/114/20 101/103/95 100/340/128
f 10/7/7 28/24/24 70/164/67
f 7/13/13 36/40/37 8/5/5
f 227/258/218 210/239/199 209/241/201
f 1/1/1 2/14/14 3/2/2
f 6/4/4 7/13/13 8/5/5
f 10/7/7 11/26/26 12/8/8
f 14/10/10 9/9/9 12/8/8
f 3/2/2 15/341/17 16/12/12
f 7/13/13 6/4/4 2/14/14
f 18/15/15 6/4/4 5/6/6
f 15/17/17 19/342/59 20/18/18
f 21/19/19 22/43/40 4/3/3
f 23/20/20 24/25/25 9/9/9
f 9/9/9 14/10/10 23/20/20
f 25/21/21 3/2/2 2/14/14
f 27/23/23 19/161/59 15/341/17
f 15/341/17 3/2/2 27/23/23
f 28/24/24 10/7/7 9/9/9
f 11/26/26 29/33/31 30/27/27
f 6/4/4 18/15/15 31/28/28
f 31/28/28 26/22/22 2/14/14
f 18/29/15 32/82/76 33/30/29
f 1/1/1 34/38/35 35/32/30
f 8/5/5 36/40/37 29/33/31
f 12/8/8 30/27/27 37/34/32
f 39/35/33 22/43/40 21/19/19
f 37/34/32 21/343/19 16/37/12
f 4/3/3 22/43/40 34/38/35
f 40/39/36 41/50/46 36/40/37
f 43/41/38 30/27/27 29/33/31
f 43/41/38 44/45/41 37/34/32
f 39/35/33 45/46/42 34/38/35
f 38/44/34 21/343/19 37/34/32
f 45/46/42 40/39/36 35/32/30
f 36/40/37 41/50/46 42/42/39
f 44/45/41 43/41/38 46/47/43
f 42/42/39 48/53/49 46/47/43
f 39/35/33 49/57/52 50/49/45
f 41/50/46 40/39/36 51/51/47
f 45/46/42 50/49/45 51/51/47
f 41/50/46 52/52/48 48/53/49
f 38/44/34 44/45/41 47/48/44
f 54/55/51 55/344/54 53/54/50
f 39/35/33 38/36/34 53/56/50
f 52/52/48 56/345/264 57/58/53
f 55/59/54 58/62/57 49/57/52
f 54/55/51 47/48/44 46/47/43
f 60/61/56 50/49/45 49/57/52
f 61/63/58 56/345/264 52/52/48
f 61/63/58 51/51/47 50/49/45
f 57/58/53 59/60/55 46/47/43
f 19/64/59 62/67/62 63/65/60
f 62/67/62 65/107/99 66/68/63
f 66/68/63 67/104/96 68/69/64
f 28/71/24 71/140/123 72/72/66
f 73/74/68 74/88/81 75/75/69
f 78/77/71 73/74/68 79/78/72
f 64/66/61 63/65/60 80/80/74
f 32/82/76 82/90/83 83/83/77
f 84/84/78 32/82/76 18/29/15
f 85/86/79 33/30/29 83/83/77
f 85/86/79 86/87/80 75/75/69
f 73/74/68 76/76/70 87/89/82
f 89/92/85 76/76/70 75/75/69
f 89/92/85 86/87/80 83/83/77
f 89/92/85 88/91/84 87/89/82
f 31/31/28 33/30/29 85/86/79
f 91/94/87 90/93/86 85/86/79
f 78/77/71 91/94/87 74/88/81
f 84/84/78 79/78/72 87/89/82
f 25/95/21 26/133/22 92/96/88
f 92/96/88 94/124/111 95/98/90
f 77/79/73 79/78/72 84/84/78
f 64/66/61 81/81/75 98/100/92
f 99/102/94 100/340/128 101/103/95
f 101/103/95 102/108/100 103/105/97
f 66/68/63 69/70/65 80/80/74
f 99/102/94 67/104/96 66/68/63
f 101/103/95 104/106/98 68/69/64
f 97/101/93 98/100/92 103/105/97
f 68/69/64 104/106/98 105/109/101
f 105/109/101 81/81/75 80/80/74
f 105/109/101 104/106/98 103/105/97
f 106/110/102 72/72/66 107/111/103
f 64/66/61 97/101/93 20/113/18
f 20/113/18 97/101/93 102/108/100
f 78/115/71 77/142/73 106/110/102
f 84/84/78 88/91/84 82/90/83
f 24/117/25 100/147/128 110/118/106
f 112/120/108 113/130/116 114/121/109
f 91/123/87 116/126/112 94/124/111
f 116/126/112 117/131/117 118/127/113
f 92/96/88 96/99/91 120/129/115
f 93/97/89 120/129/115 114/121/109
f 116/126/112 119/128/114 95/98/90
f 112/120/108 115/122/110 118/127/113
f 95/98/90 119/128/114 121/132/118
f 121/132/118 115/122/110 114/121/109
f 121/132/118 119/128/114 118/127/113
f 26/133/22 90/125/86 94/124/111
f 25/95/21 93/97/89 113/130/116
f 27/134/23 113/130/116 112/120/108
f 62/135/62 112/120/108 117/131/117
f 65/136/119 117/131/117 116/126/112
f 11/26/26 10/7/7 5/6/6
f 111/119/107 110/118/106 122/137/120
f 111/119/107 123/138/121 124/139/122
f 106/110/102 108/112/104 125/141/124
f 70/73/67 72/72/66 106/110/102
f 126/143/125 109/116/105 125/141/124
f 126/143/125 127/144/126 122/137/120
f 71/140/123 124/139/122 107/111/103
f 107/111/103 124/139/122 128/145/127
f 128/145/127 123/138/121 122/137/120
f 128/145/127 127/144/126 125/141/124
f 99/146/94 78/115/71 109/116/105
f 99/146/94 126/143/125 110/118/106
f 28/71/24 24/117/25 111/119/107
f 130/166/130 131/211/171 132/167/131
f 133/169/133 134/197/158 135/170/134
f 138/172/136 139/176/140 140/173/137
f 135/170/134 141/178/142 142/175/139
f 139/176/140 143/180/144 144/177/141
f 141/178/142 145/181/145 146/179/143
f 143/180/144 130/166/130 129/168/132
f 145/181/145 147/199/160 148/182/146
f 132/167/131 131/211/171 149/183/147
f 148/182/146 147/199/160 151/185/149
f 150/184/148 149/183/147 153/187/151
f 152/186/150 151/185/149 155/189/153
f 154/191/152 153/203/151 157/192/155
f 155/194/153 159/198/159 160/195/157
f 158/193/156 157/192/155 134/197/158
f 159/198/159 138/172/136 137/174/138
f 147/199/160 161/346/265 162/200/161
f 163/201/162 164/347/163 153/187/151
f 162/200/161 165/348/266 155/189/153
f 164/202/163 166/349/267 157/192/155
f 155/194/153 165/350/266 167/204/164
f 157/192/155 166/349/267 168/205/165
f 167/204/164 169/351/268 138/172/136
f 134/197/158 168/205/165 170/206/166
f 138/172/136 169/351/268 171/207/167
f 170/206/166 172/352/269 141/178/142
f 139/176/140 171/207/167 173/208/168
f 141/178/142 172/352/269 174/209/169
f 130/166/130 175/353/270 176/210/170
f 173/208/168 175/353/270 130/166/130
f 174/209/169 161/346/265 147/199/160
f 176/210/170 163/201/162 149/183/147
f 178/212/172 179/255/215 180/213/173
f 181/215/175 182/354/271 183/216/176
f 186/218/178 187/355/272 178/212/172
f 189/220/180 190/245/205 191/221/181
f 192/223/183 193/237/197 194/224/184
f 183/216/176 196/244/204 197/226/186
f 199/227/187 189/220/180 200/228/188
f 201/230/190 199/227/187 198/229/189
f 204/232/192 182/354/271 205/233/193
f 206/235/195 189/220/180 199/227/187
f 193/237/197 177/214/174 197/226/186
f 210/239/199 211/248/208 212/240/200
f 193/237/197 208/238/198 213/242/202
f 183/216/176 182/354/271 214/243/203
f 205/233/193 182/354/271 190/245/205
f 214/243/203 182/354/271 204/232/192
f 201/230/190 217/356/273 207/236/196
f 211/248/208 210/239/199 218/249/209
f 183/216/176 177/214/174 180/213/173
f 204/232/192 220/357/274 221/251/211
f 222/252/212 220/357/274 204/232/192
f 190/245/205 189/220/180 206/235/195
f 178/212/172 177/214/174 223/253/213
f 223/253/213 177/214/174 193/237/197
f 178/212/172 187/355/272 224/254/214
f 224/254/214 187/355/272 226/256/216
f 226/256/216 187/355/272 227/258/218
f 226/256/216 228/259/219 200/228/188
f 210/239/199 187/355/272 186/218/178
f 226/256/216 189/220/180 188/222/182
f 190/245/205 182/354/271 181/215/175
f 230/260/220 231/277/236 232/261/221
f 233/263/223 234/278/237 235/264/224
f 241/269/229 242/307/255 243/270/230
f 246/274/233 247/279/238 248/275/234
f 231/277/236 249/299/250 234/278/237
f 246/274/233 236/265/225 235/264/224
f 250/280/239 232/261/221 234/278/237
f 250/280/239 255/301/252 229/262/222
f 256/288/244 257/291/245 254/289/243
f 257/291/245 256/288/244 258/292/246
f 247/279/238 259/358/275 260/293/247
f 238/294/227 259/358/275 261/295/248
f 231/277/236 230/260/220 252/297/241
f 235/264/224 234/278/237 249/299/250
f 263/300/251 258/311/246 229/262/222
f 264/302/253 244/308/232 254/289/243
f 263/303/251 240/271/231 243/270/230
f 245/276/235 248/275/234 242/307/255
f 260/293/247 237/310/226 244/308/232
f 230/260/220 256/359/244 253/309/242
f 242/307/255 264/302/253 257/291/245
f 264/302/253 242/307/255 248/275/234
f 261/295/248 259/358/275 247/279/238
f 260/293/247 259/358/275 238/294/227
f 258/311/246 256/359/244 230/260/220
f 251/298/240 265/315/254 249/299/250
f 265/315/254 262/296/249 261/295/248
f 15/17/17 14/10/10 13/11/11
f 23/114/20 102/108/100 101/103/95
f 70/164/67 17/16/16 5/6/6
f 5/6/6 10/7/7 70/164/67
f 7/13/13 35/32/30 36/40/37
f 227/258/218 187/355/272 210/239/199
l 239 280
