{
  "towns": [
    {
      "id": "towncenter1",
      "filename": "poke_center.schem",
      "weighting": 10,
      "depth": 2,
      "maxnum": 1,
      "npcs": [
        {
          "type": "NurseJoy",
          "x": 10,
          "y": 3,
          "z": 9
        }
      ]
    },
    {
      "id": "townmart1",
      "filename": "poke_mart.schem",
      "weighting": 10,
      "maxnum": 1,
      "depth": 2,
      "npcs": [
        {
          "type": "Shopkeeper",
          "data": "Main",
          "x": 6,
          "y": 3,
          "z": 2
        },
        {
          "type": "Shopkeeper",
          "data": "Secondary",
          "x": 8,
          "y": 3,
          "z": 2
        }
      ]
    },
    {
      "id": "pokestop",
      "filename": "pokestop.schem",
      "weighting": 10,
      "depth": 0,
      "maxnum": 1
    }
  ],
  "gyms": [
    {
      "id": "electricgym",
      "filename": "electricgym.schem",
      "npcdata": "electricgym.json",
      "depth": 2
    },
    {
      "id": "firegym",
      "filename": "firegym.schem",
      "npcdata": "firegym.json",
      "depth": 7
    },
    {
      "id": "flyinggym",
      "filename": "flyinggym.schem",
      "npcdata": "flyinggym.json",
      "depth": 2
    },
    {
      "id": "grassgym",
      "filename": "grassgym.schem",
      "npcdata": "grassgym.json",
      "depth": 8
    },
    {
      "id": "grassbuggym",
      "filename": "grassbuggym.schem",
      "npcdata": "grassbuggym.json",
      "depth": 2
    },
    {
      "id": "groundgym",
      "filename": "groundgym.schem",
      "npcdata": "groundgym.json",
      "depth": 2
    },
    {
      "id": "icegym",
      "filename": "icegym.schem",
      "npcdata": "icegym.json",
      "depth": 3
    },
    {
      "id": "psychicgym",
      "filename": "psychicgym.schem",
      "npcdata": "psychicgym.json",
      "depth": 2
    },
    {
      "id": "rockgym",
      "filename": "rockgym.schem",
      "npcdata": "rockgym.json",
      "depth": 2
    },
    {
      "id": "steelgym",
      "filename": "steelgym.schem",
      "npcdata": "steelgym.json",
      "depth": 2
    },
    {
      "id": "watergym",
      "filename": "watergym.schem",
      "npcdata": "watergym.json",
      "depth": 3
    }
  ],
  "standalone":[
    {
      "id": "poke_mart",
      "filename": "poke_mart.schem",
      "biomes": [ "plains", "savannas", "all forests" ],
      "rarity": 10,
      "depth": 3,
      "npcs": [
        {
          "type": "Shopkeeper",
          "data": "Main",
          "x": 6,
          "y": 3,
          "z": 2
        },
        {
          "type": "Shopkeeper",
          "data": "Secondary",
          "x": 8,
          "y": 3,
          "z": 2
        }
      ]
    },
    {
      "id": "poke_center",
      "filename": "poke_center.schem",
      "biomes": [ "plains", "savannas", "all forests" ],
      "rarity": 10,
      "depth": 3,
      "npcs": [
        {
          "type": "NurseJoy",
          "x": 10,
          "y": 3,
          "z": 9
        }
      ]
    },
    {
      "id": "tapu_shrine",
      "filename": "tapu_shrine.schem",
      "biomes": [ "jungles", "flowery", "mystical", "hills", "plains", "savannas", "all forests" ],
      "rarity": 10,
      "depth": 3
    },
    {
      "id": "ice_shrine",
      "filename": "articuno_tower.schem",
      "biomes": [ "cold" ],
      "rarity": 10,
      "depth": 1
    },
    {
      "id": "lightning_shrine",
      "filename": "zapdos_tower.schem",
      "biomes": [ "savannas", "dry", "dead", "mystical", "hills" ],
      "rarity": 10,
      "depth": 1
    },
    {
      "id": "fire_shrine",
      "filename": "moltres_tower.schem",
      "biomes": [ "dry" ],
      "rarity": 10,
      "depth": 1
    },
    {
      "id": "hauntedtower",
      "filename": "hauntedtower.schem",
      "biomes": [ "dead", "mystical", "hills" ],
      "rarity": 10,
      "depth": 2
    },
    {
      "id": "kyogre_shrine",
      "filename": "kyogre_shrine.schem",
      "biomes": [ "minecraft:deep_ocean", "deep_ocean" ],
      "rarity": 1,
      "depth": 1,
      "underwater": true
    },
    {
      "id": "groudon_shrine",
      "filename": "groudon_shrine.schem",
      "biomes": [ "dry" ],
      "rarity": 10,
      "depth": 2
    },
    {
      "id": "fungus",
      "filename": "fungus.schem",
      "biomes": [ "mystical", "flowery", "jungles", "dead", "hills" ],
      "rarity": 10,
      "depth": 1
    },
    {
      "id": "desert",
      "filename": "desert.schem",
      "biomes": [ "dry" ],
      "rarity": 10,
      "depth": 2
    },
    {
      "id": "sand_fort",
      "filename": "sand_fort.schem",
      "biomes": [ "beaches" ],
      "rarity": 10,
      "depth": 2
    },
    {
      "id": "swamp_tree",
      "filename": "swamp_tree.schem",
      "biomes": [ "swamps", "dead", "mystical", "hills", "plains", "savannas", "all forests" ],
      "rarity": 10,
      "depth": 3
    },
    {
      "id": "sky_tower",
      "filename": "sky_tower.schem",
      "biomes": [ "flowery", "dead", "mystical", "hills", "plains", "savannas", "all forests" ],
      "rarity": 10,
      "depth": 1
    },
    {
      "id": "junglepass",
      "filename": "junglepass.schem",
      "biomes": [ "jungles", "dead", "mystical", "hills", "plains", "savannas", "all forests" ],
      "rarity": 10,
      "depth": 2
    },
    {
      "id": "templetrap",
      "filename": "templetrap.schem",
      "biomes": [ "mystical", "forests", "dead", "hills", "plains", "savannas", "all forests" ],
      "rarity": 10,
      "depth": 2
    },
    {
      "id": "abundant_garden",
      "filename": "abundant_garden.schem",
      "biomes": [ "flowery", "plains", "savannas", "all forests" ],
      "rarity": 10,
      "depth": 2
    },
    {
      "id": "dragonspiral_tower",
      "filename": "dragonspiral_tower.schem",
      "biomes": [ "hills", "mountainous", "dead", "dry", "plains", "savannas", "all forests" ],
      "rarity": 10,
      "depth": 6
    },
    {
      "id": "haunted_mansion",
      "filename": "haunted_mansion.schem",
      "biomes": [ "dead", "mystical", "taigas", "dry", "plains", "savannas", "all forests" ],
      "rarity": 10,
      "depth": 2
    },
    {
      "id": "regice_shrine",
      "filename": "regice_shrine.schem",
      "biomes": [ "cold", "cold mountains", "cold forests" ],
      "rarity": 10,
      "depth": 2
    },
    {
      "id": "registeel_shrine",
      "filename": "registeel_shrine.schem",
      "biomes": [ "mountainous", "hills", "mesas", "plains", "savannas", "all forests" ],
      "rarity": 10,
      "depth": 2
    },
    {
      "id": "regirock_shrine",
      "filename": "regirock_shrine.schem",
      "biomes": [ "dry", "mesas", "plains", "savannas", "all forests" ],
      "rarity": 10,
      "depth": 2
    },
    {
      "id": "regidrago_shrine",
      "filename": "regidrago_shrine.schem",
      "biomes": [ "dry", "mesas", "plains", "savannas", "all forests" ],
      "rarity": 10,
      "depth": 2
    },
    {
      "id": "regieleki_shrine",
      "filename": "regieleki_shrine.schem",
      "biomes": [ "dry", "mesas", "plains", "savannas", "all forests" ],
      "rarity": 10,
      "depth": 2
    },
    {
      "id": "brass_tower",
      "filename": "brass_tower.schem",
      "biomes": [ "plains", "savannas" ],
      "rarity": 10,
      "depth": 15
    },
    {
      "id": "lugia_shrine",
      "filename": "lugia_shrine.schem",
      "biomes": [ "cold", "cold mountains", "cold forests" ],
      "rarity": 10,
      "depth": 1
    },
	{
	  "id": "spearpillar",
	  "filename": "spearpillar.schem",
      "biomes": [ "dead", "mystical", "hills", "cold mountains", "mountainous forests", "mountainous", "dry", "plains", "savannas", "all forests" ],
	  "rarity": 10,
	  "depth": 1
	},
    {
      "id": "celestialshrine",
      "filename": "celestialshrine.schem",
      "biomes": [ "dead", "mystical", "hills", "mountainous", "redwoods", "cold forests", "dry", "plains", "savannas", "all forests" ],
      "rarity": 10,
      "depth": 1
    },
	{
      "id": "crystal1",
      "filename": "cry1.schem",
      "biomes": [ "ultradesert", "pixelmon:ultradesert" ],
      "rarity": 20,
      "depth": 2
    },
	{
      "id": "crystal2",
      "filename": "cry2.schem",
      "biomes": [ "ultradesert", "pixelmon:ultradesert" ],
      "rarity": 20,
      "depth": 2
    },
	{
      "id": "crystaltower",
      "filename": "crystaltower.schem",
      "biomes": [ "ultradesert", "pixelmon:ultradesert" ],
      "rarity": 20,
      "depth": 2
    },
	{
      "id": "bigcry",
      "filename": "bigcry.schem",
      "biomes": [ "ultradesert", "pixelmon:ultradesert" ],
      "rarity": 20,
      "depth": 2
    },
	{
      "id": "ultraruins",
      "filename": "ultraruins.schem",
      "biomes": [ "ultraruin", "pixelmon:ultraruin" ],
      "rarity": 20,
      "depth": 2
    },
	{
      "id": "ruinsspike",
      "filename": "ruinsspike.schem",
      "biomes": [ "ultraruin", "pixelmon:ultraruin" ],
      "rarity": 20,
      "depth": 2
    },
	{
      "id": "electrictower",
      "filename": "electrictower.schem",
      "biomes": [ "ultraplant", "pixelmon:ultraplant" ],
      "rarity": 20,
      "depth": 2
    },
	{
      "id": "purpletree",
      "filename": "purpletree.schem",
      "biomes": [ "ultraforest", "pixelmon:ultraforest" ],
      "rarity": 20,
      "depth": 2
    },
	{
      "id": "ultrahauntedtower",
      "filename": "ultrahauntedtower.schem",
      "biomes": [ "ultraswamp", "pixelmon:ultraswamp" ],
      "rarity": 20,
      "depth": 2
    },
	{
      "id": "sea1",
      "filename": "sea1.schem",
      "biomes": [ "ultradeepsea", "pixelmon:ultradeepsea" ],
      "rarity": 20,
      "depth": 1,
      "underwater": true
    },
	{
      "id": "sea2",
      "filename": "sea2.schem",
      "biomes": [ "ultradeepsea", "pixelmon:ultradeepsea" ],
      "rarity": 20,
      "depth": 1,
      "underwater": true
    },
	{
      "id": "sea3",
      "filename": "sea3.schem",
      "biomes": [ "ultradeepsea", "pixelmon:ultradeepsea" ],
      "rarity": 20,
      "depth": 1,
      "underwater": true
    }
  ]
}