{
  "zAttackBase": {
    "Fairy": {
      "zeffect": {
        "type": "RaiseStats",
        "stats": [
          "Defence"
        ],
        "value": [
          1
        ]
      },
      "attackIndex": 0,
      "attackName": "Z-Baby-Doll Eyes",
      "attackType": "Fairy",
      "attackCategory": 2,
      "basePower": 0,
      "ppBase": 0,
      "ppMax": 0,
      "accuracy": 100,
      "makesContact": false,
      "effects": [
        {
          "effectID": "Priority",
          "priority": 1,
          "modifiers": [],
          "persists": false
        },
        {
          "effectID": "StatsEffect",
          "type": "Attack",
          "isUser": false,
          "value": -1,
          "modifiers": [],
          "persists": false
        }
      ],
      "animations": [
        {
          "type": "LeapForward"
        }
      ],
      "targetingInfo": {
        "hitsAll": false,
        "hitsOppositeFoe": true,
        "hitsAdjacentFoe": true,
        "hitsExtendedFoe": false,
        "hitsSelf": false,
        "hitsAdjacentAlly": true,
        "hitsExtendedAlly": false
      },
      "tmIndex": -1,
      "trIndex": -1
    }
  },
  "attackIndex": 561,
  "attackName": "Baby-Doll Eyes",
  "attackType": "Fairy",
  "attackCategory": 2,
  "basePower": 0,
  "ppBase": 30,
  "ppMax": 48,
  "accuracy": 100,
  "makesContact": false,
  "effects": [
    {
      "effectID": "Priority",
      "priority": 1,
      "modifiers": [],
      "persists": false
    },
    {
      "effectID": "StatsEffect",
      "type": "Attack",
      "isUser": false,
      "value": -1,
      "modifiers": [],
      "persists": false
    }
  ],
  "animations": [
    {
      "type": "LeapForward"
    }
  ],
  "targetingInfo": {
    "hitsAll": false,
    "hitsOppositeFoe": true,
    "hitsAdjacentFoe": true,
    "hitsExtendedFoe": false,
    "hitsSelf": false,
    "hitsAdjacentAlly": true,
    "hitsExtendedAlly": false
  },
  "tutorType": "None",
  "tmIndex": -1,
  "trIndex": -1
}