{
  "zAttackBase": {
    "Ice": {
      "attackIndex": 0,
      "attackName": "Subzero Slammer",
      "attackType": "Ice",
      "attackCategory": 1,
      "basePower": 185,
      "ppBase": 0,
      "ppMax": 0,
      "accuracy": -1,
      "makesContact": false,
      "effects": [],
      "animations": [],
      "targetingInfo": {
        "hitsAll": false,
        "hitsOppositeFoe": true,
        "hitsAdjacentFoe": true,
        "hitsExtendedFoe": false,
        "hitsSelf": false,
        "hitsAdjacentAlly": true,
        "hitsExtendedAlly": false
      },
      "tmIndex": -1,
      "trIndex": -1
    }
  },
  "attackIndex": 106,
  "attackName": "Blizzard",
  "attackType": "Ice",
  "attackCategory": 1,
  "basePower": 110,
  "ppBase": 5,
  "ppMax": 8,
  "accuracy": 70,
  "makesContact": false,
  "effects": [
    {
      "effectID": "Freeze",
      "modifiers": [
        {
          "type": "ChanceModifier",
          "multiplier": 1,
          "value": 10.0
        }
      ],
      "persists": false
    },
    {
      "effectID": "AlwaysHit",
      "modifiers": [],
      "persists": false
    }
  ],
  "animations": [
    {
      "type": "LeapForward"
    }
  ],
  "targetingInfo": {
    "hitsAll": true,
    "hitsOppositeFoe": true,
    "hitsAdjacentFoe": true,
    "hitsExtendedFoe": false,
    "hitsSelf": false,
    "hitsAdjacentAlly": false,
    "hitsExtendedAlly": false
  },
  "tutorType": "None",
  "tmIndex": -1,
  "trIndex": 6
}