{
  "zAttackBase": {
    "Normal": {
      "attackIndex": 0,
      "attackName": "Breakneck Blitz",
      "attackType": "Normal",
      "attackCategory": 0,
      "basePower": 160,
      "ppBase": 0,
      "ppMax": 0,
      "accuracy": -1,
      "makesContact": false,
      "effects": [],
      "animations": [],
      "targetingInfo": {
        "hitsAll": false,
        "hitsOppositeFoe": true,
        "hitsAdjacentFoe": true,
        "hitsExtendedFoe": false,
        "hitsSelf": false,
        "hitsAdjacentAlly": true,
        "hitsExtendedAlly": false
      },
      "tmIndex": -1,
      "trIndex": -1
    }
  },
  "attackIndex": 88,
  "attackName": "Body Slam",
  "attackType": "Normal",
  "attackCategory": 0,
  "basePower": 85,
  "ppBase": 15,
  "ppMax": 24,
  "accuracy": 100,
  "makesContact": true,
  "effects": [
    {
      "effectID": "Paralysis",
      "modifiers": [
        {
          "type": "ChanceModifier",
          "multiplier": 1,
          "value": 30.0
        }
      ],
      "persists": false
    }
  ],
  "animations": [
    {
      "type": "LeapForward"
    }
  ],
  "targetingInfo": {
    "hitsAll": false,
    "hitsOppositeFoe": true,
    "hitsAdjacentFoe": true,
    "hitsExtendedFoe": false,
    "hitsSelf": false,
    "hitsAdjacentAlly": true,
    "hitsExtendedAlly": false
  },
  "tutorType": "None",
  "tmIndex": -1,
  "trIndex": 1
}