{
  "zAttackBase": {
    "Psychic": {
      "zeffect": {
        "type": "RaiseStats",
        "stats": [
          "SpecialDefence"
        ],
        "value": [
          1
        ]
      },
      "attackIndex": 0,
      "attackName": "Z-Cosmic Power",
      "attackType": "Psychic",
      "attackCategory": 2,
      "basePower": 0,
      "ppBase": 0,
      "ppMax": 0,
      "accuracy": -1,
      "makesContact": false,
      "effects": [
        {
          "effectID": "StatsEffect",
          "type": "Defence",
          "isUser": true,
          "value": 1,
          "modifiers": [],
          "persists": false
        },
        {
          "effectID": "StatsEffect",
          "type": "SpecialDefence",
          "isUser": true,
          "value": 1,
          "modifiers": [],
          "persists": false
        }
      ],
      "animations": [
        {
          "type": "LeapForward"
        }
      ],
      "targetingInfo": {
        "hitsAll": false,
        "hitsOppositeFoe": false,
        "hitsAdjacentFoe": false,
        "hitsExtendedFoe": false,
        "hitsSelf": true,
        "hitsAdjacentAlly": false,
        "hitsExtendedAlly": false
      },
      "tmIndex": -1,
      "trIndex": -1
    }
  },
  "attackIndex": 379,
  "attackName": "Cosmic Power",
  "attackType": "Psychic",
  "attackCategory": 2,
  "basePower": 0,
  "ppBase": 20,
  "ppMax": 32,
  "accuracy": -1,
  "makesContact": false,
  "effects": [
    {
      "effectID": "StatsEffect",
      "type": "Defence",
      "isUser": true,
      "value": 1,
      "modifiers": [],
      "persists": false
    },
    {
      "effectID": "StatsEffect",
      "type": "SpecialDefence",
      "isUser": true,
      "value": 1,
      "modifiers": [],
      "persists": false
    }
  ],
  "animations": [
    {
      "type": "LeapForward"
    }
  ],
  "targetingInfo": {
    "hitsAll": false,
    "hitsOppositeFoe": false,
    "hitsAdjacentFoe": false,
    "hitsExtendedFoe": false,
    "hitsSelf": true,
    "hitsAdjacentAlly": false,
    "hitsExtendedAlly": false
  },
  "tutorType": "None",
  "tmIndex": -1,
  "trIndex": 44
}