{
  "zAttackBase": {
    "Poison": {
      "attackIndex": 0,
      "attackName": "Acid Downpour",
      "attackType": "Poison",
      "attackCategory": 0,
      "basePower": 140,
      "ppBase": 0,
      "ppMax": 0,
      "accuracy": -1,
      "makesContact": false,
      "effects": [],
      "animations": [],
      "targetingInfo": {
        "hitsAll": false,
        "hitsOppositeFoe": true,
        "hitsAdjacentFoe": true,
        "hitsExtendedFoe": false,
        "hitsSelf": false,
        "hitsAdjacentAlly": true,
        "hitsExtendedAlly": false
      },
      "tmIndex": -1,
      "trIndex": -1
    }
  },
  "attackIndex": 462,
  "attackName": "Cross Poison",
  "attackType": "Poison",
  "attackCategory": 0,
  "basePower": 70,
  "ppBase": 20,
  "ppMax": 32,
  "accuracy": 100,
  "makesContact": true,
  "effects": [
    {
      "effectID": "CriticalHit",
      "stage": 1,
      "modifiers": [],
      "persists": false
    },
    {
      "effectID": "Poison",
      "modifiers": [
        {
          "type": "ChanceModifier",
          "multiplier": 1,
          "value": 10.0
        }
      ],
      "persists": false
    }
  ],
  "animations": [
    {
      "type": "LeapForward"
    }
  ],
  "targetingInfo": {
    "hitsAll": false,
    "hitsOppositeFoe": true,
    "hitsAdjacentFoe": true,
    "hitsExtendedFoe": false,
    "hitsSelf": false,
    "hitsAdjacentAlly": true,
    "hitsExtendedAlly": false
  },
  "tutorType": "None",
  "tmIndex": 73,
  "trIndex": -1
}