{
  "zAttackBase": {
    "Fairy": {
      "attackIndex": 0,
      "attackName": "Twinkle Tackle",
      "attackType": "Fairy",
      "attackCategory": 1,
      "basePower": 100,
      "ppBase": 0,
      "ppMax": 0,
      "accuracy": -1,
      "makesContact": false,
      "effects": [],
      "animations": [],
      "targetingInfo": {
        "hitsAll": false,
        "hitsOppositeFoe": true,
        "hitsAdjacentFoe": true,
        "hitsExtendedFoe": false,
        "hitsSelf": false,
        "hitsAdjacentAlly": true,
        "hitsExtendedAlly": false
      },
      "tmIndex": -1,
      "trIndex": -1
    }
  },
  "attackIndex": 576,
  "attackName": "Fairy Wind",
  "attackType": "Fairy",
  "attackCategory": 1,
  "basePower": 40,
  "ppBase": 30,
  "ppMax": 48,
  "accuracy": 100,
  "makesContact": false,
  "effects": [],
  "animations": [
    {
      "type": "LeapForward"
    }
  ],
  "targetingInfo": {
    "hitsAll": false,
    "hitsOppositeFoe": true,
    "hitsAdjacentFoe": true,
    "hitsExtendedFoe": false,
    "hitsSelf": false,
    "hitsAdjacentAlly": true,
    "hitsExtendedAlly": false
  },
  "tutorType": "None",
  "tmIndex": -1,
  "trIndex": -1
}