{
  "zAttackBase": {
    "Fire": {
      "attackIndex": 0,
      "attackName": "Inferno Overdrive",
      "attackType": "Fire",
      "attackCategory": 1,
      "basePower": 160,
      "ppBase": 0,
      "ppMax": 0,
      "accuracy": -1,
      "makesContact": false,
      "effects": [],
      "animations": [],
      "targetingInfo": {
        "hitsAll": false,
        "hitsOppositeFoe": true,
        "hitsAdjacentFoe": true,
        "hitsExtendedFoe": false,
        "hitsSelf": false,
        "hitsAdjacentAlly": true,
        "hitsExtendedAlly": false
      },
      "tmIndex": -1,
      "trIndex": -1
    }
  },
  "attackIndex": 522,
  "attackName": "Fire Pledge",
  "attackType": "Fire",
  "attackCategory": 1,
  "basePower": 80,
  "ppBase": 10,
  "ppMax": 16,
  "accuracy": 100,
  "makesContact": false,
  "effects": [
    {
      "effectID": "Pledge",
      "modifiers": [],
      "persists": false
    }
  ],
  "animations": [
    {
      "type": "LeapForward"
    }
  ],
  "targetingInfo": {
    "hitsAll": false,
    "hitsOppositeFoe": true,
    "hitsAdjacentFoe": true,
    "hitsExtendedFoe": false,
    "hitsSelf": false,
    "hitsAdjacentAlly": true,
    "hitsExtendedAlly": false
  },
  "tutorType": "Regular",
  "tmIndex": -1,
  "trIndex": -1
}