{
  "zAttackBase": {
    "Flying": {
      "attackIndex": 0,
      "attackName": "Supersonic Skystrike",
      "attackType": "Flying",
      "attackCategory": 0,
      "basePower": 175,
      "ppBase": 0,
      "ppMax": 0,
      "accuracy": -1,
      "makesContact": false,
      "effects": [],
      "animations": [],
      "targetingInfo": {
        "hitsAll": false,
        "hitsOppositeFoe": true,
        "hitsAdjacentFoe": true,
        "hitsExtendedFoe": false,
        "hitsSelf": false,
        "hitsAdjacentAlly": true,
        "hitsExtendedAlly": false
      },
      "tmIndex": -1,
      "trIndex": -1
    }
  },
  "attackIndex": 75,
  "attackName": "Fly",
  "attackType": "Flying",
  "attackCategory": 0,
  "basePower": 90,
  "ppBase": 15,
  "ppMax": 24,
  "accuracy": 95,
  "makesContact": true,
  "effects": [
    {
      "effectID": "Fly",
      "modifiers": [],
      "persists": true
    }
  ],
  "animations": [
    {
      "type": "LeapForward"
    }
  ],
  "targetingInfo": {
    "hitsAll": false,
    "hitsOppositeFoe": true,
    "hitsAdjacentFoe": true,
    "hitsExtendedFoe": true,
    "hitsSelf": false,
    "hitsAdjacentAlly": true,
    "hitsExtendedAlly": true
  },
  "tutorType": "None",
  "tmIndex": 6,
  "trIndex": -1
}