{
  "zAttackBase": {
    "Ice": {
      "attackIndex": 0,
      "attackName": "Subzero Slammer",
      "attackType": "Ice",
      "attackCategory": 1,
      "basePower": 120,
      "ppBase": 0,
      "ppMax": 0,
      "accuracy": -1,
      "makesContact": false,
      "effects": [],
      "animations": [],
      "targetingInfo": {
        "hitsAll": false,
        "hitsOppositeFoe": true,
        "hitsAdjacentFoe": true,
        "hitsExtendedFoe": false,
        "hitsSelf": false,
        "hitsAdjacentAlly": true,
        "hitsExtendedAlly": false
      },
      "tmIndex": -1,
      "trIndex": -1
    }
  },
  "attackIndex": 525,
  "attackName": "Frost Breath",
  "attackType": "Ice",
  "attackCategory": 1,
  "basePower": 60,
  "ppBase": 10,
  "ppMax": 16,
  "accuracy": 90,
  "makesContact": false,
  "effects": [
    {
      "effectID": "CriticalHit",
      "stage": 7,
      "modifiers": [],
      "persists": false
    }
  ],
  "animations": [
    {
      "type": "LeapForward"
    }
  ],
  "targetingInfo": {
    "hitsAll": false,
    "hitsOppositeFoe": true,
    "hitsAdjacentFoe": true,
    "hitsExtendedFoe": false,
    "hitsSelf": false,
    "hitsAdjacentAlly": true,
    "hitsExtendedAlly": false
  },
  "tutorType": "None",
  "tmIndex": -1,
  "trIndex": -1
}