{
  "zAttackBase": {
    "Ice": {
      "zeffect": {
        "type": "CompleteHeal"
      },
      "attackIndex": 0,
      "attackName": "Z-Haze",
      "attackType": "Ice",
      "attackCategory": 2,
      "basePower": 0,
      "ppBase": 0,
      "ppMax": 0,
      "accuracy": -1,
      "makesContact": false,
      "effects": [
        {
          "effectID": "Haze",
          "modifiers": [],
          "persists": false
        }
      ],
      "animations": [
        {
          "type": "LeapForward"
        }
      ],
      "targetingInfo": {
        "hitsAll": true,
        "hitsOppositeFoe": true,
        "hitsAdjacentFoe": true,
        "hitsExtendedFoe": true,
        "hitsSelf": true,
        "hitsAdjacentAlly": true,
        "hitsExtendedAlly": true
      },
      "tmIndex": -1,
      "trIndex": -1
    }
  },
  "attackIndex": 146,
  "attackName": "Haze",
  "attackType": "Ice",
  "attackCategory": 2,
  "basePower": 0,
  "ppBase": 30,
  "ppMax": 48,
  "accuracy": -1,
  "makesContact": false,
  "effects": [
    {
      "effectID": "Haze",
      "modifiers": [],
      "persists": false
    }
  ],
  "animations": [
    {
      "type": "LeapForward"
    }
  ],
  "targetingInfo": {
    "hitsAll": true,
    "hitsOppositeFoe": true,
    "hitsAdjacentFoe": true,
    "hitsExtendedFoe": true,
    "hitsSelf": true,
    "hitsAdjacentAlly": true,
    "hitsExtendedAlly": true
  },
  "tutorType": "Event",
  "tmIndex": -1,
  "trIndex": -1
}