{
  "zAttackBase": {
    "Psychic": {
      "zeffect": {
        "type": "CriticalHitRaise"
      },
      "attackIndex": 0,
      "attackName": "Z-Heart Swap",
      "attackType": "Psychic",
      "attackCategory": 2,
      "basePower": 0,
      "ppBase": 0,
      "ppMax": 0,
      "accuracy": -1,
      "makesContact": false,
      "effects": [
        {
          "effectID": "HeartSwap",
          "langString": "pixelmon.effect.heartswap",
          "swapStats": [
            "Accuracy",
            "Evasion",
            "Attack",
            "Defence",
            "SpecialAttack",
            "SpecialDefence",
            "Speed"
          ],
          "modifiers": [],
          "persists": false
        }
      ],
      "animations": [
        {
          "type": "LeapForward"
        }
      ],
      "targetingInfo": {
        "hitsAll": false,
        "hitsOppositeFoe": true,
        "hitsAdjacentFoe": true,
        "hitsExtendedFoe": false,
        "hitsSelf": false,
        "hitsAdjacentAlly": true,
        "hitsExtendedAlly": false
      },
      "tmIndex": -1,
      "trIndex": -1
    }
  },
  "attackIndex": 428,
  "attackName": "Heart Swap",
  "attackType": "Psychic",
  "attackCategory": 2,
  "basePower": 0,
  "ppBase": 10,
  "ppMax": 16,
  "accuracy": -1,
  "makesContact": false,
  "effects": [
    {
      "effectID": "HeartSwap",
      "langString": "pixelmon.effect.heartswap",
      "swapStats": [
        "Accuracy",
        "Evasion",
        "Attack",
        "Defence",
        "SpecialAttack",
        "SpecialDefence",
        "Speed"
      ],
      "modifiers": [],
      "persists": false
    }
  ],
  "animations": [
    {
      "type": "LeapForward"
    }
  ],
  "targetingInfo": {
    "hitsAll": false,
    "hitsOppositeFoe": true,
    "hitsAdjacentFoe": true,
    "hitsExtendedFoe": false,
    "hitsSelf": false,
    "hitsAdjacentAlly": true,
    "hitsExtendedAlly": false
  },
  "tutorType": "None",
  "tmIndex": -1,
  "trIndex": -1
}