{
  "zAttackBase": {
    "Water": {
      "attackIndex": 0,
      "attackName": "Hydro Vortex",
      "attackType": "Water",
      "attackCategory": 1,
      "basePower": 185,
      "ppBase": 0,
      "ppMax": 0,
      "accuracy": -1,
      "makesContact": false,
      "effects": [],
      "animations": [],
      "targetingInfo": {
        "hitsAll": false,
        "hitsOppositeFoe": true,
        "hitsAdjacentFoe": true,
        "hitsExtendedFoe": false,
        "hitsSelf": false,
        "hitsAdjacentAlly": true,
        "hitsExtendedAlly": false
      },
      "tmIndex": -1,
      "trIndex": -1
    }
  },
  "attackIndex": 103,
  "attackName": "Hydro Pump",
  "attackType": "Water",
  "attackCategory": 1,
  "basePower": 110,
  "ppBase": 5,
  "ppMax": 8,
  "accuracy": 80,
  "makesContact": false,
  "effects": [],
  "animations": [
    {
      "type": "LeapForward"
    }
  ],
  "targetingInfo": {
    "hitsAll": false,
    "hitsOppositeFoe": true,
    "hitsAdjacentFoe": true,
    "hitsExtendedFoe": false,
    "hitsSelf": false,
    "hitsAdjacentAlly": true,
    "hitsExtendedAlly": false
  },
  "tutorType": "Event",
  "tmIndex": -1,
  "trIndex": 3
}