{
  "zAttackBase": {
    "Dark": {
      "attackIndex": 0,
      "attackName": "Black Hole Eclipse",
      "attackType": "Dark",
      "attackCategory": 0,
      "basePower": 160,
      "ppBase": 0,
      "ppMax": 0,
      "accuracy": -1,
      "makesContact": true,
      "effects": [
        {
          "effectID": "JawLock",
          "modifiers": [],
          "persists": false
        }
      ],
      "animations": [
        {
          "type": "LeapForward"
        }
      ],
      "targetingInfo": {
        "hitsAll": false,
        "hitsOppositeFoe": true,
        "hitsAdjacentFoe": true,
        "hitsExtendedFoe": false,
        "hitsSelf": false,
        "hitsAdjacentAlly": true,
        "hitsExtendedAlly": false
      },
      "tmIndex": -1,
      "trIndex": -1
    }
  },
  "attackIndex": 712,
  "attackName": "Jaw Lock",
  "attackType": "Dark",
  "attackCategory": 0,
  "basePower": 80,
  "ppBase": 10,
  "ppMax": 16,
  "accuracy": 100,
  "makesContact": true,
  "effects": [
    {
      "effectID": "JawLock",
      "modifiers": [],
      "persists": false
    }
  ],
  "animations": [
    {
      "type": "LeapForward"
    }
  ],
  "targetingInfo": {
    "hitsAll": false,
    "hitsOppositeFoe": true,
    "hitsAdjacentFoe": true,
    "hitsExtendedFoe": false,
    "hitsSelf": false,
    "hitsAdjacentAlly": true,
    "hitsExtendedAlly": false
  },
  "tutorType": "None",
  "tmIndex": -1,
  "trIndex": -1
}