{
  "zAttackBase": {
    "Psychic": {
      "attackIndex": 0,
      "attackName": "Shattered Psyche",
      "attackType": "Psychic",
      "attackCategory": 1,
      "basePower": 100,
      "ppBase": 0,
      "ppMax": 0,
      "accuracy": -1,
      "makesContact": false,
      "effects": [],
      "animations": [],
      "targetingInfo": {
        "hitsAll": false,
        "hitsOppositeFoe": true,
        "hitsAdjacentFoe": true,
        "hitsExtendedFoe": false,
        "hitsSelf": false,
        "hitsAdjacentAlly": true,
        "hitsExtendedAlly": false
      },
      "tmIndex": -1,
      "trIndex": -1
    }
  },
  "attackIndex": 318,
  "attackName": "Mirror Coat",
  "attackType": "Psychic",
  "attackCategory": 1,
  "basePower": 0,
  "ppBase": 20,
  "ppMax": 32,
  "accuracy": 100,
  "makesContact": false,
  "effects": [
    {
      "effectID": "Priority",
      "priority": -5,
      "modifiers": [],
      "persists": false
    },
    {
      "effectID": "MirrorCoat",
      "modifiers": [],
      "persists": false
    }
  ],
  "animations": [
    {
      "type": "LeapForward"
    }
  ],
  "targetingInfo": {
    "hitsAll": false,
    "hitsOppositeFoe": false,
    "hitsAdjacentFoe": false,
    "hitsExtendedFoe": false,
    "hitsSelf": true,
    "hitsAdjacentAlly": false,
    "hitsExtendedAlly": false
  },
  "tutorType": "None",
  "tmIndex": -1,
  "trIndex": -1
}