{
  "zAttackBase": {
    "Fairy": {
      "zeffect": {
        "type": "ResetStats"
      },
      "attackIndex": 0,
      "attackName": "Z-Moonlight",
      "attackType": "Fairy",
      "attackCategory": 2,
      "basePower": 0,
      "ppBase": 0,
      "ppMax": 0,
      "accuracy": -1,
      "makesContact": false,
      "effects": [
        {
          "effectID": "Synthesis",
          "modifiers": [],
          "persists": false
        }
      ],
      "animations": [
        {
          "type": "LeapForward"
        }
      ],
      "targetingInfo": {
        "hitsAll": false,
        "hitsOppositeFoe": false,
        "hitsAdjacentFoe": false,
        "hitsExtendedFoe": false,
        "hitsSelf": true,
        "hitsAdjacentAlly": false,
        "hitsExtendedAlly": false
      },
      "tmIndex": -1,
      "trIndex": -1
    }
  },
  "attackIndex": 275,
  "attackName": "Moonlight",
  "attackType": "Fairy",
  "attackCategory": 2,
  "basePower": 0,
  "ppBase": 5,
  "ppMax": 8,
  "accuracy": -1,
  "makesContact": false,
  "effects": [
    {
      "effectID": "Synthesis",
      "modifiers": [],
      "persists": false
    }
  ],
  "animations": [
    {
      "type": "LeapForward"
    }
  ],
  "targetingInfo": {
    "hitsAll": false,
    "hitsOppositeFoe": false,
    "hitsAdjacentFoe": false,
    "hitsExtendedFoe": false,
    "hitsSelf": true,
    "hitsAdjacentAlly": false,
    "hitsExtendedAlly": false
  },
  "tutorType": "Event",
  "tmIndex": -1,
  "trIndex": -1
}