{
  "zAttackBase": {
    "Fairy": {
      "attackIndex": 0,
      "attackName": "Twinkle Tackle",
      "attackType": "Fairy",
      "attackCategory": 1,
      "basePower": 175,
      "ppBase": 0,
      "ppMax": 0,
      "accuracy": -1,
      "makesContact": false,
      "effects": [],
      "animations": [],
      "targetingInfo": {
        "hitsAll": false,
        "hitsOppositeFoe": true,
        "hitsAdjacentFoe": true,
        "hitsExtendedFoe": false,
        "hitsSelf": false,
        "hitsAdjacentAlly": true,
        "hitsExtendedAlly": false
      },
      "tmIndex": -1,
      "trIndex": -1
    }
  },
  "attackIndex": 597,
  "attackName": "Moonblast",
  "attackType": "Fairy",
  "attackCategory": 1,
  "basePower": 95,
  "ppBase": 15,
  "ppMax": 24,
  "accuracy": 100,
  "makesContact": false,
  "effects": [
    {
      "effectID": "StatsEffect",
      "type": "SpecialAttack",
      "isUser": false,
      "value": -1,
      "modifiers": [
        {
          "type": "ChanceModifier",
          "multiplier": 1,
          "value": 30.0
        }
      ],
      "persists": false
    }
  ],
  "animations": [
    {
      "type": "LeapForward"
    }
  ],
  "targetingInfo": {
    "hitsAll": false,
    "hitsOppositeFoe": true,
    "hitsAdjacentFoe": true,
    "hitsExtendedFoe": false,
    "hitsSelf": false,
    "hitsAdjacentAlly": true,
    "hitsExtendedAlly": false
  },
  "tutorType": "Event",
  "tmIndex": -1,
  "trIndex": -1
}