{
  "zAttackBase": {
    "Ground": {
      "attackIndex": 0,
      "attackName": "Tectonic Rage",
      "attackType": "Ground",
      "attackCategory": 1,
      "basePower": 100,
      "ppBase": 0,
      "ppMax": 0,
      "accuracy": -1,
      "makesContact": false,
      "effects": [],
      "animations": [],
      "targetingInfo": {
        "hitsAll": false,
        "hitsOppositeFoe": true,
        "hitsAdjacentFoe": true,
        "hitsExtendedFoe": false,
        "hitsSelf": false,
        "hitsAdjacentAlly": true,
        "hitsExtendedAlly": false
      },
      "tmIndex": -1,
      "trIndex": -1
    }
  },
  "attackIndex": 244,
  "attackName": "Mud-Slap",
  "attackType": "Ground",
  "attackCategory": 1,
  "basePower": 20,
  "ppBase": 10,
  "ppMax": 16,
  "accuracy": 100,
  "makesContact": false,
  "effects": [
    {
      "effectID": "StatsEffect",
      "type": "Accuracy",
      "isUser": false,
      "value": -1,
      "modifiers": [
        {
          "type": "ChanceModifier",
          "multiplier": 1,
          "value": 100.0
        }
      ],
      "persists": false
    }
  ],
  "animations": [
    {
      "type": "LeapForward"
    }
  ],
  "targetingInfo": {
    "hitsAll": false,
    "hitsOppositeFoe": true,
    "hitsAdjacentFoe": true,
    "hitsExtendedFoe": false,
    "hitsSelf": false,
    "hitsAdjacentAlly": true,
    "hitsExtendedAlly": false
  },
  "tutorType": "None",
  "tmIndex": -1,
  "trIndex": -1
}