{
  "zAttackBase": {
    "Mimikyu": {
      "attackIndex": 0,
      "attackName": "Let\u0027s Snuggle Forever",
      "attackType": "Fairy",
      "attackCategory": 0,
      "basePower": 190,
      "ppBase": 0,
      "ppMax": 0,
      "accuracy": -1,
      "makesContact": false,
      "effects": [],
      "animations": [],
      "targetingInfo": {
        "hitsAll": false,
        "hitsOppositeFoe": true,
        "hitsAdjacentFoe": true,
        "hitsExtendedFoe": false,
        "hitsSelf": false,
        "hitsAdjacentAlly": true,
        "hitsExtendedAlly": false
      },
      "tmIndex": -1,
      "trIndex": -1
    },
    "Fairy": {
      "attackIndex": 0,
      "attackName": "Twinkle Tackle",
      "attackType": "Fairy",
      "attackCategory": 0,
      "basePower": 175,
      "ppBase": 0,
      "ppMax": 0,
      "accuracy": -1,
      "makesContact": false,
      "effects": [],
      "animations": [],
      "targetingInfo": {
        "hitsAll": false,
        "hitsOppositeFoe": true,
        "hitsAdjacentFoe": true,
        "hitsExtendedFoe": false,
        "hitsSelf": false,
        "hitsAdjacentAlly": true,
        "hitsExtendedAlly": false
      },
      "tmIndex": -1,
      "trIndex": -1
    }
  },
  "attackIndex": 608,
  "attackName": "Play Rough",
  "attackType": "Fairy",
  "attackCategory": 0,
  "basePower": 90,
  "ppBase": 10,
  "ppMax": 16,
  "accuracy": 90,
  "makesContact": true,
  "effects": [
    {
      "effectID": "StatsEffect",
      "type": "Attack",
      "isUser": false,
      "value": -1,
      "modifiers": [
        {
          "type": "ChanceModifier",
          "multiplier": 1,
          "value": 10.0
        }
      ],
      "persists": false
    }
  ],
  "animations": [
    {
      "type": "LeapForward"
    }
  ],
  "targetingInfo": {
    "hitsAll": false,
    "hitsOppositeFoe": true,
    "hitsAdjacentFoe": true,
    "hitsExtendedFoe": false,
    "hitsSelf": false,
    "hitsAdjacentAlly": true,
    "hitsExtendedAlly": false
  },
  "tutorType": "Event",
  "tmIndex": -1,
  "trIndex": 90
}