{
  "zAttackBase": {
    "Bug": {
      "zeffect": {
        "type": "RaiseStats",
        "stats": [
          "SpecialDefence"
        ],
        "value": [
          2
        ]
      },
      "attackIndex": 0,
      "attackName": "Z-Powder",
      "attackType": "Bug",
      "attackCategory": 2,
      "basePower": 0,
      "ppBase": 0,
      "ppMax": 0,
      "accuracy": 100,
      "makesContact": false,
      "effects": [
        {
          "effectID": "Powder",
          "modifiers": [],
          "persists": false
        },
        {
          "effectID": "Priority",
          "priority": 1,
          "modifiers": [],
          "persists": false
        },
        {
          "effectID": "AlwaysHit",
          "modifiers": [],
          "persists": false
        }
      ],
      "animations": [
        {
          "type": "LeapForward"
        }
      ],
      "targetingInfo": {
        "hitsAll": false,
        "hitsOppositeFoe": true,
        "hitsAdjacentFoe": true,
        "hitsExtendedFoe": false,
        "hitsSelf": false,
        "hitsAdjacentAlly": true,
        "hitsExtendedAlly": false
      },
      "tmIndex": -1,
      "trIndex": -1
    }
  },
  "attackIndex": 609,
  "attackName": "Powder",
  "attackType": "Bug",
  "attackCategory": 2,
  "basePower": 0,
  "ppBase": 20,
  "ppMax": 32,
  "accuracy": 100,
  "makesContact": false,
  "effects": [
    {
      "effectID": "Powder",
      "modifiers": [],
      "persists": false
    },
    {
      "effectID": "Priority",
      "priority": 1,
      "modifiers": [],
      "persists": false
    },
    {
      "effectID": "AlwaysHit",
      "modifiers": [],
      "persists": false
    }
  ],
  "animations": [
    {
      "type": "LeapForward"
    }
  ],
  "targetingInfo": {
    "hitsAll": false,
    "hitsOppositeFoe": true,
    "hitsAdjacentFoe": true,
    "hitsExtendedFoe": false,
    "hitsSelf": false,
    "hitsAdjacentAlly": true,
    "hitsExtendedAlly": false
  },
  "tutorType": "None",
  "tmIndex": -1,
  "trIndex": -1
}