{
  "zAttackBase": {
    "Psychic": {
      "attackIndex": 0,
      "attackName": "Shattered Psyche",
      "attackType": "Psychic",
      "attackCategory": 1,
      "basePower": 200,
      "ppBase": 0,
      "ppMax": 0,
      "accuracy": -1,
      "makesContact": false,
      "effects": [],
      "animations": [],
      "targetingInfo": {
        "hitsAll": false,
        "hitsOppositeFoe": true,
        "hitsAdjacentFoe": true,
        "hitsExtendedFoe": false,
        "hitsSelf": false,
        "hitsAdjacentAlly": true,
        "hitsExtendedAlly": false
      },
      "tmIndex": -1,
      "trIndex": -1
    }
  },
  "attackIndex": 404,
  "attackName": "Psycho Boost",
  "attackType": "Psychic",
  "attackCategory": 1,
  "basePower": 140,
  "ppBase": 5,
  "ppMax": 8,
  "accuracy": 90,
  "makesContact": false,
  "effects": [
    {
      "effectID": "StatsEffect",
      "type": "SpecialAttack",
      "isUser": true,
      "value": -2,
      "modifiers": [],
      "persists": false
    }
  ],
  "animations": [
    {
      "type": "LeapForward"
    }
  ],
  "targetingInfo": {
    "hitsAll": false,
    "hitsOppositeFoe": true,
    "hitsAdjacentFoe": true,
    "hitsExtendedFoe": false,
    "hitsSelf": false,
    "hitsAdjacentAlly": true,
    "hitsExtendedAlly": false
  },
  "tutorType": "Event",
  "tmIndex": -1,
  "trIndex": -1
}