{
  "zAttackBase": {
    "Dark": {
      "attackIndex": 0,
      "attackName": "Black Hole Eclipse",
      "attackType": "Dark",
      "attackCategory": 0,
      "basePower": 100,
      "ppBase": 0,
      "ppMax": 0,
      "accuracy": -1,
      "makesContact": false,
      "effects": [],
      "animations": [],
      "targetingInfo": {
        "hitsAll": false,
        "hitsOppositeFoe": true,
        "hitsAdjacentFoe": true,
        "hitsExtendedFoe": false,
        "hitsSelf": false,
        "hitsAdjacentAlly": true,
        "hitsExtendedAlly": false
      },
      "tmIndex": -1,
      "trIndex": -1
    }
  },
  "attackIndex": 426,
  "attackName": "Punishment",
  "attackType": "Dark",
  "attackCategory": 0,
  "basePower": 0,
  "ppBase": 5,
  "ppMax": 8,
  "accuracy": 100,
  "makesContact": true,
  "effects": [
    {
      "effectID": "Punishment",
      "modifiers": [],
      "persists": false
    }
  ],
  "animations": [
    {
      "type": "LeapForward"
    }
  ],
  "targetingInfo": {
    "hitsAll": false,
    "hitsOppositeFoe": true,
    "hitsAdjacentFoe": true,
    "hitsExtendedFoe": false,
    "hitsSelf": false,
    "hitsAdjacentAlly": true,
    "hitsExtendedAlly": false
  },
  "tutorType": "None",
  "tmIndex": -1,
  "trIndex": -1
}