{
  "zAttackBase": {
    "Grass": {
      "attackIndex": 0,
      "attackName": "Bloom Doom",
      "attackType": "Grass",
      "attackCategory": 0,
      "basePower": 100,
      "ppBase": 0,
      "ppMax": 0,
      "accuracy": -1,
      "makesContact": false,
      "effects": [],
      "animations": [],
      "targetingInfo": {
        "hitsAll": false,
        "hitsOppositeFoe": true,
        "hitsAdjacentFoe": true,
        "hitsExtendedFoe": false,
        "hitsSelf": false,
        "hitsAdjacentAlly": true,
        "hitsExtendedAlly": false
      },
      "tmIndex": -1,
      "trIndex": -1
    }
  },
  "attackIndex": 9,
  "attackName": "Razor Leaf",
  "attackType": "Grass",
  "attackCategory": 0,
  "basePower": 55,
  "ppBase": 25,
  "ppMax": 40,
  "accuracy": 95,
  "makesContact": false,
  "effects": [
    {
      "effectID": "CriticalHit",
      "stage": 1,
      "modifiers": [],
      "persists": false
    }
  ],
  "animations": [
    {
      "type": "LeapForward"
    }
  ],
  "targetingInfo": {
    "hitsAll": true,
    "hitsOppositeFoe": true,
    "hitsAdjacentFoe": true,
    "hitsExtendedFoe": false,
    "hitsSelf": false,
    "hitsAdjacentAlly": false,
    "hitsExtendedAlly": false
  },
  "tutorType": "None",
  "tmIndex": -1,
  "trIndex": -1
}