{
  "zAttackBase": {
    "Normal": {
      "zeffect": {
        "type": "RaiseStats",
        "stats": [
          "Speed"
        ],
        "value": [
          1
        ]
      },
      "attackIndex": 0,
      "attackName": "Z-Scary Face",
      "attackType": "Normal",
      "attackCategory": 2,
      "basePower": 0,
      "ppBase": 0,
      "ppMax": 0,
      "accuracy": 100,
      "makesContact": false,
      "effects": [
        {
          "effectID": "StatsEffect",
          "type": "Speed",
          "isUser": false,
          "value": -2,
          "modifiers": [],
          "persists": false
        }
      ],
      "animations": [
        {
          "type": "LeapForward"
        }
      ],
      "targetingInfo": {
        "hitsAll": false,
        "hitsOppositeFoe": true,
        "hitsAdjacentFoe": true,
        "hitsExtendedFoe": false,
        "hitsSelf": false,
        "hitsAdjacentAlly": true,
        "hitsExtendedAlly": false
      },
      "tmIndex": -1,
      "trIndex": -1
    }
  },
  "attackIndex": 47,
  "attackName": "Scary Face",
  "attackType": "Normal",
  "attackCategory": 2,
  "basePower": 0,
  "ppBase": 10,
  "ppMax": 16,
  "accuracy": 100,
  "makesContact": false,
  "effects": [
    {
      "effectID": "StatsEffect",
      "type": "Speed",
      "isUser": false,
      "value": -2,
      "modifiers": [],
      "persists": false
    }
  ],
  "animations": [
    {
      "type": "LeapForward"
    }
  ],
  "targetingInfo": {
    "hitsAll": false,
    "hitsOppositeFoe": true,
    "hitsAdjacentFoe": true,
    "hitsExtendedFoe": false,
    "hitsSelf": false,
    "hitsAdjacentAlly": true,
    "hitsExtendedAlly": false
  },
  "tutorType": "Event",
  "tmIndex": 26,
  "trIndex": -1
}