{
  "zAttackBase": {
    "Fighting": {
      "attackIndex": 0,
      "attackName": "All-Out Pummeling",
      "attackType": "Fighting",
      "attackCategory": 0,
      "basePower": 100,
      "ppBase": 0,
      "ppMax": 0,
      "accuracy": -1,
      "makesContact": false,
      "effects": [],
      "animations": [],
      "targetingInfo": {
        "hitsAll": false,
        "hitsOppositeFoe": true,
        "hitsAdjacentFoe": true,
        "hitsExtendedFoe": false,
        "hitsSelf": false,
        "hitsAdjacentAlly": true,
        "hitsExtendedAlly": false
      },
      "tmIndex": -1,
      "trIndex": -1
    }
  },
  "attackIndex": 115,
  "attackName": "Seismic Toss",
  "attackType": "Fighting",
  "attackCategory": 0,
  "basePower": 0,
  "ppBase": 20,
  "ppMax": 32,
  "accuracy": 100,
  "makesContact": true,
  "effects": [
    {
      "effectID": "DoSetDamage",
      "damage": 0,
      "modifiers": [],
      "persists": false
    }
  ],
  "animations": [
    {
      "type": "LeapForward"
    }
  ],
  "targetingInfo": {
    "hitsAll": false,
    "hitsOppositeFoe": true,
    "hitsAdjacentFoe": true,
    "hitsExtendedFoe": false,
    "hitsSelf": false,
    "hitsAdjacentAlly": true,
    "hitsExtendedAlly": false
  },
  "tutorType": "None",
  "tmIndex": -1,
  "trIndex": -1
}