{
  "zAttackBase": {
    "Grass": {
      "zeffect": {
        "type": "RaiseStats",
        "stats": [
          "Defence"
        ],
        "value": [
          1
        ]
      },
      "attackIndex": 0,
      "attackName": "Z-Spiky Shield",
      "attackType": "Grass",
      "attackCategory": 2,
      "basePower": 0,
      "ppBase": 0,
      "ppMax": 0,
      "accuracy": -1,
      "makesContact": false,
      "effects": [
        {
          "effectID": "SpikyShield",
          "modifiers": [],
          "persists": false
        },
        {
          "effectID": "Priority",
          "priority": 4,
          "modifiers": [],
          "persists": false
        }
      ],
      "animations": [
        {
          "type": "LeapForward"
        }
      ],
      "targetingInfo": {
        "hitsAll": false,
        "hitsOppositeFoe": false,
        "hitsAdjacentFoe": false,
        "hitsExtendedFoe": false,
        "hitsSelf": true,
        "hitsAdjacentAlly": false,
        "hitsExtendedAlly": false
      },
      "tmIndex": -1,
      "trIndex": -1
    }
  },
  "attackIndex": 613,
  "attackName": "Spiky Shield",
  "attackType": "Grass",
  "attackCategory": 2,
  "basePower": 0,
  "ppBase": 10,
  "ppMax": 16,
  "accuracy": -1,
  "makesContact": false,
  "effects": [
    {
      "effectID": "SpikyShield",
      "modifiers": [],
      "persists": false
    },
    {
      "effectID": "Priority",
      "priority": 4,
      "modifiers": [],
      "persists": false
    }
  ],
  "animations": [
    {
      "type": "LeapForward"
    }
  ],
  "targetingInfo": {
    "hitsAll": false,
    "hitsOppositeFoe": false,
    "hitsAdjacentFoe": false,
    "hitsExtendedFoe": false,
    "hitsSelf": true,
    "hitsAdjacentAlly": false,
    "hitsExtendedAlly": false
  },
  "tutorType": "None",
  "tmIndex": -1,
  "trIndex": -1
}