{
  "zAttackBase": {
    "Grass": {
      "zeffect": {
        "type": "ResetStats"
      },
      "attackIndex": 0,
      "attackName": "Z-Spore",
      "attackType": "Grass",
      "attackCategory": 2,
      "basePower": 0,
      "ppBase": 0,
      "ppMax": 0,
      "accuracy": 100,
      "makesContact": false,
      "effects": [
        {
          "effectID": "Sleep",
          "modifiers": [],
          "persists": false
        }
      ],
      "animations": [
        {
          "type": "LeapForward"
        }
      ],
      "targetingInfo": {
        "hitsAll": false,
        "hitsOppositeFoe": true,
        "hitsAdjacentFoe": true,
        "hitsExtendedFoe": false,
        "hitsSelf": false,
        "hitsAdjacentAlly": true,
        "hitsExtendedAlly": false
      },
      "tmIndex": -1,
      "trIndex": -1
    }
  },
  "attackIndex": 179,
  "attackName": "Spore",
  "attackType": "Grass",
  "attackCategory": 2,
  "basePower": 0,
  "ppBase": 15,
  "ppMax": 24,
  "accuracy": 100,
  "makesContact": false,
  "effects": [
    {
      "effectID": "Sleep",
      "modifiers": [],
      "persists": false
    }
  ],
  "animations": [
    {
      "type": "LeapForward"
    }
  ],
  "targetingInfo": {
    "hitsAll": false,
    "hitsOppositeFoe": true,
    "hitsAdjacentFoe": true,
    "hitsExtendedFoe": false,
    "hitsSelf": false,
    "hitsAdjacentAlly": true,
    "hitsExtendedAlly": false
  },
  "tutorType": "None",
  "tmIndex": -1,
  "trIndex": -1
}