{
  "zAttackBase": {
    "Ground": {
      "attackIndex": 0,
      "attackName": "Tectonic Rage",
      "attackType": "Ground",
      "attackCategory": 0,
      "basePower": 140,
      "ppBase": 0,
      "ppMax": 0,
      "accuracy": -1,
      "makesContact": false,
      "effects": [],
      "animations": [],
      "targetingInfo": {
        "hitsAll": false,
        "hitsOppositeFoe": true,
        "hitsAdjacentFoe": true,
        "hitsExtendedFoe": false,
        "hitsSelf": false,
        "hitsAdjacentAlly": true,
        "hitsExtendedAlly": false
      },
      "tmIndex": -1,
      "trIndex": -1
    }
  },
  "attackIndex": 669,
  "attackName": "Stomping Tantrum",
  "attackType": "Ground",
  "attackCategory": 0,
  "basePower": 75,
  "ppBase": 10,
  "ppMax": 16,
  "accuracy": 100,
  "makesContact": true,
  "effects": [],
  "animations": [
    {
      "type": "LeapForward"
    }
  ],
  "targetingInfo": {
    "hitsAll": false,
    "hitsOppositeFoe": true,
    "hitsAdjacentFoe": true,
    "hitsExtendedFoe": false,
    "hitsSelf": false,
    "hitsAdjacentAlly": true,
    "hitsExtendedAlly": false
  },
  "tutorType": "None",
  "tmIndex": 98,
  "trIndex": -1
}