{
  "zAttackBase": {
    "Fairy": {
      "attackIndex": 0,
      "attackName": "Twinkle Tackle",
      "attackType": "Fairy",
      "attackCategory": 1,
      "basePower": 175,
      "ppBase": 0,
      "ppMax": 0,
      "accuracy": 95,
      "makesContact": false,
      "effects": [],
      "animations": [],
      "targetingInfo": {
        "hitsAll": false,
        "hitsOppositeFoe": true,
        "hitsAdjacentFoe": true,
        "hitsExtendedFoe": false,
        "hitsSelf": false,
        "hitsAdjacentAlly": true,
        "hitsExtendedAlly": false
      },
      "tmIndex": -1,
      "trIndex": -1
    }
  },
  "attackIndex": 718,
  "attackName": "Strange Steam",
  "attackType": "Fairy",
  "attackCategory": 1,
  "basePower": 90,
  "ppBase": 10,
  "ppMax": 16,
  "accuracy": 95,
  "makesContact": false,
  "effects": [
    {
      "effectID": "Confusion",
      "modifiers": [
        {
          "type": "ChanceModifier",
          "multiplier": 1,
          "value": 20.0
        }
      ],
      "persists": false
    }
  ],
  "animations": [
    {
      "type": "LeapForward"
    }
  ],
  "targetingInfo": {
    "hitsAll": false,
    "hitsOppositeFoe": true,
    "hitsAdjacentFoe": true,
    "hitsExtendedFoe": false,
    "hitsSelf": false,
    "hitsAdjacentAlly": true,
    "hitsExtendedAlly": false
  },
  "tutorType": "None",
  "tmIndex": -1,
  "trIndex": -1
}