{
  "zAttackBase": {
    "Bug": {
      "zeffect": {
        "type": "RaiseStats",
        "stats": [
          "Speed"
        ],
        "value": [
          1
        ]
      },
      "attackIndex": 0,
      "attackName": "Z-String Shot",
      "attackType": "Bug",
      "attackCategory": 2,
      "basePower": 0,
      "ppBase": 0,
      "ppMax": 0,
      "accuracy": 95,
      "makesContact": false,
      "effects": [
        {
          "effectID": "StatsEffect",
          "type": "Speed",
          "isUser": false,
          "value": -2,
          "modifiers": [],
          "persists": false
        }
      ],
      "animations": [
        {
          "type": "LeapForward"
        }
      ],
      "targetingInfo": {
        "hitsAll": true,
        "hitsOppositeFoe": true,
        "hitsAdjacentFoe": true,
        "hitsExtendedFoe": false,
        "hitsSelf": false,
        "hitsAdjacentAlly": false,
        "hitsExtendedAlly": false
      },
      "tmIndex": -1,
      "trIndex": -1
    }
  },
  "attackIndex": 120,
  "attackName": "String Shot",
  "attackType": "Bug",
  "attackCategory": 2,
  "basePower": 0,
  "ppBase": 30,
  "ppMax": 64,
  "accuracy": 95,
  "makesContact": false,
  "effects": [
    {
      "effectID": "StatsEffect",
      "type": "Speed",
      "isUser": false,
      "value": -2,
      "modifiers": [],
      "persists": false
    }
  ],
  "animations": [
    {
      "type": "LeapForward"
    }
  ],
  "targetingInfo": {
    "hitsAll": true,
    "hitsOppositeFoe": true,
    "hitsAdjacentFoe": true,
    "hitsExtendedFoe": false,
    "hitsSelf": false,
    "hitsAdjacentAlly": false,
    "hitsExtendedAlly": false
  },
  "tutorType": "Regular",
  "tmIndex": -1,
  "trIndex": -1
}