{
  "zAttackBase": {
    "Solgaleo": {
      "attackIndex": 0,
      "attackName": "Searing Sunraze Smash",
      "attackType": "Steel",
      "attackCategory": 0,
      "basePower": 200,
      "ppBase": 0,
      "ppMax": 0,
      "accuracy": -1,
      "makesContact": false,
      "effects": [],
      "animations": [],
      "targetingInfo": {
        "hitsAll": false,
        "hitsOppositeFoe": true,
        "hitsAdjacentFoe": true,
        "hitsExtendedFoe": false,
        "hitsSelf": false,
        "hitsAdjacentAlly": true,
        "hitsExtendedAlly": false
      },
      "tmIndex": -1,
      "trIndex": -1
    },
    "Steel": {
      "attackIndex": 0,
      "attackName": "Corkscrew Crash",
      "attackType": "Steel",
      "attackCategory": 0,
      "basePower": 180,
      "ppBase": 0,
      "ppMax": 0,
      "accuracy": -1,
      "makesContact": false,
      "effects": [],
      "animations": [],
      "targetingInfo": {
        "hitsAll": false,
        "hitsOppositeFoe": true,
        "hitsAdjacentFoe": true,
        "hitsExtendedFoe": false,
        "hitsSelf": false,
        "hitsAdjacentAlly": true,
        "hitsExtendedAlly": false
      },
      "tmIndex": -1,
      "trIndex": -1
    }
  },
  "attackIndex": 671,
  "attackName": "Sunsteel Strike",
  "attackType": "Steel",
  "attackCategory": 0,
  "basePower": 100,
  "ppBase": 5,
  "ppMax": 8,
  "accuracy": 100,
  "makesContact": true,
  "effects": [],
  "animations": [
    {
      "type": "LeapForward"
    }
  ],
  "targetingInfo": {
    "hitsAll": false,
    "hitsOppositeFoe": true,
    "hitsAdjacentFoe": true,
    "hitsExtendedFoe": false,
    "hitsSelf": false,
    "hitsAdjacentAlly": true,
    "hitsExtendedAlly": false
  },
  "tutorType": "None",
  "tmIndex": -1,
  "trIndex": -1
}