{
  "zAttackBase": {
    "Rock": {
      "attackIndex": 0,
      "attackName": "Continental Crush",
      "attackType": "Rock",
      "attackCategory": 1,
      "basePower": 100,
      "ppBase": 0,
      "ppMax": 0,
      "accuracy": -1,
      "makesContact": false,
      "effects": [
        {
          "effectID": "StatsEffect",
          "type": "Speed",
          "isUser": false,
          "value": -1,
          "modifiers": [
            {
              "type": "ChanceModifier",
              "multiplier": 1,
              "value": 100.0
            }
          ],
          "persists": false
        },
        {
          "effectID": "TarShot",
          "modifiers": [],
          "persists": false
        }
      ],
      "animations": [],
      "targetingInfo": {
        "hitsAll": false,
        "hitsOppositeFoe": true,
        "hitsAdjacentFoe": true,
        "hitsExtendedFoe": false,
        "hitsSelf": false,
        "hitsAdjacentAlly": true,
        "hitsExtendedAlly": false
      },
      "tmIndex": -1,
      "trIndex": -1
    }
  },
  "attackIndex": 722,
  "attackName": "Tar Shot",
  "attackType": "Rock",
  "attackCategory": 1,
  "basePower": 0,
  "ppBase": 15,
  "ppMax": 24,
  "accuracy": 100,
  "makesContact": false,
  "effects": [
    {
      "effectID": "StatsEffect",
      "type": "Speed",
      "isUser": false,
      "value": -1,
      "modifiers": [
        {
          "type": "ChanceModifier",
          "multiplier": 1,
          "value": 100.0
        }
      ],
      "persists": false
    },
    {
      "effectID": "TarShot",
      "modifiers": [],
      "persists": false
    }
  ],
  "animations": [
    {
      "type": "LeapForward"
    }
  ],
  "targetingInfo": {
    "hitsAll": false,
    "hitsOppositeFoe": true,
    "hitsAdjacentFoe": true,
    "hitsExtendedFoe": false,
    "hitsSelf": false,
    "hitsAdjacentAlly": true,
    "hitsExtendedAlly": false
  },
  "tutorType": "None",
  "tmIndex": -1,
  "trIndex": -1
}