{
  "pixelmonName": "Abomasnow",
  "spDef": 105,
  "spAtt": 132,
  "speed": 30,
  "defence": 105,
  "attack": 132,
  "hp": 90,
  "catchRate": 60,
  "malePercent": 50,
  "nationalPokedexNumber": 460,
  "spawnLevel": 1,
  "spawnLevelRange": 99,
  "baseExp": 173,
  "baseFriendship": 0,
  "rarity": {
    "day": 0,
    "dawndusk": 0,
    "night": 0
  },
  "type1": "Grass",
  "type2": "Ice",
  "height": 2.7,
  "width": 2.7,
  "length": 2.7,
  "giScale": 1.0,
  "canFly": false,
  "isRideable": false,
  "preEvolutions": [
    "Snover"
  ],
  "experienceGroup": "Slow",
  "aggression": {
    "timid": 80,
    "passive": 0,
    "aggressive": 20
  },
  "spawnLocations": [],
  "biomeIDs": [
    30,
    31,
    158
  ],
  "evGain": {
    "HP": 0,
    "Attack": 1,
    "Defence": 0,
    "SpecialAttack": 1,
    "SpecialDefence": 0,
    "Speed": 0
  },
  "canSurf": false,
  "maxGroupSize": 1,
  "minGroupSize": 1,
  "hoverHeight": 0.0,
  "doesHover": false,
  "id": 800,
  "baseFormID": 541,
  "weight": 185.0,
  "pokemon": "Abomasnow",
  "abilities": [
    "SnowWarning",
    null,
    null
  ],
  "eggGroups": [
    "Monster",
    "Grass"
  ],
  "eggCycles": 21,
  "form": 1,
  "evolutionDefs": [],
  "moves": {
    "levelMoves": {
      "1": [
        "Leer",
        "Aurora Veil",
        "Powder Snow",
        "Leafage",
        "Mist",
        "Ice Punch"
      ],
      "49": [
        "Blizzard"
      ],
      "35": [
        "Ingrain"
      ],
      "20": [
        "Razor Leaf"
      ],
      "56": [
        "Sheer Cold"
      ],
      "25": [
        "Icy Wind"
      ],
      "43": [
        "Wood Hammer"
      ],
      "30": [
        "Swagger"
      ],
      "15": [
        "Ice Shard"
      ]
    },
    "eggMoves": [
      "Growth",
      "Skull Bash",
      "Stomp",
      "Double-Edge",
      "Leech Seed"
    ],
    "evolutionMoves": [
      "Ice Punch"
    ],
    "tmTRMoves": [
      "Giga Drain",
      "Weather Ball",
      "Snore",
      "Facade",
      "Icicle Spear",
      "Light Screen",
      "Grass Knot",
      "Stomping Tantrum",
      "Swords Dance",
      "Solar Beam",
      "Icy Wind",
      "Mega Kick",
      "Magical Leaf",
      "Rest",
      "Seed Bomb",
      "Earthquake",
      "Iron Tail",
      "Rock Slide",
      "Earth Power",
      "Bullet Seed",
      "Round",
      "Shadow Ball",
      "Leaf Storm",
      "Bulldoze",
      "Substitute",
      "Brick Break",
      "Attract",
      "Hail",
      "Ice Beam",
      "Giga Impact",
      "Energy Ball",
      "Safeguard",
      "Protect",
      "Rain Dance",
      "Mega Punch",
      "Hyper Beam",
      "Focus Blast",
      "Avalanche",
      "Outrage",
      "Fling",
      "Rock Tomb",
      "Endure",
      "Sleep Talk",
      "Ice Punch",
      "Blizzard"
    ],
    "tutorMoves": {
      "Regular": [
        "Grassy Glide"
      ],
      "Transfer": [
        "Rock Smash",
        "Secret Power",
        "Grass Whistle",
        "Natural Gift",
        "Confide",
        "Synthesis",
        "Frost Breath",
        "Hidden Power",
        "Water Pulse",
        "Block",
        "Double Team",
        "Mud-Slap",
        "Focus Punch",
        "Worry Seed",
        "Toxic",
        "Rock Climb",
        "Headbutt",
        "Flash",
        "Return",
        "Captivate",
        "Role Play",
        "Strength",
        "Frustration"
      ]
    }
  }
}