{
  "pixelmonName": "Alakazam",
  "spDef": 105,
  "spAtt": 175,
  "speed": 150,
  "defence": 65,
  "attack": 50,
  "hp": 55,
  "catchRate": 50,
  "malePercent": 75,
  "nationalPokedexNumber": 65,
  "spawnLevel": 1,
  "spawnLevelRange": 99,
  "baseExp": 221,
  "baseFriendship": 0,
  "rarity": {
    "day": 0,
    "dawndusk": 0,
    "night": 0
  },
  "type1": "Psychic",
  "height": 1.2,
  "width": 1.2,
  "length": 1.2,
  "giScale": 1.0,
  "canFly": false,
  "isRideable": false,
  "preEvolutions": [
    "Kadabra",
    "Abra"
  ],
  "experienceGroup": "MediumSlow",
  "aggression": {
    "timid": 80,
    "passive": 0,
    "aggressive": 20
  },
  "spawnLocations": [],
  "biomeIDs": [
    4,
    5,
    18,
    19,
    27,
    28,
    29,
    32,
    33,
    132,
    133,
    155,
    156,
    157,
    160,
    161
  ],
  "evGain": {
    "HP": 0,
    "Attack": 0,
    "Defence": 0,
    "SpecialAttack": 3,
    "SpecialDefence": 0,
    "Speed": 0
  },
  "canSurf": false,
  "maxGroupSize": 1,
  "minGroupSize": 1,
  "hoverHeight": 0.0,
  "doesHover": false,
  "id": 804,
  "baseFormID": 148,
  "weight": 48.0,
  "pokemon": "Alakazam",
  "abilities": [
    "Trace",
    null,
    null
  ],
  "eggGroups": [
    "Undiscovered"
  ],
  "eggCycles": 20,
  "form": 1,
  "evolutionDefs": [],
  "moves": {
    "levelMoves": {
      "1": [
        "Kinesis",
        "Confusion",
        "Teleport",
        "Disable"
      ],
      "50": [
        "Calm Mind"
      ],
      "35": [
        "Psychic"
      ],
      "20": [
        "Psycho Cut"
      ],
      "5": [
        "Psybeam"
      ],
      "40": [
        "Role Play"
      ],
      "25": [
        "Recover"
      ],
      "10": [
        "Reflect"
      ],
      "45": [
        "Future Sight"
      ],
      "30": [
        "Psyshock"
      ],
      "15": [
        "Ally Switch"
      ]
    },
    "eggMoves": [
      "Confusion",
      "Guard Split",
      "Magic Coat"
    ],
    "evolutionMoves": [],
    "tmTRMoves": [
      "Taunt",
      "Dazzling Gleam",
      "Metronome",
      "Light Screen",
      "Encore",
      "Wonder Room",
      "Iron Tail",
      "Nasty Plot",
      "Body Slam",
      "Imprison",
      "Substitute",
      "Power Swap",
      "Attract",
      "Thunder Wave",
      "Future Sight",
      "Drain Punch",
      "Tri Attack",
      "Mega Punch",
      "Sunny Day",
      "Calm Mind",
      "Fling",
      "Psychic Terrain",
      "Endure",
      "Swift",
      "Zen Headbutt",
      "Thunder Punch",
      "Fire Punch",
      "Ice Punch",
      "Trick Room",
      "Snore",
      "Facade",
      "Magic Room",
      "Grass Knot",
      "Mega Kick",
      "Stored Power",
      "Rest",
      "Round",
      "Shadow Ball",
      "Skill Swap",
      "Ally Switch",
      "Giga Impact",
      "Energy Ball",
      "Safeguard",
      "Protect",
      "Guard Swap",
      "Rain Dance",
      "Thief",
      "Psyshock",
      "Trick",
      "Hyper Beam",
      "Focus Blast",
      "Psychic",
      "Foul Play",
      "Reflect",
      "Sleep Talk",
      "Speed Swap",
      "Psycho Cut"
    ],
    "tutorMoves": {
      "Regular": [
        "Expanding Force"
      ],
      "Transfer": [
        "Dream Eater",
        "Snatch",
        "Natural Gift",
        "Confide",
        "Double-Edge",
        "Hidden Power",
        "Bide",
        "Double Team",
        "Shock Wave",
        "Telekinesis",
        "Seismic Toss",
        "Rage",
        "Headbutt",
        "Dynamic Punch",
        "Skull Bash",
        "Swagger",
        "Charge Beam",
        "Nightmare",
        "Dig",
        "Submission",
        "Night Shade",
        "Mimic",
        "Miracle Eye",
        "Captivate",
        "Knock Off",
        "Psycho Shift",
        "Torment",
        "Frustration",
        "Laser Focus",
        "Secret Power",
        "Psych Up",
        "Counter",
        "Curse",
        "Take Down",
        "Recycle",
        "Psywave",
        "Focus Punch",
        "Toxic",
        "Barrier",
        "Embargo",
        "Power Trick",
        "Flash",
        "Signal Beam",
        "Gravity",
        "Return",
        "Zap Cannon"
      ]
    }
  }
}