{
  "pixelmonName": "Altaria",
  "spDef": 105,
  "spAtt": 110,
  "speed": 80,
  "defence": 110,
  "attack": 110,
  "hp": 75,
  "catchRate": 45,
  "malePercent": 50,
  "nationalPokedexNumber": 334,
  "spawnLevel": 1,
  "spawnLevelRange": 99,
  "baseExp": 172,
  "baseFriendship": 0,
  "rarity": {
    "day": 0,
    "dawndusk": 0,
    "night": 0
  },
  "type1": "Dragon",
  "type2": "Fairy",
  "height": 1.5,
  "width": 1.5,
  "length": 1.5,
  "giScale": 1.0,
  "canFly": true,
  "isRideable": true,
  "preEvolutions": [
    "Swablu"
  ],
  "experienceGroup": "Erratic",
  "aggression": {
    "timid": 80,
    "passive": 0,
    "aggressive": 20
  },
  "spawnLocations": [],
  "biomeIDs": [
    27,
    28,
    155,
    156
  ],
  "evGain": {
    "HP": 0,
    "Attack": 0,
    "Defence": 0,
    "SpecialAttack": 0,
    "SpecialDefence": 2,
    "Speed": 0
  },
  "canSurf": false,
  "maxGroupSize": 1,
  "minGroupSize": 1,
  "hoverHeight": 0.0,
  "doesHover": false,
  "id": 805,
  "baseFormID": 435,
  "weight": 20.6,
  "pokemon": "Altaria",
  "abilities": [
    "Pixilate",
    null,
    null
  ],
  "eggGroups": [
    "Flying",
    "Dragon"
  ],
  "eggCycles": 21,
  "form": 1,
  "evolutionDefs": [],
  "moves": {
    "levelMoves": {
      "16": [
        "Round"
      ],
      "32": [
        "Cotton Guard"
      ],
      "1": [
        "Disarming Voice",
        "Dragon Pulse",
        "Growl",
        "Peck",
        "Mist",
        "Pluck"
      ],
      "50": [
        "Perish Song"
      ],
      "20": [
        "Dragon Breath"
      ],
      "38": [
        "Take Down"
      ],
      "24": [
        "Safeguard"
      ],
      "56": [
        "Sky Attack"
      ],
      "12": [
        "Fury Attack"
      ],
      "28": [
        "Sing"
      ],
      "44": [
        "Moonblast"
      ]
    },
    "eggMoves": [
      "Dual Wingbeat"
    ],
    "evolutionMoves": [
      "Dragon Pulse"
    ],
    "tmTRMoves": [
      "Snore",
      "Facade",
      "Flamethrower",
      "Uproar",
      "Play Rough",
      "Dazzling Gleam",
      "Solar Beam",
      "Breaking Swipe",
      "Fly",
      "Rest",
      "Earthquake",
      "Wonder Room",
      "Iron Tail",
      "Agility",
      "Round",
      "Body Slam",
      "Heat Wave",
      "Bulldoze",
      "Substitute",
      "Hurricane",
      "Power Swap",
      "Dragon Dance",
      "Attract",
      "Ice Beam",
      "Giga Impact",
      "Hyper Voice",
      "Safeguard",
      "False Swipe",
      "Dragon Pulse",
      "Protect",
      "Rain Dance",
      "Thief",
      "Hyper Beam",
      "Sunny Day",
      "Dragon Claw",
      "Outrage",
      "Steel Wing",
      "Endure",
      "Sleep Talk",
      "Fire Spin",
      "Swift",
      "Fire Blast"
    ],
    "tutorMoves": {
      "Regular": [
        "Dual Wingbeat"
      ],
      "Transfer": [
        "Rock Smash",
        "Ominous Wind",
        "Secret Power",
        "Psych Up",
        "Dream Eater",
        "Draco Meteor",
        "Tailwind",
        "Natural Gift",
        "Confide",
        "Defog",
        "Incinerate",
        "Double-Edge",
        "Roost",
        "Hidden Power",
        "Haze",
        "Dragon Rush",
        "Echoed Voice",
        "Air Cutter",
        "Double Team",
        "Hone Claws",
        "Heal Bell",
        "Feather Dance",
        "Mud-Slap",
        "Toxic",
        "Astonish",
        "Aerial Ace",
        "Rage",
        "Refresh",
        "Swagger",
        "Return",
        "Mimic",
        "Captivate",
        "Roar",
        "Pursuit",
        "Twister",
        "Frustration"
      ]
    }
  }
}