{
  "pixelmonName": "Ampharos",
  "spDef": 110,
  "spAtt": 165,
  "speed": 45,
  "defence": 105,
  "attack": 95,
  "hp": 90,
  "catchRate": 45,
  "malePercent": 50,
  "nationalPokedexNumber": 181,
  "spawnLevel": 1,
  "spawnLevelRange": 99,
  "baseExp": 225,
  "baseFriendship": 0,
  "rarity": {
    "day": 0,
    "dawndusk": 0,
    "night": 0
  },
  "type1": "Electric",
  "type2": "Dragon",
  "height": 1.4,
  "width": 1.4,
  "length": 1.4,
  "giScale": 1.0,
  "canFly": false,
  "isRideable": false,
  "preEvolutions": [
    "Flaaffy",
    "Mareep"
  ],
  "experienceGroup": "MediumSlow",
  "aggression": {
    "timid": 80,
    "passive": 0,
    "aggressive": 20
  },
  "spawnLocations": [],
  "biomeIDs": [
    1,
    12
  ],
  "evGain": {
    "HP": 0,
    "Attack": 0,
    "Defence": 0,
    "SpecialAttack": 3,
    "SpecialDefence": 0,
    "Speed": 0
  },
  "canSurf": false,
  "maxGroupSize": 1,
  "minGroupSize": 1,
  "hoverHeight": 0.0,
  "doesHover": false,
  "id": 806,
  "baseFormID": 13,
  "weight": 61.5,
  "pokemon": "Ampharos",
  "abilities": [
    "MoldBreaker",
    null,
    null
  ],
  "eggGroups": [
    "Monster",
    "Field"
  ],
  "eggCycles": 20,
  "form": 1,
  "evolutionDefs": [],
  "moves": {
    "levelMoves": {
      "1": [
        "Magnetic Flux",
        "Dragon Pulse",
        "Ion Deluge",
        "Tackle",
        "Thunder Shock",
        "Growl",
        "Thunder Punch",
        "Zap Cannon",
        "Fire Punch",
        "Thunder Wave"
      ],
      "65": [
        "Dragon Pulse"
      ],
      "35": [
        "Power Gem"
      ],
      "4": [
        "Thunder Wave"
      ],
      "8": [
        "Thunder Shock"
      ],
      "40": [
        "Discharge"
      ],
      "11": [
        "Cotton Spore"
      ],
      "46": [
        "Cotton Guard"
      ],
      "16": [
        "Charge"
      ],
      "51": [
        "Signal Beam"
      ],
      "20": [
        "Take Down"
      ],
      "25": [
        "Electro Ball"
      ],
      "57": [
        "Light Screen"
      ],
      "29": [
        "Confuse Ray"
      ],
      "62": [
        "Thunder"
      ]
    },
    "eggMoves": [
      "After You",
      "Electric Terrain",
      "Flatter",
      "Iron Tail",
      "Odor Sleuth",
      "Take Down",
      "Sand Attack",
      "Agility",
      "Charge",
      "Eerie Impulse",
      "Body Slam",
      "Screech"
    ],
    "evolutionMoves": [
      "Thunder Punch"
    ],
    "tmTRMoves": [
      "Mega Punch",
      "Mega Kick",
      "Fire Punch",
      "Thunder Punch",
      "Hyper Beam",
      "Giga Impact",
      "Thunder Wave",
      "Screech",
      "Light Screen",
      "Reflect",
      "Safeguard",
      "Rest",
      "Snore",
      "Protect",
      "Attract",
      "Rain Dance",
      "Facade",
      "Swift",
      "Brick Break",
      "Fling",
      "Round",
      "Volt Switch",
      "Bulldoze",
      "Electroweb",
      "Electric Terrain",
      "Eerie Impulse",
      "Brutal Swing",
      "Body Slam",
      "Thunderbolt",
      "Thunder",
      "Agility",
      "Substitute",
      "Outrage",
      "Endure",
      "Sleep Talk",
      "Iron Tail",
      "Dragon Pulse",
      "Power Gem",
      "Focus Blast",
      "Electro Ball",
      "Wild Charge"
    ],
    "tutorMoves": {
      "Regular": [
        "After You",
        "Dragon Pulse",
        "Focus Punch",
        "Snore",
        "Magnet Rise",
        "Outrage",
        "Iron Tail",
        "Heal Bell",
        "Shock Wave",
        "Thunder Punch",
        "Electroweb",
        "Laser Focus",
        "Signal Beam",
        "Fire Punch"
      ],
      "Transfer": [
        "Rock Smash",
        "Secret Power",
        "Natural Gift",
        "Confide",
        "Counter",
        "Curse",
        "Double-Edge",
        "Hidden Power",
        "Power-Up Punch",
        "Echoed Voice",
        "Double Team",
        "Toxic",
        "Rock Climb",
        "Seismic Toss",
        "Headbutt",
        "Dynamic Punch",
        "Swagger",
        "Charge Beam",
        "Defense Curl",
        "Flash",
        "Return",
        "Mimic",
        "Captivate",
        "Strength",
        "Frustration"
      ]
    }
  }
}