{
  "pixelmonName": "Anorith",
  "spDef": 50,
  "spAtt": 40,
  "speed": 75,
  "defence": 50,
  "attack": 95,
  "hp": 45,
  "catchRate": 45,
  "malePercent": 87,
  "nationalPokedexNumber": 347,
  "spawnLevel": 20,
  "spawnLevelRange": 20,
  "baseExp": 99,
  "baseFriendship": 70,
  "rarity": {
    "day": 0,
    "dawndusk": 0,
    "night": 0
  },
  "type1": "Rock",
  "type2": "Bug",
  "height": 0.7,
  "width": 0.4,
  "length": 0.7,
  "giScale": 1.0,
  "canFly": false,
  "isRideable": false,
  "preEvolutions": [],
  "experienceGroup": "Erratic",
  "aggression": {
    "timid": 80,
    "passive": 0,
    "aggressive": 20
  },
  "spawnLocations": [
    "Land"
  ],
  "biomeIDs": [
    0,
    16,
    24,
    25
  ],
  "evGain": {
    "HP": 0,
    "Attack": 1,
    "Defence": 0,
    "SpecialAttack": 0,
    "SpecialDefence": 0,
    "Speed": 0
  },
  "canSurf": false,
  "maxGroupSize": 1,
  "minGroupSize": 1,
  "hoverHeight": 0.0,
  "doesHover": false,
  "id": 20,
  "baseFormID": 20,
  "weight": 12.5,
  "pokemon": "Anorith",
  "abilities": [
    "BattleArmour",
    null,
    "SwiftSwim"
  ],
  "eggGroups": [
    "Water3"
  ],
  "eggCycles": 31,
  "form": -1,
  "evolutionDefs": [
    {
      "targetId": 27,
      "evolveLevel": 40
    }
  ],
  "moves": {
    "levelMoves": {
      "16": [
        "Ancient Power"
      ],
      "32": [
        "Crush Claw"
      ],
      "1": [
        "Fury Cutter",
        "Harden"
      ],
      "4": [
        "Water Gun"
      ],
      "20": [
        "Bug Bite"
      ],
      "36": [
        "Rock Blast"
      ],
      "8": [
        "Smack Down"
      ],
      "24": [
        "Brine"
      ],
      "41": [
        "Protect"
      ],
      "12": [
        "Metal Claw"
      ],
      "28": [
        "Slash"
      ],
      "44": [
        "X-Scissor"
      ]
    },
    "eggMoves": [
      "Rapid Spin",
      "Curse",
      "Water Pulse",
      "Sand Attack",
      "Knock Off",
      "Aqua Jet"
    ],
    "evolutionMoves": [],
    "tmTRMoves": [
      "Snore",
      "Facade",
      "Cross Poison",
      "Swords Dance",
      "Rock Blast",
      "Screech",
      "Rest",
      "Rock Slide",
      "Earth Power",
      "Round",
      "Body Slam",
      "Sandstorm",
      "Iron Defense",
      "Mud Shot",
      "Substitute",
      "Brick Break",
      "Attract",
      "False Swipe",
      "Protect",
      "Dig",
      "Sunny Day",
      "Brine",
      "X-Scissor",
      "Rock Tomb",
      "Endure",
      "Sleep Talk",
      "Stealth Rock"
    ],
    "tutorMoves": {
      "Regular": [
        "Meteor Beam"
      ],
      "Transfer": [
        "Rock Smash",
        "Secret Power",
        "Natural Gift",
        "Confide",
        "Double-Edge",
        "Mud Sport",
        "Cut",
        "Hidden Power",
        "Double Team",
        "Hone Claws",
        "Mud-Slap",
        "Toxic",
        "Aerial Ace",
        "Struggle Bug",
        "Headbutt",
        "Scratch",
        "Swagger",
        "Return",
        "Mimic",
        "Captivate",
        "Rock Polish",
        "String Shot",
        "Frustration"
      ]
    }
  }
}