{
  "pixelmonName": "Arceus",
  "spDef": 120,
  "spAtt": 120,
  "speed": 120,
  "defence": 120,
  "attack": 120,
  "hp": 120,
  "catchRate": 3,
  "malePercent": -1,
  "nationalPokedexNumber": 493,
  "spawnLevel": 70,
  "spawnLevelRange": 0,
  "baseExp": 324,
  "baseFriendship": 0,
  "rarity": {
    "day": 0,
    "dawndusk": -1,
    "night": 0
  },
  "type1": "Fairy",
  "height": 3.2,
  "width": 1.0,
  "length": 1.0,
  "giScale": 0.5,
  "canFly": true,
  "isRideable": true,
  "preEvolutions": [],
  "experienceGroup": "Slow",
  "aggression": {
    "timid": 80,
    "passive": 0,
    "aggressive": 20
  },
  "spawnLocations": [
    "Land"
  ],
  "biomeIDs": [
    33
  ],
  "evGain": {
    "HP": 3,
    "Attack": 0,
    "Defence": 0,
    "SpecialAttack": 0,
    "SpecialDefence": 0,
    "Speed": 0
  },
  "canSurf": false,
  "maxGroupSize": 1,
  "minGroupSize": 1,
  "hoverHeight": 0.0,
  "doesHover": false,
  "id": 1050,
  "baseFormID": 571,
  "weight": 320.0,
  "pokemon": "Arceus",
  "abilities": [
    "Multitype",
    null,
    null
  ],
  "eggGroups": [
    "Undiscovered"
  ],
  "eggCycles": 121,
  "form": 17,
  "evolutionDefs": [],
  "moves": {
    "levelMoves": {
      "80": [
        "Hyper Beam"
      ],
      "1": [
        "Punishment",
        "Cosmic Power",
        "Seismic Toss",
        "Natural Gift"
      ],
      "50": [
        "Refresh"
      ],
      "20": [
        "Earth Power"
      ],
      "100": [
        "Judgment"
      ],
      "70": [
        "Recover"
      ],
      "40": [
        "Extreme Speed"
      ],
      "10": [
        "Gravity"
      ],
      "90": [
        "Perish Song"
      ],
      "60": [
        "Future Sight"
      ],
      "30": [
        "Hyper Voice"
      ]
    },
    "eggMoves": [
      "Giga Drain",
      "Telekinesis",
      "Snore",
      "Draco Meteor",
      "Icy Wind",
      "Tailwind",
      "Iron Head",
      "Defog",
      "Iron Tail",
      "Earth Power",
      "Heat Wave",
      "Aqua Tail",
      "Liquidation",
      "Iron Defense",
      "Signal Beam",
      "Gravity",
      "Hyper Voice",
      "Dragon Pulse",
      "Last Resort",
      "Trick",
      "Magic Coat",
      "Outrage",
      "Water Pulse",
      "Stealth Rock",
      "Recycle",
      "Zen Headbutt",
      "Shock Wave",
      "Laser Focus"
    ],
    "evolutionMoves": [],
    "tmTRMoves": [
      "Fly",
      "Hyper Beam",
      "Giga Impact",
      "Solar Beam",
      "Thunder Wave",
      "Light Screen",
      "Reflect",
      "Safeguard",
      "Rest",
      "Rock Slide",
      "Snore",
      "Protect",
      "Icy Wind",
      "Giga Drain",
      "Sandstorm",
      "Rain Dance",
      "Sunny Day",
      "Hail",
      "Whirlpool",
      "Will-O-Wisp",
      "Facade",
      "Brick Break",
      "Dive",
      "Rock Tomb",
      "Bullet Seed",
      "Brine",
      "Payback",
      "Avalanche",
      "Shadow Claw",
      "Trick Room",
      "Round",
      "Retaliate",
      "Bulldoze",
      "Snarl",
      "Swords Dance",
      "Flamethrower",
      "Surf",
      "Ice Beam",
      "Blizzard",
      "Thunderbolt",
      "Thunder",
      "Earthquake",
      "Psychic",
      "Fire Blast",
      "Waterfall",
      "Substitute",
      "Sludge Bomb",
      "Outrage",
      "Psyshock",
      "Endure",
      "Sleep Talk",
      "Iron Tail",
      "Shadow Ball",
      "Future Sight",
      "Heat Wave",
      "Trick",
      "Hyper Voice",
      "Overheat",
      "Cosmic Power",
      "Iron Defense",
      "Dragon Claw",
      "Calm Mind",
      "Poison Jab",
      "Dark Pulse",
      "X-scissor",
      "Dragon Pulse",
      "Focus Blast",
      "Energy Ball",
      "Earth Power",
      "Zen Headbutt",
      "Flash Cannon",
      "Iron Head",
      "Stone Edge",
      "Stealth Rock",
      "Grass Knot",
      "Work Up",
      "Liquidation"
    ],
    "tutorMoves": {
      "Regular": [
        "Giga Drain",
        "Telekinesis",
        "Snore",
        "Draco Meteor",
        "Icy Wind",
        "Tailwind",
        "Iron Head",
        "Defog",
        "Iron Tail",
        "Earth Power",
        "Heat Wave",
        "Aqua Tail",
        "Liquidation",
        "Iron Defense",
        "Signal Beam",
        "Gravity",
        "Hyper Voice",
        "Dragon Pulse",
        "Last Resort",
        "Trick",
        "Magic Coat",
        "Outrage",
        "Water Pulse",
        "Stealth Rock",
        "Recycle",
        "Zen Headbutt",
        "Shock Wave",
        "Laser Focus"
      ],
      "Transfer": [
        "Ominous Wind",
        "Silver Wind",
        "Dream Eater",
        "Confide",
        "Incinerate",
        "Quash",
        "Cut",
        "Hidden Power",
        "Ancient Power",
        "Double Team",
        "Swift",
        "Hone Claws",
        "Headbutt",
        "Swagger",
        "Charge Beam",
        "Roar",
        "Will-O-Wisp",
        "Fury Cutter",
        "Twister",
        "Frustration",
        "Rock Smash",
        "Secret Power",
        "Psych Up",
        "Echoed Voice",
        "Mud-Slap",
        "Toxic",
        "Rock Climb",
        "Aerial Ace",
        "Flash",
        "Return",
        "X-Scissor",
        "Strength"
      ]
    }
  }
}