{
  "pixelmonName": "Banette",
  "spDef": 83,
  "spAtt": 93,
  "speed": 75,
  "defence": 75,
  "attack": 165,
  "hp": 64,
  "catchRate": 45,
  "malePercent": 50,
  "nationalPokedexNumber": 354,
  "spawnLevel": 1,
  "spawnLevelRange": 99,
  "baseExp": 159,
  "baseFriendship": 0,
  "rarity": {
    "day": 0,
    "dawndusk": 0,
    "night": 0
  },
  "type1": "Ghost",
  "height": 1.2,
  "width": 1.2,
  "length": 1.2,
  "giScale": 1.0,
  "canFly": false,
  "isRideable": false,
  "preEvolutions": [
    "Shuppet"
  ],
  "experienceGroup": "Fast",
  "aggression": {
    "timid": 80,
    "passive": 0,
    "aggressive": 20
  },
  "spawnLocations": [],
  "biomeIDs": [
    1
  ],
  "evGain": {
    "HP": 0,
    "Attack": 2,
    "Defence": 0,
    "SpecialAttack": 0,
    "SpecialDefence": 0,
    "Speed": 0
  },
  "canSurf": false,
  "maxGroupSize": 1,
  "minGroupSize": 1,
  "hoverHeight": 0.0,
  "doesHover": false,
  "id": 808,
  "baseFormID": 449,
  "weight": 13.0,
  "pokemon": "Banette",
  "abilities": [
    "Prankster",
    null,
    null
  ],
  "eggGroups": [
    "Amorphous"
  ],
  "eggCycles": 26,
  "form": 1,
  "evolutionDefs": [],
  "moves": {
    "levelMoves": {
      "64": [
        "Phantom Force"
      ],
      "1": [
        "Phantom Force",
        "Night Shade",
        "Knock Off",
        "Spite",
        "Screech"
      ],
      "34": [
        "Embargo"
      ],
      "4": [
        "Screech"
      ],
      "7": [
        "Night Shade"
      ],
      "40": [
        "Sucker Punch"
      ],
      "10": [
        "Spite"
      ],
      "13": [
        "Shadow Sneak"
      ],
      "46": [
        "Snatch"
      ],
      "16": [
        "Will-O-Wisp"
      ],
      "19": [
        "Faint Attack"
      ],
      "52": [
        "Grudge"
      ],
      "22": [
        "Hex"
      ],
      "26": [
        "Curse"
      ],
      "58": [
        "Trick"
      ],
      "30": [
        "Shadow Ball"
      ]
    },
    "eggMoves": [
      "Ominous Wind",
      "Destiny Bond",
      "Phantom Force",
      "Astonish",
      "Confuse Ray",
      "Imprison",
      "Pursuit",
      "Shadow Sneak",
      "Gunk Shot",
      "Disable",
      "Foresight"
    ],
    "evolutionMoves": [],
    "tmTRMoves": [
      "Hyper Beam",
      "Giga Impact",
      "Thunder Wave",
      "Screech",
      "Rest",
      "Thief",
      "Snore",
      "Protect",
      "Icy Wind",
      "Attract",
      "Rain Dance",
      "Sunny Day",
      "Will-O-Wisp",
      "Facade",
      "Helping Hand",
      "Imprison",
      "Payback",
      "Fling",
      "Shadow Claw",
      "Trick Room",
      "Magic Room",
      "Round",
      "Hex",
      "Phantom Force",
      "Body Slam",
      "Thunderbolt",
      "Thunder",
      "Psychic",
      "Metronome",
      "Substitute",
      "Endure",
      "Sleep Talk",
      "Shadow Ball",
      "Taunt",
      "Trick",
      "Skill Swap",
      "Calm Mind",
      "Dark Pulse",
      "Gunk Shot",
      "Foul Play",
      "Ally Switch",
      "Dazzling Gleam",
      "Throat Chop"
    ],
    "tutorMoves": {
      "Regular": [
        "Telekinesis",
        "Snore",
        "Trick",
        "Knock Off",
        "Magic Room",
        "Icy Wind",
        "Throat Chop",
        "Magic Coat",
        "Snatch",
        "Role Play",
        "Foul Play",
        "Pain Split",
        "Spite",
        "Gunk Shot",
        "Shock Wave",
        "Ally Switch",
        "Skill Swap"
      ],
      "Transfer": [
        "Secret Power",
        "Psych Up",
        "Dream Eater",
        "Natural Gift",
        "Confide",
        "Double-Edge",
        "Hidden Power",
        "Double Team",
        "Infestation",
        "Mud-Slap",
        "Toxic",
        "Headbutt",
        "Swagger",
        "Charge Beam",
        "Flash",
        "Return",
        "Mimic",
        "Captivate",
        "Torment",
        "Frustration"
      ]
    }
  }
}