{
  "pixelmonName": "Barboach",
  "spDef": 41,
  "spAtt": 46,
  "speed": 60,
  "defence": 43,
  "attack": 48,
  "hp": 50,
  "catchRate": 190,
  "malePercent": 50,
  "nationalPokedexNumber": 339,
  "spawnLevel": 25,
  "spawnLevelRange": 15,
  "baseExp": 92,
  "baseFriendship": 70,
  "rarity": {
    "day": 200,
    "dawndusk": 200,
    "night": 200
  },
  "type1": "Water",
  "type2": "Ground",
  "height": 0.28,
  "width": 0.25,
  "length": 0.3,
  "giScale": 1.0,
  "canFly": false,
  "isRideable": false,
  "preEvolutions": [],
  "experienceGroup": "MediumFast",
  "aggression": {
    "timid": 80,
    "passive": 0,
    "aggressive": 20
  },
  "swimmingParameters": {
    "depthRangeStart": 1,
    "depthRangeEnd": 12,
    "swimSpeed": 0.5,
    "decayRate": 0.99,
    "refreshRate": 200
  },
  "spawnLocations": [
    "Water"
  ],
  "biomeIDs": [
    6,
    7,
    134
  ],
  "evGain": {
    "HP": 1,
    "Attack": 0,
    "Defence": 0,
    "SpecialAttack": 0,
    "SpecialDefence": 0,
    "Speed": 0
  },
  "canSurf": true,
  "maxGroupSize": 4,
  "minGroupSize": 2,
  "hoverHeight": 0.0,
  "doesHover": false,
  "id": 438,
  "baseFormID": 438,
  "weight": 1.9,
  "pokemon": "Barboach",
  "abilities": [
    "Oblivious",
    "Anticipation",
    "Hydration"
  ],
  "eggGroups": [
    "Water2"
  ],
  "eggCycles": 21,
  "form": -1,
  "evolutionDefs": [
    {
      "targetId": 439,
      "evolveLevel": 30
    }
  ],
  "moves": {
    "levelMoves": {
      "48": [
        "Fissure"
      ],
      "1": [
        "Mud-Slap",
        "Water Gun"
      ],
      "18": [
        "Amnesia"
      ],
      "36": [
        "Earthquake"
      ],
      "6": [
        "Rest",
        "Snore"
      ],
      "24": [
        "Aqua Tail"
      ],
      "42": [
        "Future Sight"
      ],
      "12": [
        "Water Pulse"
      ],
      "31": [
        "Muddy Water"
      ]
    },
    "eggMoves": [
      "Flail",
      "Take Down",
      "Spark",
      "Thrash"
    ],
    "evolutionMoves": [],
    "tmTRMoves": [
      "Snore",
      "Facade",
      "Waterfall",
      "Icy Wind",
      "Surf",
      "Rest",
      "Earthquake",
      "Hydro Pump",
      "Earth Power",
      "Round",
      "Sandstorm",
      "Bounce",
      "Bulldoze",
      "Amnesia",
      "Mud Shot",
      "Substitute",
      "Dragon Dance",
      "Attract",
      "Hail",
      "Ice Beam",
      "Future Sight",
      "Protect",
      "Rain Dance",
      "Scald",
      "Rock Tomb",
      "Dive",
      "Endure",
      "Sleep Talk",
      "Whirlpool",
      "Muddy Water",
      "Blizzard"
    ],
    "tutorMoves": {
      "Transfer": [
        "Secret Power",
        "Natural Gift",
        "Confide",
        "Double-Edge",
        "Mud Sport",
        "Hidden Power",
        "Water Sport",
        "Double Team",
        "Mud Bomb",
        "Toxic",
        "Magnitude",
        "Headbutt",
        "Swagger",
        "Return",
        "Mimic",
        "Captivate",
        "Frustration"
      ]
    }
  }
}