{
  "pixelmonName": "Beedrill",
  "spDef": 80,
  "spAtt": 15,
  "speed": 145,
  "defence": 40,
  "attack": 150,
  "hp": 65,
  "catchRate": 45,
  "malePercent": 50,
  "nationalPokedexNumber": 15,
  "spawnLevel": 1,
  "spawnLevelRange": 99,
  "baseExp": 173,
  "baseFriendship": 0,
  "rarity": {
    "day": 0,
    "dawndusk": 0,
    "night": 0
  },
  "type1": "Bug",
  "type2": "Poison",
  "height": 1.4,
  "width": 1.4,
  "length": 1.4,
  "giScale": 1.0,
  "canFly": true,
  "isRideable": false,
  "preEvolutions": [
    "Kakuna",
    "Weedle"
  ],
  "experienceGroup": "MediumFast",
  "aggression": {
    "timid": 80,
    "passive": 0,
    "aggressive": 20
  },
  "spawnLocations": [],
  "biomeIDs": [
    27,
    28,
    129,
    132,
    155,
    156
  ],
  "evGain": {
    "HP": 0,
    "Attack": 2,
    "Defence": 0,
    "SpecialAttack": 0,
    "SpecialDefence": 1,
    "Speed": 0
  },
  "canSurf": false,
  "maxGroupSize": 1,
  "minGroupSize": 1,
  "hoverHeight": 1.0,
  "doesHover": true,
  "id": 809,
  "baseFormID": 137,
  "weight": 40.5,
  "pokemon": "Beedrill",
  "abilities": [
    "Adaptability",
    null,
    null
  ],
  "eggGroups": [
    "Bug"
  ],
  "eggCycles": 10,
  "form": 1,
  "evolutionDefs": [],
  "moves": {
    "levelMoves": {
      "32": [
        "Pin Missile"
      ],
      "1": [
        "Twineedle",
        "Peck",
        "Fury Attack"
      ],
      "35": [
        "Poison Jab"
      ],
      "38": [
        "Agility"
      ],
      "41": [
        "Endeavor"
      ],
      "11": [
        "Fury Attack"
      ],
      "44": [
        "Fell Stinger"
      ],
      "13": [
        "Rage"
      ],
      "14": [
        "Rage"
      ],
      "16": [
        "Fury Attack"
      ],
      "17": [
        "Pursuit"
      ],
      "19": [
        "Focus Energy"
      ],
      "20": [
        "Focus Energy"
      ],
      "22": [
        "Poison Jab"
      ],
      "23": [
        "Venoshock"
      ],
      "25": [
        "Agility"
      ],
      "26": [
        "Assurance"
      ],
      "28": [
        "Pin Missile"
      ],
      "29": [
        "Toxic Spikes"
      ],
      "31": [
        "Outrage"
      ]
    },
    "eggMoves": [
      "Giga Drain",
      "Endeavor",
      "Snore",
      "Knock Off",
      "Bug Bite",
      "Drill Run",
      "Throat Chop",
      "Tailwind",
      "Defog",
      "Poison Sting",
      "String Shot",
      "Harden",
      "Electroweb",
      "Laser Focus"
    ],
    "evolutionMoves": [
      "Twineedle"
    ],
    "tmTRMoves": [
      "Pin Missile",
      "Hyper Beam",
      "Giga Impact",
      "Solar Beam",
      "Screech",
      "Rest",
      "Thief",
      "Snore",
      "Protect",
      "Giga Drain",
      "Attract",
      "Sunny Day",
      "Facade",
      "Brick Break",
      "U-turn",
      "Payback",
      "Assurance",
      "Cross Poison",
      "Venoshock",
      "Round",
      "Acrobatics",
      "Electroweb",
      "False Swipe",
      "Brutal Swing",
      "Swords Dance",
      "Agility",
      "Focus Energy",
      "Substitute",
      "Sludge Bomb",
      "Endure",
      "Sleep Talk",
      "Baton Pass",
      "Iron Defense",
      "Toxic Spikes",
      "Poison Jab",
      "X-scissor",
      "Drill Run",
      "Throat Chop"
    ],
    "tutorMoves": {
      "Regular": [
        "Defog",
        "Giga Drain",
        "Endeavor",
        "Snore",
        "Knock Off",
        "Bug Bite",
        "Drill Run",
        "Throat Chop",
        "Tailwind",
        "Electroweb",
        "Laser Focus"
      ],
      "Transfer": [
        "Rock Smash",
        "Ominous Wind",
        "Silver Wind",
        "Secret Power",
        "Natural Gift",
        "Confide",
        "Curse",
        "Double-Edge",
        "Cut",
        "Roost",
        "Take Down",
        "Hidden Power",
        "Mega Drain",
        "Air Cutter",
        "Bide",
        "Double Team",
        "Swift",
        "Infestation",
        "Toxic",
        "Aerial Ace",
        "Struggle Bug",
        "Headbutt",
        "Skull Bash",
        "Swagger",
        "Flash",
        "Return",
        "Mimic",
        "Sweet Scent",
        "Captivate",
        "X-Scissor",
        "Fury Cutter",
        "Reflect",
        "Frustration"
      ]
    }
  }
}