{
  "pixelmonName": "Binacle",
  "spDef": 56,
  "spAtt": 39,
  "speed": 50,
  "defence": 67,
  "attack": 52,
  "hp": 42,
  "catchRate": 120,
  "malePercent": 50,
  "nationalPokedexNumber": 688,
  "spawnLevel": 20,
  "spawnLevelRange": 10,
  "baseExp": 61,
  "baseFriendship": 0,
  "rarity": {
    "day": 30,
    "dawndusk": 0,
    "night": 0
  },
  "type1": "Rock",
  "type2": "Water",
  "height": 0.5,
  "width": 0.5,
  "length": 0.5,
  "giScale": 1.0,
  "canFly": false,
  "isRideable": false,
  "preEvolutions": [],
  "experienceGroup": "MediumFast",
  "aggression": {
    "timid": 80,
    "passive": 0,
    "aggressive": 20
  },
  "spawnLocations": [
    "Land"
  ],
  "biomeIDs": [
    16,
    16,
    25
  ],
  "evGain": {
    "HP": 0,
    "Attack": 1,
    "Defence": 0,
    "SpecialAttack": 0,
    "SpecialDefence": 0,
    "Speed": 0
  },
  "canSurf": false,
  "maxGroupSize": 1,
  "minGroupSize": 1,
  "hoverHeight": 0.0,
  "doesHover": false,
  "id": 732,
  "baseFormID": 732,
  "weight": 31.0,
  "pokemon": "Binacle",
  "abilities": [
    "Sniper",
    "ToughClaws",
    "Pickpocket"
  ],
  "eggGroups": [
    "Water3"
  ],
  "eggCycles": 21,
  "form": -1,
  "evolutionDefs": [
    {
      "targetId": 730,
      "evolveLevel": 39
    }
  ],
  "moves": {
    "levelMoves": {
      "16": [
        "Fury Swipes"
      ],
      "32": [
        "Hone Claws"
      ],
      "1": [
        "Mud-Slap",
        "Scratch"
      ],
      "4": [
        "Withdraw"
      ],
      "20": [
        "Ancient Power"
      ],
      "36": [
        "Razor Shell"
      ],
      "8": [
        "Water Gun"
      ],
      "24": [
        "Rock Polish"
      ],
      "40": [
        "Shell Smash"
      ],
      "12": [
        "Fury Cutter"
      ],
      "28": [
        "Slash"
      ],
      "44": [
        "Cross Chop"
      ]
    },
    "eggMoves": [
      "Sand Attack",
      "Night Slash",
      "Switcheroo"
    ],
    "evolutionMoves": [],
    "tmTRMoves": [
      "Snore",
      "Facade",
      "Assurance",
      "Uproar",
      "Taunt",
      "Beat Up",
      "Sludge Bomb",
      "Stone Edge",
      "Grass Knot",
      "Swords Dance",
      "Icy Wind",
      "Rock Blast",
      "Screech",
      "Surf",
      "Rest",
      "Earthquake",
      "Rock Slide",
      "Sludge Wave",
      "Round",
      "Sandstorm",
      "Bulldoze",
      "Liquidation",
      "Iron Defense",
      "Mud Shot",
      "Substitute",
      "Poison Jab",
      "Brick Break",
      "Attract",
      "Ice Beam",
      "Helping Hand",
      "Payback",
      "Safeguard",
      "False Swipe",
      "Protect",
      "Dig",
      "Rain Dance",
      "Thief",
      "Razor Shell",
      "Scald",
      "X-Scissor",
      "Fling",
      "Rock Tomb",
      "Endure",
      "Sleep Talk",
      "Stealth Rock",
      "Shadow Claw",
      "Blizzard"
    ],
    "tutorMoves": {
      "Transfer": [
        "Rock Smash",
        "Secret Power",
        "Confide",
        "Cut",
        "Hidden Power",
        "Water Sport",
        "Dual Chop",
        "Power-Up Punch",
        "Smack Down",
        "Water Pulse",
        "Double Team",
        "Tickle",
        "Infestation",
        "Toxic",
        "Aerial Ace",
        "Embargo",
        "Swagger",
        "Endeavor",
        "Return",
        "Nature Power",
        "Clamp",
        "Torment",
        "Strength",
        "Frustration"
      ]
    }
  }
}