{
  "pixelmonName": "Blastoise",
  "spDef": 105,
  "spAtt": 85,
  "speed": 78,
  "defence": 100,
  "attack": 83,
  "hp": 79,
  "catchRate": 45,
  "malePercent": 87,
  "nationalPokedexNumber": 9,
  "spawnLevel": 36,
  "spawnLevelRange": 14,
  "baseExp": 239,
  "baseFriendship": 70,
  "rarity": {
    "day": 5,
    "dawndusk": 0,
    "night": 5
  },
  "type1": "Water",
  "height": 1.6,
  "width": 1.0,
  "length": 1.0,
  "giScale": 1.0,
  "canFly": false,
  "isRideable": true,
  "preEvolutions": [
    "Wartortle",
    "Squirtle"
  ],
  "experienceGroup": "MediumSlow",
  "aggression": {
    "timid": 80,
    "passive": 0,
    "aggressive": 20
  },
  "spawnLocations": [
    "Land"
  ],
  "biomeIDs": [
    0,
    7,
    16,
    24
  ],
  "evGain": {
    "HP": 0,
    "Attack": 0,
    "Defence": 0,
    "SpecialAttack": 0,
    "SpecialDefence": 3,
    "Speed": 0
  },
  "canSurf": false,
  "ridingOffsets": {
    "standing": {
      "x": 0.0,
      "y": -1.0,
      "z": -0.05
    }
  },
  "maxGroupSize": 1,
  "minGroupSize": 1,
  "hoverHeight": 0.0,
  "doesHover": false,
  "id": 131,
  "baseFormID": 131,
  "weight": 85.5,
  "pokemon": "Blastoise",
  "abilities": [
    "Torrent",
    null,
    "RainDish"
  ],
  "eggGroups": [
    "Monster",
    "Water1"
  ],
  "eggCycles": 21,
  "form": -1,
  "evolutionDefs": [],
  "moves": {
    "levelMoves": {
      "1": [
        "Water Gun",
        "Tackle",
        "Tail Whip",
        "Withdraw",
        "Flash Cannon"
      ],
      "49": [
        "Hydro Pump"
      ],
      "35": [
        "Shell Smash"
      ],
      "20": [
        "Protect"
      ],
      "56": [
        "Skull Bash"
      ],
      "9": [
        "Rapid Spin"
      ],
      "25": [
        "Rain Dance"
      ],
      "42": [
        "Iron Defense"
      ],
      "12": [
        "Bite"
      ],
      "30": [
        "Aqua Tail"
      ],
      "15": [
        "Water Pulse"
      ]
    },
    "eggMoves": [
      "Flail",
      "Water Spout",
      "Haze",
      "Life Dew",
      "Yawn",
      "Fake Out",
      "Mirror Coat",
      "Aqua Ring",
      "Mist",
      "Aqua Jet"
    ],
    "evolutionMoves": [
      "Flash Cannon"
    ],
    "tmTRMoves": [
      "Icy Wind",
      "Surf",
      "Iron Tail",
      "Work Up",
      "Hydro Pump",
      "Aura Sphere",
      "Body Slam",
      "Bulldoze",
      "Substitute",
      "Attract",
      "Ice Beam",
      "Crunch",
      "False Swipe",
      "Mega Punch",
      "Brine",
      "Flash Cannon",
      "Avalanche",
      "Outrage",
      "Fling",
      "Rock Tomb",
      "Dive",
      "Endure",
      "Whirlpool",
      "Muddy Water",
      "Zen Headbutt",
      "Ice Punch",
      "Weather Ball",
      "Snore",
      "Facade",
      "Waterfall",
      "Dark Pulse",
      "Mega Kick",
      "Rest",
      "Earthquake",
      "Rock Slide",
      "Round",
      "Liquidation",
      "Iron Defense",
      "Brick Break",
      "Hail",
      "Giga Impact",
      "Body Press",
      "Helping Hand",
      "Dragon Pulse",
      "Protect",
      "Dig",
      "Rain Dance",
      "Hyper Beam",
      "Scald",
      "Gyro Ball",
      "Focus Blast",
      "Sleep Talk",
      "Blizzard"
    ],
    "tutorMoves": {
      "Regular": [
        "Flip Turn",
        "Terrain Pulse"
      ],
      "Transfer": [
        "Natural Gift",
        "Confide",
        "Double-Edge",
        "Mud Sport",
        "Water Pledge",
        "Hidden Power",
        "Power-Up Punch",
        "Bide",
        "Double Team",
        "Seismic Toss",
        "Rage",
        "Headbutt",
        "Refresh",
        "Dynamic Punch",
        "Dragon Tail",
        "Swagger",
        "Defense Curl",
        "Submission",
        "Mimic",
        "Captivate",
        "Roar",
        "Reflect",
        "Frustration",
        "Rock Smash",
        "Secret Power",
        "Bubble Beam",
        "Bubble",
        "Counter",
        "Curse",
        "Take Down",
        "Fissure",
        "Smack Down",
        "Mud-Slap",
        "Focus Punch",
        "Toxic",
        "Rock Climb",
        "Confusion",
        "Rollout",
        "Signal Beam",
        "Return",
        "Hydro Cannon",
        "Strength",
        "Foresight"
      ]
    }
  }
}