{
  "pixelmonName": "Blaziken",
  "spDef": 80,
  "spAtt": 130,
  "speed": 100,
  "defence": 80,
  "attack": 160,
  "hp": 80,
  "catchRate": 45,
  "malePercent": 87,
  "nationalPokedexNumber": 257,
  "spawnLevel": 1,
  "spawnLevelRange": 99,
  "baseExp": 239,
  "baseFriendship": 0,
  "rarity": {
    "day": 0,
    "dawndusk": 0,
    "night": 0
  },
  "type1": "Fire",
  "type2": "Fighting",
  "height": 1.9,
  "width": 1.9,
  "length": 1.9,
  "giScale": 1.0,
  "canFly": false,
  "isRideable": false,
  "preEvolutions": [
    "Combusken",
    "Torchic"
  ],
  "experienceGroup": "MediumSlow",
  "aggression": {
    "timid": 80,
    "passive": 0,
    "aggressive": 20
  },
  "spawnLocations": [],
  "biomeIDs": [
    35,
    36,
    163,
    164
  ],
  "evGain": {
    "HP": 0,
    "Attack": 3,
    "Defence": 0,
    "SpecialAttack": 0,
    "SpecialDefence": 0,
    "Speed": 0
  },
  "canSurf": false,
  "maxGroupSize": 1,
  "minGroupSize": 1,
  "hoverHeight": 0.0,
  "doesHover": false,
  "id": 811,
  "baseFormID": 364,
  "weight": 52.0,
  "pokemon": "Blaziken",
  "abilities": [
    "SpeedBoost",
    null,
    null
  ],
  "eggGroups": [
    "Field"
  ],
  "eggCycles": 21,
  "form": 1,
  "evolutionDefs": [],
  "moves": {
    "levelMoves": {
      "1": [
        "Quick Attack",
        "Flamethrower",
        "Scratch",
        "Double Kick",
        "Growl",
        "Ember",
        "Brave Bird",
        "Feather Dance",
        "Fire Punch"
      ],
      "49": [
        "Bulk Up"
      ],
      "35": [
        "Focus Energy"
      ],
      "20": [
        "Aerial Ace"
      ],
      "56": [
        "Reversal"
      ],
      "9": [
        "Flame Charge"
      ],
      "25": [
        "Slash"
      ],
      "42": [
        "Blaze Kick"
      ],
      "12": [
        "Detect"
      ],
      "30": [
        "Bounce"
      ],
      "15": [
        "Sand Attack"
      ],
      "63": [
        "Flare Blitz"
      ]
    },
    "eggMoves": [
      "Scorching Sands",
      "Coaching"
    ],
    "evolutionMoves": [],
    "tmTRMoves": [
      "Assurance",
      "Flamethrower",
      "Overheat",
      "Swords Dance",
      "Revenge",
      "Brave Bird",
      "Close Combat",
      "Work Up",
      "Agility",
      "Aura Sphere",
      "Body Slam",
      "Heat Wave",
      "Bulldoze",
      "Substitute",
      "Poison Jab",
      "Attract",
      "Mega Punch",
      "Sunny Day",
      "Fling",
      "Rock Tomb",
      "Endure",
      "Fire Spin",
      "Swift",
      "Heat Crash",
      "Blaze Kick",
      "Thunder Punch",
      "Low Sweep",
      "Fire Punch",
      "Fire Blast",
      "Snore",
      "Facade",
      "Focus Energy",
      "Stone Edge",
      "U-turn",
      "Solar Beam",
      "Bulk Up",
      "Mega Kick",
      "Rest",
      "Earthquake",
      "Rock Slide",
      "Round",
      "Bounce",
      "Superpower",
      "Brick Break",
      "Acrobatics",
      "Giga Impact",
      "Helping Hand",
      "Protect",
      "Dig",
      "Hyper Beam",
      "Will-O-Wisp",
      "Baton Pass",
      "Focus Blast",
      "Flare Blitz",
      "Low Kick",
      "Sleep Talk",
      "Reversal",
      "Shadow Claw"
    ],
    "tutorMoves": {
      "Regular": [
        "Scorching Sands",
        "Coaching"
      ],
      "Transfer": [
        "Natural Gift",
        "Confide",
        "Incinerate",
        "Peck",
        "Double-Edge",
        "Cut",
        "Hidden Power",
        "Flame Burst",
        "Power-Up Punch",
        "Double Team",
        "Hone Claws",
        "Seismic Toss",
        "Headbutt",
        "Dynamic Punch",
        "Blast Burn",
        "Swagger",
        "Mimic",
        "Captivate",
        "Knock Off",
        "Roar",
        "Sky Uppercut",
        "Fury Cutter",
        "Role Play",
        "Hi Jump Kick",
        "Smelling Salts",
        "Frustration",
        "Mirror Move",
        "Laser Focus",
        "Rock Smash",
        "Secret Power",
        "Crush Claw",
        "Fire Pledge",
        "Defog",
        "Counter",
        "Curse",
        "Vacuum Wave",
        "Dual Chop",
        "Echoed Voice",
        "Night Slash",
        "Feint",
        "Mud-Slap",
        "Focus Punch",
        "Toxic",
        "Rock Climb",
        "Last Resort",
        "Return",
        "Strength"
      ]
    }
  }
}