{
  "pixelmonName": "Boldore",
  "spDef": 40,
  "spAtt": 50,
  "speed": 20,
  "defence": 105,
  "attack": 105,
  "hp": 70,
  "catchRate": 120,
  "malePercent": 50,
  "nationalPokedexNumber": 525,
  "spawnLevel": 25,
  "spawnLevelRange": 15,
  "baseExp": 137,
  "baseFriendship": 70,
  "rarity": {
    "day": 0,
    "dawndusk": 100,
    "night": 100
  },
  "type1": "Rock",
  "height": 0.9,
  "width": 0.7,
  "length": 0.7,
  "giScale": 1.0,
  "canFly": false,
  "isRideable": false,
  "preEvolutions": [
    "Roggenrola"
  ],
  "experienceGroup": "MediumSlow",
  "aggression": {
    "timid": 80,
    "passive": 0,
    "aggressive": 20
  },
  "spawnLocations": [
    "Land",
    "UnderGround"
  ],
  "biomeIDs": [
    37,
    38,
    39,
    165,
    166,
    167
  ],
  "evGain": {
    "HP": 0,
    "Attack": 1,
    "Defence": 1,
    "SpecialAttack": 0,
    "SpecialDefence": 0,
    "Speed": 0
  },
  "canSurf": false,
  "maxGroupSize": 1,
  "minGroupSize": 1,
  "hoverHeight": 0.0,
  "doesHover": false,
  "id": 602,
  "baseFormID": 602,
  "weight": 102.0,
  "pokemon": "Boldore",
  "abilities": [
    "Sturdy",
    "WeakArmor",
    "SandForce"
  ],
  "eggGroups": [
    "Mineral"
  ],
  "eggCycles": 16,
  "form": -1,
  "evolutionDefs": [
    {
      "targetId": 0,
      "formTo": -1,
      "evolveCondition": "Trade:Gigalith"
    }
  ],
  "moves": {
    "levelMoves": {
      "16": [
        "Smack Down"
      ],
      "48": [
        "Stone Edge"
      ],
      "1": [
        "Tackle",
        "Sand Attack",
        "Stealth Rock",
        "Harden",
        "Power Gem"
      ],
      "20": [
        "Iron Defense"
      ],
      "36": [
        "Rock Blast"
      ],
      "54": [
        "Explosion"
      ],
      "24": [
        "Headbutt"
      ],
      "42": [
        "Sandstorm"
      ],
      "12": [
        "Mud-Slap"
      ],
      "30": [
        "Rock Slide"
      ]
    },
    "eggMoves": [
      "Wide Guard",
      "Curse",
      "Take Down",
      "Autotomize",
      "Gravity"
    ],
    "evolutionMoves": [
      "Power Gem"
    ],
    "tmTRMoves": [
      "Snore",
      "Facade",
      "Heavy Slam",
      "Stone Edge",
      "Stomping Tantrum",
      "Rock Blast",
      "Power Gem",
      "Rest",
      "Sand Tomb",
      "Earthquake",
      "Rock Slide",
      "Earth Power",
      "Round",
      "Sandstorm",
      "Bulldoze",
      "Iron Defense",
      "Substitute",
      "Attract",
      "Body Press",
      "Protect",
      "Flash Cannon",
      "Rock Tomb",
      "Endure",
      "Sleep Talk",
      "Stealth Rock"
    ],
    "tutorMoves": {
      "Regular": [
        "Meteor Beam"
      ],
      "Transfer": [
        "Rock Smash",
        "Secret Power",
        "Confide",
        "Hidden Power",
        "Lock-On",
        "Block",
        "Double Team",
        "Toxic",
        "Magnitude",
        "Swagger",
        "Return",
        "Nature Power",
        "Rock Polish",
        "Strength",
        "Frustration"
      ]
    }
  }
}