{
  "pixelmonName": "Bounsweet",
  "spDef": 38,
  "spAtt": 30,
  "speed": 32,
  "defence": 38,
  "attack": 30,
  "hp": 42,
  "catchRate": 235,
  "malePercent": 0,
  "nationalPokedexNumber": 761,
  "spawnLevel": 4,
  "spawnLevelRange": 13,
  "baseExp": 42,
  "baseFriendship": 70,
  "rarity": {
    "day": 180,
    "dawndusk": 0,
    "night": 0
  },
  "type1": "Grass",
  "height": 0.3,
  "width": 0.2,
  "length": 0.1,
  "giScale": 1.0,
  "canFly": false,
  "isRideable": false,
  "preEvolutions": [],
  "experienceGroup": "MediumSlow",
  "aggression": {
    "timid": 80,
    "passive": 0,
    "aggressive": 20
  },
  "spawnLocations": [
    "Land"
  ],
  "biomeIDs": [
    132,
    27,
    28
  ],
  "evGain": {
    "HP": 1,
    "Attack": 0,
    "Defence": 0,
    "SpecialAttack": 0,
    "SpecialDefence": 0,
    "Speed": 0
  },
  "canSurf": false,
  "maxGroupSize": 2,
  "minGroupSize": 1,
  "hoverHeight": 0.0,
  "doesHover": false,
  "id": 920,
  "baseFormID": 920,
  "weight": 3.2,
  "pokemon": "Bounsweet",
  "abilities": [
    "LeafGuard",
    "Oblivious",
    "SweetVeil"
  ],
  "eggGroups": [
    "Grass"
  ],
  "eggCycles": 20,
  "form": -1,
  "evolutionDefs": [
    {
      "targetId": 921,
      "evolveLevel": 18
    }
  ],
  "moves": {
    "levelMoves": {
      "16": [
        "Sweet Scent"
      ],
      "32": [
        "Aromatic Mist"
      ],
      "1": [
        "Splash"
      ],
      "4": [
        "Play Nice"
      ],
      "20": [
        "Magical Leaf"
      ],
      "36": [
        "Aromatherapy"
      ],
      "8": [
        "Rapid Spin"
      ],
      "24": [
        "Flail"
      ],
      "12": [
        "Razor Leaf"
      ],
      "28": [
        "Teeter Dance"
      ]
    },
    "eggMoves": [
      "Endeavor",
      "Synthesis",
      "Acupressure"
    ],
    "evolutionMoves": [],
    "tmTRMoves": [
      "Giga Drain",
      "Snore",
      "Facade",
      "Play Rough",
      "Dazzling Gleam",
      "Light Screen",
      "Grass Knot",
      "Solar Beam",
      "Magical Leaf",
      "Rest",
      "Seed Bomb",
      "Charm",
      "Round",
      "Bounce",
      "Substitute",
      "Attract",
      "Helping Hand",
      "Energy Ball",
      "Safeguard",
      "Protect",
      "Sunny Day",
      "Reflect",
      "Endure",
      "Sleep Talk",
      "Zen Headbutt",
      "Draining Kiss"
    ],
    "tutorMoves": {
      "Regular": [
        "Grassy Glide"
      ],
      "Transfer": [
        "Grass Whistle",
        "Confide",
        "Hidden Power",
        "Feint",
        "Double Team",
        "Worry Seed",
        "Toxic",
        "Swagger",
        "Return",
        "Nature Power",
        "Covet",
        "Frustration"
      ]
    }
  }
}