{
  "pixelmonName": "Braviary",
  "spDef": 75,
  "spAtt": 57,
  "speed": 80,
  "defence": 75,
  "attack": 123,
  "hp": 100,
  "catchRate": 60,
  "malePercent": 100,
  "nationalPokedexNumber": 628,
  "spawnLevel": 54,
  "spawnLevelRange": 11,
  "baseExp": 179,
  "baseFriendship": 70,
  "rarity": {
    "day": 5,
    "dawndusk": 0,
    "night": 0
  },
  "type1": "Normal",
  "type2": "Flying",
  "height": 1.5,
  "width": 1.0,
  "length": 1.0,
  "giScale": 1.0,
  "canFly": true,
  "isRideable": true,
  "preEvolutions": [
    "Rufflet"
  ],
  "experienceGroup": "Slow",
  "aggression": {
    "timid": 5,
    "passive": 35,
    "aggressive": 60
  },
  "flyingParameters": {
    "flyHeightMin": 20,
    "flyHeightMax": 40,
    "flySpeedModifier": 1.0,
    "flyRefreshRateY": 100,
    "flyRefreshRateXZ": 100,
    "flyRefreshRateSpeed": 100,
    "flightTimeMin": 0,
    "flightTimeMax": 20,
    "flapRate": 5,
    "landingMaterial": "GrassAndLeaves"
  },
  "spawnLocations": [
    "AirPersistent"
  ],
  "biomeIDs": [
    37,
    38,
    39,
    165,
    166,
    167,
    34,
    3,
    131
  ],
  "evGain": {
    "HP": 0,
    "Attack": 2,
    "Defence": 0,
    "SpecialAttack": 0,
    "SpecialDefence": 0,
    "Speed": 0
  },
  "canSurf": false,
  "ridingOffsets": {
    "standing": {
      "x": 0.0,
      "y": -1.0,
      "z": 0.0
    },
    "moving": {
      "x": 0.0,
      "y": -1.2,
      "z": 0.0
    }
  },
  "maxGroupSize": 1,
  "minGroupSize": 1,
  "hoverHeight": 0.0,
  "doesHover": false,
  "id": 698,
  "baseFormID": 698,
  "weight": 41.0,
  "pokemon": "Braviary",
  "abilities": [
    "KeenEye",
    "SheerForce",
    "Defiant"
  ],
  "eggGroups": [
    "Flying"
  ],
  "eggCycles": 21,
  "form": -1,
  "evolutionDefs": [],
  "moves": {
    "levelMoves": {
      "48": [
        "Crush Claw"
      ],
      "64": [
        "Defog"
      ],
      "80": [
        "Brave Bird"
      ],
      "1": [
        "Leer",
        "Sky Attack",
        "Peck",
        "Wing Attack",
        "Hone Claws",
        "Superpower"
      ],
      "18": [
        "Tailwind"
      ],
      "36": [
        "Slash"
      ],
      "24": [
        "Scary Face"
      ],
      "72": [
        "Thrash"
      ],
      "57": [
        "Air Slash"
      ],
      "42": [
        "Whirlwind"
      ],
      "30": [
        "Aerial Ace"
      ]
    },
    "eggMoves": [
      "Dual Wingbeat"
    ],
    "evolutionMoves": [
      "Superpower"
    ],
    "tmTRMoves": [
      "Snore",
      "Facade",
      "Assurance",
      "Air Slash",
      "U-turn",
      "Retaliate",
      "Bulk Up",
      "Brave Bird",
      "Close Combat",
      "Iron Head",
      "Fly",
      "Rest",
      "Work Up",
      "Rock Slide",
      "Agility",
      "Scary Face",
      "Round",
      "Heat Wave",
      "Substitute",
      "Superpower",
      "Hurricane",
      "Attract",
      "Giga Impact",
      "Protect",
      "Rain Dance",
      "Hyper Beam",
      "Sunny Day",
      "Rock Tomb",
      "Steel Wing",
      "Endure",
      "Sleep Talk",
      "Shadow Claw",
      "Swift",
      "Zen Headbutt"
    ],
    "tutorMoves": {
      "Regular": [
        "Dual Wingbeat"
      ],
      "Transfer": [
        "Rock Smash",
        "Secret Power",
        "Confide",
        "Pluck",
        "Fury Attack",
        "Cut",
        "Roost",
        "Hidden Power",
        "Double Team",
        "Toxic",
        "Sky Drop",
        "Swagger",
        "Return",
        "Strength",
        "Frustration",
        "Laser Focus"
      ]
    }
  }
}