{
  "pixelmonName": "Buizel",
  "spDef": 30,
  "spAtt": 60,
  "speed": 85,
  "defence": 35,
  "attack": 65,
  "hp": 55,
  "catchRate": 190,
  "malePercent": 50,
  "nationalPokedexNumber": 418,
  "spawnLevel": 10,
  "spawnLevelRange": 10,
  "baseExp": 75,
  "baseFriendship": 70,
  "rarity": {
    "day": 120,
    "dawndusk": 0,
    "night": 0
  },
  "type1": "Water",
  "height": 0.7,
  "width": 0.7,
  "length": 0.7,
  "giScale": 1.0,
  "canFly": false,
  "isRideable": false,
  "preEvolutions": [],
  "experienceGroup": "MediumFast",
  "aggression": {
    "timid": 80,
    "passive": 0,
    "aggressive": 20
  },
  "spawnLocations": [
    "Land"
  ],
  "biomeIDs": [
    7
  ],
  "evGain": {
    "HP": 0,
    "Attack": 0,
    "Defence": 0,
    "SpecialAttack": 0,
    "SpecialDefence": 0,
    "Speed": 1
  },
  "canSurf": false,
  "maxGroupSize": 3,
  "minGroupSize": 1,
  "hoverHeight": 0.0,
  "doesHover": false,
  "id": 501,
  "baseFormID": 501,
  "weight": 29.5,
  "pokemon": "Buizel",
  "abilities": [
    "SwiftSwim",
    null,
    "WaterVeil"
  ],
  "eggGroups": [
    "Water1",
    "Field"
  ],
  "eggCycles": 21,
  "form": -1,
  "evolutionDefs": [
    {
      "targetId": 502,
      "evolveLevel": 26
    }
  ],
  "moves": {
    "levelMoves": {
      "1": [
        "Sonic Boom"
      ],
      "35": [
        "Razor Wind"
      ],
      "4": [
        "Growl"
      ],
      "38": [
        "Aqua Tail"
      ],
      "7": [
        "Water Sport"
      ],
      "41": [
        "Agility"
      ],
      "11": [
        "Quick Attack"
      ],
      "45": [
        "Hydro Pump"
      ],
      "15": [
        "Water Gun"
      ],
      "18": [
        "Pursuit"
      ],
      "21": [
        "Swift"
      ],
      "24": [
        "Aqua Jet"
      ],
      "27": [
        "Double Hit"
      ],
      "31": [
        "Whirlpool"
      ]
    },
    "eggMoves": [
      "Mud-Slap",
      "Helping Hand",
      "Double Slap",
      "Soak",
      "Odor Sleuth",
      "Switcheroo",
      "Baton Pass",
      "Fury Swipes",
      "Headbutt",
      "Fury Cutter",
      "Tail Slap",
      "Aqua Ring",
      "Slash",
      "Aqua Tail",
      "Me First"
    ],
    "evolutionMoves": [],
    "tmTRMoves": [
      "Ice Punch",
      "Dig",
      "Rest",
      "Snore",
      "Protect",
      "Icy Wind",
      "Attract",
      "Rain Dance",
      "Hail",
      "Whirlpool",
      "Facade",
      "Swift",
      "Helping Hand",
      "Brick Break",
      "Dive",
      "Rock Tomb",
      "Brine",
      "Round",
      "Tail Slap",
      "Hydro Pump",
      "Surf",
      "Ice Beam",
      "Blizzard",
      "Agility",
      "Waterfall",
      "Substitute",
      "Endure",
      "Sleep Talk",
      "Baton Pass",
      "Iron Tail",
      "Bulk Up",
      "Scald"
    ],
    "tutorMoves": {
      "Regular": [
        "Helping Hand",
        "Focus Punch",
        "Snore",
        "Iron Tail",
        "Water Pulse",
        "Aqua Tail",
        "Icy Wind",
        "Ice Punch"
      ],
      "Transfer": [
        "Rock Smash",
        "Secret Power",
        "Natural Gift",
        "Confide",
        "Hidden Power",
        "Power-Up Punch",
        "Echoed Voice",
        "Double Team",
        "Toxic",
        "Swagger",
        "Return",
        "Captivate",
        "Strength",
        "Frustration"
      ]
    }
  }
}