{
  "pixelmonName": "Buzzwole",
  "spDef": 53,
  "spAtt": 53,
  "speed": 79,
  "defence": 139,
  "attack": 139,
  "hp": 107,
  "catchRate": 45,
  "malePercent": -1,
  "nationalPokedexNumber": 794,
  "spawnLevel": 70,
  "spawnLevelRange": 0,
  "baseExp": 257,
  "baseFriendship": 0,
  "rarity": {
    "day": -1,
    "dawndusk": 0,
    "night": 0
  },
  "type1": "Bug",
  "type2": "Fighting",
  "height": 2.0,
  "width": 1.0,
  "length": 1.0,
  "giScale": 0.5,
  "canFly": false,
  "isRideable": false,
  "preEvolutions": [],
  "experienceGroup": "Slow",
  "aggression": {
    "timid": 20,
    "passive": 0,
    "aggressive": 80
  },
  "spawnLocations": [],
  "biomeIDs": [],
  "evGain": {
    "HP": 0,
    "Attack": 1,
    "Defence": 2,
    "SpecialAttack": 0,
    "SpecialDefence": 0,
    "Speed": 0
  },
  "canSurf": false,
  "maxGroupSize": 1,
  "minGroupSize": 1,
  "hoverHeight": 0.0,
  "doesHover": false,
  "id": 974,
  "baseFormID": 974,
  "weight": 333.6,
  "pokemon": "Buzzwole",
  "abilities": [
    "BeastBoost",
    null,
    null
  ],
  "eggGroups": [
    "Undiscovered"
  ],
  "eggCycles": 120,
  "form": -1,
  "evolutionDefs": [],
  "moves": {
    "levelMoves": {
      "1": [
        "Power-Up Punch",
        "Harden"
      ],
      "65": [
        "Superpower"
      ],
      "35": [
        "Mega Punch"
      ],
      "5": [
        "Taunt"
      ],
      "70": [
        "Focus Punch"
      ],
      "40": [
        "Lunge"
      ],
      "10": [
        "Fell Stinger"
      ],
      "45": [
        "Focus Energy"
      ],
      "15": [
        "Vital Throw"
      ],
      "50": [
        "Dynamic Punch"
      ],
      "20": [
        "Bulk Up"
      ],
      "55": [
        "Counter"
      ],
      "25": [
        "Endure"
      ],
      "60": [
        "Hammer Arm"
      ],
      "30": [
        "Reversal"
      ]
    },
    "eggMoves": [
      "Coaching",
      "Dual Wingbeat"
    ],
    "evolutionMoves": [],
    "tmTRMoves": [
      "Snore",
      "Facade",
      "Taunt",
      "Focus Energy",
      "Leech Life",
      "Stone Edge",
      "Stomping Tantrum",
      "Revenge",
      "Bulk Up",
      "Close Combat",
      "Iron Head",
      "Rest",
      "Earthquake",
      "Work Up",
      "Rock Slide",
      "Round",
      "Body Slam",
      "Bounce",
      "Bulldoze",
      "Substitute",
      "Superpower",
      "Poison Jab",
      "Brick Break",
      "Giga Impact",
      "Payback",
      "False Swipe",
      "Protect",
      "Drain Punch",
      "High Horsepower",
      "Mega Punch",
      "Darkest Lariat",
      "Gyro Ball",
      "Outrage",
      "Fling",
      "Rock Tomb",
      "Endure",
      "Sleep Talk",
      "Reversal",
      "Thunder Punch",
      "Low Sweep",
      "Ice Punch"
    ],
    "tutorMoves": {
      "Regular": [
        "Coaching",
        "Dual Wingbeat"
      ],
      "Transfer": [
        "Comet Punch",
        "Bug Bite",
        "Confide",
        "Roost",
        "Hidden Power",
        "Dual Chop",
        "Smack Down",
        "Double Team",
        "Toxic",
        "Swagger",
        "Endeavor",
        "Return",
        "Frustration"
      ]
    }
  }
}