{
  "pixelmonName": "Cacnea",
  "spDef": 40,
  "spAtt": 85,
  "speed": 35,
  "defence": 40,
  "attack": 85,
  "hp": 50,
  "catchRate": 190,
  "malePercent": 50,
  "nationalPokedexNumber": 331,
  "spawnLevel": 20,
  "spawnLevelRange": 5,
  "baseExp": 97,
  "baseFriendship": 35,
  "rarity": {
    "day": 0,
    "dawndusk": 0,
    "night": 100
  },
  "type1": "Grass",
  "height": 0.4,
  "width": 0.7,
  "length": 0.7,
  "giScale": 1.0,
  "canFly": false,
  "isRideable": false,
  "preEvolutions": [],
  "experienceGroup": "MediumSlow",
  "aggression": {
    "timid": 80,
    "passive": 0,
    "aggressive": 20
  },
  "spawnLocations": [
    "Land"
  ],
  "biomeIDs": [
    2,
    17,
    130,
    165
  ],
  "evGain": {
    "HP": 0,
    "Attack": 0,
    "Defence": 0,
    "SpecialAttack": 1,
    "SpecialDefence": 0,
    "Speed": 0
  },
  "canSurf": false,
  "maxGroupSize": 2,
  "minGroupSize": 1,
  "hoverHeight": 0.0,
  "doesHover": false,
  "id": 432,
  "baseFormID": 432,
  "weight": 51.3,
  "pokemon": "Cacnea",
  "abilities": [
    "SandVeil",
    null,
    "WaterAbsorb"
  ],
  "eggGroups": [
    "Grass",
    "Humanlike"
  ],
  "eggCycles": 21,
  "form": -1,
  "evolutionDefs": [
    {
      "targetId": 433,
      "evolveLevel": 32
    }
  ],
  "moves": {
    "levelMoves": {
      "1": [
        "Leer",
        "Poison Sting"
      ],
      "34": [
        "Sucker Punch"
      ],
      "4": [
        "Absorb"
      ],
      "38": [
        "Pin Missile"
      ],
      "7": [
        "Growth"
      ],
      "10": [
        "Leech Seed"
      ],
      "42": [
        "Energy Ball"
      ],
      "13": [
        "Sand Attack"
      ],
      "46": [
        "Cotton Spore"
      ],
      "16": [
        "Needle Arm"
      ],
      "50": [
        "Sandstorm"
      ],
      "19": [
        "Faint Attack"
      ],
      "22": [
        "Ingrain"
      ],
      "54": [
        "Destiny Bond"
      ],
      "26": [
        "Payback"
      ],
      "30": [
        "Spikes"
      ]
    },
    "eggMoves": [
      "Rototiller",
      "Acid",
      "Worry Seed",
      "Teeter Dance",
      "Grass Whistle",
      "Switcheroo",
      "Fell Stinger",
      "Magical Leaf",
      "Power-Up Punch",
      "Seed Bomb",
      "Counter",
      "Dynamic Punch",
      "Low Kick",
      "Nasty Plot",
      "Block",
      "Smelling Salts",
      "Disable",
      "Belch"
    ],
    "evolutionMoves": [],
    "tmTRMoves": [
      "Mega Punch",
      "Thunder Punch",
      "Pin Missile",
      "Magical Leaf",
      "Solar Beam",
      "Rest",
      "Snore",
      "Protect",
      "Giga Drain",
      "Attract",
      "Sandstorm",
      "Sunny Day",
      "Facade",
      "Swift",
      "Brick Break",
      "Bullet Seed",
      "Payback",
      "Fling",
      "Drain Punch",
      "Venoshock",
      "Round",
      "Swords Dance",
      "Body Slam",
      "Low Kick",
      "Substitute",
      "Spikes",
      "Endure",
      "Sleep Talk",
      "Encore",
      "Poison Jab",
      "Dark Pulse",
      "Seed Bomb",
      "Energy Ball",
      "Nasty Plot",
      "Grass Knot"
    ],
    "tutorMoves": {
      "Regular": [
        "Giga Drain",
        "Focus Punch",
        "Drain Punch",
        "Seed Bomb",
        "Snore",
        "Worry Seed",
        "Synthesis",
        "Low Kick",
        "Block",
        "Spite",
        "Thunder Punch",
        "Role Play"
      ],
      "Transfer": [
        "Secret Power",
        "Natural Gift",
        "Confide",
        "Double-Edge",
        "Cut",
        "Hidden Power",
        "Double Team",
        "Mud-Slap",
        "Toxic",
        "Seismic Toss",
        "Headbutt",
        "Swagger",
        "Flash",
        "Return",
        "Nature Power",
        "Mimic",
        "Captivate",
        "Fury Cutter",
        "Frustration"
      ]
    }
  }
}