{
  "pixelmonName": "Calyrex",
  "spDef": 80,
  "spAtt": 80,
  "speed": 80,
  "defence": 80,
  "attack": 80,
  "hp": 100,
  "catchRate": 3,
  "malePercent": -1,
  "nationalPokedexNumber": 898,
  "spawnLevel": 40,
  "spawnLevelRange": 0,
  "baseExp": 0,
  "baseFriendship": 0,
  "rarity": {
    "day": 0,
    "dawndusk": -1,
    "night": 0
  },
  "type1": "Psychic",
  "type2": "Grass",
  "height": 1.1,
  "width": 1.0,
  "length": 1.0,
  "giScale": 1.0,
  "canFly": false,
  "isRideable": false,
  "preEvolutions": [],
  "experienceGroup": "Slow",
  "aggression": {
    "timid": 80,
    "passive": 0,
    "aggressive": 20
  },
  "spawnLocations": [
    "Land"
  ],
  "biomeIDs": [
    165
  ],
  "evGain": {
    "HP": 3,
    "Attack": 0,
    "Defence": 0,
    "SpecialAttack": 0,
    "SpecialDefence": 0,
    "Speed": 0
  },
  "canSurf": false,
  "maxGroupSize": 1,
  "minGroupSize": 1,
  "hoverHeight": 0.0,
  "doesHover": false,
  "id": 1151,
  "baseFormID": 1151,
  "weight": 7.7,
  "pokemon": "Calyrex",
  "abilities": [
    "Unnerve",
    null,
    null
  ],
  "eggGroups": [
    "Undiscovered"
  ],
  "eggCycles": 120,
  "form": -1,
  "evolutionDefs": [],
  "moves": {
    "levelMoves": {
      "16": [
        "Giga Drain"
      ],
      "32": [
        "Helping Hand"
      ],
      "48": [
        "Energy Ball"
      ],
      "64": [
        "Leech Seed"
      ],
      "80": [
        "Solar Beam"
      ],
      "1": [
        "Pound",
        "Mega Drain",
        "Confusion",
        "Growth"
      ],
      "8": [
        "Life Dew"
      ],
      "24": [
        "Psyshock"
      ],
      "40": [
        "Aromatherapy"
      ],
      "56": [
        "Psychic"
      ],
      "72": [
        "Heal Pulse"
      ],
      "88": [
        "Future Sight"
      ]
    },
    "eggMoves": [
      "Lash Out",
      "Expanding Force"
    ],
    "evolutionMoves": [],
    "tmTRMoves": [
      "Pay Day",
      "Hyper Beam",
      "Giga Impact",
      "Magical Leaf",
      "Solar Beam",
      "Solar Blade",
      "Light Screen",
      "Reflect",
      "Safeguard",
      "Rest",
      "Snore",
      "Protect",
      "Giga Drain",
      "Sunny Day",
      "Facade",
      "Swift",
      "Helping Hand",
      "Imprison",
      "Bullet Seed",
      "Power Swap",
      "Guard Swap",
      "Speed Swap",
      "Trick Room",
      "Wonder Room",
      "Magic Room",
      "Round",
      "Draining Kiss",
      "Grassy Terrain",
      "Psychic Terrain",
      "Psychic",
      "Agility",
      "Metronome",
      "Tri Attack",
      "Substitute",
      "Psychock",
      "Endure",
      "Sleep Talk",
      "Baton Pass",
      "Encore",
      "Future Sight",
      "Trick",
      "Skill Swap",
      "Calm Mind",
      "Seed Bomb",
      "Energy Ball",
      "Zen Headbutt",
      "Leaf Storm",
      "Grass Knot",
      "Stored Power",
      "Ally Switch",
      "Pollen Puff"
    ],
    "tutorMoves": {
      "Regular": [
        "Expanding Force"
      ]
    }
  }
}