{
  "pixelmonName": "Carracosta",
  "spDef": 65,
  "spAtt": 83,
  "speed": 32,
  "defence": 133,
  "attack": 108,
  "hp": 74,
  "catchRate": 45,
  "malePercent": 87,
  "nationalPokedexNumber": 565,
  "spawnLevel": 37,
  "spawnLevelRange": 13,
  "baseExp": 173,
  "baseFriendship": 70,
  "rarity": {
    "day": 0,
    "dawndusk": 0,
    "night": 0
  },
  "type1": "Water",
  "type2": "Rock",
  "height": 1.2,
  "width": 1.2,
  "length": 0.6,
  "giScale": 1.0,
  "canFly": false,
  "isRideable": false,
  "preEvolutions": [
    "Tirtouga"
  ],
  "experienceGroup": "MediumFast",
  "aggression": {
    "timid": 80,
    "passive": 0,
    "aggressive": 20
  },
  "spawnLocations": [
    "Water",
    "Land"
  ],
  "biomeIDs": [
    24,
    25
  ],
  "evGain": {
    "HP": 0,
    "Attack": 0,
    "Defence": 2,
    "SpecialAttack": 0,
    "SpecialDefence": 0,
    "Speed": 0
  },
  "canSurf": true,
  "maxGroupSize": 1,
  "minGroupSize": 1,
  "hoverHeight": 0.0,
  "doesHover": false,
  "id": 24,
  "baseFormID": 24,
  "weight": 81.0,
  "pokemon": "Carracosta",
  "abilities": [
    "SolidRock",
    "Sturdy",
    "SwiftSwim"
  ],
  "eggGroups": [
    "Water1",
    "Water3"
  ],
  "eggCycles": 31,
  "form": -1,
  "evolutionDefs": [],
  "moves": {
    "levelMoves": {
      "1": [
        "Water Gun",
        "Protect",
        "Withdraw",
        "Aqua Jet"
      ],
      "33": [
        "Iron Defense"
      ],
      "36": [
        "Aqua Tail"
      ],
      "9": [
        "Smack Down"
      ],
      "41": [
        "Rain Dance"
      ],
      "12": [
        "Ancient Power"
      ],
      "46": [
        "Hydro Pump"
      ],
      "15": [
        "Bite"
      ],
      "18": [
        "Wide Guard"
      ],
      "51": [
        "Shell Smash"
      ],
      "21": [
        "Brine"
      ],
      "24": [
        "Rock Slide"
      ],
      "27": [
        "Crunch"
      ],
      "30": [
        "Curse"
      ]
    },
    "eggMoves": [
      "Meteor Beam"
    ],
    "evolutionMoves": [],
    "tmTRMoves": [
      "Snore",
      "Facade",
      "Waterfall",
      "Stone Edge",
      "Icy Wind",
      "Rock Blast",
      "Iron Head",
      "Surf",
      "Rest",
      "Earthquake",
      "Iron Tail",
      "Rock Slide",
      "Hydro Pump",
      "Earth Power",
      "Round",
      "Body Slam",
      "Sandstorm",
      "Bulldoze",
      "Liquidation",
      "Iron Defense",
      "Mud Shot",
      "Substitute",
      "Superpower",
      "Attract",
      "Ice Beam",
      "Giga Impact",
      "Crunch",
      "Protect",
      "Guard Swap",
      "Dig",
      "Rain Dance",
      "Razor Shell",
      "Hyper Beam",
      "Brine",
      "Scald",
      "Focus Blast",
      "Rock Tomb",
      "Dive",
      "Low Kick",
      "Endure",
      "Sleep Talk",
      "Stealth Rock",
      "Whirlpool",
      "Muddy Water",
      "Zen Headbutt",
      "Blizzard"
    ],
    "tutorMoves": {
      "Regular": [
        "Meteor Beam"
      ],
      "Transfer": [
        "Rock Smash",
        "Rock Throw",
        "Secret Power",
        "Confide",
        "Flail",
        "Hidden Power",
        "Water Pulse",
        "Bide",
        "Block",
        "Double Team",
        "Slam",
        "Toxic",
        "Swagger",
        "Rollout",
        "Return",
        "Knock Off",
        "Rock Polish",
        "Strength",
        "Frustration"
      ]
    }
  }
}