{
  "pixelmonName": "Carvanha",
  "spDef": 20,
  "spAtt": 65,
  "speed": 65,
  "defence": 20,
  "attack": 90,
  "hp": 45,
  "catchRate": 225,
  "malePercent": 50,
  "nationalPokedexNumber": 318,
  "spawnLevel": 5,
  "spawnLevelRange": 24,
  "baseExp": 88,
  "baseFriendship": 35,
  "rarity": {
    "day": 75,
    "dawndusk": 0,
    "night": 75
  },
  "type1": "Water",
  "type2": "Dark",
  "height": 0.8,
  "width": 0.6,
  "length": 0.6,
  "giScale": 1.0,
  "canFly": false,
  "isRideable": false,
  "preEvolutions": [],
  "experienceGroup": "Slow",
  "aggression": {
    "timid": 80,
    "passive": 0,
    "aggressive": 20
  },
  "swimmingParameters": {
    "depthRangeStart": 1,
    "depthRangeEnd": 10,
    "swimSpeed": 1.0,
    "decayRate": 0.99,
    "refreshRate": 100
  },
  "spawnLocations": [
    "Water"
  ],
  "biomeIDs": [
    0,
    6,
    7,
    21,
    24,
    134,
    149
  ],
  "evGain": {
    "HP": 0,
    "Attack": 1,
    "Defence": 0,
    "SpecialAttack": 0,
    "SpecialDefence": 0,
    "Speed": 0
  },
  "canSurf": true,
  "maxGroupSize": 1,
  "minGroupSize": 1,
  "hoverHeight": 0.0,
  "doesHover": false,
  "id": 424,
  "baseFormID": 424,
  "weight": 20.8,
  "pokemon": "Carvanha",
  "abilities": [
    "RoughSkin",
    null,
    "SpeedBoost"
  ],
  "eggGroups": [
    "Water2"
  ],
  "eggCycles": 21,
  "form": -1,
  "evolutionDefs": [
    {
      "targetId": 425,
      "evolveLevel": 30
    }
  ],
  "moves": {
    "levelMoves": {
      "16": [
        "Bite"
      ],
      "32": [
        "Crunch"
      ],
      "1": [
        "Leer",
        "Aqua Jet"
      ],
      "4": [
        "Poison Fang"
      ],
      "20": [
        "Ice Fang"
      ],
      "36": [
        "Agility"
      ],
      "8": [
        "Focus Energy"
      ],
      "24": [
        "Screech"
      ],
      "40": [
        "Liquidation"
      ],
      "12": [
        "Scary Face"
      ],
      "28": [
        "Swagger"
      ],
      "44": [
        "Take Down"
      ]
    },
    "eggMoves": [
      "Destiny Bond",
      "Water Pulse",
      "Ancient Power",
      "Thrash",
      "Double-Edge"
    ],
    "evolutionMoves": [],
    "tmTRMoves": [
      "Snore",
      "Facade",
      "Assurance",
      "Uproar",
      "Taunt",
      "Focus Energy",
      "Waterfall",
      "Snarl",
      "Dark Pulse",
      "Retaliate",
      "Icy Wind",
      "Screech",
      "Surf",
      "Rest",
      "Ice Fang",
      "Hydro Pump",
      "Agility",
      "Scary Face",
      "Round",
      "Bounce",
      "Liquidation",
      "Substitute",
      "Attract",
      "Hail",
      "Ice Beam",
      "Crunch",
      "Payback",
      "Protect",
      "Rain Dance",
      "Thief",
      "Brine",
      "Psychic Fangs",
      "Scald",
      "Dive",
      "Endure",
      "Sleep Talk",
      "Whirlpool",
      "Swift",
      "Zen Headbutt",
      "Blizzard"
    ],
    "tutorMoves": {
      "Regular": [
        "Flip Turn",
        "Scale Shot"
      ],
      "Transfer": [
        "Secret Power",
        "Natural Gift",
        "Confide",
        "Hidden Power",
        "Super Fang",
        "Double Team",
        "Spite",
        "Mud-Slap",
        "Toxic",
        "Rage",
        "Return",
        "Mimic",
        "Captivate",
        "Fury Cutter",
        "Torment",
        "Frustration"
      ]
    }
  }
}