{
  "pixelmonName": "Castform",
  "spDef": 70,
  "spAtt": 70,
  "speed": 70,
  "defence": 70,
  "attack": 70,
  "hp": 70,
  "catchRate": 45,
  "malePercent": 50,
  "nationalPokedexNumber": 351,
  "spawnLevel": 25,
  "spawnLevelRange": 10,
  "baseExp": 147,
  "baseFriendship": 70,
  "rarity": {
    "day": 15,
    "dawndusk": 15,
    "night": 15
  },
  "type1": "Water",
  "height": 0.3,
  "width": 0.7,
  "length": 0.7,
  "giScale": 1.0,
  "canFly": false,
  "isRideable": false,
  "preEvolutions": [],
  "experienceGroup": "MediumFast",
  "aggression": {
    "timid": 80,
    "passive": 0,
    "aggressive": 20
  },
  "spawnLocations": [],
  "biomeIDs": [],
  "evGain": {
    "HP": 1,
    "Attack": 0,
    "Defence": 0,
    "SpecialAttack": 0,
    "SpecialDefence": 0,
    "Speed": 0
  },
  "canSurf": false,
  "maxGroupSize": 1,
  "minGroupSize": 1,
  "hoverHeight": 0.0,
  "doesHover": false,
  "id": 723,
  "baseFormID": 723,
  "weight": 0.8,
  "pokemon": "Castform",
  "abilities": [
    "Forecast",
    null,
    null
  ],
  "eggGroups": [
    "Fairy",
    "Amorphous"
  ],
  "eggCycles": 26,
  "form": 2,
  "evolutionDefs": [],
  "moves": {
    "levelMoves": {
      "1": [
        "Tackle"
      ],
      "35": [
        "Hydro Pump",
        "Blizzard",
        "Fire Blast"
      ],
      "20": [
        "Rain Dance",
        "Sunny Day",
        "Hail"
      ],
      "25": [
        "Weather Ball"
      ],
      "10": [
        "Water Gun",
        "Powder Snow",
        "Ember"
      ],
      "45": [
        "Hurricane"
      ],
      "15": [
        "Headbutt"
      ]
    },
    "eggMoves": [
      "Future Sight",
      "Ominous Wind",
      "Guard Swap",
      "Lucky Chant",
      "Cosmic Power",
      "Clear Smog",
      "Hex",
      "Amnesia",
      "Reflect Type",
      "Disable"
    ],
    "evolutionMoves": [],
    "tmTRMoves": [
      "Solar Beam",
      "Thunder Wave",
      "Rest",
      "Thief",
      "Snore",
      "Protect",
      "Icy Wind",
      "Attract",
      "Sandstorm",
      "Rain Dance",
      "Sunny Day",
      "Hail",
      "Facade",
      "Weather Ball",
      "Guard Swap",
      "Avalanche",
      "Round",
      "Hex",
      "Retaliate",
      "Body Slam",
      "Flamethrower",
      "Hydro Pump",
      "Ice Beam",
      "Blizzard",
      "Thunderbolt",
      "Thunder",
      "Fire Blast",
      "Amnesia",
      "Substitute",
      "Endure",
      "Sleep Talk",
      "Shadow Ball",
      "Future Sight",
      "Cosmic Power",
      "Energy Ball",
      "Scald",
      "Work Up",
      "Hurricane"
    ],
    "tutorMoves": {
      "Regular": [
        "Defog",
        "Last Resort",
        "Snore",
        "Water Pulse",
        "Icy Wind",
        "Shock Wave",
        "Tailwind"
      ],
      "Transfer": [
        "Secret Power",
        "Psych Up",
        "Natural Gift",
        "Confide",
        "Incinerate",
        "Double-Edge",
        "Hidden Power",
        "Double Team",
        "Swift",
        "Toxic",
        "Swagger",
        "Defense Curl",
        "Flash",
        "Return",
        "Mimic",
        "Captivate",
        "Frustration"
      ]
    }
  }
}