{
  "pixelmonName": "Charmeleon",
  "spDef": 65,
  "spAtt": 80,
  "speed": 80,
  "defence": 58,
  "attack": 64,
  "hp": 58,
  "catchRate": 45,
  "malePercent": 87,
  "nationalPokedexNumber": 5,
  "spawnLevel": 16,
  "spawnLevelRange": 20,
  "baseExp": 142,
  "baseFriendship": 70,
  "rarity": {
    "day": 5,
    "dawndusk": 0,
    "night": 0
  },
  "type1": "Fire",
  "height": 1.1,
  "width": 0.6,
  "length": 0.6,
  "giScale": 1.0,
  "canFly": false,
  "isRideable": false,
  "preEvolutions": [
    "Charmander"
  ],
  "experienceGroup": "MediumSlow",
  "aggression": {
    "timid": 80,
    "passive": 0,
    "aggressive": 20
  },
  "spawnLocations": [
    "Land"
  ],
  "biomeIDs": [
    3,
    34,
    131
  ],
  "evGain": {
    "HP": 0,
    "Attack": 0,
    "Defence": 0,
    "SpecialAttack": 1,
    "SpecialDefence": 0,
    "Speed": 1
  },
  "canSurf": false,
  "maxGroupSize": 1,
  "minGroupSize": 1,
  "hoverHeight": 0.0,
  "doesHover": false,
  "id": 127,
  "baseFormID": 127,
  "weight": 19.0,
  "pokemon": "Charmeleon",
  "abilities": [
    "Blaze",
    null,
    "SolarPower"
  ],
  "eggGroups": [
    "Monster",
    "Dragon"
  ],
  "eggCycles": 21,
  "form": -1,
  "evolutionDefs": [
    {
      "targetId": 128,
      "evolveLevel": 36
    }
  ],
  "moves": {
    "levelMoves": {
      "48": [
        "Inferno"
      ],
      "1": [
        "Scratch",
        "Growl",
        "Ember",
        "Smokescreen"
      ],
      "19": [
        "Fire Fang"
      ],
      "37": [
        "Scary Face"
      ],
      "54": [
        "Flare Blitz"
      ],
      "24": [
        "Slash"
      ],
      "42": [
        "Fire Spin"
      ],
      "12": [
        "Dragon Breath"
      ],
      "30": [
        "Flamethrower"
      ]
    },
    "eggMoves": [
      "Metal Claw",
      "Counter",
      "Dragon Tail",
      "Bite",
      "Dragon Rush",
      "Ancient Power",
      "Wing Attack",
      "Belly Drum"
    ],
    "evolutionMoves": [],
    "tmTRMoves": [
      "Weather Ball",
      "Snore",
      "Facade",
      "Flamethrower",
      "Beat Up",
      "Overheat",
      "Fire Fang",
      "Swords Dance",
      "Mega Kick",
      "Rest",
      "Iron Tail",
      "Work Up",
      "Rock Slide",
      "Scary Face",
      "Round",
      "Body Slam",
      "Heat Wave",
      "Substitute",
      "Brick Break",
      "Acrobatics",
      "Dragon Dance",
      "Attract",
      "Crunch",
      "Helping Hand",
      "False Swipe",
      "Dragon Pulse",
      "Protect",
      "Dig",
      "Mega Punch",
      "Sunny Day",
      "Will-O-Wisp",
      "Dragon Claw",
      "Flare Blitz",
      "Outrage",
      "Fling",
      "Rock Tomb",
      "Endure",
      "Sleep Talk",
      "Fire Spin",
      "Shadow Claw",
      "Swift",
      "Thunder Punch",
      "Fire Punch",
      "Fire Blast"
    ],
    "tutorMoves": {
      "Transfer": [
        "Natural Gift",
        "Confide",
        "Incinerate",
        "Double-Edge",
        "Leer",
        "Cut",
        "Hidden Power",
        "Flame Burst",
        "Power-Up Punch",
        "Bide",
        "Double Team",
        "Hone Claws",
        "Seismic Toss",
        "Rage",
        "Headbutt",
        "Dynamic Punch",
        "Skull Bash",
        "Dragon Rage",
        "Swagger",
        "Defense Curl",
        "Flame Charge",
        "Submission",
        "Mimic",
        "Captivate",
        "Fury Cutter",
        "Reflect",
        "Frustration",
        "Rock Smash",
        "Secret Power",
        "Fire Pledge",
        "Curse",
        "Take Down",
        "Fury Swipes",
        "Echoed Voice",
        "Air Cutter",
        "Mud-Slap",
        "Focus Punch",
        "Toxic",
        "Aerial Ace",
        "Return",
        "Strength"
      ]
    }
  }
}