{
  "pixelmonName": "Chatot",
  "spDef": 42,
  "spAtt": 92,
  "speed": 91,
  "defence": 45,
  "attack": 65,
  "hp": 76,
  "catchRate": 30,
  "malePercent": 50,
  "nationalPokedexNumber": 441,
  "spawnLevel": 5,
  "spawnLevelRange": 25,
  "baseExp": 107,
  "baseFriendship": 35,
  "rarity": {
    "day": 100,
    "dawndusk": 0,
    "night": 0
  },
  "type1": "Normal",
  "type2": "Flying",
  "height": 0.5,
  "width": 0.7,
  "length": 0.7,
  "giScale": 1.0,
  "canFly": true,
  "isRideable": true,
  "preEvolutions": [],
  "experienceGroup": "MediumSlow",
  "aggression": {
    "timid": 80,
    "passive": 0,
    "aggressive": 20
  },
  "flyingParameters": {
    "flyHeightMin": 0,
    "flyHeightMax": 8,
    "flySpeedModifier": 1.0,
    "flyRefreshRateY": 80,
    "flyRefreshRateXZ": 100,
    "flyRefreshRateSpeed": 100,
    "flightTimeMin": 0,
    "flightTimeMax": 20,
    "flapRate": 5,
    "landingMaterial": "GrassAndLeaves"
  },
  "spawnLocations": [
    "Land"
  ],
  "biomeIDs": [
    21,
    22,
    23,
    149,
    151
  ],
  "evGain": {
    "HP": 0,
    "Attack": 1,
    "Defence": 0,
    "SpecialAttack": 0,
    "SpecialDefence": 0,
    "Speed": 0
  },
  "canSurf": false,
  "ridingOffsets": {
    "standing": {
      "x": 0.0,
      "y": -0.5,
      "z": 0.0
    },
    "moving": {
      "x": 0.0,
      "y": -0.5,
      "z": 0.0
    }
  },
  "maxGroupSize": 3,
  "minGroupSize": 1,
  "hoverHeight": 0.0,
  "doesHover": false,
  "id": 522,
  "baseFormID": 522,
  "weight": 1.9,
  "pokemon": "Chatot",
  "abilities": [
    "KeenEye",
    "TangledFeet",
    "BigPecks"
  ],
  "eggGroups": [
    "Flying"
  ],
  "eggCycles": 21,
  "form": -1,
  "evolutionDefs": [],
  "moves": {
    "levelMoves": {
      "1": [
        "Taunt",
        "Peck",
        "Chatter",
        "Confide",
        "Hyper Voice"
      ],
      "33": [
        "Mimic"
      ],
      "5": [
        "Growl"
      ],
      "37": [
        "Echoed Voice"
      ],
      "9": [
        "Mirror Move"
      ],
      "41": [
        "Roost"
      ],
      "13": [
        "Sing"
      ],
      "45": [
        "Uproar"
      ],
      "17": [
        "Fury Attack"
      ],
      "49": [
        "Synchronoise"
      ],
      "50": [
        "Feather Dance"
      ],
      "21": [
        "Chatter"
      ],
      "25": [
        "Taunt"
      ],
      "57": [
        "Hyper Voice"
      ],
      "29": [
        "Round"
      ]
    },
    "eggMoves": [
      "Defog",
      "Supersonic",
      "Boomburst",
      "Encore",
      "Night Shade",
      "Air Cutter",
      "Steel Wing",
      "Sleep Talk",
      "Agility",
      "Nasty Plot"
    ],
    "evolutionMoves": [],
    "tmTRMoves": [
      "Fly",
      "Rest",
      "Thief",
      "Snore",
      "Protect",
      "Steel Wing",
      "Attract",
      "Rain Dance",
      "Sunny Day",
      "Facade",
      "U-turn",
      "Round",
      "Agility",
      "Substitute",
      "Endure",
      "Sleep Talk",
      "Encore",
      "Uproar",
      "Heat Wave",
      "Taunt",
      "Hyper Voice",
      "Nasty Plot",
      "Work Up"
    ],
    "tutorMoves": {
      "Regular": [
        "Defog",
        "Snore",
        "Uproar",
        "Sky Attack",
        "Heat Wave",
        "Tailwind",
        "Hyper Voice",
        "Role Play"
      ],
      "Transfer": [
        "Ominous Wind",
        "Secret Power",
        "Natural Gift",
        "Pluck",
        "Hidden Power",
        "Double Team",
        "Swift",
        "Mud-Slap",
        "Toxic",
        "Aerial Ace",
        "Swagger",
        "Return",
        "Captivate",
        "Twister",
        "Torment",
        "Frustration"
      ]
    }
  }
}