{
  "pixelmonName": "Chewtle",
  "spDef": 38,
  "spAtt": 38,
  "speed": 44,
  "defence": 50,
  "attack": 64,
  "hp": 50,
  "catchRate": 255,
  "malePercent": 50,
  "nationalPokedexNumber": 833,
  "spawnLevel": 5,
  "spawnLevelRange": 28,
  "baseExp": 57,
  "baseFriendship": 50,
  "rarity": {
    "day": 5,
    "dawndusk": 0,
    "night": 0
  },
  "type1": "Water",
  "height": 0.3,
  "width": 1.0,
  "length": 1.0,
  "giScale": 1.0,
  "canFly": false,
  "isRideable": false,
  "preEvolutions": [],
  "experienceGroup": "MediumFast",
  "aggression": {
    "timid": 50,
    "passive": 0,
    "aggressive": 50
  },
  "spawnLocations": [],
  "biomeIDs": [],
  "evGain": {
    "HP": 0,
    "Attack": 1,
    "Defence": 0,
    "SpecialAttack": 0,
    "SpecialDefence": 0,
    "Speed": 0
  },
  "canSurf": false,
  "maxGroupSize": 1,
  "minGroupSize": 1,
  "hoverHeight": 0.0,
  "doesHover": false,
  "id": 1028,
  "baseFormID": 1028,
  "weight": 8.5,
  "pokemon": "Chewtle",
  "abilities": [
    "StrongJaw",
    "ShellArmour",
    "SwiftSwim"
  ],
  "eggGroups": [
    "Monster",
    "Water1"
  ],
  "eggCycles": 40,
  "form": -1,
  "evolutionDefs": [
    {
      "targetId": 1029,
      "evolveLevel": 22
    }
  ],
  "moves": {
    "levelMoves": {
      "1": [
        "Water Gun",
        "Tackle"
      ],
      "49": [
        "Body Slam"
      ],
      "35": [
        "Jaw Lock"
      ],
      "21": [
        "Headbutt"
      ],
      "7": [
        "Bite"
      ],
      "42": [
        "Liquidation"
      ],
      "28": [
        "Counter"
      ],
      "14": [
        "Protect"
      ]
    },
    "eggMoves": [
      "Dragon Tail",
      "Skull Bash",
      "Gastro Acid"
    ],
    "evolutionMoves": [],
    "tmTRMoves": [
      "Payback",
      "Snore",
      "Protect",
      "Facade",
      "Assurance",
      "Rain Dance",
      "Revenge",
      "Surf",
      "Rest",
      "Dive",
      "Ice Fang",
      "Endure",
      "Sleep Talk",
      "Whirlpool",
      "Hydro Pump",
      "Round",
      "Body Slam",
      "Liquidation",
      "Mud Shot",
      "Substitute",
      "Attract"
    ],
    "tutorMoves": {
      "Regular": [
        "Skitter Smack",
        "Scale Shot"
      ]
    }
  }
}