{
  "pixelmonName": "Clefable",
  "spDef": 90,
  "spAtt": 95,
  "speed": 60,
  "defence": 73,
  "attack": 70,
  "hp": 95,
  "catchRate": 25,
  "malePercent": 25,
  "nationalPokedexNumber": 36,
  "spawnLevel": 38,
  "spawnLevelRange": 12,
  "baseExp": 129,
  "baseFriendship": 140,
  "rarity": {
    "day": 0,
    "dawndusk": 5,
    "night": 5
  },
  "type1": "Fairy",
  "height": 1.3,
  "width": 0.6,
  "length": 0.6,
  "giScale": 1.0,
  "canFly": false,
  "isRideable": false,
  "preEvolutions": [
    "Clefairy",
    "Cleffa"
  ],
  "experienceGroup": "Fast",
  "aggression": {
    "timid": 80,
    "passive": 0,
    "aggressive": 20
  },
  "spawnLocations": [
    "Land",
    "UnderGround"
  ],
  "biomeIDs": [
    3,
    3,
    34,
    131,
    162
  ],
  "evGain": {
    "HP": 3,
    "Attack": 0,
    "Defence": 0,
    "SpecialAttack": 0,
    "SpecialDefence": 0,
    "Speed": 0
  },
  "canSurf": false,
  "maxGroupSize": 1,
  "minGroupSize": 1,
  "hoverHeight": 0.0,
  "doesHover": false,
  "id": 203,
  "baseFormID": 203,
  "weight": 40.0,
  "pokemon": "Clefable",
  "abilities": [
    "CuteCharm",
    "MagicGuard",
    "Unaware"
  ],
  "eggGroups": [
    "Fairy"
  ],
  "eggCycles": 21,
  "form": -1,
  "evolutionDefs": [],
  "moves": {
    "levelMoves": {
      "1": [
        "After You",
        "Disarming Voice",
        "Meteor Mash",
        "Metronome",
        "Cosmic Power",
        "Life Dew",
        "Minimize",
        "Growl",
        "Sing",
        "Sweet Kiss",
        "Copycat",
        "Moonblast",
        "Stored Power",
        "Follow Me",
        "Encore",
        "Healing Wish",
        "Moonlight",
        "Charm",
        "Pound",
        "Splash",
        "Defense Curl",
        "Gravity"
      ]
    },
    "eggMoves": [
      "Heal Pulse",
      "Aromatherapy",
      "Present",
      "Tickle",
      "Wish"
    ],
    "evolutionMoves": [],
    "tmTRMoves": [
      "Flamethrower",
      "Uproar",
      "Play Rough",
      "Dazzling Gleam",
      "Metronome",
      "Light Screen",
      "Icy Wind",
      "Magical Leaf",
      "Encore",
      "Wonder Room",
      "Iron Tail",
      "Work Up",
      "Body Slam",
      "Imprison",
      "Substitute",
      "Attract",
      "Ice Beam",
      "Thunder Wave",
      "Drain Punch",
      "Tri Attack",
      "Mega Punch",
      "Fake Tears",
      "Cosmic Power",
      "Sunny Day",
      "Calm Mind",
      "Fling",
      "Mystical Fire",
      "Endure",
      "Zen Headbutt",
      "Thunder Punch",
      "Draining Kiss",
      "Fire Punch",
      "Ice Punch",
      "Fire Blast",
      "Snore",
      "Facade",
      "Grass Knot",
      "Retaliate",
      "Solar Beam",
      "Mega Kick",
      "Stored Power",
      "Rest",
      "Charm",
      "Round",
      "Misty Terrain",
      "Shadow Ball",
      "Bounce",
      "Amnesia",
      "Brick Break",
      "Ally Switch",
      "Giga Impact",
      "Hyper Voice",
      "Helping Hand",
      "Safeguard",
      "Protect",
      "Dig",
      "Rain Dance",
      "Thunder",
      "Psyshock",
      "Trick",
      "Hyper Beam",
      "Baton Pass",
      "Focus Blast",
      "Psychic",
      "Reflect",
      "Sleep Talk",
      "Stealth Rock",
      "Thunderbolt",
      "Blizzard"
    ],
    "tutorMoves": {
      "Regular": [
        "Dual Wingbeat",
        "Meteor Beam",
        "Misty Explosion"
      ],
      "Transfer": [
        "Dream Eater",
        "Detect",
        "Snatch",
        "Natural Gift",
        "Confide",
        "Incinerate",
        "Double-Edge",
        "Hidden Power",
        "Power-Up Punch",
        "Water Pulse",
        "Bide",
        "Double Team",
        "Shock Wave",
        "Double Slap",
        "Telekinesis",
        "Seismic Toss",
        "Rage",
        "Headbutt",
        "Dynamic Punch",
        "Skull Bash",
        "Swagger",
        "Charge Beam",
        "Nightmare",
        "Soft-Boiled",
        "Submission",
        "Mimic",
        "Captivate",
        "Knock Off",
        "Role Play",
        "Covet",
        "Frustration",
        "Laser Focus",
        "Rock Smash",
        "Secret Power",
        "Psych Up",
        "Bubble Beam",
        "Teleport",
        "Counter",
        "Curse",
        "Belly Drum",
        "Take Down",
        "Spotlight",
        "Magic Coat",
        "Echoed Voice",
        "Recycle",
        "Heal Bell",
        "Psywave",
        "Mud-Slap",
        "Focus Punch",
        "Toxic",
        "Flash",
        "Rollout",
        "Signal Beam",
        "Water Gun",
        "Endeavor",
        "Last Resort",
        "Return",
        "Strength",
        "Zap Cannon"
      ]
    }
  }
}