{
  "pixelmonName": "Clefairy",
  "spDef": 65,
  "spAtt": 60,
  "speed": 35,
  "defence": 48,
  "attack": 45,
  "hp": 70,
  "catchRate": 150,
  "malePercent": 25,
  "nationalPokedexNumber": 35,
  "spawnLevel": 15,
  "spawnLevelRange": 35,
  "baseExp": 68,
  "baseFriendship": 140,
  "rarity": {
    "day": 0,
    "dawndusk": 50,
    "night": 50
  },
  "type1": "Fairy",
  "height": 0.6,
  "width": 0.4,
  "length": 0.4,
  "giScale": 1.0,
  "canFly": false,
  "isRideable": false,
  "preEvolutions": [
    "Cleffa"
  ],
  "experienceGroup": "Fast",
  "aggression": {
    "timid": 80,
    "passive": 0,
    "aggressive": 20
  },
  "spawnLocations": [
    "Land",
    "UnderGround"
  ],
  "biomeIDs": [
    3,
    3,
    34,
    131,
    162
  ],
  "evGain": {
    "HP": 2,
    "Attack": 0,
    "Defence": 0,
    "SpecialAttack": 0,
    "SpecialDefence": 0,
    "Speed": 0
  },
  "canSurf": false,
  "maxGroupSize": 1,
  "minGroupSize": 1,
  "hoverHeight": 0.0,
  "doesHover": false,
  "id": 202,
  "baseFormID": 202,
  "weight": 7.5,
  "pokemon": "Clefairy",
  "abilities": [
    "CuteCharm",
    "MagicGuard",
    "FriendGuard"
  ],
  "eggGroups": [
    "Fairy"
  ],
  "eggCycles": 21,
  "form": -1,
  "evolutionDefs": [
    {
      "targetId": 203,
      "evolveCondition": "Moonstone:Clefable"
    }
  ],
  "moves": {
    "levelMoves": {
      "32": [
        "Meteor Mash"
      ],
      "1": [
        "Disarming Voice",
        "Encore",
        "Charm",
        "Growl",
        "Pound",
        "Sing",
        "Splash",
        "Sweet Kiss",
        "Defense Curl",
        "Copycat"
      ],
      "4": [
        "Stored Power"
      ],
      "36": [
        "Follow Me"
      ],
      "8": [
        "Minimize"
      ],
      "40": [
        "Cosmic Power"
      ],
      "12": [
        "After You"
      ],
      "44": [
        "Moonblast"
      ],
      "16": [
        "Life Dew"
      ],
      "48": [
        "Healing Wish"
      ],
      "20": [
        "Metronome"
      ],
      "24": [
        "Moonlight"
      ],
      "28": [
        "Gravity"
      ]
    },
    "eggMoves": [
      "Heal Pulse",
      "Aromatherapy",
      "Present",
      "Tickle",
      "Wish"
    ],
    "evolutionMoves": [],
    "tmTRMoves": [
      "Flamethrower",
      "Uproar",
      "Play Rough",
      "Dazzling Gleam",
      "Metronome",
      "Light Screen",
      "Icy Wind",
      "Magical Leaf",
      "Encore",
      "Wonder Room",
      "Iron Tail",
      "Work Up",
      "Body Slam",
      "Imprison",
      "Substitute",
      "Attract",
      "Ice Beam",
      "Thunder Wave",
      "Drain Punch",
      "Tri Attack",
      "Mega Punch",
      "Fake Tears",
      "Cosmic Power",
      "Sunny Day",
      "Calm Mind",
      "Fling",
      "Mystical Fire",
      "Endure",
      "Zen Headbutt",
      "Thunder Punch",
      "Draining Kiss",
      "Fire Punch",
      "Ice Punch",
      "Fire Blast",
      "Snore",
      "Facade",
      "Grass Knot",
      "Retaliate",
      "Solar Beam",
      "Mega Kick",
      "Stored Power",
      "Rest",
      "Charm",
      "Round",
      "Misty Terrain",
      "Shadow Ball",
      "Bounce",
      "Amnesia",
      "Brick Break",
      "Ally Switch",
      "Hyper Voice",
      "Helping Hand",
      "Safeguard",
      "Protect",
      "Dig",
      "Rain Dance",
      "Thunder",
      "Psyshock",
      "Trick",
      "Baton Pass",
      "Psychic",
      "Reflect",
      "Sleep Talk",
      "Stealth Rock",
      "Thunderbolt",
      "Blizzard"
    ],
    "tutorMoves": {
      "Regular": [
        "Dual Wingbeat",
        "Meteor Beam",
        "Misty Explosion"
      ],
      "Transfer": [
        "Dream Eater",
        "Detect",
        "Snatch",
        "Natural Gift",
        "Confide",
        "Incinerate",
        "Double-Edge",
        "Hidden Power",
        "Power-Up Punch",
        "Water Pulse",
        "Bide",
        "Double Team",
        "Shock Wave",
        "Double Slap",
        "Telekinesis",
        "Seismic Toss",
        "Rage",
        "Headbutt",
        "Dynamic Punch",
        "Skull Bash",
        "Swagger",
        "Charge Beam",
        "Nightmare",
        "Soft-Boiled",
        "Submission",
        "Mimic",
        "Captivate",
        "Knock Off",
        "Wake-Up Slap",
        "Role Play",
        "Covet",
        "Frustration",
        "Rock Smash",
        "Secret Power",
        "Psych Up",
        "Bestow",
        "Bubble Beam",
        "Teleport",
        "Counter",
        "Curse",
        "Belly Drum",
        "Take Down",
        "Spotlight",
        "Magic Coat",
        "Lucky Chant",
        "Echoed Voice",
        "Recycle",
        "Heal Bell",
        "Psywave",
        "Mud-Slap",
        "Focus Punch",
        "Toxic",
        "Flash",
        "Rollout",
        "Signal Beam",
        "Water Gun",
        "Endeavor",
        "Last Resort",
        "Return",
        "Strength",
        "Zap Cannon"
      ]
    }
  }
}