{
  "pixelmonName": "Combee",
  "spDef": 42,
  "spAtt": 30,
  "speed": 70,
  "defence": 42,
  "attack": 30,
  "hp": 30,
  "catchRate": 120,
  "malePercent": 87,
  "nationalPokedexNumber": 415,
  "spawnLevel": 6,
  "spawnLevelRange": 10,
  "baseExp": 63,
  "baseFriendship": 70,
  "rarity": {
    "day": 100,
    "dawndusk": 100,
    "night": 0
  },
  "type1": "Bug",
  "type2": "Flying",
  "height": 0.3,
  "width": 0.7,
  "length": 0.7,
  "giScale": 1.0,
  "canFly": false,
  "isRideable": false,
  "preEvolutions": [],
  "experienceGroup": "MediumSlow",
  "aggression": {
    "timid": 80,
    "passive": 0,
    "aggressive": 20
  },
  "spawnLocations": [
    "Land"
  ],
  "biomeIDs": [
    129,
    132
  ],
  "evGain": {
    "HP": 0,
    "Attack": 0,
    "Defence": 0,
    "SpecialAttack": 0,
    "SpecialDefence": 0,
    "Speed": 1
  },
  "canSurf": false,
  "maxGroupSize": 1,
  "minGroupSize": 1,
  "hoverHeight": 1.0,
  "doesHover": true,
  "id": 498,
  "baseFormID": 498,
  "weight": 5.5,
  "pokemon": "Combee",
  "abilities": [
    "HoneyGather",
    null,
    "Hustle"
  ],
  "eggGroups": [
    "Bug"
  ],
  "eggCycles": 16,
  "form": -1,
  "evolutionDefs": [
    {
      "targetId": 499,
      "evolveLevel": 21,
      "evolveCondition": "LevelupGender:Female:Vespiquen"
    }
  ],
  "moves": {
    "levelMoves": {
      "1": [
        "Sweet Scent",
        "Bug Bite",
        "Struggle Bug",
        "Gust"
      ]
    },
    "eggMoves": [
      "Dual Wingbeat"
    ],
    "evolutionMoves": [],
    "tmTRMoves": [
      "Snore",
      "Bug Buzz"
    ],
    "tutorMoves": {
      "Regular": [
        "Dual Wingbeat"
      ],
      "Transfer": [
        "Mud-Slap",
        "Ominous Wind",
        "Endeavor",
        "Tailwind",
        "Air Cutter",
        "String Shot",
        "Swift"
      ]
    }
  }
}