{
  "pixelmonName": "Comfey",
  "spDef": 110,
  "spAtt": 82,
  "speed": 100,
  "defence": 90,
  "attack": 52,
  "hp": 51,
  "catchRate": 60,
  "malePercent": 25,
  "nationalPokedexNumber": 764,
  "spawnLevel": 20,
  "spawnLevelRange": 30,
  "baseExp": 170,
  "baseFriendship": 70,
  "rarity": {
    "day": 40,
    "dawndusk": 0,
    "night": 0
  },
  "type1": "Fairy",
  "height": 0.12,
  "width": 0.5,
  "length": 0.5,
  "giScale": 1.0,
  "canFly": false,
  "isRideable": false,
  "preEvolutions": [],
  "experienceGroup": "Fast",
  "aggression": {
    "timid": 80,
    "passive": 0,
    "aggressive": 20
  },
  "spawnLocations": [
    "Land"
  ],
  "biomeIDs": [
    132
  ],
  "evGain": {
    "HP": 0,
    "Attack": 0,
    "Defence": 0,
    "SpecialAttack": 0,
    "SpecialDefence": 2,
    "Speed": 0
  },
  "canSurf": false,
  "maxGroupSize": 1,
  "minGroupSize": 1,
  "hoverHeight": 1.0,
  "doesHover": true,
  "id": 941,
  "baseFormID": 941,
  "weight": 0.3,
  "pokemon": "Comfey",
  "abilities": [
    "FlowerVeil",
    "Triage",
    "NaturalCure"
  ],
  "eggGroups": [
    "Grass"
  ],
  "eggCycles": 20,
  "form": -1,
  "evolutionDefs": [],
  "moves": {
    "levelMoves": {
      "1": [
        "Wrap",
        "Growth"
      ],
      "33": [
        "Petal Blizzard"
      ],
      "3": [
        "Vine Whip"
      ],
      "36": [
        "Aromatherapy"
      ],
      "6": [
        "Helping Hand"
      ],
      "39": [
        "Play Rough"
      ],
      "9": [
        "Draining Kiss"
      ],
      "42": [
        "Sweet Scent"
      ],
      "12": [
        "Flower Shield"
      ],
      "45": [
        "Petal Dance"
      ],
      "15": [
        "Magical Leaf"
      ],
      "48": [
        "Grassy Terrain"
      ],
      "18": [
        "Synthesis"
      ],
      "21": [
        "Leech Seed"
      ],
      "24": [
        "Grass Knot"
      ],
      "27": [
        "Sweet Kiss"
      ],
      "30": [
        "Floral Healing"
      ]
    },
    "eggMoves": [
      "After You",
      "Worry Seed",
      "Leaf Tornado"
    ],
    "evolutionMoves": [],
    "tmTRMoves": [
      "Giga Drain",
      "Snore",
      "Facade",
      "Taunt",
      "Play Rough",
      "Dazzling Gleam",
      "Light Screen",
      "Grass Knot",
      "U-turn",
      "Solar Beam",
      "Stored Power",
      "Magical Leaf",
      "Rest",
      "Seed Bomb",
      "Encore",
      "Charm",
      "Bullet Seed",
      "Round",
      "Amnesia",
      "Grassy Terrain",
      "Substitute",
      "Pollen Puff",
      "Acrobatics",
      "Attract",
      "Ally Switch",
      "Helping Hand",
      "Energy Ball",
      "Safeguard",
      "Protect",
      "Thief",
      "Trick",
      "Hyper Beam",
      "Sunny Day",
      "Calm Mind",
      "Fling",
      "Endure",
      "Sleep Talk",
      "Draining Kiss",
      "Trick Room"
    ],
    "tutorMoves": {
      "Regular": [
        "Grassy Glide"
      ],
      "Transfer": [
        "Psych Up",
        "Tailwind",
        "Confide",
        "Natural Gift",
        "Defog",
        "Hidden Power",
        "Magic Coat",
        "Lucky Chant",
        "Echoed Voice",
        "Double Team",
        "Heal Bell",
        "Telekinesis",
        "Bind",
        "Toxic",
        "Swagger",
        "Pain Split",
        "Return",
        "Nature Power",
        "Role Play",
        "Covet",
        "Frustration"
      ],
      "Event": [
        "Celebrate"
      ]
    }
  }
}