{
  "pixelmonName": "Corsola",
  "spDef": 95,
  "spAtt": 65,
  "speed": 35,
  "defence": 95,
  "attack": 55,
  "hp": 65,
  "catchRate": 60,
  "malePercent": 25,
  "nationalPokedexNumber": 222,
  "spawnLevel": 5,
  "spawnLevelRange": 45,
  "baseExp": 113,
  "baseFriendship": 70,
  "rarity": {
    "day": 150,
    "dawndusk": 15,
    "night": 15
  },
  "type1": "Water",
  "type2": "Rock",
  "height": 0.6,
  "width": 0.7,
  "length": 0.7,
  "giScale": 1.0,
  "canFly": false,
  "isRideable": false,
  "preEvolutions": [],
  "experienceGroup": "Fast",
  "aggression": {
    "timid": 80,
    "passive": 0,
    "aggressive": 20
  },
  "swimmingParameters": {
    "depthRangeStart": 15,
    "depthRangeEnd": 40,
    "swimSpeed": 0.5,
    "decayRate": 0.99,
    "refreshRate": 200
  },
  "spawnLocations": [
    "Water"
  ],
  "biomeIDs": [
    0,
    16
  ],
  "evGain": {
    "HP": 0,
    "Attack": 0,
    "Defence": 1,
    "SpecialAttack": 0,
    "SpecialDefence": 1,
    "Speed": 0
  },
  "canSurf": true,
  "maxGroupSize": 1,
  "minGroupSize": 1,
  "hoverHeight": 0.0,
  "doesHover": false,
  "id": 335,
  "baseFormID": 335,
  "weight": 5.0,
  "pokemon": "Corsola",
  "abilities": [
    "Hustle",
    "NaturalCure",
    "Regenerator"
  ],
  "eggGroups": [
    "Water1",
    "Water3"
  ],
  "eggCycles": 21,
  "form": -1,
  "evolutionDefs": [],
  "moves": {
    "levelMoves": {
      "1": [
        "Tackle",
        "Harden"
      ],
      "50": [
        "Recover"
      ],
      "35": [
        "Life Dew"
      ],
      "20": [
        "Ancient Power"
      ],
      "5": [
        "Water Gun"
      ],
      "55": [
        "Mirror Coat"
      ],
      "40": [
        "Power Gem"
      ],
      "25": [
        "Bubble Beam"
      ],
      "10": [
        "Aqua Ring"
      ],
      "45": [
        "Earth Power"
      ],
      "30": [
        "Flail"
      ],
      "15": [
        "Endure"
      ]
    },
    "eggMoves": [
      "Head Smash",
      "Nature Power",
      "Curse",
      "Water Pulse",
      "Mist",
      "Confuse Ray"
    ],
    "evolutionMoves": [],
    "tmTRMoves": [
      "Light Screen",
      "Icy Wind",
      "Rock Blast",
      "Throat Chop",
      "Screech",
      "Surf",
      "Hydro Pump",
      "Body Slam",
      "Bulldoze",
      "Substitute",
      "Attract",
      "Ice Beam",
      "Self-Destruct",
      "Sunny Day",
      "Brine",
      "Calm Mind",
      "Rock Tomb",
      "Endure",
      "Whirlpool",
      "Snore",
      "Facade",
      "Icicle Spear",
      "Stone Edge",
      "Stomping Tantrum",
      "Power Gem",
      "Rest",
      "Earthquake",
      "Rock Slide",
      "Earth Power",
      "Round",
      "Shadow Ball",
      "Sandstorm",
      "Liquidation",
      "Amnesia",
      "Iron Defense",
      "Hail",
      "Safeguard",
      "Protect",
      "Dig",
      "Rain Dance",
      "Scald",
      "Psychic",
      "Reflect",
      "Sleep Talk",
      "Stealth Rock",
      "Blizzard"
    ],
    "tutorMoves": {
      "Regular": [
        "Meteor Beam"
      ],
      "Transfer": [
        "Natural Gift",
        "Confide",
        "Double-Edge",
        "Hidden Power",
        "Bide",
        "Double Team",
        "Spike Cannon",
        "Headbutt",
        "Refresh",
        "Swagger",
        "Defense Curl",
        "Mimic",
        "Captivate",
        "Ingrain",
        "Rock Polish",
        "Frustration",
        "Rock Smash",
        "Secret Power",
        "Bubble",
        "Camouflage",
        "Explosion",
        "Magic Coat",
        "Lucky Chant",
        "Mud-Slap",
        "Toxic",
        "Barrier",
        "Rollout",
        "Endeavor",
        "Return",
        "Sucker Punch",
        "Strength"
      ]
    }
  }
}