{
  "pixelmonName": "Corsola",
  "spDef": 100,
  "spAtt": 65,
  "speed": 30,
  "defence": 100,
  "attack": 55,
  "hp": 60,
  "catchRate": 60,
  "malePercent": 25,
  "nationalPokedexNumber": 222,
  "spawnLevel": 25,
  "spawnLevelRange": 30,
  "baseExp": 144,
  "baseFriendship": 70,
  "rarity": {
    "day": 1,
    "dawndusk": 0,
    "night": 0
  },
  "type1": "Ghost",
  "height": 0.6,
  "width": 1.0,
  "length": 1.0,
  "giScale": 1.0,
  "canFly": false,
  "isRideable": false,
  "preEvolutions": [],
  "experienceGroup": "Fast",
  "aggression": {
    "timid": 80,
    "passive": 0,
    "aggressive": 20
  },
  "spawnLocations": [
    "Land"
  ],
  "biomeIDs": [
    21
  ],
  "evGain": {
    "HP": 0,
    "Attack": 0,
    "Defence": 1,
    "SpecialAttack": 0,
    "SpecialDefence": 1,
    "Speed": 0
  },
  "canSurf": false,
  "maxGroupSize": 1,
  "minGroupSize": 1,
  "hoverHeight": 0.0,
  "doesHover": false,
  "id": 1114,
  "baseFormID": 335,
  "weight": 0.5,
  "pokemon": "Corsola",
  "abilities": [
    "WeakArmor",
    null,
    "CursedBody"
  ],
  "eggGroups": [
    "Water1",
    "Water3"
  ],
  "eggCycles": 6,
  "form": 10,
  "evolutionDefs": [
    {
      "targetId": 1115,
      "evolveLevel": 18
    }
  ],
  "moves": {
    "levelMoves": {
      "1": [
        "Tackle",
        "Harden"
      ],
      "50": [
        "Grudge"
      ],
      "35": [
        "Strength Sap"
      ],
      "20": [
        "Ancient Power"
      ],
      "5": [
        "Astonish"
      ],
      "55": [
        "Mirror Coat"
      ],
      "40": [
        "Power Gem"
      ],
      "25": [
        "Hex"
      ],
      "10": [
        "Disable"
      ],
      "45": [
        "Night Shade"
      ],
      "30": [
        "Curse"
      ],
      "15": [
        "Spite"
      ]
    },
    "eggMoves": [
      "Destiny Bond",
      "Head Smash",
      "Nature Power",
      "Water Pulse",
      "Haze",
      "Confuse Ray"
    ],
    "evolutionMoves": [],
    "tmTRMoves": [
      "Light Screen",
      "Icy Wind",
      "Rock Blast",
      "Throat Chop",
      "Screech",
      "Surf",
      "Hydro Pump",
      "Body Slam",
      "Bulldoze",
      "Substitute",
      "Attract",
      "Ice Beam",
      "Self-Destruct",
      "Sunny Day",
      "Brine",
      "Calm Mind",
      "Rock Tomb",
      "Endure",
      "Whirlpool",
      "Giga Drain",
      "Snore",
      "Facade",
      "Icicle Spear",
      "Stone Edge",
      "Stomping Tantrum",
      "Power Gem",
      "Rest",
      "Earthquake",
      "Rock Slide",
      "Earth Power",
      "Round",
      "Shadow Ball",
      "Sandstorm",
      "Liquidation",
      "Amnesia",
      "Iron Defense",
      "Hail",
      "Safeguard",
      "Protect",
      "Dig",
      "Rain Dance",
      "Will-O-Wisp",
      "Scald",
      "Psychic",
      "Reflect",
      "Sleep Talk",
      "Stealth Rock",
      "Hex",
      "Blizzard"
    ],
    "tutorMoves": {
      "Regular": [
        "Meteor Beam"
      ]
    }
  }
}