{
  "pixelmonName": "Cosmog",
  "spDef": 31,
  "spAtt": 29,
  "speed": 37,
  "defence": 31,
  "attack": 29,
  "hp": 43,
  "catchRate": 45,
  "malePercent": -1,
  "nationalPokedexNumber": 789,
  "spawnLevel": 5,
  "spawnLevelRange": 18,
  "baseExp": 40,
  "baseFriendship": 0,
  "rarity": {
    "day": 0,
    "dawndusk": 0,
    "night": 0
  },
  "type1": "Psychic",
  "height": 0.2,
  "width": 0.1,
  "length": 0.1,
  "giScale": 1.0,
  "canFly": false,
  "isRideable": false,
  "preEvolutions": [],
  "experienceGroup": "Slow",
  "aggression": {
    "timid": 5,
    "passive": 93,
    "aggressive": 2
  },
  "spawnLocations": [
    "Land",
    "Land"
  ],
  "biomeIDs": [
    6,
    134,
    163
  ],
  "evGain": {
    "HP": 1,
    "Attack": 0,
    "Defence": 0,
    "SpecialAttack": 0,
    "SpecialDefence": 0,
    "Speed": 0
  },
  "canSurf": false,
  "maxGroupSize": 1,
  "minGroupSize": 1,
  "hoverHeight": 1.0,
  "doesHover": true,
  "id": 925,
  "baseFormID": 925,
  "weight": 0.1,
  "pokemon": "Cosmog",
  "abilities": [
    "Unaware",
    null,
    null
  ],
  "eggGroups": [
    "Undiscovered"
  ],
  "eggCycles": 120,
  "form": -1,
  "evolutionDefs": [
    {
      "targetId": 926,
      "evolveLevel": 43
    }
  ],
  "moves": {
    "levelMoves": {
      "1": [
        "Splash",
        "Teleport"
      ]
    },
    "eggMoves": [],
    "evolutionMoves": [],
    "tmTRMoves": [],
    "tutorMoves": {}
  }
}