{
  "pixelmonName": "Cramorant",
  "spDef": 95,
  "spAtt": 85,
  "speed": 85,
  "defence": 55,
  "attack": 85,
  "hp": 70,
  "catchRate": 45,
  "malePercent": 50,
  "nationalPokedexNumber": 845,
  "spawnLevel": 8,
  "spawnLevelRange": 30,
  "baseExp": 166,
  "baseFriendship": 50,
  "rarity": {
    "day": 1,
    "dawndusk": 0,
    "night": 0
  },
  "type1": "Flying",
  "type2": "Water",
  "height": 1.0,
  "width": 1.0,
  "length": 1.0,
  "giScale": 1.0,
  "canFly": false,
  "isRideable": false,
  "preEvolutions": [],
  "experienceGroup": "MediumFast",
  "aggression": {
    "timid": 80,
    "passive": 0,
    "aggressive": 20
  },
  "spawnLocations": [
    "Land"
  ],
  "biomeIDs": [
    21
  ],
  "evGain": {
    "HP": 0,
    "Attack": 0,
    "Defence": 0,
    "SpecialAttack": 0,
    "SpecialDefence": 2,
    "Speed": 0
  },
  "canSurf": false,
  "maxGroupSize": 1,
  "minGroupSize": 1,
  "hoverHeight": 0.0,
  "doesHover": false,
  "id": 1073,
  "baseFormID": 1073,
  "weight": 18.0,
  "pokemon": "Cramorant",
  "abilities": [
    "GulpMissile",
    null,
    null
  ],
  "eggGroups": [
    "Water1",
    "Flying"
  ],
  "eggCycles": 6,
  "form": -1,
  "evolutionDefs": [],
  "moves": {
    "levelMoves": {
      "1": [
        "Spit Up",
        "Peck",
        "Swallow",
        "Stockpile",
        "Belch"
      ],
      "49": [
        "Thrash"
      ],
      "35": [
        "Drill Peck"
      ],
      "21": [
        "Pluck"
      ],
      "7": [
        "Water Gun"
      ],
      "56": [
        "Hydro Pump"
      ],
      "42": [
        "Amnesia"
      ],
      "28": [
        "Dive"
      ],
      "14": [
        "Fury Attack"
      ]
    },
    "eggMoves": [
      "Defog",
      "Roost",
      "Aerial Ace",
      "Aqua Ring",
      "Feather Dance"
    ],
    "evolutionMoves": [],
    "tmTRMoves": [
      "Weather Ball",
      "Snore",
      "Facade",
      "Assurance",
      "Uproar",
      "Air Slash",
      "Icy Wind",
      "Brave Bird",
      "Throat Chop",
      "Surf",
      "Fly",
      "Rest",
      "Hydro Pump",
      "Agility",
      "Round",
      "Liquidation",
      "Amnesia",
      "Substitute",
      "Superpower",
      "Hurricane",
      "Attract",
      "Ice Beam",
      "Giga Impact",
      "Protect",
      "Rain Dance",
      "Thief",
      "Hyper Beam",
      "Scald",
      "Dive",
      "Steel Wing",
      "Endure",
      "Sleep Talk",
      "Whirlpool",
      "Reversal",
      "Blizzard"
    ],
    "tutorMoves": {
      "Regular": [
        "Dual Wingbeat"
      ]
    }
  }
}