{
  "pixelmonName": "Cubchoo",
  "spDef": 40,
  "spAtt": 60,
  "speed": 40,
  "defence": 40,
  "attack": 70,
  "hp": 55,
  "catchRate": 120,
  "malePercent": 50,
  "nationalPokedexNumber": 613,
  "spawnLevel": 10,
  "spawnLevelRange": 20,
  "baseExp": 61,
  "baseFriendship": 70,
  "rarity": {
    "day": 20,
    "dawndusk": 0,
    "night": 0
  },
  "type1": "Ice",
  "height": 0.5,
  "width": 0.7,
  "length": 0.7,
  "giScale": 1.0,
  "canFly": false,
  "isRideable": false,
  "preEvolutions": [],
  "experienceGroup": "MediumFast",
  "aggression": {
    "timid": 80,
    "passive": 0,
    "aggressive": 20
  },
  "spawnLocations": [
    "Land"
  ],
  "biomeIDs": [
    13,
    30,
    31,
    158,
    140,
    13
  ],
  "evGain": {
    "HP": 0,
    "Attack": 1,
    "Defence": 0,
    "SpecialAttack": 0,
    "SpecialDefence": 0,
    "Speed": 0
  },
  "canSurf": false,
  "maxGroupSize": 1,
  "minGroupSize": 1,
  "hoverHeight": 0.0,
  "doesHover": false,
  "id": 683,
  "baseFormID": 683,
  "weight": 8.5,
  "pokemon": "Cubchoo",
  "abilities": [
    "SnowCloak",
    "SlushRush",
    "Rattled"
  ],
  "eggGroups": [
    "Field"
  ],
  "eggCycles": 21,
  "form": -1,
  "evolutionDefs": [
    {
      "targetId": 684,
      "evolveLevel": 37
    }
  ],
  "moves": {
    "levelMoves": {
      "1": [
        "Growl",
        "Powder Snow"
      ],
      "33": [
        "Thrash"
      ],
      "3": [
        "Endure"
      ],
      "36": [
        "Rest"
      ],
      "6": [
        "Fury Swipes"
      ],
      "39": [
        "Blizzard"
      ],
      "9": [
        "Icy Wind"
      ],
      "42": [
        "Sheer Cold"
      ],
      "12": [
        "Play Nice"
      ],
      "15": [
        "Brine"
      ],
      "18": [
        "Frost Breath"
      ],
      "21": [
        "Slash"
      ],
      "24": [
        "Flail"
      ],
      "27": [
        "Charm"
      ],
      "30": [
        "Hail"
      ]
    },
    "eggMoves": [
      "Focus Punch",
      "Yawn",
      "Night Slash"
    ],
    "evolutionMoves": [],
    "tmTRMoves": [
      "Snore",
      "Facade",
      "Assurance",
      "Play Rough",
      "Grass Knot",
      "Icy Wind",
      "Mega Kick",
      "Surf",
      "Rest",
      "Encore",
      "Ice Fang",
      "Charm",
      "Round",
      "Substitute",
      "Superpower",
      "Attract",
      "Hail",
      "Ice Beam",
      "Protect",
      "Dig",
      "Rain Dance",
      "Mega Punch",
      "Brine",
      "Avalanche",
      "Fling",
      "Rock Tomb",
      "Low Kick",
      "Endure",
      "Sleep Talk",
      "Shadow Claw",
      "Ice Punch",
      "Blizzard"
    ],
    "tutorMoves": {
      "Transfer": [
        "Rock Smash",
        "Secret Power",
        "Confide",
        "Cut",
        "Hidden Power",
        "Power-Up Punch",
        "Echoed Voice",
        "Water Pulse",
        "Bide",
        "Hone Claws",
        "Double Team",
        "Toxic",
        "Aerial Ace",
        "Swagger",
        "Return",
        "Covet",
        "Strength",
        "Frustration"
      ]
    }
  }
}