{
  "pixelmonName": "Cufant",
  "spDef": 49,
  "spAtt": 40,
  "speed": 40,
  "defence": 49,
  "attack": 80,
  "hp": 72,
  "catchRate": 190,
  "malePercent": 50,
  "nationalPokedexNumber": 878,
  "spawnLevel": 8,
  "spawnLevelRange": 34,
  "baseExp": 66,
  "baseFriendship": 50,
  "rarity": {
    "day": 1,
    "dawndusk": 0,
    "night": 0
  },
  "type1": "Steel",
  "height": 1.2,
  "width": 1.0,
  "length": 1.0,
  "giScale": 1.0,
  "canFly": false,
  "isRideable": false,
  "preEvolutions": [],
  "experienceGroup": "MediumFast",
  "aggression": {
    "timid": 80,
    "passive": 0,
    "aggressive": 20
  },
  "spawnLocations": [
    "Land"
  ],
  "biomeIDs": [
    21
  ],
  "evGain": {
    "HP": 0,
    "Attack": 1,
    "Defence": 0,
    "SpecialAttack": 0,
    "SpecialDefence": 0,
    "Speed": 0
  },
  "canSurf": false,
  "maxGroupSize": 1,
  "minGroupSize": 1,
  "hoverHeight": 0.0,
  "doesHover": false,
  "id": 1086,
  "baseFormID": 1086,
  "weight": 100.0,
  "pokemon": "Cufant",
  "abilities": [
    "SheerForce",
    null,
    "HeavyMetal"
  ],
  "eggGroups": [
    "Field",
    "Mineral"
  ],
  "eggCycles": 6,
  "form": -1,
  "evolutionDefs": [
    {
      "targetId": 1087,
      "evolveLevel": 34
    }
  ],
  "moves": {
    "levelMoves": {
      "1": [
        "Tackle",
        "Growl"
      ],
      "50": [
        "High Horsepower"
      ],
      "35": [
        "Strength"
      ],
      "20": [
        "Stomp"
      ],
      "5": [
        "Rollout"
      ],
      "55": [
        "Superpower"
      ],
      "40": [
        "Iron Head"
      ],
      "25": [
        "Iron Defense"
      ],
      "10": [
        "Rock Smash"
      ],
      "45": [
        "Play Rough"
      ],
      "30": [
        "Dig"
      ],
      "15": [
        "Bulldoze"
      ]
    },
    "eggMoves": [
      "Slam",
      "Curse",
      "Whirlwind",
      "Swagger",
      "Defense Curl",
      "Fissure",
      "Belch",
      "Double-Edge"
    ],
    "evolutionMoves": [],
    "tmTRMoves": [
      "Snore",
      "Facade",
      "Play Rough",
      "Stomping Tantrum",
      "Rock Blast",
      "Screech",
      "Mega Kick",
      "Iron Head",
      "Rest",
      "Work Up",
      "Rock Slide",
      "Earth Power",
      "Round",
      "Body Slam",
      "Bulldoze",
      "Iron Defense",
      "Mud Shot",
      "Substitute",
      "Superpower",
      "Brick Break",
      "Attract",
      "Body Press",
      "Protect",
      "Dig",
      "High Horsepower",
      "Power Whip",
      "Fling",
      "Rock Tomb",
      "Brutal Swing",
      "Endure",
      "Sleep Talk",
      "Stealth Rock",
      "Zen Headbutt"
    ],
    "tutorMoves": {
      "Regular": [
        "Steel Roller",
        "Steel Beam"
      ]
    }
  }
}