{
  "pixelmonName": "Deino",
  "spDef": 50,
  "spAtt": 45,
  "speed": 38,
  "defence": 50,
  "attack": 65,
  "hp": 52,
  "catchRate": 45,
  "malePercent": 50,
  "nationalPokedexNumber": 633,
  "spawnLevel": 15,
  "spawnLevelRange": 35,
  "baseExp": 60,
  "baseFriendship": 35,
  "rarity": {
    "day": 0,
    "dawndusk": 0,
    "night": 30
  },
  "type1": "Dark",
  "type2": "Dragon",
  "height": 0.8,
  "width": 0.7,
  "length": 0.7,
  "giScale": 1.0,
  "canFly": false,
  "isRideable": false,
  "preEvolutions": [],
  "experienceGroup": "Slow",
  "aggression": {
    "timid": 80,
    "passive": 0,
    "aggressive": 20
  },
  "spawnLocations": [
    "Land"
  ],
  "biomeIDs": [
    3,
    34,
    131,
    162,
    3,
    34,
    162,
    131
  ],
  "evGain": {
    "HP": 0,
    "Attack": 1,
    "Defence": 0,
    "SpecialAttack": 0,
    "SpecialDefence": 0,
    "Speed": 0
  },
  "canSurf": false,
  "maxGroupSize": 1,
  "minGroupSize": 1,
  "hoverHeight": 0.0,
  "doesHover": false,
  "id": 703,
  "baseFormID": 703,
  "weight": 17.3,
  "pokemon": "Deino",
  "abilities": [
    "Hustle",
    null,
    null
  ],
  "eggGroups": [
    "Dragon"
  ],
  "eggCycles": 41,
  "form": -1,
  "evolutionDefs": [
    {
      "targetId": 704,
      "evolveLevel": 50
    }
  ],
  "moves": {
    "levelMoves": {
      "32": [
        "Crunch"
      ],
      "1": [
        "Tackle",
        "Focus Energy"
      ],
      "4": [
        "Dragon Breath"
      ],
      "36": [
        "Scary Face"
      ],
      "8": [
        "Bite"
      ],
      "40": [
        "Dragon Pulse"
      ],
      "12": [
        "Roar"
      ],
      "44": [
        "Body Slam"
      ],
      "16": [
        "Assurance"
      ],
      "48": [
        "Hyper Voice"
      ],
      "20": [
        "Headbutt"
      ],
      "52": [
        "Dragon Rush"
      ],
      "24": [
        "Work Up"
      ],
      "56": [
        "Nasty Plot"
      ],
      "28": [
        "Slam"
      ],
      "60": [
        "Outrage"
      ]
    },
    "eggMoves": [
      "Double Hit",
      "Head Smash",
      "Astonish",
      "Belch"
    ],
    "evolutionMoves": [],
    "tmTRMoves": [
      "Snore",
      "Facade",
      "Assurance",
      "Uproar",
      "Taunt",
      "Focus Energy",
      "Dark Pulse",
      "Fire Fang",
      "Screech",
      "Rest",
      "Thunder Fang",
      "Ice Fang",
      "Work Up",
      "Earth Power",
      "Nasty Plot",
      "Scary Face",
      "Round",
      "Body Slam",
      "Substitute",
      "Superpower",
      "Attract",
      "Thunder Wave",
      "Crunch",
      "Hyper Voice",
      "Dragon Pulse",
      "Protect",
      "Rain Dance",
      "Thief",
      "Sunny Day",
      "Outrage",
      "Endure",
      "Sleep Talk",
      "Zen Headbutt"
    ],
    "tutorMoves": {
      "Regular": [
        "Draco Meteor"
      ],
      "Transfer": [
        "Rock Smash",
        "Secret Power",
        "Psych Up",
        "Confide",
        "Incinerate",
        "Hidden Power",
        "Double Team",
        "Spite",
        "Shock Wave",
        "Toxic",
        "Dragon Tail",
        "Swagger",
        "Dragon Rage",
        "Aqua Tail",
        "Return",
        "Torment",
        "Strength",
        "Frustration"
      ]
    }
  }
}