{
  "pixelmonName": "Delibird",
  "spDef": 45,
  "spAtt": 65,
  "speed": 75,
  "defence": 45,
  "attack": 55,
  "hp": 45,
  "catchRate": 45,
  "malePercent": 50,
  "nationalPokedexNumber": 225,
  "spawnLevel": 10,
  "spawnLevelRange": 45,
  "baseExp": 183,
  "baseFriendship": 70,
  "rarity": {
    "day": 0,
    "dawndusk": 0,
    "night": 80
  },
  "type1": "Ice",
  "type2": "Flying",
  "height": 0.9,
  "width": 0.7,
  "length": 0.7,
  "giScale": 1.0,
  "canFly": false,
  "isRideable": false,
  "preEvolutions": [],
  "experienceGroup": "Fast",
  "aggression": {
    "timid": 80,
    "passive": 0,
    "aggressive": 20
  },
  "spawnLocations": [
    "Land"
  ],
  "biomeIDs": [
    13,
    31,
    140,
    158
  ],
  "evGain": {
    "HP": 0,
    "Attack": 0,
    "Defence": 0,
    "SpecialAttack": 0,
    "SpecialDefence": 0,
    "Speed": 1
  },
  "canSurf": false,
  "maxGroupSize": 1,
  "minGroupSize": 1,
  "hoverHeight": 0.0,
  "doesHover": false,
  "id": 338,
  "baseFormID": 338,
  "weight": 16.0,
  "pokemon": "Delibird",
  "abilities": [
    "VitalSpirit",
    "Hustle",
    "Insomnia"
  ],
  "eggGroups": [
    "Water1",
    "Field"
  ],
  "eggCycles": 21,
  "form": -1,
  "evolutionDefs": [],
  "moves": {
    "levelMoves": {
      "1": [
        "Present"
      ],
      "25": [
        "Drill Peck"
      ]
    },
    "eggMoves": [
      "Destiny Bond",
      "Memento",
      "Quick Attack",
      "Aurora Beam",
      "Counter",
      "Ice Shard",
      "Rapid Spin",
      "Aurora Veil",
      "Fake Out",
      "Splash",
      "Freeze-Dry"
    ],
    "evolutionMoves": [],
    "tmTRMoves": [
      "Weather Ball",
      "Snore",
      "Facade",
      "Assurance",
      "Icicle Spear",
      "Icy Wind",
      "Brave Bird",
      "Mega Kick",
      "Fly",
      "Rest",
      "Seed Bomb",
      "Agility",
      "Round",
      "Body Slam",
      "Bounce",
      "Substitute",
      "Brick Break",
      "Gunk Shot",
      "Attract",
      "Hail",
      "Ice Beam",
      "Helping Hand",
      "Future Sight",
      "Protect",
      "Rain Dance",
      "Mega Punch",
      "Thief",
      "Drill Run",
      "Baton Pass",
      "Avalanche",
      "Spikes",
      "Fling",
      "Steel Wing",
      "Brutal Swing",
      "Endure",
      "Sleep Talk",
      "Swift",
      "Ice Punch",
      "Blizzard"
    ],
    "tutorMoves": {
      "Regular": [
        "Triple Axel",
        "Dual Wingbeat"
      ],
      "Transfer": [
        "Secret Power",
        "Bestow",
        "Detect",
        "Natural Gift",
        "Confide",
        "Defog",
        "Curse",
        "Frost Breath",
        "Pluck",
        "Double-Edge",
        "Hidden Power",
        "Power-Up Punch",
        "Water Pulse",
        "Recycle",
        "Double Team",
        "Mud-Slap",
        "Focus Punch",
        "Toxic",
        "Sky Attack",
        "Aerial Ace",
        "Seismic Toss",
        "Headbutt",
        "Ice Ball",
        "Swagger",
        "Rollout",
        "Signal Beam",
        "Return",
        "Mimic",
        "Captivate",
        "Frustration"
      ],
      "Event": [
        "Happy Hour"
      ]
    }
  }
}