{
  "pixelmonName": "Dragapult",
  "spDef": 75,
  "spAtt": 100,
  "speed": 142,
  "defence": 75,
  "attack": 120,
  "hp": 88,
  "catchRate": 60,
  "malePercent": 50,
  "nationalPokedexNumber": 887,
  "spawnLevel": 60,
  "spawnLevelRange": 10,
  "baseExp": 300,
  "baseFriendship": 50,
  "rarity": {
    "day": 1,
    "dawndusk": 0,
    "night": 0
  },
  "type1": "Dragon",
  "type2": "Ghost",
  "height": 2.2,
  "width": 1.0,
  "length": 1.0,
  "giScale": 1.0,
  "canFly": false,
  "isRideable": false,
  "preEvolutions": [
    "Dreepy",
    "Drakloak"
  ],
  "experienceGroup": "Slow",
  "aggression": {
    "timid": 80,
    "passive": 0,
    "aggressive": 20
  },
  "spawnLocations": [
    "Land"
  ],
  "biomeIDs": [
    21
  ],
  "evGain": {
    "HP": 0,
    "Attack": 0,
    "Defence": 0,
    "SpecialAttack": 0,
    "SpecialDefence": 0,
    "Speed": 3
  },
  "canSurf": false,
  "maxGroupSize": 1,
  "minGroupSize": 1,
  "hoverHeight": 0.0,
  "doesHover": false,
  "id": 1110,
  "baseFormID": 1110,
  "weight": 50.0,
  "pokemon": "Dragapult",
  "abilities": [
    "ClearBody",
    "Infiltrator",
    "CursedBody"
  ],
  "eggGroups": [
    "Amorphous",
    "Dragon"
  ],
  "eggCycles": 6,
  "form": -1,
  "evolutionDefs": [],
  "moves": {
    "levelMoves": {
      "1": [
        "Sucker Punch",
        "Quick Attack",
        "Dragon Breath",
        "Astonish",
        "Bite",
        "Dragon Darts",
        "Infestation"
      ],
      "36": [
        "U-turn"
      ],
      "6": [
        "Lock-On"
      ],
      "70": [
        "Double-Edge"
      ],
      "42": [
        "Dragon Dance"
      ],
      "12": [
        "Assurance"
      ],
      "78": [
        "Last Resort"
      ],
      "48": [
        "Phantom Force"
      ],
      "18": [
        "Hex"
      ],
      "54": [
        "Take Down"
      ],
      "24": [
        "Agility"
      ],
      "30": [
        "Double Hit"
      ],
      "60": [
        "Dragon Darts"
      ],
      "63": [
        "Dragon Rush"
      ]
    },
    "eggMoves": [
      "Sucker Punch",
      "Dragon Tail",
      "Curse",
      "Confuse Ray",
      "Double Team",
      "Grudge",
      "Disable"
    ],
    "evolutionMoves": [
      "Dragon Darts"
    ],
    "tmTRMoves": [
      "Snore",
      "Facade",
      "Assurance",
      "Flamethrower",
      "Beat Up",
      "Light Screen",
      "U-turn",
      "Solar Beam",
      "Breaking Swipe",
      "Surf",
      "Fly",
      "Rest",
      "Hydro Pump",
      "Agility",
      "Round",
      "Body Slam",
      "Shadow Ball",
      "Substitute",
      "Acrobatics",
      "Dragon Dance",
      "Attract",
      "Ally Switch",
      "Giga Impact",
      "Thunder Wave",
      "Helping Hand",
      "Dragon Pulse",
      "Protect",
      "Thunder",
      "Tri Attack",
      "Thief",
      "Hyper Beam",
      "Brine",
      "Psychic Fangs",
      "Will-O-Wisp",
      "Scald",
      "Baton Pass",
      "Dragon Claw",
      "Outrage",
      "Phantom Force",
      "Dive",
      "Reflect",
      "Steel Wing",
      "Endure",
      "Sleep Talk",
      "Swift",
      "Hex",
      "Thunderbolt",
      "Fire Blast"
    ],
    "tutorMoves": {
      "Regular": [
        "Draco Meteor"
      ]
    }
  }
}