{
  "pixelmonName": "Dreepy",
  "spDef": 30,
  "spAtt": 40,
  "speed": 82,
  "defence": 30,
  "attack": 60,
  "hp": 28,
  "catchRate": 45,
  "malePercent": 50,
  "nationalPokedexNumber": 885,
  "spawnLevel": 5,
  "spawnLevelRange": 20,
  "baseExp": 54,
  "baseFriendship": 50,
  "rarity": {
    "day": 1,
    "dawndusk": 0,
    "night": 0
  },
  "type1": "Dragon",
  "type2": "Ghost",
  "height": 0.5,
  "width": 1.0,
  "length": 1.0,
  "giScale": 1.0,
  "canFly": false,
  "isRideable": false,
  "preEvolutions": [],
  "experienceGroup": "Slow",
  "aggression": {
    "timid": 80,
    "passive": 0,
    "aggressive": 20
  },
  "spawnLocations": [
    "Land"
  ],
  "biomeIDs": [
    21
  ],
  "evGain": {
    "HP": 0,
    "Attack": 0,
    "Defence": 0,
    "SpecialAttack": 0,
    "SpecialDefence": 0,
    "Speed": 1
  },
  "canSurf": false,
  "maxGroupSize": 1,
  "minGroupSize": 1,
  "hoverHeight": 0.0,
  "doesHover": false,
  "id": 1108,
  "baseFormID": 1108,
  "weight": 2.0,
  "pokemon": "Dreepy",
  "abilities": [
    "ClearBody",
    "Infiltrator",
    "CursedBody"
  ],
  "eggGroups": [
    "Amorphous",
    "Dragon"
  ],
  "eggCycles": 6,
  "form": -1,
  "evolutionDefs": [
    {
      "targetId": 1109,
      "evolveLevel": 50
    }
  ],
  "moves": {
    "levelMoves": {
      "1": [
        "Quick Attack",
        "Astonish",
        "Bite",
        "Infestation"
      ]
    },
    "eggMoves": [
      "Sucker Punch",
      "Dragon Tail",
      "Curse",
      "Confuse Ray",
      "Double Team",
      "Grudge",
      "Disable"
    ],
    "evolutionMoves": [],
    "tmTRMoves": [
      "Helping Hand",
      "Snore",
      "Protect",
      "Facade",
      "Baton Pass",
      "Rest",
      "Endure",
      "Sleep Talk",
      "Round",
      "Swift",
      "Substitute",
      "Attract",
      "Thunder Wave"
    ],
    "tutorMoves": {
      "Regular": [
        "Draco Meteor"
      ]
    }
  }
}