{
  "pixelmonName": "Drizzile",
  "spDef": 55,
  "spAtt": 95,
  "speed": 90,
  "defence": 55,
  "attack": 60,
  "hp": 65,
  "catchRate": 45,
  "malePercent": 87,
  "nationalPokedexNumber": 817,
  "spawnLevel": 16,
  "spawnLevelRange": 19,
  "baseExp": 147,
  "baseFriendship": 50,
  "rarity": {
    "day": 30,
    "dawndusk": 0,
    "night": 0
  },
  "type1": "Water",
  "height": 0.7,
  "width": 0.7,
  "length": 0.7,
  "giScale": 1.0,
  "canFly": false,
  "isRideable": false,
  "preEvolutions": [
    "Sobble"
  ],
  "experienceGroup": "MediumSlow",
  "aggression": {
    "timid": 80,
    "passive": 0,
    "aggressive": 20
  },
  "spawnLocations": [],
  "biomeIDs": [],
  "evGain": {
    "HP": 0,
    "Attack": 0,
    "Defence": 0,
    "SpecialAttack": 2,
    "SpecialDefence": 0,
    "Speed": 0
  },
  "canSurf": false,
  "maxGroupSize": 2,
  "minGroupSize": 1,
  "hoverHeight": 0.0,
  "doesHover": false,
  "id": 1007,
  "baseFormID": 1007,
  "weight": 11.5,
  "pokemon": "Drizzile",
  "abilities": [
    "Torrent",
    null,
    "Sniper"
  ],
  "eggGroups": [
    "Water1",
    "Field"
  ],
  "eggCycles": 21,
  "form": -1,
  "evolutionDefs": [
    {
      "targetId": 1008,
      "evolveLevel": 35
    }
  ],
  "moves": {
    "levelMoves": {
      "48": [
        "Rain Dance"
      ],
      "1": [
        "Water Gun",
        "Bind",
        "Growl",
        "Pound"
      ],
      "19": [
        "Tearful Look"
      ],
      "36": [
        "Liquidation"
      ],
      "24": [
        "Sucker Punch"
      ],
      "42": [
        "Soak"
      ],
      "12": [
        "Water Pulse"
      ],
      "30": [
        "U-turn"
      ]
    },
    "eggMoves": [
      "Ice Shard",
      "Haze",
      "Aqua Ring",
      "Mist",
      "Double Team",
      "Fell Stinger",
      "Aqua Jet"
    ],
    "evolutionMoves": [],
    "tmTRMoves": [
      "Weather Ball",
      "Snore",
      "Facade",
      "Light Screen",
      "U-turn",
      "Surf",
      "Rest",
      "Work Up",
      "Round",
      "Bounce",
      "Liquidation",
      "Mud Shot",
      "Substitute",
      "Attract",
      "Safeguard",
      "Protect",
      "Rain Dance",
      "Baton Pass",
      "Fling",
      "Dive",
      "Reflect",
      "Endure",
      "Sleep Talk",
      "Whirlpool",
      "Muddy Water",
      "Swift"
    ],
    "tutorMoves": {}
  }
}