{
  "pixelmonName": "Dugtrio",
  "spDef": 70,
  "spAtt": 50,
  "speed": 120,
  "defence": 50,
  "attack": 100,
  "hp": 35,
  "catchRate": 50,
  "malePercent": 50,
  "nationalPokedexNumber": 51,
  "spawnLevel": 26,
  "spawnLevelRange": 13,
  "baseExp": 153,
  "baseFriendship": 70,
  "rarity": {
    "day": 80,
    "dawndusk": 0,
    "night": 80
  },
  "type1": "Ground",
  "height": 0.7,
  "width": 0.6,
  "length": 0.6,
  "giScale": 0.2,
  "canFly": false,
  "isRideable": false,
  "preEvolutions": [
    "Diglett"
  ],
  "experienceGroup": "MediumFast",
  "aggression": {
    "timid": 80,
    "passive": 0,
    "aggressive": 20
  },
  "spawnLocations": [
    "Land",
    "UnderGround"
  ],
  "biomeIDs": [
    2,
    17,
    37,
    38,
    39,
    130,
    165,
    166,
    167
  ],
  "evGain": {
    "HP": 0,
    "Attack": 0,
    "Defence": 0,
    "SpecialAttack": 0,
    "SpecialDefence": 0,
    "Speed": 2
  },
  "canSurf": false,
  "maxGroupSize": 1,
  "minGroupSize": 1,
  "hoverHeight": 0.0,
  "doesHover": false,
  "id": 145,
  "baseFormID": 145,
  "weight": 33.3,
  "pokemon": "Dugtrio",
  "abilities": [
    "SandVeil",
    "ArenaTrap",
    "SandForce"
  ],
  "eggGroups": [
    "Field"
  ],
  "eggCycles": 21,
  "form": -1,
  "evolutionDefs": [],
  "moves": {
    "levelMoves": {
      "16": [
        "Bulldoze"
      ],
      "48": [
        "Earthquake"
      ],
      "1": [
        "Sand Tomb",
        "Scratch",
        "Tri Attack",
        "Sand Attack",
        "Astonish",
        "Growl",
        "Night Slash"
      ],
      "20": [
        "Sucker Punch"
      ],
      "36": [
        "Dig"
      ],
      "54": [
        "Fissure"
      ],
      "24": [
        "Slash"
      ],
      "42": [
        "Earth Power"
      ],
      "12": [
        "Mud-Slap"
      ],
      "30": [
        "Sandstorm"
      ]
    },
    "eggMoves": [
      "Final Gambit",
      "Memento",
      "Ancient Power",
      "Hone Claws",
      "Headbutt"
    ],
    "evolutionMoves": [
      "Sand Tomb"
    ],
    "tmTRMoves": [
      "Snore",
      "Facade",
      "Assurance",
      "Uproar",
      "Beat Up",
      "Sludge Bomb",
      "Stone Edge",
      "Stomping Tantrum",
      "Screech",
      "Rest",
      "Sand Tomb",
      "Earthquake",
      "Work Up",
      "Rock Slide",
      "Sludge Wave",
      "Agility",
      "Earth Power",
      "Round",
      "Body Slam",
      "Sandstorm",
      "Bulldoze",
      "Substitute",
      "Attract",
      "Ally Switch",
      "Giga Impact",
      "Protect",
      "Dig",
      "High Horsepower",
      "Tri Attack",
      "Thief",
      "Hyper Beam",
      "Sunny Day",
      "Rock Tomb",
      "Endure",
      "Sleep Talk",
      "Stealth Rock",
      "Reversal",
      "Shadow Claw"
    ],
    "tutorMoves": {
      "Regular": [
        "Scorching Sands"
      ],
      "Transfer": [
        "Rock Smash",
        "Secret Power",
        "Natural Gift",
        "Confide",
        "Curse",
        "Double-Edge",
        "Cut",
        "Take Down",
        "Hidden Power",
        "Fury Swipes",
        "Echoed Voice",
        "Bide",
        "Double Team",
        "Mud Bomb",
        "Rototiller",
        "Toxic",
        "Aerial Ace",
        "Rage",
        "Magnitude",
        "Swagger",
        "Return",
        "Mimic",
        "Captivate",
        "Pursuit",
        "Faint Attack",
        "Frustration"
      ]
    }
  }
}