{
  "pixelmonName": "Dunsparce",
  "spDef": 65,
  "spAtt": 65,
  "speed": 45,
  "defence": 70,
  "attack": 70,
  "hp": 100,
  "catchRate": 190,
  "malePercent": 50,
  "nationalPokedexNumber": 206,
  "spawnLevel": 5,
  "spawnLevelRange": 25,
  "baseExp": 125,
  "baseFriendship": 70,
  "rarity": {
    "day": 5,
    "dawndusk": 45,
    "night": 5
  },
  "type1": "Normal",
  "height": 1.5,
  "width": 1.0,
  "length": 1.0,
  "giScale": 1.0,
  "canFly": false,
  "isRideable": false,
  "preEvolutions": [],
  "experienceGroup": "MediumFast",
  "aggression": {
    "timid": 80,
    "passive": 0,
    "aggressive": 20
  },
  "spawnLocations": [
    "Land"
  ],
  "biomeIDs": [
    2,
    17,
    130
  ],
  "evGain": {
    "HP": 1,
    "Attack": 0,
    "Defence": 0,
    "SpecialAttack": 0,
    "SpecialDefence": 0,
    "Speed": 0
  },
  "canSurf": false,
  "maxGroupSize": 4,
  "minGroupSize": 1,
  "hoverHeight": 0.0,
  "doesHover": false,
  "id": 321,
  "baseFormID": 321,
  "weight": 14.0,
  "pokemon": "Dunsparce",
  "abilities": [
    "SereneGrace",
    "RunAway",
    "Rattled"
  ],
  "eggGroups": [
    "Field"
  ],
  "eggCycles": 21,
  "form": -1,
  "evolutionDefs": [],
  "moves": {
    "levelMoves": {
      "32": [
        "Body Slam"
      ],
      "1": [
        "Flail",
        "Defense Curl"
      ],
      "4": [
        "Mud-Slap"
      ],
      "36": [
        "Take Down"
      ],
      "8": [
        "Rollout"
      ],
      "40": [
        "Roost"
      ],
      "12": [
        "Glare"
      ],
      "44": [
        "Dragon Rush"
      ],
      "16": [
        "Screech"
      ],
      "48": [
        "Coil"
      ],
      "20": [
        "Ancient Power"
      ],
      "52": [
        "Double-Edge"
      ],
      "24": [
        "Drill Run"
      ],
      "56": [
        "Endeavor"
      ],
      "28": [
        "Yawn"
      ]
    },
    "eggMoves": [
      "Last Resort",
      "Curse",
      "Astonish",
      "Bite",
      "Aqua Tail",
      "Headbutt",
      "Magic Coat"
    ],
    "evolutionMoves": [],
    "tmTRMoves": [
      "Snore",
      "Facade",
      "Flamethrower",
      "Air Slash",
      "Retaliate",
      "Stomping Tantrum",
      "Solar Beam",
      "Screech",
      "Stored Power",
      "Rest",
      "Earthquake",
      "Iron Tail",
      "Rock Slide",
      "Agility",
      "Round",
      "Body Slam",
      "Shadow Ball",
      "Bulldoze",
      "Amnesia",
      "Substitute",
      "Poison Jab",
      "Attract",
      "Ice Beam",
      "Thunder Wave",
      "Helping Hand",
      "Protect",
      "Dig",
      "Rain Dance",
      "Thunder",
      "Wild Charge",
      "Thief",
      "Sunny Day",
      "Drill Run",
      "Baton Pass",
      "Gyro Ball",
      "Calm Mind",
      "Rock Tomb",
      "Endure",
      "Sleep Talk",
      "Stealth Rock",
      "Hex",
      "Zen Headbutt",
      "Thunderbolt",
      "Blizzard",
      "Fire Blast"
    ],
    "tutorMoves": {
      "Regular": [
        "Skitter Smack",
        "Dual Wingbeat",
        "Scale Shot",
        "Terrain Pulse"
      ],
      "Transfer": [
        "Dream Eater",
        "Natural Gift",
        "Confide",
        "Incinerate",
        "Hidden Power",
        "Water Pulse",
        "Bide",
        "Double Team",
        "Spite",
        "Shock Wave",
        "Bind",
        "Rage",
        "Swagger",
        "Charge Beam",
        "Nightmare",
        "Mimic",
        "Captivate",
        "Pursuit",
        "Frustration",
        "Rock Smash",
        "Secret Power",
        "Psych Up",
        "Trump Card",
        "Counter",
        "Toxic",
        "Pain Split",
        "Return",
        "Strength",
        "Zap Cannon"
      ]
    }
  }
}