{
  "pixelmonName": "Duosion",
  "spDef": 60,
  "spAtt": 125,
  "speed": 30,
  "defence": 50,
  "attack": 40,
  "hp": 65,
  "catchRate": 100,
  "malePercent": 50,
  "nationalPokedexNumber": 578,
  "spawnLevel": 32,
  "spawnLevelRange": 8,
  "baseExp": 130,
  "baseFriendship": 70,
  "rarity": {
    "day": 80,
    "dawndusk": 0,
    "night": 0
  },
  "type1": "Psychic",
  "height": 0.6,
  "width": 0.6,
  "length": 0.6,
  "giScale": 1.0,
  "canFly": false,
  "isRideable": false,
  "preEvolutions": [
    "Solosis"
  ],
  "experienceGroup": "MediumSlow",
  "aggression": {
    "timid": 80,
    "passive": 0,
    "aggressive": 20
  },
  "spawnLocations": [
    "Land"
  ],
  "biomeIDs": [
    6,
    134
  ],
  "evGain": {
    "HP": 0,
    "Attack": 0,
    "Defence": 0,
    "SpecialAttack": 2,
    "SpecialDefence": 0,
    "Speed": 0
  },
  "canSurf": false,
  "maxGroupSize": 1,
  "minGroupSize": 1,
  "hoverHeight": 1.0,
  "doesHover": true,
  "id": 648,
  "baseFormID": 648,
  "weight": 8.0,
  "pokemon": "Duosion",
  "abilities": [
    "Overcoat",
    "MagicGuard",
    "Regenerator"
  ],
  "eggGroups": [
    "Amorphous"
  ],
  "eggCycles": 21,
  "form": -1,
  "evolutionDefs": [
    {
      "targetId": 649,
      "evolveLevel": 41
    }
  ],
  "moves": {
    "levelMoves": {
      "16": [
        "Charm"
      ],
      "1": [
        "Endeavor",
        "Protect",
        "Confusion",
        "Recover"
      ],
      "35": [
        "Pain Split"
      ],
      "20": [
        "Psyshock"
      ],
      "52": [
        "Future Sight"
      ],
      "24": [
        "Reflect",
        "Light Screen"
      ],
      "40": [
        "Psychic"
      ],
      "58": [
        "Wonder Room"
      ],
      "12": [
        "Psybeam"
      ],
      "28": [
        "Ally Switch"
      ],
      "46": [
        "Skill Swap"
      ]
    },
    "eggMoves": [
      "Acid Armor",
      "Astonish",
      "Confuse Ray"
    ],
    "evolutionMoves": [],
    "tmTRMoves": [
      "Snore",
      "Facade",
      "Light Screen",
      "Stored Power",
      "Rest",
      "Encore",
      "Wonder Room",
      "Rock Slide",
      "Charm",
      "Round",
      "Shadow Ball",
      "Iron Defense",
      "Imprison",
      "Substitute",
      "Power Swap",
      "Attract",
      "Skill Swap",
      "Ally Switch",
      "Thunder Wave",
      "Helping Hand",
      "Future Sight",
      "Energy Ball",
      "Safeguard",
      "Protect",
      "Guard Swap",
      "Rain Dance",
      "Thunder",
      "Psyshock",
      "Trick",
      "Gyro Ball",
      "Flash Cannon",
      "Calm Mind",
      "Psychic",
      "Rock Tomb",
      "Psychic Terrain",
      "Reflect",
      "Endure",
      "Sleep Talk",
      "Zen Headbutt",
      "Trick Room"
    ],
    "tutorMoves": {
      "Regular": [
        "Steel Roller",
        "Expanding Force"
      ],
      "Transfer": [
        "After You",
        "Secret Power",
        "Psych Up",
        "Dream Eater",
        "Snatch",
        "Confide",
        "Explosion",
        "Hidden Power",
        "Magic Coat",
        "Double Team",
        "Infestation",
        "Shock Wave",
        "Psywave",
        "Telekinesis",
        "Toxic",
        "Embargo",
        "Swagger",
        "Flash",
        "Rollout",
        "Signal Beam",
        "Gravity",
        "Heal Block",
        "Return",
        "Night Shade",
        "Role Play",
        "Frustration"
      ]
    }
  }
}