{
  "pixelmonName": "Duraludon",
  "spDef": 50,
  "spAtt": 120,
  "speed": 85,
  "defence": 115,
  "attack": 95,
  "hp": 70,
  "catchRate": 45,
  "malePercent": 50,
  "nationalPokedexNumber": 884,
  "spawnLevel": 25,
  "spawnLevelRange": 30,
  "baseExp": 187,
  "baseFriendship": 50,
  "rarity": {
    "day": 1,
    "dawndusk": 0,
    "night": 0
  },
  "type1": "Steel",
  "type2": "Dragon",
  "height": 1.8,
  "width": 1.0,
  "length": 1.0,
  "giScale": 1.0,
  "canFly": false,
  "isRideable": false,
  "preEvolutions": [],
  "experienceGroup": "MediumFast",
  "aggression": {
    "timid": 80,
    "passive": 0,
    "aggressive": 20
  },
  "spawnLocations": [
    "Land"
  ],
  "biomeIDs": [
    21
  ],
  "evGain": {
    "HP": 0,
    "Attack": 0,
    "Defence": 0,
    "SpecialAttack": 2,
    "SpecialDefence": 0,
    "Speed": 0
  },
  "canSurf": false,
  "maxGroupSize": 1,
  "minGroupSize": 1,
  "hoverHeight": 0.0,
  "doesHover": false,
  "id": 1111,
  "baseFormID": 1111,
  "weight": 40.0,
  "pokemon": "Duraludon",
  "abilities": [
    "LightMetal",
    "HeavyMetal",
    "Stalwart"
  ],
  "eggGroups": [
    "Mineral",
    "Dragon"
  ],
  "eggCycles": 6,
  "form": -1,
  "evolutionDefs": [],
  "moves": {
    "levelMoves": {
      "48": [
        "Dragon Claw"
      ],
      "1": [
        "Leer",
        "Metal Claw"
      ],
      "18": [
        "Metal Sound"
      ],
      "66": [
        "Hyper Beam"
      ],
      "36": [
        "Iron Defense"
      ],
      "6": [
        "Rock Smash"
      ],
      "54": [
        "Flash Cannon"
      ],
      "24": [
        "Breaking Swipe"
      ],
      "42": [
        "Laser Focus"
      ],
      "12": [
        "Hone Claws"
      ],
      "60": [
        "Metal Burst"
      ],
      "30": [
        "Dragon Tail"
      ]
    },
    "eggMoves": [
      "Mirror Coat",
      "Night Slash",
      "Slash"
    ],
    "evolutionMoves": [],
    "tmTRMoves": [
      "Snore",
      "Facade",
      "Heavy Slam",
      "Snarl",
      "Dark Pulse",
      "Stone Edge",
      "Light Screen",
      "Stomping Tantrum",
      "Swords Dance",
      "Solar Beam",
      "Screech",
      "Breaking Swipe",
      "Iron Head",
      "Rest",
      "Rock Slide",
      "Scary Face",
      "Round",
      "Body Slam",
      "Iron Defense",
      "Substitute",
      "Brick Break",
      "Attract",
      "Giga Impact",
      "Thunder Wave",
      "Body Press",
      "Dragon Pulse",
      "Protect",
      "Thunder",
      "Hyper Beam",
      "Dragon Claw",
      "Gyro Ball",
      "Flash Cannon",
      "Outrage",
      "Foul Play",
      "Rock Tomb",
      "Reflect",
      "Endure",
      "Sleep Talk",
      "Stealth Rock",
      "Thunderbolt"
    ],
    "tutorMoves": {
      "Regular": [
        "Steel Roller",
        "Steel Beam",
        "Draco Meteor"
      ]
    }
  }
}