{
  "pixelmonName": "Eiscue",
  "spDef": 90,
  "spAtt": 65,
  "speed": 50,
  "defence": 110,
  "attack": 80,
  "hp": 75,
  "catchRate": 60,
  "malePercent": 50,
  "nationalPokedexNumber": 875,
  "spawnLevel": 12,
  "spawnLevelRange": 20,
  "baseExp": 165,
  "baseFriendship": 50,
  "rarity": {
    "day": 1,
    "dawndusk": 0,
    "night": 0
  },
  "type1": "Ice",
  "height": 1.0,
  "width": 1.0,
  "length": 1.0,
  "giScale": 1.0,
  "canFly": false,
  "isRideable": false,
  "preEvolutions": [],
  "experienceGroup": "Slow",
  "aggression": {
    "timid": 80,
    "passive": 0,
    "aggressive": 20
  },
  "spawnLocations": [
    "Land"
  ],
  "biomeIDs": [
    21
  ],
  "evGain": {
    "HP": 0,
    "Attack": 0,
    "Defence": 2,
    "SpecialAttack": 0,
    "SpecialDefence": 0,
    "Speed": 0
  },
  "canSurf": false,
  "maxGroupSize": 1,
  "minGroupSize": 1,
  "hoverHeight": 0.0,
  "doesHover": false,
  "id": 1106,
  "baseFormID": 1106,
  "weight": 89.0,
  "pokemon": "Eiscue",
  "abilities": [
    "IceFace",
    null,
    null
  ],
  "eggGroups": [
    "Water1",
    "Field"
  ],
  "eggCycles": 6,
  "form": 0,
  "evolutionDefs": [],
  "moves": {
    "levelMoves": {
      "48": [
        "Aurora Veil"
      ],
      "1": [
        "Tackle",
        "Powder Snow"
      ],
      "18": [
        "Icy Wind"
      ],
      "36": [
        "Freeze-Dry"
      ],
      "6": [
        "Mist"
      ],
      "54": [
        "Surf"
      ],
      "24": [
        "Headbutt"
      ],
      "42": [
        "Hail"
      ],
      "12": [
        "Weather Ball"
      ],
      "60": [
        "Blizzard"
      ],
      "30": [
        "Amnesia"
      ]
    },
    "eggMoves": [
      "Icicle Crash",
      "Soak",
      "Head Smash",
      "Aqua Ring",
      "Belly Drum",
      "Double-Edge"
    ],
    "evolutionMoves": [],
    "tmTRMoves": [
      "Weather Ball",
      "Snore",
      "Facade",
      "Icicle Spear",
      "Waterfall",
      "Icy Wind",
      "Iron Head",
      "Surf",
      "Rest",
      "Hydro Pump",
      "Agility",
      "Round",
      "Liquidation",
      "Amnesia",
      "Iron Defense",
      "Substitute",
      "Attract",
      "Hail",
      "Ice Beam",
      "Protect",
      "Brine",
      "Avalanche",
      "Dive",
      "Reflect",
      "Endure",
      "Sleep Talk",
      "Whirlpool",
      "Reversal",
      "Zen Headbutt",
      "Ice Punch",
      "Blizzard"
    ],
    "tutorMoves": {}
  }
}