{
  "pixelmonName": "Electrode",
  "spDef": 80,
  "spAtt": 80,
  "speed": 150,
  "defence": 70,
  "attack": 50,
  "hp": 60,
  "catchRate": 60,
  "malePercent": -1,
  "nationalPokedexNumber": 101,
  "spawnLevel": 30,
  "spawnLevelRange": 20,
  "baseExp": 150,
  "baseFriendship": 70,
  "rarity": {
    "day": 75,
    "dawndusk": 8,
    "night": 8
  },
  "type1": "Electric",
  "height": 1.2,
  "width": 1.0,
  "length": 1.0,
  "giScale": 1.0,
  "canFly": false,
  "isRideable": false,
  "preEvolutions": [
    "Voltorb"
  ],
  "experienceGroup": "MediumFast",
  "aggression": {
    "timid": 80,
    "passive": 0,
    "aggressive": 20
  },
  "spawnLocations": [
    "Land"
  ],
  "biomeIDs": [
    1
  ],
  "evGain": {
    "HP": 0,
    "Attack": 0,
    "Defence": 0,
    "SpecialAttack": 0,
    "SpecialDefence": 0,
    "Speed": 2
  },
  "canSurf": false,
  "maxGroupSize": 1,
  "minGroupSize": 1,
  "hoverHeight": 0.0,
  "doesHover": false,
  "id": 223,
  "baseFormID": 223,
  "weight": 66.6,
  "pokemon": "Electrode",
  "abilities": [
    "Soundproof",
    "Static",
    "Aftermath"
  ],
  "eggGroups": [
    "Mineral"
  ],
  "eggCycles": 21,
  "form": -1,
  "evolutionDefs": [],
  "moves": {
    "levelMoves": {
      "1": [
        "Magnetic Flux",
        "Sonic Boom",
        "Tackle",
        "Thunder Shock",
        "Charge",
        "Eerie Impulse",
        "Light Screen"
      ],
      "3": [
        "Light Screen"
      ],
      "4": [
        "Sonic Boom"
      ],
      "36": [
        "Magnet Rise",
        "Thunderbolt"
      ],
      "6": [
        "Sonic Boom",
        "Eerie Impulse"
      ],
      "9": [
        "Thunder Shock",
        "Spark"
      ],
      "41": [
        "Discharge"
      ],
      "11": [
        "Rollout"
      ],
      "13": [
        "Screech"
      ],
      "14": [
        "Swift"
      ],
      "47": [
        "Explosion"
      ],
      "16": [
        "Charge Beam"
      ],
      "48": [
        "Mirror Coat"
      ],
      "19": [
        "Self-Destruct"
      ],
      "20": [
        "Swift"
      ],
      "22": [
        "Electro Ball"
      ],
      "54": [
        "Gyro Ball"
      ],
      "24": [
        "Screech"
      ],
      "26": [
        "Self-Destruct"
      ],
      "58": [
        "Mirror Coat"
      ],
      "60": [
        "Explosion"
      ],
      "29": [
        "Light Screen"
      ]
    },
    "eggMoves": [
      "Telekinesis",
      "Foul Play",
      "Snore",
      "Magnet Rise",
      "Magic Coat",
      "Shock Wave",
      "Signal Beam"
    ],
    "evolutionMoves": [],
    "tmTRMoves": [
      "Hyper Beam",
      "Giga Impact",
      "Thunder Wave",
      "Screech",
      "Light Screen",
      "Self-destruct",
      "Rest",
      "Thief",
      "Snore",
      "Protect",
      "Rain Dance",
      "Facade",
      "Assurance",
      "Round",
      "Volt Switch",
      "Eerie Impulse",
      "Thunderbolt",
      "Thunder",
      "Agility",
      "Substitute",
      "Endure",
      "Sleep Talk",
      "Taunt",
      "Gyro Ball",
      "Electro Ball",
      "Foul Play",
      "Wild Charge"
    ],
    "tutorMoves": {
      "Regular": [
        "Telekinesis",
        "Foul Play",
        "Snore",
        "Magnet Rise",
        "Magic Coat",
        "Shock Wave",
        "Signal Beam"
      ],
      "Transfer": [
        "Secret Power",
        "Teleport",
        "Natural Gift",
        "Confide",
        "Curse",
        "Take Down",
        "Hidden Power",
        "Bide",
        "Double Team",
        "Toxic",
        "Rage",
        "Headbutt",
        "Skull Bash",
        "Swagger",
        "Flash",
        "Return",
        "Mimic",
        "Sucker Punch",
        "Reflect",
        "Torment",
        "Zap Cannon",
        "Frustration"
      ]
    }
  }
}