{
  "pixelmonName": "Elgyem",
  "spDef": 55,
  "spAtt": 85,
  "speed": 30,
  "defence": 55,
  "attack": 55,
  "hp": 55,
  "catchRate": 255,
  "malePercent": 50,
  "nationalPokedexNumber": 605,
  "spawnLevel": 15,
  "spawnLevelRange": 27,
  "baseExp": 67,
  "baseFriendship": 70,
  "rarity": {
    "day": 0,
    "dawndusk": 75,
    "night": 0
  },
  "type1": "Psychic",
  "height": 0.5,
  "width": 0.7,
  "length": 0.7,
  "giScale": 1.0,
  "canFly": false,
  "isRideable": false,
  "preEvolutions": [],
  "experienceGroup": "MediumFast",
  "aggression": {
    "timid": 80,
    "passive": 0,
    "aggressive": 20
  },
  "spawnLocations": [
    "Land"
  ],
  "biomeIDs": [
    2
  ],
  "evGain": {
    "HP": 0,
    "Attack": 0,
    "Defence": 0,
    "SpecialAttack": 1,
    "SpecialDefence": 0,
    "Speed": 0
  },
  "canSurf": false,
  "maxGroupSize": 1,
  "minGroupSize": 1,
  "hoverHeight": 0.0,
  "doesHover": false,
  "id": 675,
  "baseFormID": 675,
  "weight": 9.0,
  "pokemon": "Elgyem",
  "abilities": [
    "Telepathy",
    "Synchronize",
    "Analytic"
  ],
  "eggGroups": [
    "Humanlike"
  ],
  "eggCycles": 21,
  "form": -1,
  "evolutionDefs": [
    {
      "targetId": 676,
      "evolveLevel": 42
    }
  ],
  "moves": {
    "levelMoves": {
      "48": [
        "Calm Mind"
      ],
      "1": [
        "Growl",
        "Confusion"
      ],
      "18": [
        "Psybeam"
      ],
      "36": [
        "Zen Headbutt"
      ],
      "6": [
        "Imprison"
      ],
      "54": [
        "Wonder Room"
      ],
      "24": [
        "Power Split",
        "Guard Split"
      ],
      "43": [
        "Recover"
      ],
      "12": [
        "Teleport"
      ],
      "60": [
        "Psychic"
      ],
      "30": [
        "Headbutt"
      ]
    },
    "eggMoves": [
      "Destiny Bond",
      "Astonish",
      "Psych Up",
      "Disable"
    ],
    "evolutionMoves": [],
    "tmTRMoves": [
      "Snore",
      "Facade",
      "Uproar",
      "Dark Pulse",
      "Light Screen",
      "Screech",
      "Stored Power",
      "Rest",
      "Wonder Room",
      "Rock Slide",
      "Agility",
      "Nasty Plot",
      "Round",
      "Shadow Ball",
      "Imprison",
      "Substitute",
      "Power Swap",
      "Attract",
      "Skill Swap",
      "Ally Switch",
      "Thunder Wave",
      "Energy Ball",
      "Safeguard",
      "Protect",
      "Guard Swap",
      "Rain Dance",
      "Thief",
      "Psyshock",
      "Trick",
      "Cosmic Power",
      "Calm Mind",
      "Psychic",
      "Rock Tomb",
      "Reflect",
      "Steel Wing",
      "Endure",
      "Sleep Talk",
      "Zen Headbutt",
      "Thunderbolt",
      "Trick Room"
    ],
    "tutorMoves": {
      "Regular": [
        "Meteor Beam",
        "Expanding Force"
      ],
      "Transfer": [
        "After You",
        "Secret Power",
        "Dream Eater",
        "Snatch",
        "Confide",
        "Simple Beam",
        "Hidden Power",
        "Magic Coat",
        "Echoed Voice",
        "Synchronoise",
        "Recycle",
        "Double Team",
        "Shock Wave",
        "Telekinesis",
        "Toxic",
        "Barrier",
        "Embargo",
        "Swagger",
        "Charge Beam",
        "Pain Split",
        "Flash",
        "Signal Beam",
        "Gravity",
        "Heal Block",
        "Return",
        "Miracle Eye",
        "Role Play",
        "Frustration"
      ]
    }
  }
}