{
  "pixelmonName": "Eternatus",
  "spDef": 95,
  "spAtt": 145,
  "speed": 130,
  "defence": 95,
  "attack": 85,
  "hp": 140,
  "catchRate": 255,
  "malePercent": -1,
  "nationalPokedexNumber": 890,
  "spawnLevel": 70,
  "spawnLevelRange": 0,
  "baseExp": 345,
  "baseFriendship": 0,
  "rarity": {
    "day": 75,
    "dawndusk": 0,
    "night": 0
  },
  "type1": "Poison",
  "type2": "Dragon",
  "height": 0.3,
  "width": 0.7,
  "length": 0.7,
  "giScale": 1.0,
  "canFly": false,
  "isRideable": false,
  "preEvolutions": [],
  "experienceGroup": "Slow",
  "aggression": {
    "timid": 80,
    "passive": 0,
    "aggressive": 20
  },
  "spawnLocations": [
    "Land"
  ],
  "biomeIDs": [
    2,
    130,
    2,
    17,
    130
  ],
  "evGain": {
    "HP": 3,
    "Attack": 0,
    "Defence": 0,
    "SpecialAttack": 0,
    "SpecialDefence": 0,
    "Speed": 0
  },
  "canSurf": false,
  "maxGroupSize": 1,
  "minGroupSize": 1,
  "hoverHeight": 0.0,
  "doesHover": false,
  "id": 1119,
  "baseFormID": 1119,
  "weight": 950.0,
  "pokemon": "Eternatus",
  "abilities": [
    "Pressure",
    null,
    null
  ],
  "eggGroups": [
    "Undiscovered"
  ],
  "eggCycles": 21,
  "form": -1,
  "evolutionDefs": [],
  "moves": {
    "levelMoves": {
      "16": [
        "Venoshock"
      ],
      "32": [
        "Cross Poison"
      ],
      "48": [
        "Flamethrower"
      ],
      "64": [
        "Cosmic Power"
      ],
      "80": [
        "Hyper Beam"
      ],
      "1": [
        "Dragon Tail",
        "Poison Tail",
        "Agility",
        "Confuse Ray"
      ],
      "8": [
        "Toxic"
      ],
      "24": [
        "Dragon Dance"
      ],
      "40": [
        "Dragon Pulse"
      ],
      "56": [
        "Dynamax Cannon"
      ],
      "72": [
        "Recover"
      ],
      "88": [
        "Eternabeam"
      ]
    },
    "eggMoves": [
      "Meteor Beam"
    ],
    "evolutionMoves": [],
    "tmTRMoves": [
      "Snore",
      "Facade",
      "Assurance",
      "Flamethrower",
      "Cross Poison",
      "Sludge Bomb",
      "Light Screen",
      "Solar Beam",
      "Screech",
      "Fly",
      "Rest",
      "Sludge Wave",
      "Venom Drench",
      "Agility",
      "Scary Face",
      "Round",
      "Shadow Ball",
      "Substitute",
      "Poison Jab",
      "Dragon Dance",
      "Giga Impact",
      "Payback",
      "Dragon Pulse",
      "Protect",
      "Venoshock",
      "Cosmic Power",
      "Hyper Beam",
      "Flash Cannon",
      "Mystical Fire",
      "Reflect",
      "Brutal Swing",
      "Endure",
      "Sleep Talk",
      "Toxic Spikes"
    ],
    "tutorMoves": {
      "Regular": [
        "Meteor Beam",
        "Draco Meteor"
      ]
    }
  }
}