{
  "pixelmonName": "Exeggutor",
  "spDef": 75,
  "spAtt": 125,
  "speed": 55,
  "defence": 85,
  "attack": 95,
  "hp": 95,
  "catchRate": 45,
  "malePercent": 50,
  "nationalPokedexNumber": 103,
  "spawnLevel": 38,
  "spawnLevelRange": 12,
  "baseExp": 212,
  "baseFriendship": 70,
  "rarity": {
    "day": 0,
    "dawndusk": 0,
    "night": 0
  },
  "type1": "Grass",
  "type2": "Psychic",
  "height": 2.0,
  "width": 1.0,
  "length": 1.0,
  "giScale": 0.8,
  "canFly": false,
  "isRideable": false,
  "preEvolutions": [
    "Exeggcute"
  ],
  "experienceGroup": "Slow",
  "aggression": {
    "timid": 80,
    "passive": 0,
    "aggressive": 20
  },
  "spawnLocations": [
    "Land"
  ],
  "biomeIDs": [
    5,
    19,
    21,
    22,
    23,
    32,
    33,
    133,
    149,
    151,
    160,
    161
  ],
  "evGain": {
    "HP": 0,
    "Attack": 0,
    "Defence": 0,
    "SpecialAttack": 2,
    "SpecialDefence": 0,
    "Speed": 0
  },
  "canSurf": false,
  "maxGroupSize": 2,
  "minGroupSize": 1,
  "hoverHeight": 0.0,
  "doesHover": false,
  "id": 80,
  "baseFormID": 80,
  "weight": 120.0,
  "pokemon": "Exeggutor",
  "abilities": [
    "Chlorophyll",
    null,
    "Harvest"
  ],
  "eggGroups": [
    "Grass"
  ],
  "eggCycles": 21,
  "form": -1,
  "evolutionDefs": [],
  "moves": {
    "levelMoves": {
      "1": [
        "Giga Drain",
        "Uproar",
        "Worry Seed",
        "Psyshock",
        "Absorb",
        "Confusion",
        "Solar Beam",
        "Leech Seed",
        "Mega Drain",
        "Seed Bomb",
        "Synthesis",
        "Reflect",
        "Bullet Seed",
        "Leaf Storm",
        "Stomp",
        "Wood Hammer",
        "Hypnosis",
        "Extrasensory"
      ]
    },
    "eggMoves": [
      "Poison Powder",
      "Curse",
      "Stun Spore",
      "Moonlight",
      "Ancient Power",
      "Block",
      "Ingrain",
      "Sleep Powder"
    ],
    "evolutionMoves": [
      "Stomp"
    ],
    "tmTRMoves": [
      "Giga Drain",
      "Snore",
      "Facade",
      "Uproar",
      "Sludge Bomb",
      "Light Screen",
      "Grass Knot",
      "Stomping Tantrum",
      "Swords Dance",
      "Solar Beam",
      "Magical Leaf",
      "Rest",
      "Seed Bomb",
      "Bullet Seed",
      "Round",
      "Leaf Storm",
      "Bulldoze",
      "Grassy Terrain",
      "Substitute",
      "Power Swap",
      "Attract",
      "Skill Swap",
      "Giga Impact",
      "Future Sight",
      "Energy Ball",
      "Protect",
      "Self-Destruct",
      "Thief",
      "Psyshock",
      "Hyper Beam",
      "Sunny Day",
      "Calm Mind",
      "Psychic",
      "Reflect",
      "Low Kick",
      "Endure",
      "Sleep Talk",
      "Psycho Cut",
      "Zen Headbutt",
      "Trick Room"
    ],
    "tutorMoves": {
      "Regular": [
        "Grassy Glide",
        "Expanding Force",
        "Terrain Pulse"
      ],
      "Transfer": [
        "Secret Power",
        "Psych Up",
        "Dream Eater",
        "Teleport",
        "Natural Gift",
        "Confide",
        "Barrage",
        "Double-Edge",
        "Explosion",
        "Take Down",
        "Hidden Power",
        "Power Whip",
        "Lucky Chant",
        "Bide",
        "Double Team",
        "Infestation",
        "Psywave",
        "Telekinesis",
        "Toxic",
        "Rage",
        "Headbutt",
        "Swagger",
        "Nightmare",
        "Flash",
        "Rollout",
        "Gravity",
        "Return",
        "Nature Power",
        "Mimic",
        "Egg Bomb",
        "Captivate",
        "Strength",
        "Frustration"
      ]
    }
  }
}