{
  "pixelmonName": "Florges",
  "spDef": 154,
  "spAtt": 112,
  "speed": 75,
  "defence": 68,
  "attack": 65,
  "hp": 78,
  "catchRate": 45,
  "malePercent": 0,
  "nationalPokedexNumber": 671,
  "spawnLevel": 19,
  "spawnLevelRange": 31,
  "baseExp": 248,
  "baseFriendship": 0,
  "rarity": {
    "day": 40,
    "dawndusk": 0,
    "night": 0
  },
  "type1": "Fairy",
  "height": 1.1,
  "width": 1.1,
  "length": 1.1,
  "giScale": 1.0,
  "canFly": false,
  "isRideable": false,
  "preEvolutions": [
    "Floette",
    "Flabebe"
  ],
  "experienceGroup": "MediumFast",
  "aggression": {
    "timid": 80,
    "passive": 0,
    "aggressive": 20
  },
  "spawnLocations": [
    "Land"
  ],
  "biomeIDs": [
    132
  ],
  "evGain": {
    "HP": 0,
    "Attack": 0,
    "Defence": 0,
    "SpecialAttack": 0,
    "SpecialDefence": 3,
    "Speed": 0
  },
  "canSurf": false,
  "maxGroupSize": 1,
  "minGroupSize": 1,
  "hoverHeight": 0.0,
  "doesHover": false,
  "id": 752,
  "baseFormID": 752,
  "weight": 10.0,
  "pokemon": "Florges",
  "abilities": [
    "FlowerVeil",
    null,
    "Symbiosis"
  ],
  "eggGroups": [
    "Fairy"
  ],
  "eggCycles": 21,
  "form": -1,
  "evolutionDefs": [],
  "moves": {
    "levelMoves": {
      "1": [
        "Petal Dance",
        "Disarming Voice",
        "Magical Leaf",
        "Flower Shield",
        "Lucky Chant",
        "Petal Blizzard",
        "Aromatherapy",
        "Grass Knot",
        "Misty Terrain",
        "Grassy Terrain",
        "Wish",
        "Moonblast"
      ]
    },
    "eggMoves": [
      "Tearful Look",
      "Camouflage",
      "Captivate",
      "Copycat"
    ],
    "evolutionMoves": [],
    "tmTRMoves": [
      "Hyper Beam",
      "Giga Impact",
      "Magical Leaf",
      "Solar Beam",
      "Light Screen",
      "Safeguard",
      "Rest",
      "Snore",
      "Protect",
      "Giga Drain",
      "Attract",
      "Rain Dance",
      "Sunny Day",
      "Facade",
      "Helping Hand",
      "Round",
      "Grassy Terrain",
      "Misty Terrain",
      "Psychic",
      "Substitute",
      "Endure",
      "Sleep Talk",
      "Calm Mind",
      "Seed Bomb",
      "Energy Ball",
      "Grass Knot",
      "Ally Switch",
      "Dazzling Gleam"
    ],
    "tutorMoves": {
      "Regular": [
        "Giga Drain",
        "Helping Hand",
        "After You",
        "Endeavor",
        "Snore",
        "Worry Seed",
        "Magic Coat",
        "Defog",
        "Seed Bomb",
        "Synthesis",
        "Heal Bell",
        "Covet",
        "Ally Switch"
      ],
      "Transfer": [
        "Secret Power",
        "Confide",
        "Hidden Power",
        "Echoed Voice",
        "Double Team",
        "Toxic",
        "Swagger",
        "Flash",
        "Return",
        "Nature Power",
        "Frustration"
      ]
    }
  }
}