{
  "pixelmonName": "Forretress",
  "spDef": 60,
  "spAtt": 60,
  "speed": 40,
  "defence": 140,
  "attack": 90,
  "hp": 75,
  "catchRate": 75,
  "malePercent": 50,
  "nationalPokedexNumber": 205,
  "spawnLevel": 31,
  "spawnLevelRange": 24,
  "baseExp": 118,
  "baseFriendship": 70,
  "rarity": {
    "day": 0,
    "dawndusk": 0,
    "night": 75
  },
  "type1": "Bug",
  "type2": "Steel",
  "height": 1.2,
  "width": 1.3,
  "length": 1.3,
  "giScale": 1.0,
  "canFly": false,
  "isRideable": false,
  "preEvolutions": [
    "Pineco"
  ],
  "experienceGroup": "MediumFast",
  "aggression": {
    "timid": 80,
    "passive": 0,
    "aggressive": 20
  },
  "spawnLocations": [
    "Land"
  ],
  "biomeIDs": [
    5,
    19,
    30,
    31,
    32,
    33,
    133,
    158,
    160,
    161
  ],
  "evGain": {
    "HP": 0,
    "Attack": 0,
    "Defence": 2,
    "SpecialAttack": 0,
    "SpecialDefence": 0,
    "Speed": 0
  },
  "canSurf": false,
  "maxGroupSize": 3,
  "minGroupSize": 2,
  "hoverHeight": 1.0,
  "doesHover": true,
  "id": 201,
  "baseFormID": 201,
  "weight": 125.8,
  "pokemon": "Forretress",
  "abilities": [
    "Sturdy",
    null,
    "Overcoat"
  ],
  "eggGroups": [
    "Bug"
  ],
  "eggCycles": 21,
  "form": -1,
  "evolutionDefs": [],
  "moves": {
    "levelMoves": {
      "32": [
        "Payback"
      ],
      "64": [
        "Heavy Slam"
      ],
      "1": [
        "Protect",
        "Tackle",
        "Heavy Slam",
        "Mirror Shot",
        "Self-Destruct",
        "Magnet Rise",
        "Autotomize",
        "Bug Bite",
        "Toxic Spikes",
        "Zap Cannon"
      ],
      "36": [
        "Explosion"
      ],
      "6": [
        "Self-Destruct"
      ],
      "9": [
        "Bug Bite"
      ],
      "42": [
        "Iron Defense"
      ],
      "12": [
        "Take Down"
      ],
      "46": [
        "Gyro Ball"
      ],
      "17": [
        "Rapid Spin"
      ],
      "50": [
        "Double-Edge"
      ],
      "20": [
        "Bide"
      ],
      "23": [
        "Natural Gift"
      ],
      "56": [
        "Magnet Rise"
      ],
      "28": [
        "Spikes"
      ],
      "60": [
        "Zap Cannon"
      ]
    },
    "eggMoves": [
      "Pin Missile",
      "Flail",
      "Sand Tomb",
      "Counter",
      "Power Trick",
      "Endure",
      "Stealth Rock",
      "Swift",
      "Revenge",
      "Toxic Spikes",
      "Double-Edge"
    ],
    "evolutionMoves": [
      "Mirror Shot",
      "Autotomize"
    ],
    "tmTRMoves": [
      "Pin Missile",
      "Hyper Beam",
      "Giga Impact",
      "Solar Beam",
      "Dig",
      "Light Screen",
      "Reflect",
      "Self-destruct",
      "Rest",
      "Rock Slide",
      "Snore",
      "Protect",
      "Giga Drain",
      "Attract",
      "Sandstorm",
      "Sunny Day",
      "Facade",
      "Revenge",
      "Rock Tomb",
      "Sand Tomb",
      "Payback",
      "Venoshock",
      "Round",
      "Volt Switch",
      "Bulldoze",
      "Body Slam",
      "Earthquake",
      "Substitute",
      "Reversal",
      "Spikes",
      "Endure",
      "Sleep Talk",
      "Iron Defense",
      "Gyro Ball",
      "Toxic Spikes",
      "Bug Buzz",
      "Flash Cannon",
      "Heavy Slam",
      "Ally Switch",
      "Drill Run",
      "Body Press"
    ],
    "tutorMoves": {
      "Regular": [
        "Giga Drain",
        "Telekinesis",
        "Snore",
        "Magnet Rise",
        "Bug Bite",
        "Drill Run",
        "Stealth Rock",
        "Block",
        "Iron Defense",
        "Pain Split",
        "Ally Switch",
        "Laser Focus",
        "Signal Beam",
        "Gravity"
      ],
      "Transfer": [
        "Rock Smash",
        "Secret Power",
        "Confide",
        "Curse",
        "Hidden Power",
        "Double Team",
        "Toxic",
        "Struggle Bug",
        "Headbutt",
        "Swagger",
        "Defense Curl",
        "Rollout",
        "Return",
        "Sweet Scent",
        "Mimic",
        "Captivate",
        "Rock Polish",
        "String Shot",
        "Strength",
        "Frustration"
      ]
    }
  }
}