{
  "pixelmonName": "Fraxure",
  "spDef": 50,
  "spAtt": 40,
  "speed": 67,
  "defence": 70,
  "attack": 117,
  "hp": 66,
  "catchRate": 60,
  "malePercent": 50,
  "nationalPokedexNumber": 611,
  "spawnLevel": 38,
  "spawnLevelRange": 10,
  "baseExp": 144,
  "baseFriendship": 35,
  "rarity": {
    "day": 0,
    "dawndusk": 50,
    "night": 0
  },
  "type1": "Dragon",
  "height": 1.0,
  "width": 1.0,
  "length": 1.0,
  "giScale": 1.0,
  "canFly": false,
  "isRideable": false,
  "preEvolutions": [
    "Axew"
  ],
  "experienceGroup": "Slow",
  "aggression": {
    "timid": 80,
    "passive": 0,
    "aggressive": 20
  },
  "spawnLocations": [
    "Land"
  ],
  "biomeIDs": [
    7
  ],
  "evGain": {
    "HP": 0,
    "Attack": 2,
    "Defence": 0,
    "SpecialAttack": 0,
    "SpecialDefence": 0,
    "Speed": 0
  },
  "canSurf": false,
  "maxGroupSize": 1,
  "minGroupSize": 1,
  "hoverHeight": 0.0,
  "doesHover": false,
  "id": 681,
  "baseFormID": 681,
  "weight": 36.0,
  "pokemon": "Fraxure",
  "abilities": [
    "Rivalry",
    "MoldBreaker",
    "Unnerve"
  ],
  "eggGroups": [
    "Monster",
    "Dragon"
  ],
  "eggCycles": 41,
  "form": -1,
  "evolutionDefs": [
    {
      "targetId": 682,
      "evolveLevel": 48
    }
  ],
  "moves": {
    "levelMoves": {
      "1": [
        "False Swipe",
        "Leer",
        "Scratch",
        "Bite"
      ],
      "33": [
        "Laser Focus"
      ],
      "36": [
        "Dragon Pulse"
      ],
      "9": [
        "Assurance"
      ],
      "41": [
        "Swords Dance"
      ],
      "12": [
        "Taunt"
      ],
      "46": [
        "Outrage"
      ],
      "15": [
        "Slash"
      ],
      "18": [
        "Dragon Claw"
      ],
      "51": [
        "Guillotine"
      ],
      "21": [
        "Scary Face"
      ],
      "24": [
        "Crunch"
      ],
      "56": [
        "Giga Impact"
      ],
      "27": [
        "Dragon Dance"
      ],
      "30": [
        "Dual Chop"
      ]
    },
    "eggMoves": [
      "First Impression",
      "Endeavor",
      "Counter",
      "Night Slash",
      "Harden"
    ],
    "evolutionMoves": [],
    "tmTRMoves": [
      "Snore",
      "Facade",
      "Assurance",
      "Taunt",
      "Focus Energy",
      "Stomping Tantrum",
      "Swords Dance",
      "Breaking Swipe",
      "Rest",
      "Iron Tail",
      "Scary Face",
      "Round",
      "Substitute",
      "Superpower",
      "Poison Jab",
      "Dragon Dance",
      "Attract",
      "Giga Impact",
      "Crunch",
      "Payback",
      "False Swipe",
      "Dragon Pulse",
      "Protect",
      "Dig",
      "Rain Dance",
      "Sunny Day",
      "Dragon Claw",
      "X-Scissor",
      "Outrage",
      "Fling",
      "Rock Tomb",
      "Low Kick",
      "Endure",
      "Sleep Talk",
      "Reversal",
      "Shadow Claw",
      "Swift"
    ],
    "tutorMoves": {
      "Regular": [
        "Scale Shot",
        "Draco Meteor"
      ],
      "Transfer": [
        "Rock Smash",
        "Secret Power",
        "Confide",
        "Incinerate",
        "Cut",
        "Hidden Power",
        "Hone Claws",
        "Double Team",
        "Shock Wave",
        "Toxic",
        "Aerial Ace",
        "Razor Wind",
        "Dragon Tail",
        "Swagger",
        "Dragon Rage",
        "Aqua Tail",
        "Return",
        "Roar",
        "Strength",
        "Frustration"
      ]
    }
  }
}