{
  "pixelmonName": "Froakie",
  "spDef": 44,
  "spAtt": 62,
  "speed": 71,
  "defence": 40,
  "attack": 56,
  "hp": 41,
  "catchRate": 45,
  "malePercent": 87,
  "nationalPokedexNumber": 656,
  "spawnLevel": 5,
  "spawnLevelRange": 11,
  "baseExp": 63,
  "baseFriendship": 0,
  "rarity": {
    "day": 10,
    "dawndusk": 0,
    "night": 0
  },
  "type1": "Water",
  "height": 0.3,
  "width": 0.3,
  "length": 0.3,
  "giScale": 1.0,
  "canFly": false,
  "isRideable": false,
  "preEvolutions": [],
  "experienceGroup": "MediumSlow",
  "aggression": {
    "timid": 80,
    "passive": 0,
    "aggressive": 20
  },
  "spawnLocations": [
    "Land"
  ],
  "biomeIDs": [
    6,
    134
  ],
  "evGain": {
    "HP": 0,
    "Attack": 0,
    "Defence": 0,
    "SpecialAttack": 0,
    "SpecialDefence": 0,
    "Speed": 1
  },
  "canSurf": false,
  "maxGroupSize": 1,
  "minGroupSize": 1,
  "hoverHeight": 0.0,
  "doesHover": false,
  "id": 753,
  "baseFormID": 753,
  "weight": 7.0,
  "pokemon": "Froakie",
  "abilities": [
    "Torrent",
    null,
    "Protean"
  ],
  "eggGroups": [
    "Water1"
  ],
  "eggCycles": 21,
  "form": -1,
  "evolutionDefs": [
    {
      "targetId": 754,
      "evolveLevel": 16
    }
  ],
  "moves": {
    "levelMoves": {
      "1": [
        "Growl",
        "Pound"
      ],
      "35": [
        "Substitute"
      ],
      "5": [
        "Bubble"
      ],
      "39": [
        "Bounce"
      ],
      "8": [
        "Quick Attack"
      ],
      "10": [
        "Lick"
      ],
      "43": [
        "Double Team"
      ],
      "14": [
        "Water Pulse"
      ],
      "48": [
        "Hydro Pump"
      ],
      "18": [
        "Smokescreen"
      ],
      "21": [
        "Round"
      ],
      "25": [
        "Fling"
      ],
      "29": [
        "Smack Down"
      ]
    },
    "eggMoves": [
      "Power-Up Punch",
      "Camouflage",
      "Water Sport",
      "Bestow",
      "Mind Reader",
      "Toxic Spikes",
      "Mud Sport"
    ],
    "evolutionMoves": [],
    "tmTRMoves": [
      "Dig",
      "Rest",
      "Rock Slide",
      "Thief",
      "Snore",
      "Protect",
      "Icy Wind",
      "Attract",
      "Rain Dance",
      "Facade",
      "Dive",
      "Rock Tomb",
      "Bounce",
      "U-turn",
      "Fling",
      "Round",
      "Acrobatics",
      "Hydro Pump",
      "Surf",
      "Ice Beam",
      "Blizzard",
      "Waterfall",
      "Substitute",
      "Endure",
      "Sleep Talk",
      "Taunt",
      "Toxic Spikes",
      "Grass Knot",
      "Scald",
      "Work Up"
    ],
    "tutorMoves": {
      "Regular": [
        "Water Pledge",
        "Snore",
        "Water Pulse",
        "Bounce",
        "Spite",
        "Icy Wind",
        "Snatch",
        "Role Play"
      ],
      "Transfer": [
        "Rock Smash",
        "Secret Power",
        "Confide",
        "Cut",
        "Hidden Power",
        "Echoed Voice",
        "Toxic",
        "Aerial Ace",
        "Swagger",
        "Return",
        "Strength",
        "Frustration"
      ]
    }
  }
}