{
  "pixelmonName": "Frosmoth",
  "spDef": 90,
  "spAtt": 125,
  "speed": 65,
  "defence": 60,
  "attack": 65,
  "hp": 70,
  "catchRate": 75,
  "malePercent": 50,
  "nationalPokedexNumber": 873,
  "spawnLevel": 8,
  "spawnLevelRange": 60,
  "baseExp": 168,
  "baseFriendship": 50,
  "rarity": {
    "day": 1,
    "dawndusk": 0,
    "night": 0
  },
  "type1": "Ice",
  "type2": "Bug",
  "height": 1.3,
  "width": 1.0,
  "length": 1.0,
  "giScale": 1.0,
  "canFly": false,
  "isRideable": false,
  "preEvolutions": [
    "Snom"
  ],
  "experienceGroup": "MediumFast",
  "aggression": {
    "timid": 80,
    "passive": 0,
    "aggressive": 20
  },
  "spawnLocations": [
    "Land"
  ],
  "biomeIDs": [
    21
  ],
  "evGain": {
    "HP": 0,
    "Attack": 0,
    "Defence": 0,
    "SpecialAttack": 2,
    "SpecialDefence": 0,
    "Speed": 0
  },
  "canSurf": false,
  "maxGroupSize": 1,
  "minGroupSize": 1,
  "hoverHeight": 0.0,
  "doesHover": false,
  "id": 1075,
  "baseFormID": 1075,
  "weight": 42.0,
  "pokemon": "Frosmoth",
  "abilities": [
    "ShieldDust",
    null,
    "IceScales"
  ],
  "eggGroups": [
    "Bug"
  ],
  "eggCycles": 6,
  "form": -1,
  "evolutionDefs": [],
  "moves": {
    "levelMoves": {
      "32": [
        "Bug Buzz"
      ],
      "1": [
        "Helping Hand",
        "Powder Snow",
        "Struggle Bug",
        "Icy Wind",
        "Attract"
      ],
      "4": [
        "Stun Spore"
      ],
      "36": [
        "Aurora Veil"
      ],
      "8": [
        "Infestation"
      ],
      "40": [
        "Blizzard"
      ],
      "12": [
        "Mist"
      ],
      "44": [
        "Tailwind"
      ],
      "16": [
        "Defog"
      ],
      "48": [
        "Wide Guard"
      ],
      "52": [
        "Quiver Dance"
      ],
      "21": [
        "Feather Dance"
      ],
      "24": [
        "Aurora Beam"
      ],
      "28": [
        "Hail"
      ]
    },
    "eggMoves": [
      "Mirror Coat",
      "Bug Bite",
      "Fairy Wind"
    ],
    "evolutionMoves": [
      "Icy Wind"
    ],
    "tmTRMoves": [
      "Giga Drain",
      "Weather Ball",
      "Snore",
      "Facade",
      "Icicle Spear",
      "Play Rough",
      "Dazzling Gleam",
      "Air Slash",
      "Leech Life",
      "Light Screen",
      "U-turn",
      "Icy Wind",
      "Rest",
      "Bug Buzz",
      "Round",
      "Imprison",
      "Substitute",
      "Hurricane",
      "Acrobatics",
      "Attract",
      "Hail",
      "Ice Beam",
      "Giga Impact",
      "Helping Hand",
      "Safeguard",
      "Protect",
      "Hyper Beam",
      "Avalanche",
      "Calm Mind",
      "Reflect",
      "Endure",
      "Sleep Talk",
      "Blizzard"
    ],
    "tutorMoves": {
      "Regular": [
        "Triple Axel",
        "Skitter Smack",
        "Dual Wingbeat"
      ]
    }
  }
}