{
  "pixelmonName": "Gabite",
  "spDef": 55,
  "spAtt": 50,
  "speed": 82,
  "defence": 65,
  "attack": 90,
  "hp": 68,
  "catchRate": 45,
  "malePercent": 50,
  "nationalPokedexNumber": 444,
  "spawnLevel": 30,
  "spawnLevelRange": 9,
  "baseExp": 144,
  "baseFriendship": 70,
  "rarity": {
    "day": 0,
    "dawndusk": 5,
    "night": 0
  },
  "type1": "Dragon",
  "type2": "Ground",
  "height": 1.4,
  "width": 1.0,
  "length": 1.0,
  "giScale": 0.2,
  "canFly": false,
  "isRideable": false,
  "preEvolutions": [
    "Gible"
  ],
  "experienceGroup": "Slow",
  "aggression": {
    "timid": 80,
    "passive": 0,
    "aggressive": 20
  },
  "spawnLocations": [
    "Land",
    "UnderGround"
  ],
  "biomeIDs": [
    3,
    3,
    34,
    131,
    162
  ],
  "evGain": {
    "HP": 0,
    "Attack": 2,
    "Defence": 0,
    "SpecialAttack": 0,
    "SpecialDefence": 0,
    "Speed": 0
  },
  "canSurf": false,
  "maxGroupSize": 1,
  "minGroupSize": 1,
  "hoverHeight": 0.0,
  "doesHover": false,
  "id": 525,
  "baseFormID": 525,
  "weight": 56.0,
  "pokemon": "Gabite",
  "abilities": [
    "SandVeil",
    null,
    "RoughSkin"
  ],
  "eggGroups": [
    "Monster",
    "Dragon"
  ],
  "eggCycles": 41,
  "form": -1,
  "evolutionDefs": [
    {
      "targetId": 526,
      "evolveLevel": 48
    }
  ],
  "moves": {
    "levelMoves": {
      "1": [
        "Sand Tomb",
        "Tackle",
        "Dragon Breath",
        "Sand Attack",
        "Dual Chop"
      ],
      "18": [
        "Bulldoze"
      ],
      "34": [
        "Slash"
      ],
      "50": [
        "Dig"
      ],
      "66": [
        "Take Down"
      ],
      "42": [
        "Dragon Claw"
      ],
      "58": [
        "Sandstorm"
      ],
      "74": [
        "Dragon Rush"
      ],
      "27": [
        "Bite"
      ]
    },
    "eggMoves": [
      "Scorching Sands",
      "Scale Shot"
    ],
    "evolutionMoves": [],
    "tmTRMoves": [
      "Snore",
      "Facade",
      "Flamethrower",
      "Stone Edge",
      "Iron Head",
      "Rest",
      "Sand Tomb",
      "Earthquake",
      "Iron Tail",
      "Rock Slide",
      "Earth Power",
      "Scary Face",
      "Round",
      "Body Slam",
      "Sandstorm",
      "Bulldoze",
      "Mud Shot",
      "Substitute",
      "Attract",
      "Dragon Pulse",
      "Protect",
      "Dig",
      "Rain Dance",
      "Sunny Day",
      "Dragon Claw",
      "Outrage",
      "Rock Tomb",
      "Endure",
      "Sleep Talk",
      "Stealth Rock",
      "Shadow Claw",
      "Swift",
      "Fire Blast"
    ],
    "tutorMoves": {
      "Regular": [
        "Scorching Sands",
        "Scale Shot"
      ],
      "Transfer": [
        "Rock Smash",
        "Secret Power",
        "Draco Meteor",
        "Natural Gift",
        "Confide",
        "Metal Claw",
        "Incinerate",
        "Thrash",
        "Double-Edge",
        "Cut",
        "Hidden Power",
        "Double Team",
        "Hone Claws",
        "Mud-Slap",
        "Toxic",
        "Rock Climb",
        "Aerial Ace",
        "Headbutt",
        "Swagger",
        "Dragon Rage",
        "Return",
        "Captivate",
        "Roar",
        "Twister",
        "Fury Cutter",
        "Strength",
        "Frustration",
        "Laser Focus"
      ]
    }
  }
}