{
  "pixelmonName": "Gallade",
  "spDef": 115,
  "spAtt": 65,
  "speed": 110,
  "defence": 95,
  "attack": 165,
  "hp": 68,
  "catchRate": 45,
  "malePercent": 100,
  "nationalPokedexNumber": 475,
  "spawnLevel": 1,
  "spawnLevelRange": 99,
  "baseExp": 233,
  "baseFriendship": 0,
  "rarity": {
    "day": 0,
    "dawndusk": 0,
    "night": 0
  },
  "type1": "Psychic",
  "type2": "Fighting",
  "height": 1.6,
  "width": 1.6,
  "length": 1.6,
  "giScale": 1.0,
  "canFly": false,
  "isRideable": false,
  "preEvolutions": [
    "Kirlia",
    "Ralts"
  ],
  "experienceGroup": "Slow",
  "aggression": {
    "timid": 80,
    "passive": 0,
    "aggressive": 20
  },
  "spawnLocations": [],
  "biomeIDs": [
    27,
    28,
    155,
    156
  ],
  "evGain": {
    "HP": 0,
    "Attack": 3,
    "Defence": 0,
    "SpecialAttack": 0,
    "SpecialDefence": 0,
    "Speed": 0
  },
  "canSurf": false,
  "maxGroupSize": 1,
  "minGroupSize": 1,
  "hoverHeight": 0.0,
  "doesHover": false,
  "id": 815,
  "baseFormID": 554,
  "weight": 56.4,
  "pokemon": "Gallade",
  "abilities": [
    "InnerFocus",
    null,
    null
  ],
  "eggGroups": [
    "Amorphous"
  ],
  "eggCycles": 21,
  "form": 1,
  "evolutionDefs": [],
  "moves": {
    "levelMoves": {
      "1": [
        "Future Sight",
        "Disarming Voice",
        "Leer",
        "Psybeam",
        "Life Dew",
        "Growl",
        "Dream Eater",
        "Confusion",
        "Fury Cutter",
        "Calm Mind",
        "Psychic",
        "Charm",
        "Night Slash",
        "Slash",
        "Double Team",
        "Hypnosis",
        "Imprison",
        "Draining Kiss"
      ],
      "49": [
        "Heal Pulse"
      ],
      "18": [
        "Aerial Ace"
      ],
      "35": [
        "Swords Dance"
      ],
      "23": [
        "False Swipe"
      ],
      "56": [
        "Wide Guard",
        "Quick Guard"
      ],
      "9": [
        "Helping Hand"
      ],
      "42": [
        "Psycho Cut"
      ],
      "12": [
        "Feint"
      ],
      "28": [
        "Protect"
      ],
      "15": [
        "Teleport"
      ],
      "63": [
        "Close Combat"
      ]
    },
    "eggMoves": [
      "Destiny Bond",
      "Memento",
      "Knock Off",
      "Confuse Ray",
      "Shadow Sneak",
      "Grudge",
      "Disable",
      "Mean Look"
    ],
    "evolutionMoves": [
      "Slash"
    ],
    "tmTRMoves": [
      "Taunt",
      "Dazzling Gleam",
      "Light Screen",
      "Swords Dance",
      "Icy Wind",
      "Revenge",
      "Throat Chop",
      "Close Combat",
      "Magical Leaf",
      "Encore",
      "Wonder Room",
      "Work Up",
      "Aura Sphere",
      "Body Slam",
      "Bulldoze",
      "Imprison",
      "Substitute",
      "Leaf Blade",
      "Poison Jab",
      "Solar Blade",
      "Attract",
      "Thunder Wave",
      "Future Sight",
      "False Swipe",
      "Drain Punch",
      "Mega Punch",
      "Sunny Day",
      "Calm Mind",
      "Fling",
      "Rock Tomb",
      "Endure",
      "Swift",
      "Zen Headbutt",
      "Thunder Punch",
      "Low Sweep",
      "Draining Kiss",
      "Fire Punch",
      "Ice Punch",
      "Trick Room",
      "Snore",
      "Facade",
      "Air Slash",
      "Stone Edge",
      "Magic Room",
      "Grass Knot",
      "Retaliate",
      "Bulk Up",
      "Mega Kick",
      "Stored Power",
      "Rest",
      "Earthquake",
      "Rock Slide",
      "Charm",
      "Round",
      "Misty Terrain",
      "Shadow Ball",
      "Brick Break",
      "Skill Swap",
      "Ally Switch",
      "Giga Impact",
      "Hyper Voice",
      "Helping Hand",
      "Energy Ball",
      "Safeguard",
      "Protect",
      "Rain Dance",
      "Thief",
      "Psyshock",
      "Trick",
      "Hyper Beam",
      "Will-O-Wisp",
      "X-Scissor",
      "Focus Blast",
      "Psychic",
      "Reflect",
      "Low Kick",
      "Sleep Talk",
      "Reversal",
      "Psycho Cut",
      "Thunderbolt"
    ],
    "tutorMoves": {
      "Regular": [
        "Triple Axel",
        "Coaching",
        "Expanding Force"
      ],
      "Transfer": [
        "Snatch",
        "Natural Gift",
        "Confide",
        "Cut",
        "Hidden Power",
        "Power-Up Punch",
        "Synchronoise",
        "Shock Wave",
        "Telekinesis",
        "Headbutt",
        "Swagger",
        "Charge Beam",
        "Captivate",
        "Torment",
        "Frustration",
        "Laser Focus",
        "Rock Smash",
        "Secret Power",
        "Psych Up",
        "Vacuum Wave",
        "Dual Chop",
        "Magic Coat",
        "Echoed Voice",
        "Recycle",
        "Mud-Slap",
        "Focus Punch",
        "Toxic",
        "Pain Split",
        "Flash",
        "Signal Beam",
        "Return",
        "Strength"
      ]
    }
  }
}