{
  "pixelmonName": "Galvantula",
  "spDef": 60,
  "spAtt": 97,
  "speed": 108,
  "defence": 60,
  "attack": 77,
  "hp": 70,
  "catchRate": 75,
  "malePercent": 50,
  "nationalPokedexNumber": 596,
  "spawnLevel": 36,
  "spawnLevelRange": 14,
  "baseExp": 165,
  "baseFriendship": 70,
  "rarity": {
    "day": 0,
    "dawndusk": 10,
    "night": 0
  },
  "type1": "Bug",
  "type2": "Electric",
  "height": 0.8,
  "width": 1.0,
  "length": 1.0,
  "giScale": 1.0,
  "canFly": false,
  "isRideable": false,
  "preEvolutions": [
    "Joltik"
  ],
  "experienceGroup": "MediumFast",
  "aggression": {
    "timid": 0,
    "passive": 50,
    "aggressive": 50
  },
  "spawnLocations": [
    "Land",
    "UnderGround"
  ],
  "biomeIDs": [
    21,
    22,
    23,
    132,
    149,
    151
  ],
  "evGain": {
    "HP": 0,
    "Attack": 0,
    "Defence": 0,
    "SpecialAttack": 0,
    "SpecialDefence": 0,
    "Speed": 2
  },
  "canSurf": false,
  "maxGroupSize": 2,
  "minGroupSize": 1,
  "hoverHeight": 0.0,
  "doesHover": false,
  "id": 666,
  "baseFormID": 666,
  "weight": 14.3,
  "pokemon": "Galvantula",
  "abilities": [
    "CompoundEyes",
    "Unnerve",
    "Swarm"
  ],
  "eggGroups": [
    "Bug"
  ],
  "eggCycles": 21,
  "form": -1,
  "evolutionDefs": [],
  "moves": {
    "levelMoves": {
      "16": [
        "Thunder Wave"
      ],
      "32": [
        "Slash"
      ],
      "1": [
        "Absorb",
        "Bug Bite",
        "Sticky Web",
        "Fury Cutter",
        "Electroweb"
      ],
      "50": [
        "Gastro Acid"
      ],
      "20": [
        "Electro Ball"
      ],
      "39": [
        "Discharge"
      ],
      "24": [
        "Agility"
      ],
      "56": [
        "Bug Buzz"
      ],
      "12": [
        "String Shot"
      ],
      "28": [
        "Sucker Punch"
      ],
      "44": [
        "Screech"
      ]
    },
    "eggMoves": [
      "Poison Sting",
      "Lunge",
      "Struggle Bug",
      "Double Team",
      "Infestation"
    ],
    "evolutionMoves": [
      "Sticky Web"
    ],
    "tmTRMoves": [
      "Pin Missile",
      "Giga Drain",
      "Snore",
      "Facade",
      "Cross Poison",
      "Leech Life",
      "Light Screen",
      "Volt Switch",
      "Throat Chop",
      "Screech",
      "Rest",
      "Bug Buzz",
      "Agility",
      "Round",
      "Bounce",
      "Substitute",
      "Poison Jab",
      "Attract",
      "Electroweb",
      "Giga Impact",
      "Thunder Wave",
      "Energy Ball",
      "Protect",
      "Rain Dance",
      "Thunder",
      "Wild Charge",
      "Thief",
      "Hyper Beam",
      "X-Scissor",
      "Endure",
      "Sleep Talk",
      "Speed Swap",
      "Swift",
      "Electro Ball",
      "Thunderbolt"
    ],
    "tutorMoves": {
      "Regular": [
        "Skitter Smack",
        "Rising Voltage"
      ],
      "Transfer": [
        "Secret Power",
        "Confide",
        "Camouflage",
        "Disable",
        "Cut",
        "Spider Web",
        "Hidden Power",
        "Magnet Rise",
        "Shock Wave",
        "Toxic",
        "Rock Climb",
        "Swagger",
        "Charge Beam",
        "Flash",
        "Signal Beam",
        "Return",
        "Pursuit",
        "Faint Attack",
        "Frustration"
      ]
    }
  }
}