{
  "pixelmonName": "Garbodor",
  "spDef": 82,
  "spAtt": 60,
  "speed": 75,
  "defence": 82,
  "attack": 95,
  "hp": 80,
  "catchRate": 60,
  "malePercent": 50,
  "nationalPokedexNumber": 569,
  "spawnLevel": 36,
  "spawnLevelRange": 19,
  "baseExp": 166,
  "baseFriendship": 70,
  "rarity": {
    "day": 40,
    "dawndusk": 0,
    "night": 40
  },
  "type1": "Poison",
  "height": 1.9,
  "width": 1.0,
  "length": 1.0,
  "giScale": 1.0,
  "canFly": false,
  "isRideable": false,
  "preEvolutions": [
    "Trubbish"
  ],
  "experienceGroup": "MediumFast",
  "aggression": {
    "timid": 80,
    "passive": 0,
    "aggressive": 20
  },
  "spawnLocations": [
    "Land"
  ],
  "biomeIDs": [
    6,
    134,
    6,
    134
  ],
  "evGain": {
    "HP": 0,
    "Attack": 2,
    "Defence": 0,
    "SpecialAttack": 0,
    "SpecialDefence": 0,
    "Speed": 0
  },
  "canSurf": false,
  "maxGroupSize": 1,
  "minGroupSize": 1,
  "hoverHeight": 0.0,
  "doesHover": false,
  "id": 640,
  "baseFormID": 640,
  "weight": 107.3,
  "pokemon": "Garbodor",
  "abilities": [
    "Stench",
    "WeakArmor",
    "Aftermath"
  ],
  "eggGroups": [
    "Mineral"
  ],
  "eggCycles": 21,
  "form": -1,
  "evolutionDefs": [],
  "moves": {
    "levelMoves": {
      "1": [
        "Acid Spray",
        "Metal Claw",
        "Take Down",
        "Pound",
        "Recycle",
        "Poison Gas"
      ],
      "33": [
        "Belch"
      ],
      "39": [
        "Pain Split"
      ],
      "9": [
        "Amnesia"
      ],
      "43": [
        "Gunk Shot"
      ],
      "12": [
        "Clear Smog"
      ],
      "15": [
        "Toxic Spikes"
      ],
      "48": [
        "Explosion"
      ],
      "18": [
        "Sludge"
      ],
      "21": [
        "Swallow",
        "Stockpile"
      ],
      "24": [
        "Body Slam"
      ],
      "27": [
        "Sludge Bomb"
      ],
      "30": [
        "Toxic"
      ]
    },
    "eggMoves": [
      "Curse",
      "Haze",
      "Sand Attack",
      "Autotomize",
      "Rollout"
    ],
    "evolutionMoves": [],
    "tmTRMoves": [
      "Giga Drain",
      "Snore",
      "Facade",
      "Cross Poison",
      "Dark Pulse",
      "Sludge Bomb",
      "Stomping Tantrum",
      "Solar Beam",
      "Rock Blast",
      "Screech",
      "Rest",
      "Seed Bomb",
      "Sludge Wave",
      "Venom Drench",
      "Round",
      "Body Slam",
      "Amnesia",
      "Substitute",
      "Gunk Shot",
      "Attract",
      "Giga Impact",
      "Body Press",
      "Payback",
      "Protect",
      "Drain Punch",
      "Venoshock",
      "Rain Dance",
      "Self-Destruct",
      "Thief",
      "Hyper Beam",
      "Sunny Day",
      "Focus Blast",
      "Spikes",
      "Fling",
      "Psychic",
      "Endure",
      "Sleep Talk",
      "Thunderbolt",
      "Toxic Spikes"
    ],
    "tutorMoves": {
      "Regular": [
        "Corrosive Gas"
      ],
      "Transfer": [
        "Secret Power",
        "Confide",
        "Mud Sport",
        "Hidden Power",
        "Smack Down",
        "Double Team",
        "Spite",
        "Infestation",
        "Double Slap",
        "Swagger",
        "Return",
        "Rock Polish",
        "Frustration"
      ]
    }
  }
}