{
  "pixelmonName": "Gengar",
  "spDef": 75,
  "spAtt": 130,
  "speed": 110,
  "defence": 60,
  "attack": 65,
  "hp": 60,
  "catchRate": 45,
  "malePercent": 50,
  "nationalPokedexNumber": 94,
  "spawnLevel": 30,
  "spawnLevelRange": 20,
  "baseExp": 190,
  "baseFriendship": 70,
  "rarity": {
    "day": 0,
    "dawndusk": 0,
    "night": 0
  },
  "type1": "Ghost",
  "type2": "Poison",
  "height": 1.5,
  "width": 1.0,
  "length": 1.0,
  "giScale": 1.0,
  "canFly": false,
  "isRideable": false,
  "preEvolutions": [
    "Haunter",
    "Gastly"
  ],
  "experienceGroup": "MediumSlow",
  "aggression": {
    "timid": 80,
    "passive": 0,
    "aggressive": 20
  },
  "spawnLocations": [
    "Land",
    "UnderGround"
  ],
  "biomeIDs": [
    5,
    19,
    32,
    33,
    133,
    160,
    161
  ],
  "evGain": {
    "HP": 0,
    "Attack": 0,
    "Defence": 0,
    "SpecialAttack": 3,
    "SpecialDefence": 0,
    "Speed": 0
  },
  "canSurf": false,
  "maxGroupSize": 1,
  "minGroupSize": 1,
  "hoverHeight": 0.0,
  "doesHover": false,
  "id": 208,
  "baseFormID": 208,
  "weight": 40.5,
  "pokemon": "Gengar",
  "abilities": [
    "CursedBody",
    null,
    null
  ],
  "eggGroups": [
    "Amorphous"
  ],
  "eggCycles": 21,
  "form": -1,
  "evolutionDefs": [],
  "moves": {
    "levelMoves": {
      "16": [
        "Spite"
      ],
      "48": [
        "Shadow Ball"
      ],
      "1": [
        "Lick",
        "Perish Song",
        "Confuse Ray",
        "Hypnosis",
        "Reflect Type",
        "Mean Look",
        "Shadow Punch"
      ],
      "20": [
        "Curse"
      ],
      "36": [
        "Sucker Punch"
      ],
      "54": [
        "Destiny Bond"
      ],
      "24": [
        "Hex"
      ],
      "42": [
        "Dark Pulse"
      ],
      "12": [
        "Payback"
      ],
      "60": [
        "Dream Eater"
      ],
      "30": [
        "Night Shade"
      ]
    },
    "eggMoves": [
      "Perish Song",
      "Toxic",
      "Smog",
      "Haze",
      "Astonish",
      "Clear Smog",
      "Grudge",
      "Reflect Type",
      "Disable"
    ],
    "evolutionMoves": [],
    "tmTRMoves": [
      "Uproar",
      "Taunt",
      "Dazzling Gleam",
      "Metronome",
      "Icy Wind",
      "Encore",
      "Wonder Room",
      "Sludge Wave",
      "Nasty Plot",
      "Body Slam",
      "Imprison",
      "Substitute",
      "Poison Jab",
      "Attract",
      "Payback",
      "Drain Punch",
      "Mega Punch",
      "Self-Destruct",
      "Sunny Day",
      "Fling",
      "Endure",
      "Thunder Punch",
      "Fire Punch",
      "Ice Punch",
      "Trick Room",
      "Giga Drain",
      "Snore",
      "Facade",
      "Dark Pulse",
      "Sludge Bomb",
      "Mega Kick",
      "Rest",
      "Scary Face",
      "Round",
      "Shadow Ball",
      "Brick Break",
      "Skill Swap",
      "Ally Switch",
      "Giga Impact",
      "Energy Ball",
      "Protect",
      "Venoshock",
      "Rain Dance",
      "Thunder",
      "Thief",
      "Trick",
      "Hyper Beam",
      "Will-O-Wisp",
      "Focus Blast",
      "Phantom Force",
      "Psychic",
      "Foul Play",
      "Sleep Talk",
      "Shadow Claw",
      "Hex",
      "Thunderbolt"
    ],
    "tutorMoves": {
      "Regular": [
        "Skitter Smack",
        "Poltergeist",
        "Corrosive Gas"
      ],
      "Transfer": [
        "Ominous Wind",
        "Snatch",
        "Natural Gift",
        "Confide",
        "Double-Edge",
        "Hidden Power",
        "Poison Gas",
        "Power-Up Punch",
        "Bide",
        "Double Team",
        "Infestation",
        "Telekinesis",
        "Seismic Toss",
        "Rage",
        "Headbutt",
        "Dynamic Punch",
        "Skull Bash",
        "Swagger",
        "Nightmare",
        "Submission",
        "Mimic",
        "Captivate",
        "Knock Off",
        "Role Play",
        "Torment",
        "Frustration",
        "Laser Focus",
        "Rock Smash",
        "Secret Power",
        "Psych Up",
        "Counter",
        "Explosion",
        "Take Down",
        "Mega Drain",
        "Psywave",
        "Focus Punch",
        "Embargo",
        "Pain Split",
        "Return",
        "Strength",
        "Zap Cannon"
      ]
    }
  }
}