{
  "pixelmonName": "Gigalith",
  "spDef": 80,
  "spAtt": 60,
  "speed": 25,
  "defence": 130,
  "attack": 135,
  "hp": 85,
  "catchRate": 45,
  "malePercent": 50,
  "nationalPokedexNumber": 526,
  "spawnLevel": 40,
  "spawnLevelRange": 10,
  "baseExp": 227,
  "baseFriendship": 70,
  "rarity": {
    "day": 0,
    "dawndusk": 0,
    "night": 0
  },
  "type1": "Rock",
  "height": 1.7,
  "width": 1.0,
  "length": 1.0,
  "giScale": 1.0,
  "canFly": false,
  "isRideable": false,
  "preEvolutions": [
    "Boldore",
    "Roggenrola"
  ],
  "experienceGroup": "MediumSlow",
  "aggression": {
    "timid": 80,
    "passive": 0,
    "aggressive": 20
  },
  "spawnLocations": [
    "Land",
    "UnderGround"
  ],
  "biomeIDs": [
    37,
    38,
    39,
    165,
    166,
    167
  ],
  "evGain": {
    "HP": 0,
    "Attack": 3,
    "Defence": 0,
    "SpecialAttack": 0,
    "SpecialDefence": 0,
    "Speed": 0
  },
  "canSurf": false,
  "maxGroupSize": 1,
  "minGroupSize": 1,
  "hoverHeight": 0.0,
  "doesHover": false,
  "id": 603,
  "baseFormID": 603,
  "weight": 260.0,
  "pokemon": "Gigalith",
  "abilities": [
    "Sturdy",
    "SandStream",
    "SandForce"
  ],
  "eggGroups": [
    "Mineral"
  ],
  "eggCycles": 16,
  "form": -1,
  "evolutionDefs": [],
  "moves": {
    "levelMoves": {
      "16": [
        "Smack Down"
      ],
      "48": [
        "Stone Edge"
      ],
      "1": [
        "Tackle",
        "Sand Attack",
        "Stealth Rock",
        "Harden",
        "Power Gem"
      ],
      "20": [
        "Iron Defense"
      ],
      "36": [
        "Rock Blast"
      ],
      "54": [
        "Explosion"
      ],
      "24": [
        "Headbutt"
      ],
      "42": [
        "Sandstorm"
      ],
      "12": [
        "Mud-Slap"
      ],
      "30": [
        "Rock Slide"
      ]
    },
    "eggMoves": [
      "Wide Guard",
      "Curse",
      "Take Down",
      "Autotomize",
      "Gravity"
    ],
    "evolutionMoves": [],
    "tmTRMoves": [
      "Weather Ball",
      "Snore",
      "Facade",
      "Heavy Slam",
      "Stone Edge",
      "Stomping Tantrum",
      "Solar Beam",
      "Rock Blast",
      "Throat Chop",
      "Power Gem",
      "Iron Head",
      "Rest",
      "Sand Tomb",
      "Earthquake",
      "Rock Slide",
      "Earth Power",
      "Round",
      "Sandstorm",
      "Bulldoze",
      "Iron Defense",
      "Substitute",
      "Superpower",
      "Attract",
      "Giga Impact",
      "Body Press",
      "Protect",
      "Self-Destruct",
      "Hyper Beam",
      "Flash Cannon",
      "Rock Tomb",
      "Endure",
      "Sleep Talk",
      "Stealth Rock"
    ],
    "tutorMoves": {
      "Regular": [
        "Meteor Beam"
      ],
      "Transfer": [
        "Rock Smash",
        "Secret Power",
        "Confide",
        "Hidden Power",
        "Lock-On",
        "Block",
        "Double Team",
        "Toxic",
        "Magnitude",
        "Swagger",
        "Return",
        "Nature Power",
        "Rock Polish",
        "Strength",
        "Frustration",
        "Laser Focus"
      ]
    }
  }
}