{
  "pixelmonName": "Glaceon",
  "spDef": 95,
  "spAtt": 130,
  "speed": 65,
  "defence": 110,
  "attack": 60,
  "hp": 65,
  "catchRate": 45,
  "malePercent": 87,
  "nationalPokedexNumber": 471,
  "spawnLevel": 45,
  "spawnLevelRange": 5,
  "baseExp": 184,
  "baseFriendship": 35,
  "rarity": {
    "day": 0,
    "dawndusk": 0,
    "night": 0
  },
  "type1": "Ice",
  "height": 0.8,
  "width": 1.0,
  "length": 1.0,
  "giScale": 1.0,
  "canFly": false,
  "isRideable": true,
  "preEvolutions": [
    "Eevee"
  ],
  "experienceGroup": "MediumFast",
  "aggression": {
    "timid": 80,
    "passive": 0,
    "aggressive": 20
  },
  "spawnLocations": [
    "Land"
  ],
  "biomeIDs": [
    12,
    13,
    30,
    31,
    140,
    158
  ],
  "evGain": {
    "HP": 0,
    "Attack": 0,
    "Defence": 0,
    "SpecialAttack": 2,
    "SpecialDefence": 0,
    "Speed": 0
  },
  "canSurf": false,
  "ridingOffsets": {
    "standing": {
      "x": 0.0,
      "y": -0.5,
      "z": 0.0
    },
    "moving": {
      "x": 0.0,
      "y": -0.5,
      "z": 0.0
    }
  },
  "maxGroupSize": 1,
  "minGroupSize": 1,
  "hoverHeight": 0.0,
  "doesHover": false,
  "id": 34,
  "baseFormID": 34,
  "weight": 25.9,
  "pokemon": "Glaceon",
  "abilities": [
    "SnowCloak",
    null,
    "IceBody"
  ],
  "eggGroups": [
    "Field"
  ],
  "eggCycles": 36,
  "form": -1,
  "evolutionDefs": [],
  "moves": {
    "levelMoves": {
      "1": [
        "Helping Hand",
        "Tackle",
        "Tail Whip",
        "Take Down",
        "Charm",
        "Growl",
        "Baton Pass",
        "Swift",
        "Icy Wind",
        "Covet",
        "Copycat",
        "Double-Edge"
      ],
      "50": [
        "Blizzard"
      ],
      "35": [
        "Hail"
      ],
      "20": [
        "Ice Shard"
      ],
      "5": [
        "Sand Attack"
      ],
      "55": [
        "Last Resort"
      ],
      "40": [
        "Freeze-Dry"
      ],
      "25": [
        "Bite"
      ],
      "10": [
        "Quick Attack"
      ],
      "45": [
        "Mirror Coat"
      ],
      "30": [
        "Ice Fang"
      ],
      "15": [
        "Baby-Doll Eyes"
      ]
    },
    "eggMoves": [
      "Mud-Slap",
      "Flail",
      "Curse",
      "Yawn",
      "Double Kick",
      "Tickle",
      "Detect",
      "Wish"
    ],
    "evolutionMoves": [
      "Icy Wind"
    ],
    "tmTRMoves": [
      "Weather Ball",
      "Snore",
      "Facade",
      "Icicle Spear",
      "Focus Energy",
      "Retaliate",
      "Icy Wind",
      "Stored Power",
      "Rest",
      "Pay Day",
      "Ice Fang",
      "Iron Tail",
      "Work Up",
      "Charm",
      "Round",
      "Body Slam",
      "Shadow Ball",
      "Substitute",
      "Attract",
      "Hail",
      "Ice Beam",
      "Giga Impact",
      "Hyper Voice",
      "Helping Hand",
      "Protect",
      "Dig",
      "Rain Dance",
      "Fake Tears",
      "Hyper Beam",
      "Sunny Day",
      "Baton Pass",
      "Avalanche",
      "Endure",
      "Sleep Talk",
      "Swift",
      "Blizzard"
    ],
    "tutorMoves": {
      "Regular": [
        "Triple Axel"
      ],
      "Transfer": [
        "Rock Smash",
        "Secret Power",
        "Natural Gift",
        "Confide",
        "Frost Breath",
        "Hidden Power",
        "Echoed Voice",
        "Synchronoise",
        "Water Pulse",
        "Double Team",
        "Heal Bell",
        "Toxic",
        "Barrier",
        "Headbutt",
        "Swagger",
        "Aqua Tail",
        "Signal Beam",
        "Return",
        "Aurora Veil",
        "Captivate",
        "Roar",
        "Strength",
        "Frustration",
        "Laser Focus"
      ],
      "Event": [
        "Celebrate"
      ]
    }
  }
}