{
  "pixelmonName": "Gligar",
  "spDef": 65,
  "spAtt": 35,
  "speed": 85,
  "defence": 105,
  "attack": 75,
  "hp": 65,
  "catchRate": 60,
  "malePercent": 50,
  "nationalPokedexNumber": 207,
  "spawnLevel": 5,
  "spawnLevelRange": 24,
  "baseExp": 108,
  "baseFriendship": 70,
  "rarity": {
    "day": 10,
    "dawndusk": 10,
    "night": 100
  },
  "type1": "Ground",
  "type2": "Flying",
  "height": 1.1,
  "width": 0.5,
  "length": 0.5,
  "giScale": 1.0,
  "canFly": true,
  "isRideable": false,
  "preEvolutions": [],
  "experienceGroup": "MediumSlow",
  "aggression": {
    "timid": 0,
    "passive": 50,
    "aggressive": 50
  },
  "spawnLocations": [
    "Air"
  ],
  "biomeIDs": [
    6,
    134,
    160,
    161
  ],
  "evGain": {
    "HP": 0,
    "Attack": 0,
    "Defence": 1,
    "SpecialAttack": 0,
    "SpecialDefence": 0,
    "Speed": 0
  },
  "canSurf": false,
  "maxGroupSize": 2,
  "minGroupSize": 1,
  "hoverHeight": 0.0,
  "doesHover": false,
  "id": 322,
  "baseFormID": 322,
  "weight": 64.8,
  "pokemon": "Gligar",
  "abilities": [
    "HyperCutter",
    "SandVeil",
    "Immunity"
  ],
  "eggGroups": [
    "Bug"
  ],
  "eggCycles": 21,
  "form": -1,
  "evolutionDefs": [
    {
      "targetId": 0,
      "formTo": -1,
      "evolveCondition": "LevelupHeldItem:Razor Fang:Gliscor"
    }
  ],
  "moves": {
    "levelMoves": {
      "1": [
        "Poison Sting"
      ],
      "35": [
        "Screech"
      ],
      "4": [
        "Sand Attack"
      ],
      "7": [
        "Harden"
      ],
      "40": [
        "X-Scissor"
      ],
      "10": [
        "Knock Off"
      ],
      "13": [
        "Quick Attack"
      ],
      "45": [
        "Sky Uppercut"
      ],
      "16": [
        "Fury Cutter"
      ],
      "50": [
        "Swords Dance"
      ],
      "19": [
        "Faint Attack"
      ],
      "22": [
        "Acrobatics"
      ],
      "55": [
        "Guillotine"
      ],
      "27": [
        "Slash"
      ],
      "30": [
        "U-turn"
      ]
    },
    "eggMoves": [
      "Cross Poison",
      "Rock Climb",
      "Baton Pass",
      "Razor Wind",
      "Metal Claw",
      "Sand Tomb",
      "Counter",
      "Poison Tail",
      "Power Trick",
      "Agility",
      "Night Slash",
      "Feint",
      "Wing Attack",
      "Double-Edge"
    ],
    "evolutionMoves": [],
    "tmTRMoves": [
      "Pin Missile",
      "Dig",
      "Screech",
      "Rest",
      "Rock Slide",
      "Thief",
      "Snore",
      "Protect",
      "Steel Wing",
      "Attract",
      "Sandstorm",
      "Rain Dance",
      "Sunny Day",
      "Facade",
      "Brick Break",
      "Rock Tomb",
      "Sand Tomb",
      "U-turn",
      "Payback",
      "Assurance",
      "Fling",
      "Cross Poison",
      "Venoshock",
      "Round",
      "Acrobatics",
      "Bulldoze",
      "False Swipe",
      "Swords Dance",
      "Earthquake",
      "Agility",
      "Substitute",
      "Sludge Bomb",
      "Endure",
      "Sleep Talk",
      "Baton Pass",
      "Iron Tail",
      "Taunt",
      "Poison Jab",
      "Dark Pulse",
      "X-scissor",
      "Earth Power",
      "Power Whip",
      "Stone Edge",
      "Stealth Rock",
      "Throat Chop"
    ],
    "tutorMoves": {
      "Regular": [
        "Defog",
        "Snore",
        "Iron Tail",
        "Stealth Rock",
        "Earth Power",
        "Knock Off",
        "Bug Bite",
        "Aqua Tail",
        "Throat Chop",
        "Tailwind"
      ],
      "Transfer": [
        "Rock Smash",
        "Secret Power",
        "Dream Eater",
        "Detect",
        "Natural Gift",
        "Confide",
        "Curse",
        "Cut",
        "Roost",
        "Hidden Power",
        "Double Team",
        "Swift",
        "Hone Claws",
        "Toxic",
        "Aerial Ace",
        "Struggle Bug",
        "Headbutt",
        "Swagger",
        "Return",
        "Mimic",
        "Captivate",
        "Rock Polish",
        "Torment",
        "Strength",
        "Frustration"
      ]
    }
  }
}