{
  "pixelmonName": "Gliscor",
  "spDef": 75,
  "spAtt": 45,
  "speed": 95,
  "defence": 125,
  "attack": 95,
  "hp": 75,
  "catchRate": 30,
  "malePercent": 50,
  "nationalPokedexNumber": 472,
  "spawnLevel": 30,
  "spawnLevelRange": 15,
  "baseExp": 192,
  "baseFriendship": 70,
  "rarity": {
    "day": 0,
    "dawndusk": 0,
    "night": 0
  },
  "type1": "Ground",
  "type2": "Flying",
  "height": 2.0,
  "width": 2.0,
  "length": 1.0,
  "giScale": 1.0,
  "canFly": true,
  "isRideable": false,
  "preEvolutions": [
    "Gligar"
  ],
  "experienceGroup": "MediumSlow",
  "aggression": {
    "timid": 0,
    "passive": 50,
    "aggressive": 50
  },
  "spawnLocations": [
    "Air"
  ],
  "biomeIDs": [
    6,
    134,
    160,
    161
  ],
  "evGain": {
    "HP": 0,
    "Attack": 0,
    "Defence": 2,
    "SpecialAttack": 0,
    "SpecialDefence": 0,
    "Speed": 0
  },
  "canSurf": false,
  "maxGroupSize": 2,
  "minGroupSize": 1,
  "hoverHeight": 0.0,
  "doesHover": false,
  "id": 551,
  "baseFormID": 551,
  "weight": 42.5,
  "pokemon": "Gliscor",
  "abilities": [
    "HyperCutter",
    "SandVeil",
    "PoisonHeal"
  ],
  "eggGroups": [
    "Bug"
  ],
  "eggCycles": 21,
  "form": -1,
  "evolutionDefs": [],
  "moves": {
    "levelMoves": {
      "1": [
        "Thunder Fang",
        "Ice Fang",
        "Sand Attack",
        "Knock Off",
        "Fire Fang",
        "Poison Jab",
        "Harden",
        "Guillotine"
      ],
      "35": [
        "Screech"
      ],
      "4": [
        "Sand Attack"
      ],
      "7": [
        "Harden"
      ],
      "40": [
        "X-Scissor"
      ],
      "10": [
        "Knock Off"
      ],
      "13": [
        "Quick Attack"
      ],
      "45": [
        "Sky Uppercut"
      ],
      "16": [
        "Fury Cutter"
      ],
      "50": [
        "Swords Dance"
      ],
      "19": [
        "Faint Attack"
      ],
      "22": [
        "Acrobatics"
      ],
      "55": [
        "Guillotine"
      ],
      "27": [
        "Night Slash"
      ],
      "30": [
        "U-turn"
      ]
    },
    "eggMoves": [
      "Cross Poison",
      "Rock Climb",
      "Baton Pass",
      "Razor Wind",
      "Metal Claw",
      "Sand Tomb",
      "Counter",
      "Poison Tail",
      "Power Trick",
      "Agility",
      "Night Slash",
      "Feint",
      "Wing Attack",
      "Double-Edge"
    ],
    "evolutionMoves": [],
    "tmTRMoves": [
      "Pin Missile",
      "Hyper Beam",
      "Giga Impact",
      "Dig",
      "Screech",
      "Rest",
      "Rock Slide",
      "Thief",
      "Snore",
      "Protect",
      "Scary Face",
      "Steel Wing",
      "Attract",
      "Sandstorm",
      "Rain Dance",
      "Sunny Day",
      "Facade",
      "Brick Break",
      "Rock Tomb",
      "Sand Tomb",
      "U-turn",
      "Payback",
      "Assurance",
      "Fling",
      "Thunder Fang",
      "Ice Fang",
      "Fire Fang",
      "Cross Poison",
      "Venoshock",
      "Round",
      "Acrobatics",
      "Bulldoze",
      "False Swipe",
      "Brutal Swing",
      "Swords Dance",
      "Earthquake",
      "Agility",
      "Substitute",
      "Sludge Bomb",
      "Endure",
      "Sleep Talk",
      "Baton Pass",
      "Iron Tail",
      "Taunt",
      "Poison Jab",
      "Dark Pulse",
      "X-scissor",
      "Earth Power",
      "Power Whip",
      "Stone Edge",
      "Stealth Rock",
      "Throat Chop",
      "Psychic Fangs"
    ],
    "tutorMoves": {
      "Regular": [
        "Defog",
        "Snore",
        "Sky Attack",
        "Iron Tail",
        "Stealth Rock",
        "Earth Power",
        "Knock Off",
        "Bug Bite",
        "Aqua Tail",
        "Throat Chop",
        "Tailwind"
      ],
      "Transfer": [
        "Natural Gift",
        "Confide",
        "Cut",
        "Roost",
        "Hidden Power",
        "Double Team",
        "Swift",
        "Hone Claws",
        "Headbutt",
        "Swagger",
        "Captivate",
        "Rock Polish",
        "Torment",
        "Frustration",
        "Rock Smash",
        "Secret Power",
        "Mud-Slap",
        "Toxic",
        "Aerial Ace",
        "Struggle Bug",
        "Return",
        "Strength"
      ]
    }
  }
}