{
  "pixelmonName": "Golurk",
  "spDef": 80,
  "spAtt": 55,
  "speed": 55,
  "defence": 80,
  "attack": 124,
  "hp": 89,
  "catchRate": 90,
  "malePercent": -1,
  "nationalPokedexNumber": 623,
  "spawnLevel": 43,
  "spawnLevelRange": 12,
  "baseExp": 169,
  "baseFriendship": 70,
  "rarity": {
    "day": 0,
    "dawndusk": 5,
    "night": 5
  },
  "type1": "Ground",
  "type2": "Ghost",
  "height": 2.8,
  "width": 1.0,
  "length": 1.0,
  "giScale": 1.0,
  "canFly": true,
  "isRideable": true,
  "preEvolutions": [
    "Golett"
  ],
  "experienceGroup": "MediumFast",
  "aggression": {
    "timid": 80,
    "passive": 0,
    "aggressive": 20
  },
  "spawnLocations": [
    "Land",
    "UnderGround"
  ],
  "biomeIDs": [
    37,
    38,
    39,
    165,
    166,
    167
  ],
  "evGain": {
    "HP": 0,
    "Attack": 2,
    "Defence": 0,
    "SpecialAttack": 0,
    "SpecialDefence": 0,
    "Speed": 0
  },
  "canSurf": false,
  "ridingOffsets": {
    "standing": {
      "x": 0.0,
      "y": -1.0,
      "z": -0.6
    },
    "moving": {
      "x": 0.0,
      "y": 0.0,
      "z": 0.75
    }
  },
  "maxGroupSize": 1,
  "minGroupSize": 1,
  "hoverHeight": 0.0,
  "doesHover": false,
  "id": 693,
  "baseFormID": 693,
  "weight": 330.0,
  "pokemon": "Golurk",
  "abilities": [
    "IronFist",
    "Klutz",
    "NoGuard"
  ],
  "eggGroups": [
    "Mineral"
  ],
  "eggCycles": 26,
  "form": -1,
  "evolutionDefs": [],
  "moves": {
    "levelMoves": {
      "32": [
        "Mega Punch"
      ],
      "64": [
        "Dynamic Punch"
      ],
      "1": [
        "Mud-Slap",
        "Focus Punch",
        "High Horsepower",
        "Astonish",
        "Pound",
        "Defense Curl"
      ],
      "36": [
        "Shadow Ball"
      ],
      "40": [
        "Heavy Slam"
      ],
      "12": [
        "Shadow Punch"
      ],
      "46": [
        "Phantom Force"
      ],
      "16": [
        "Curse"
      ],
      "20": [
        "Night Shade"
      ],
      "52": [
        "Hammer Arm"
      ],
      "24": [
        "Stomping Tantrum"
      ],
      "58": [
        "Earthquake"
      ],
      "28": [
        "Iron Defense"
      ]
    },
    "eggMoves": [
      "Scorching Sands",
      "Poltergeist"
    ],
    "evolutionMoves": [],
    "tmTRMoves": [
      "Icy Wind",
      "Close Combat",
      "Body Slam",
      "Bulldoze",
      "Imprison",
      "Substitute",
      "Ice Beam",
      "Drain Punch",
      "Mega Punch",
      "Self-Destruct",
      "Darkest Lariat",
      "Flash Cannon",
      "Fling",
      "Rock Tomb",
      "Endure",
      "Zen Headbutt",
      "Heat Crash",
      "Thunder Punch",
      "Low Sweep",
      "Fire Punch",
      "Ice Punch",
      "Snore",
      "Facade",
      "Heavy Slam",
      "Stone Edge",
      "Grass Knot",
      "Stomping Tantrum",
      "Solar Beam",
      "Mega Kick",
      "Fly",
      "Rest",
      "Earthquake",
      "Rock Slide",
      "Earth Power",
      "Round",
      "Shadow Ball",
      "Iron Defense",
      "Superpower",
      "Brick Break",
      "Ally Switch",
      "Giga Impact",
      "Body Press",
      "Helping Hand",
      "Safeguard",
      "Protect",
      "Dig",
      "Rain Dance",
      "High Horsepower",
      "Thief",
      "Trick",
      "Hyper Beam",
      "Gyro Ball",
      "Focus Blast",
      "Phantom Force",
      "Psychic",
      "Low Kick",
      "Sleep Talk",
      "Stealth Rock",
      "Thunderbolt"
    ],
    "tutorMoves": {
      "Regular": [
        "Scorching Sands",
        "Poltergeist"
      ],
      "Transfer": [
        "Rock Smash",
        "Secret Power",
        "Confide",
        "Hidden Power",
        "Magic Coat",
        "Power-Up Punch",
        "Block",
        "Double Team",
        "Shock Wave",
        "Telekinesis",
        "Toxic",
        "Magnitude",
        "Swagger",
        "Charge Beam",
        "Flash",
        "Rollout",
        "Signal Beam",
        "Gravity",
        "Return",
        "Rock Polish",
        "Strength",
        "Frustration"
      ]
    }
  }
}