{
  "pixelmonName": "Granbull",
  "spDef": 60,
  "spAtt": 60,
  "speed": 45,
  "defence": 75,
  "attack": 120,
  "hp": 90,
  "catchRate": 75,
  "malePercent": 25,
  "nationalPokedexNumber": 210,
  "spawnLevel": 23,
  "spawnLevelRange": 37,
  "baseExp": 178,
  "baseFriendship": 70,
  "rarity": {
    "day": 75,
    "dawndusk": 0,
    "night": 0
  },
  "type1": "Fairy",
  "height": 1.4,
  "width": 1.0,
  "length": 1.0,
  "giScale": 1.0,
  "canFly": false,
  "isRideable": false,
  "preEvolutions": [
    "Snubbull"
  ],
  "experienceGroup": "Fast",
  "aggression": {
    "timid": 80,
    "passive": 0,
    "aggressive": 20
  },
  "spawnLocations": [
    "Land"
  ],
  "biomeIDs": [
    1
  ],
  "evGain": {
    "HP": 0,
    "Attack": 2,
    "Defence": 0,
    "SpecialAttack": 0,
    "SpecialDefence": 0,
    "Speed": 0
  },
  "canSurf": false,
  "maxGroupSize": 2,
  "minGroupSize": 1,
  "hoverHeight": 0.0,
  "doesHover": false,
  "id": 325,
  "baseFormID": 325,
  "weight": 48.7,
  "pokemon": "Granbull",
  "abilities": [
    "Intimidate",
    "QuickFeet",
    "Rattled"
  ],
  "eggGroups": [
    "Field",
    "Fairy"
  ],
  "eggCycles": 21,
  "form": -1,
  "evolutionDefs": [],
  "moves": {
    "levelMoves": {
      "1": [
        "Outrage",
        "Tackle",
        "Thunder Fang",
        "Tail Whip",
        "Ice Fang",
        "Charm",
        "Scary Face",
        "Fire Fang"
      ],
      "19": [
        "Headbutt"
      ],
      "35": [
        "Rage"
      ],
      "51": [
        "Payback"
      ],
      "67": [
        "Outrage"
      ],
      "7": [
        "Bite"
      ],
      "27": [
        "Roar"
      ],
      "43": [
        "Play Rough"
      ],
      "59": [
        "Crunch"
      ],
      "13": [
        "Lick"
      ]
    },
    "eggMoves": [
      "Focus Punch",
      "Snore",
      "Metronome",
      "Mimic",
      "Fake Tears",
      "Fire Fang",
      "Close Combat",
      "Faint Attack",
      "Thunder Fang",
      "Ice Fang",
      "Smelling Salts",
      "Heal Bell",
      "Present",
      "Crunch",
      "Double-Edge"
    ],
    "evolutionMoves": [],
    "tmTRMoves": [
      "Mega Punch",
      "Mega Kick",
      "Fire Punch",
      "Ice Punch",
      "Thunder Punch",
      "Hyper Beam",
      "Giga Impact",
      "Solar Beam",
      "Thunder Wave",
      "Dig",
      "Reflect",
      "Rest",
      "Rock Slide",
      "Thief",
      "Snore",
      "Protect",
      "Scary Face",
      "Charm",
      "Attract",
      "Rain Dance",
      "Sunny Day",
      "Facade",
      "Swift",
      "Helping Hand",
      "Brick Break",
      "Fake Tears",
      "Rock Tomb",
      "Payback",
      "Fling",
      "Thunder Fang",
      "Ice Fang",
      "Fire Fang",
      "Round",
      "Retaliate",
      "Bulldoze",
      "Snarl",
      "Stomping Tantrum",
      "Body Slam",
      "Flamethrower",
      "Low Kick",
      "Thunderbolt",
      "Thunder",
      "Earthquake",
      "Metronome",
      "Fire Blast",
      "Substitute",
      "Sludge Bomb",
      "Outrage",
      "Endure",
      "Sleep Talk",
      "Iron Tail",
      "Crunch",
      "Shadow Ball",
      "Taunt",
      "Superpower",
      "Hyper Voice",
      "Overheat",
      "Bulk Up",
      "Close Combat",
      "Focus Blast",
      "Stone Edge",
      "Work Up",
      "Wild Charge",
      "Play Rough",
      "Dazzling Gleam",
      "Psychic Fangs"
    ],
    "tutorMoves": {
      "Regular": [
        "Focus Punch",
        "Last Resort",
        "Snore",
        "Super Fang",
        "Stomping Tantrum",
        "Outrage",
        "Iron Tail",
        "Water Pulse",
        "Low Kick",
        "Heal Bell",
        "Superpower",
        "Covet",
        "Shock Wave",
        "Thunder Punch",
        "Fire Punch",
        "Hyper Voice",
        "Ice Punch"
      ],
      "Transfer": [
        "Detect",
        "Natural Gift",
        "Confide",
        "Incinerate",
        "Leer",
        "Hidden Power",
        "Power-Up Punch",
        "Double Team",
        "Seismic Toss",
        "Dynamic Punch",
        "Swagger",
        "Defense Curl",
        "Captivate",
        "Torment",
        "Frustration",
        "Rock Smash",
        "Secret Power",
        "Counter",
        "Curse",
        "Take Down",
        "Mud-Slap",
        "Toxic",
        "Rock Climb",
        "Return",
        "Strength",
        "Zap Cannon"
      ]
    }
  }
}