{
  "pixelmonName": "Graveler",
  "spDef": 45,
  "spAtt": 45,
  "speed": 35,
  "defence": 115,
  "attack": 95,
  "hp": 55,
  "catchRate": 120,
  "malePercent": 50,
  "nationalPokedexNumber": 75,
  "spawnLevel": 25,
  "spawnLevelRange": 11,
  "baseExp": 134,
  "baseFriendship": 70,
  "rarity": {
    "day": 50,
    "dawndusk": 50,
    "night": 50
  },
  "type1": "Rock",
  "type2": "Electric",
  "height": 0.99,
  "width": 1.0,
  "length": 1.0,
  "giScale": 1.0,
  "canFly": false,
  "isRideable": false,
  "preEvolutions": [
    "Geodude"
  ],
  "experienceGroup": "MediumSlow",
  "aggression": {
    "timid": 80,
    "passive": 0,
    "aggressive": 20
  },
  "spawnLocations": [
    "Land"
  ],
  "biomeIDs": [
    2,
    3,
    17,
    3,
    34,
    37,
    38,
    39,
    130,
    131,
    162,
    165,
    166,
    167
  ],
  "evGain": {
    "HP": 0,
    "Attack": 0,
    "Defence": 2,
    "SpecialAttack": 0,
    "SpecialDefence": 0,
    "Speed": 0
  },
  "canSurf": false,
  "maxGroupSize": 1,
  "minGroupSize": 1,
  "hoverHeight": 0.0,
  "doesHover": false,
  "id": 874,
  "baseFormID": 219,
  "weight": 110.0,
  "pokemon": "Graveler",
  "abilities": [
    "MagnetPull",
    "Sturdy",
    "Galvanize"
  ],
  "eggGroups": [
    "Mineral"
  ],
  "eggCycles": 15,
  "form": 3,
  "evolutionDefs": [
    {
      "targetId": 875,
      "formTo": 3,
      "evolveCondition": "Trade:Golem"
    }
  ],
  "moves": {
    "levelMoves": {
      "1": [
        "Tackle",
        "Thunder Shock",
        "Bide",
        "Charge",
        "Defense Curl",
        "Rock Polish"
      ],
      "34": [
        "Rock Blast"
      ],
      "3": [
        "Thunder Shock"
      ],
      "4": [
        "Charge"
      ],
      "6": [
        "Bide",
        "Rock Polish"
      ],
      "39": [
        "Double-Edge"
      ],
      "40": [
        "Discharge"
      ],
      "9": [
        "Rock Throw"
      ],
      "10": [
        "Rollout"
      ],
      "12": [
        "Stealth Rock",
        "Spark"
      ],
      "44": [
        "Explosion"
      ],
      "15": [
        "Take Down"
      ],
      "47": [
        "Explosion"
      ],
      "16": [
        "Rock Throw"
      ],
      "18": [
        "Smack Down"
      ],
      "50": [
        "Double-Edge"
      ],
      "19": [
        "Self-Destruct"
      ],
      "22": [
        "Thunder Punch"
      ],
      "54": [
        "Stone Edge"
      ],
      "23": [
        "Rock Slide"
      ],
      "24": [
        "Self-Destruct"
      ],
      "30": [
        "Stealth Rock"
      ],
      "31": [
        "Thunder Punch"
      ]
    },
    "eggMoves": [
      "Flail",
      "Counter",
      "Wide Guard",
      "Curse",
      "Rock Climb",
      "Endure",
      "Magnet Rise",
      "Autotomize",
      "Block",
      "Screech"
    ],
    "evolutionMoves": [],
    "tmTRMoves": [
      "Mega Punch",
      "Fire Punch",
      "Thunder Punch",
      "Dig",
      "Screech",
      "Self-destruct",
      "Rest",
      "Rock Slide",
      "Snore",
      "Protect",
      "Attract",
      "Sandstorm",
      "Sunny Day",
      "Facade",
      "Swift",
      "Brick Break",
      "Rock Tomb",
      "Rock Blast",
      "Fling",
      "Round",
      "Volt Switch",
      "Bulldoze",
      "Electroweb",
      "Electric Terrain",
      "Brutal Swing",
      "Stomping Tantrum",
      "Body Slam",
      "Flamethrower",
      "Thunderbolt",
      "Thunder",
      "Earthquake",
      "Metronome",
      "Fire Blast",
      "Substitute",
      "Endure",
      "Sleep Talk",
      "Superpower",
      "Iron Defense",
      "Gyro Ball",
      "Earth Power",
      "Stone Edge",
      "Stealth Rock",
      "Ally Switch"
    ],
    "tutorMoves": {
      "Regular": [
        "Focus Punch",
        "Snore",
        "Magnet Rise",
        "Stomping Tantrum",
        "Stealth Rock",
        "Earth Power",
        "Block",
        "Iron Defense",
        "Superpower",
        "Shock Wave",
        "Thunder Punch",
        "Ally Switch",
        "Electroweb",
        "Fire Punch"
      ],
      "Transfer": [
        "Confide",
        "Thunder Wave",
        "Hidden Power",
        "Double Team",
        "Toxic",
        "Seismic Toss",
        "Headbutt",
        "Swagger",
        "Charge Beam",
        "Return",
        "Nature Power",
        "Frustration"
      ]
    }
  }
}