{
  "pixelmonName": "Grimmsnarl",
  "spDef": 75,
  "spAtt": 95,
  "speed": 60,
  "defence": 65,
  "attack": 120,
  "hp": 95,
  "catchRate": 45,
  "malePercent": 100,
  "nationalPokedexNumber": 861,
  "spawnLevel": 42,
  "spawnLevelRange": 20,
  "baseExp": 255,
  "baseFriendship": 50,
  "rarity": {
    "day": 1,
    "dawndusk": 0,
    "night": 0
  },
  "type1": "Dark",
  "type2": "Fairy",
  "height": 2.0,
  "width": 1.0,
  "length": 1.0,
  "giScale": 1.0,
  "canFly": false,
  "isRideable": false,
  "preEvolutions": [
    "Impidimp",
    "Morgrem"
  ],
  "experienceGroup": "MediumFast",
  "aggression": {
    "timid": 80,
    "passive": 0,
    "aggressive": 20
  },
  "spawnLocations": [
    "Land"
  ],
  "biomeIDs": [
    21
  ],
  "evGain": {
    "HP": 0,
    "Attack": 3,
    "Defence": 0,
    "SpecialAttack": 0,
    "SpecialDefence": 0,
    "Speed": 0
  },
  "canSurf": false,
  "maxGroupSize": 1,
  "minGroupSize": 1,
  "hoverHeight": 0.0,
  "doesHover": false,
  "id": 1085,
  "baseFormID": 1085,
  "weight": 61.0,
  "pokemon": "Grimmsnarl",
  "abilities": [
    "Prankster",
    "Frisk",
    "Pickpocket"
  ],
  "eggGroups": [
    "Fairy",
    "Humanlike"
  ],
  "eggCycles": 6,
  "form": -1,
  "evolutionDefs": [],
  "moves": {
    "levelMoves": {
      "16": [
        "Assurance"
      ],
      "48": [
        "Play Rough"
      ],
      "64": [
        "Hammer Arm"
      ],
      "1": [
        "Spirit Break",
        "Power-Up Punch",
        "Flatter",
        "Bite",
        "Fake Out",
        "False Surrender",
        "Bulk Up",
        "Confide"
      ],
      "35": [
        "Dark Pulse"
      ],
      "20": [
        "Swagger"
      ],
      "24": [
        "Sucker Punch"
      ],
      "40": [
        "Nasty Plot"
      ],
      "56": [
        "Foul Play"
      ],
      "12": [
        "Fake Tears"
      ],
      "28": [
        "Torment"
      ]
    },
    "eggMoves": [
      "Lash Out",
      "Burning Jealousy"
    ],
    "evolutionMoves": [
      "Spirit Break"
    ],
    "tmTRMoves": [
      "Assurance",
      "Uproar",
      "Taunt",
      "Play Rough",
      "Dazzling Gleam",
      "Metronome",
      "Leech Life",
      "Light Screen",
      "Revenge",
      "Throat Chop",
      "Wonder Room",
      "Nasty Plot",
      "Body Slam",
      "Substitute",
      "Power Swap",
      "Attract",
      "Thunder Wave",
      "Crunch",
      "Drain Punch",
      "Mega Punch",
      "Fake Tears",
      "Power Whip",
      "Darkest Lariat",
      "Endure",
      "Thunder Punch",
      "Low Sweep",
      "Draining Kiss",
      "Fire Punch",
      "Ice Punch",
      "Snore",
      "Facade",
      "Focus Energy",
      "Dark Pulse",
      "Retaliate",
      "Stomping Tantrum",
      "Bulk Up",
      "Mega Kick",
      "Rest",
      "Scary Face",
      "Round",
      "Superpower",
      "Brick Break",
      "Giga Impact",
      "Body Press",
      "Protect",
      "Thief",
      "Trick",
      "Hyper Beam",
      "Focus Blast",
      "Foul Play",
      "Reflect",
      "Low Kick",
      "Sleep Talk",
      "Shadow Claw"
    ],
    "tutorMoves": {
      "Regular": [
        "Lash Out",
        "Burning Jealousy"
      ]
    }
  }
}