{
  "pixelmonName": "Grumpig",
  "spDef": 110,
  "spAtt": 90,
  "speed": 80,
  "defence": 65,
  "attack": 45,
  "hp": 80,
  "catchRate": 60,
  "malePercent": 50,
  "nationalPokedexNumber": 326,
  "spawnLevel": 35,
  "spawnLevelRange": 15,
  "baseExp": 164,
  "baseFriendship": 70,
  "rarity": {
    "day": 0,
    "dawndusk": 0,
    "night": 0
  },
  "type1": "Psychic",
  "height": 0.9,
  "width": 0.7,
  "length": 0.7,
  "giScale": 1.0,
  "canFly": false,
  "isRideable": false,
  "preEvolutions": [
    "Spoink"
  ],
  "experienceGroup": "Fast",
  "aggression": {
    "timid": 80,
    "passive": 0,
    "aggressive": 20
  },
  "spawnLocations": [
    "Land"
  ],
  "biomeIDs": [
    3,
    3,
    34,
    131,
    162
  ],
  "evGain": {
    "HP": 0,
    "Attack": 0,
    "Defence": 0,
    "SpecialAttack": 0,
    "SpecialDefence": 2,
    "Speed": 0
  },
  "canSurf": false,
  "maxGroupSize": 1,
  "minGroupSize": 1,
  "hoverHeight": 0.0,
  "doesHover": false,
  "id": 430,
  "baseFormID": 430,
  "weight": 71.5,
  "pokemon": "Grumpig",
  "abilities": [
    "ThickFat",
    "OwnTempo",
    "Gluttony"
  ],
  "eggGroups": [
    "Field"
  ],
  "eggCycles": 21,
  "form": -1,
  "evolutionDefs": [],
  "moves": {
    "levelMoves": {
      "1": [
        "Psybeam",
        "Teeter Dance",
        "Odor Sleuth",
        "Splash",
        "Belch",
        "Psywave"
      ],
      "35": [
        "Rest",
        "Snore"
      ],
      "7": [
        "Psywave"
      ],
      "10": [
        "Odor Sleuth"
      ],
      "42": [
        "Psyshock"
      ],
      "14": [
        "Psybeam"
      ],
      "46": [
        "Payback"
      ],
      "15": [
        "Psych Up"
      ],
      "18": [
        "Confuse Ray"
      ],
      "52": [
        "Psychic"
      ],
      "21": [
        "Magic Coat"
      ],
      "26": [
        "Zen Headbutt"
      ],
      "60": [
        "Bounce"
      ],
      "29": [
        "Power Gem"
      ]
    },
    "eggMoves": [
      "Future Sight",
      "Lucky Chant",
      "Simple Beam",
      "Endure",
      "Trick",
      "Whirlwind",
      "Mirror Coat",
      "Zen Headbutt",
      "Amnesia",
      "Extrasensory",
      "Skill Swap"
    ],
    "evolutionMoves": [
      "Teeter Dance"
    ],
    "tmTRMoves": [
      "Mega Punch",
      "Mega Kick",
      "Fire Punch",
      "Ice Punch",
      "Thunder Punch",
      "Hyper Beam",
      "Giga Impact",
      "Thunder Wave",
      "Light Screen",
      "Reflect",
      "Rest",
      "Thief",
      "Snore",
      "Protect",
      "Icy Wind",
      "Attract",
      "Rain Dance",
      "Sunny Day",
      "Facade",
      "Swift",
      "Brick Break",
      "Bounce",
      "Payback",
      "Fling",
      "Drain Punch",
      "Trick Room",
      "Round",
      "Bulldoze",
      "Body Slam",
      "Psychic",
      "Amnesia",
      "Substitute",
      "Psyshock",
      "Endure",
      "Sleep Talk",
      "Iron Tail",
      "Shadow Ball",
      "Future Sight",
      "Uproar",
      "Taunt",
      "Trick",
      "Skill Swap",
      "Calm Mind",
      "Power Gem",
      "Focus Blast",
      "Energy Ball",
      "Nasty Plot",
      "Zen Headbutt",
      "Grass Knot",
      "Ally Switch"
    ],
    "tutorMoves": {
      "Regular": [
        "Focus Punch",
        "Telekinesis",
        "Drain Punch",
        "Snore",
        "Trick",
        "Icy Wind",
        "Magic Coat",
        "Snatch",
        "Role Play",
        "Iron Tail",
        "Recycle",
        "Bounce",
        "Zen Headbutt",
        "Heal Bell",
        "Covet",
        "Shock Wave",
        "Thunder Punch",
        "Ally Switch",
        "Laser Focus",
        "Signal Beam",
        "Skill Swap",
        "Fire Punch",
        "Ice Punch"
      ],
      "Transfer": [
        "Secret Power",
        "Dream Eater",
        "Natural Gift",
        "Confide",
        "Counter",
        "Double-Edge",
        "Hidden Power",
        "Power-Up Punch",
        "Double Team",
        "Mud-Slap",
        "Toxic",
        "Seismic Toss",
        "Headbutt",
        "Dynamic Punch",
        "Swagger",
        "Charge Beam",
        "Flash",
        "Return",
        "Mimic",
        "Captivate",
        "Torment",
        "Frustration"
      ]
    }
  }
}