{
  "pixelmonName": "Hariyama",
  "spDef": 60,
  "spAtt": 40,
  "speed": 50,
  "defence": 60,
  "attack": 120,
  "hp": 144,
  "catchRate": 200,
  "malePercent": 75,
  "nationalPokedexNumber": 297,
  "spawnLevel": 20,
  "spawnLevelRange": 20,
  "baseExp": 184,
  "baseFriendship": 70,
  "rarity": {
    "day": 0,
    "dawndusk": 0,
    "night": 60
  },
  "type1": "Fighting",
  "height": 2.3,
  "width": 1.4,
  "length": 1.0,
  "giScale": 1.0,
  "canFly": false,
  "isRideable": false,
  "preEvolutions": [
    "Makuhita"
  ],
  "experienceGroup": "Fluctuating",
  "aggression": {
    "timid": 80,
    "passive": 0,
    "aggressive": 20
  },
  "spawnLocations": [
    "Land"
  ],
  "biomeIDs": [
    3,
    3,
    34,
    131,
    162
  ],
  "evGain": {
    "HP": 2,
    "Attack": 0,
    "Defence": 0,
    "SpecialAttack": 0,
    "SpecialDefence": 0,
    "Speed": 0
  },
  "canSurf": false,
  "maxGroupSize": 1,
  "minGroupSize": 1,
  "hoverHeight": 0.0,
  "doesHover": false,
  "id": 403,
  "baseFormID": 403,
  "weight": 253.8,
  "pokemon": "Hariyama",
  "abilities": [
    "ThickFat",
    "Guts",
    "SheerForce"
  ],
  "eggGroups": [
    "Humanlike"
  ],
  "eggCycles": 21,
  "form": -1,
  "evolutionDefs": [],
  "moves": {
    "levelMoves": {
      "1": [
        "Arm Thrust",
        "Tackle",
        "Focus Energy",
        "Sand Attack",
        "Brine"
      ],
      "34": [
        "Seismic Toss"
      ],
      "4": [
        "Sand Attack"
      ],
      "38": [
        "Wake-Up Slap"
      ],
      "7": [
        "Arm Thrust"
      ],
      "10": [
        "Fake Out"
      ],
      "42": [
        "Endure"
      ],
      "13": [
        "Force Palm"
      ],
      "46": [
        "Close Combat"
      ],
      "16": [
        "Whirlwind"
      ],
      "50": [
        "Reversal"
      ],
      "19": [
        "Knock Off"
      ],
      "22": [
        "Vital Throw"
      ],
      "54": [
        "Heavy Slam"
      ],
      "26": [
        "Belly Drum"
      ],
      "30": [
        "Smelling Salts"
      ]
    },
    "eggMoves": [
      "Helping Hand",
      "Focus Punch",
      "Cross Chop",
      "Detect",
      "Revenge",
      "Wake-Up Slap",
      "Chip Away",
      "Faint Attack",
      "Counter",
      "Dynamic Punch",
      "Wide Guard",
      "Feint",
      "Bullet Punch",
      "Foresight"
    ],
    "evolutionMoves": [],
    "tmTRMoves": [
      "Mega Punch",
      "Mega Kick",
      "Fire Punch",
      "Ice Punch",
      "Thunder Punch",
      "Hyper Beam",
      "Giga Impact",
      "Dig",
      "Rest",
      "Rock Slide",
      "Snore",
      "Protect",
      "Attract",
      "Rain Dance",
      "Sunny Day",
      "Whirlpool",
      "Facade",
      "Swift",
      "Helping Hand",
      "Revenge",
      "Brick Break",
      "Rock Tomb",
      "Brine",
      "Payback",
      "Assurance",
      "Fling",
      "Low Sweep",
      "Round",
      "Retaliate",
      "Bulldoze",
      "Stomping Tantrum",
      "Body Slam",
      "Surf",
      "Low Kick",
      "Earthquake",
      "Focus Energy",
      "Metronome",
      "Substitute",
      "Reversal",
      "Endure",
      "Sleep Talk",
      "Superpower",
      "Bulk Up",
      "Close Combat",
      "Poison Jab",
      "Focus Blast",
      "Iron Head",
      "Stone Edge",
      "Heavy Slam",
      "Work Up",
      "Heat Crash",
      "High Horsepower",
      "Throat Chop",
      "Body Press"
    ],
    "tutorMoves": {
      "Regular": [
        "Helping Hand",
        "Focus Punch",
        "Snore",
        "Knock Off",
        "Stomping Tantrum",
        "Throat Chop",
        "Iron Head",
        "Role Play",
        "Low Kick",
        "Superpower",
        "Thunder Punch",
        "Fire Punch",
        "Ice Punch"
      ],
      "Transfer": [
        "Natural Gift",
        "Confide",
        "Double-Edge",
        "Hidden Power",
        "Power-Up Punch",
        "Double Team",
        "Headbutt",
        "Swagger",
        "Mimic",
        "Captivate",
        "Frustration",
        "Rock Smash",
        "Secret Power",
        "Vacuum Wave",
        "Smack Down",
        "Mud-Slap",
        "Toxic",
        "Rock Climb",
        "Return",
        "Strength"
      ]
    }
  }
}