{
  "pixelmonName": "Helioptile",
  "spDef": 43,
  "spAtt": 61,
  "speed": 70,
  "defence": 33,
  "attack": 38,
  "hp": 44,
  "catchRate": 190,
  "malePercent": 50,
  "nationalPokedexNumber": 694,
  "spawnLevel": 20,
  "spawnLevelRange": 20,
  "baseExp": 58,
  "baseFriendship": 0,
  "rarity": {
    "day": 0,
    "dawndusk": 0,
    "night": 30
  },
  "type1": "Electric",
  "type2": "Normal",
  "height": 0.5,
  "width": 0.5,
  "length": 0.5,
  "giScale": 1.0,
  "canFly": false,
  "isRideable": false,
  "preEvolutions": [],
  "experienceGroup": "MediumFast",
  "aggression": {
    "timid": 80,
    "passive": 0,
    "aggressive": 20
  },
  "spawnLocations": [
    "Land"
  ],
  "biomeIDs": [
    2,
    2,
    17,
    130
  ],
  "evGain": {
    "HP": 0,
    "Attack": 0,
    "Defence": 0,
    "SpecialAttack": 0,
    "SpecialDefence": 0,
    "Speed": 1
  },
  "canSurf": false,
  "maxGroupSize": 1,
  "minGroupSize": 1,
  "hoverHeight": 0.0,
  "doesHover": false,
  "id": 763,
  "baseFormID": 763,
  "weight": 6.0,
  "pokemon": "Helioptile",
  "abilities": [
    "DrySkin",
    "SandVeil",
    "SolarPower"
  ],
  "eggGroups": [
    "Monster",
    "Dragon"
  ],
  "eggCycles": 21,
  "form": -1,
  "evolutionDefs": [
    {
      "targetId": 762,
      "evolveCondition": "Sunstone:Heliolisk"
    }
  ],
  "moves": {
    "levelMoves": {
      "16": [
        "Charge"
      ],
      "32": [
        "Thunder Wave"
      ],
      "1": [
        "Mud-Slap",
        "Tail Whip"
      ],
      "4": [
        "Pound"
      ],
      "20": [
        "Bulldoze"
      ],
      "36": [
        "Thunderbolt"
      ],
      "8": [
        "Thunder Shock"
      ],
      "24": [
        "Volt Switch"
      ],
      "40": [
        "Electrify"
      ],
      "12": [
        "Quick Attack"
      ],
      "28": [
        "Parabolic Charge"
      ],
      "44": [
        "Thunder"
      ]
    },
    "eggMoves": [
      "Dragon Tail",
      "Glare",
      "Dragon Rush"
    ],
    "evolutionMoves": [],
    "tmTRMoves": [
      "Snore",
      "Facade",
      "Dark Pulse",
      "Light Screen",
      "Volt Switch",
      "Grass Knot",
      "U-turn",
      "Surf",
      "Rest",
      "Iron Tail",
      "Rock Slide",
      "Agility",
      "Round",
      "Sandstorm",
      "Bulldoze",
      "Substitute",
      "Attract",
      "Electroweb",
      "Ally Switch",
      "Thunder Wave",
      "Protect",
      "Dig",
      "Rain Dance",
      "Thunder",
      "Wild Charge",
      "Electric Terrain",
      "Rock Tomb",
      "Endure",
      "Sleep Talk",
      "Swift",
      "Electro Ball",
      "Thunderbolt",
      "Low Sweep"
    ],
    "tutorMoves": {
      "Regular": [
        "Rising Voltage",
        "Scale Shot"
      ],
      "Transfer": [
        "Secret Power",
        "Psych Up",
        "Confide",
        "Camouflage",
        "Cut",
        "Hidden Power",
        "Magnet Rise",
        "Double Team",
        "Shock Wave",
        "Toxic",
        "Razor Wind",
        "Swagger",
        "Charge Beam",
        "Flash",
        "Signal Beam",
        "Return",
        "Frustration"
      ]
    }
  }
}