{
  "pixelmonName": "Hitmontop",
  "spDef": 110,
  "spAtt": 35,
  "speed": 70,
  "defence": 95,
  "attack": 95,
  "hp": 50,
  "catchRate": 45,
  "malePercent": 100,
  "nationalPokedexNumber": 237,
  "spawnLevel": 20,
  "spawnLevelRange": 20,
  "baseExp": 138,
  "baseFriendship": 70,
  "rarity": {
    "day": 0,
    "dawndusk": 45,
    "night": 0
  },
  "type1": "Fighting",
  "height": 1.4,
  "width": 1.0,
  "length": 1.0,
  "giScale": 1.0,
  "canFly": false,
  "isRideable": false,
  "preEvolutions": [
    "Tyrogue"
  ],
  "experienceGroup": "MediumFast",
  "aggression": {
    "timid": 80,
    "passive": 0,
    "aggressive": 20
  },
  "spawnLocations": [
    "Land"
  ],
  "biomeIDs": [
    3,
    3,
    34,
    131,
    162
  ],
  "evGain": {
    "HP": 0,
    "Attack": 0,
    "Defence": 0,
    "SpecialAttack": 0,
    "SpecialDefence": 2,
    "Speed": 0
  },
  "canSurf": false,
  "maxGroupSize": 2,
  "minGroupSize": 1,
  "hoverHeight": 0.0,
  "doesHover": false,
  "id": 349,
  "baseFormID": 349,
  "weight": 48.0,
  "pokemon": "Hitmontop",
  "abilities": [
    "Intimidate",
    "Technician",
    "Steadfast"
  ],
  "eggGroups": [
    "Humanlike"
  ],
  "eggCycles": 26,
  "form": -1,
  "evolutionDefs": [],
  "moves": {
    "levelMoves": {
      "16": [
        "Revenge"
      ],
      "32": [
        "Dig"
      ],
      "1": [
        "Helping Hand",
        "Tackle",
        "Rapid Spin",
        "Focus Energy",
        "Fake Out",
        "Feint",
        "Triple Kick"
      ],
      "4": [
        "Quick Attack"
      ],
      "36": [
        "Close Combat"
      ],
      "21": [
        "Wide Guard",
        "Quick Guard"
      ],
      "8": [
        "Gyro Ball"
      ],
      "24": [
        "Sucker Punch"
      ],
      "40": [
        "Counter"
      ],
      "12": [
        "Detect"
      ],
      "28": [
        "Agility"
      ],
      "44": [
        "Endeavor"
      ]
    },
    "eggMoves": [
      "Counter",
      "Rapid Spin",
      "Hi Jump Kick",
      "Feint",
      "Mind Reader",
      "Vacuum Wave",
      "Mach Punch",
      "Bullet Punch"
    ],
    "evolutionMoves": [
      "Triple Kick"
    ],
    "tmTRMoves": [
      "Snore",
      "Facade",
      "Uproar",
      "Focus Energy",
      "Stone Edge",
      "Retaliate",
      "Revenge",
      "Bulk Up",
      "Close Combat",
      "Mega Kick",
      "Rest",
      "Earthquake",
      "Work Up",
      "Rock Slide",
      "Agility",
      "Round",
      "Body Slam",
      "Sandstorm",
      "Bulldoze",
      "Substitute",
      "Brick Break",
      "Attract",
      "Helping Hand",
      "Protect",
      "Dig",
      "Rain Dance",
      "Mega Punch",
      "Thief",
      "Sunny Day",
      "Drill Run",
      "Gyro Ball",
      "Focus Blast",
      "Brutal Swing",
      "Low Kick",
      "Endure",
      "Sleep Talk",
      "Swift",
      "Low Sweep"
    ],
    "tutorMoves": {
      "Regular": [
        "Triple Axel",
        "Coaching"
      ],
      "Transfer": [
        "Rock Smash",
        "Secret Power",
        "Natural Gift",
        "Confide",
        "Curse",
        "Double-Edge",
        "Hidden Power",
        "Double Team",
        "Mud-Slap",
        "Toxic",
        "Aerial Ace",
        "Seismic Toss",
        "Headbutt",
        "Swagger",
        "Rolling Kick",
        "Rollout",
        "Ally Switch",
        "Return",
        "Mimic",
        "Captivate",
        "Pursuit",
        "Twister",
        "Role Play",
        "Covet",
        "Strength",
        "Frustration",
        "Laser Focus"
      ]
    }
  }
}