{
  "pixelmonName": "Hitmonchan",
  "spDef": 110,
  "spAtt": 35,
  "speed": 76,
  "defence": 79,
  "attack": 105,
  "hp": 50,
  "catchRate": 45,
  "malePercent": 100,
  "nationalPokedexNumber": 107,
  "spawnLevel": 25,
  "spawnLevelRange": 25,
  "baseExp": 140,
  "baseFriendship": 70,
  "rarity": {
    "day": 0,
    "dawndusk": 0,
    "night": 15
  },
  "type1": "Fighting",
  "height": 1.4,
  "width": 1.0,
  "length": 1.0,
  "giScale": 0.75,
  "canFly": false,
  "isRideable": false,
  "preEvolutions": [
    "Tyrogue"
  ],
  "experienceGroup": "MediumFast",
  "aggression": {
    "timid": 80,
    "passive": 0,
    "aggressive": 20
  },
  "spawnLocations": [
    "Land"
  ],
  "biomeIDs": [
    3,
    3,
    34,
    131,
    162
  ],
  "evGain": {
    "HP": 0,
    "Attack": 0,
    "Defence": 0,
    "SpecialAttack": 0,
    "SpecialDefence": 2,
    "Speed": 0
  },
  "canSurf": false,
  "maxGroupSize": 1,
  "minGroupSize": 1,
  "hoverHeight": 0.0,
  "doesHover": false,
  "id": 82,
  "baseFormID": 82,
  "weight": 50.2,
  "pokemon": "Hitmonchan",
  "abilities": [
    "KeenEye",
    "IronFist",
    "InnerFocus"
  ],
  "eggGroups": [
    "Humanlike"
  ],
  "eggCycles": 26,
  "form": -1,
  "evolutionDefs": [],
  "moves": {
    "levelMoves": {
      "16": [
        "Revenge"
      ],
      "32": [
        "Mega Punch"
      ],
      "1": [
        "Helping Hand",
        "Drain Punch",
        "Tackle",
        "Focus Energy",
        "Fake Out",
        "Feint",
        "Vacuum Wave",
        "Bullet Punch"
      ],
      "4": [
        "Mach Punch"
      ],
      "36": [
        "Close Combat"
      ],
      "21": [
        "Quick Guard"
      ],
      "8": [
        "Power-Up Punch"
      ],
      "24": [
        "Thunder Punch",
        "Fire Punch",
        "Ice Punch"
      ],
      "40": [
        "Counter"
      ],
      "12": [
        "Detect"
      ],
      "28": [
        "Agility"
      ],
      "44": [
        "Focus Punch"
      ]
    },
    "eggMoves": [
      "Counter",
      "Rapid Spin",
      "Hi Jump Kick",
      "Feint",
      "Mind Reader",
      "Vacuum Wave",
      "Mach Punch",
      "Bullet Punch"
    ],
    "evolutionMoves": [
      "Drain Punch"
    ],
    "tmTRMoves": [
      "Snore",
      "Facade",
      "Uproar",
      "Focus Energy",
      "Metronome",
      "Stone Edge",
      "Retaliate",
      "Revenge",
      "Bulk Up",
      "Throat Chop",
      "Close Combat",
      "Mega Kick",
      "Rest",
      "Earthquake",
      "Work Up",
      "Rock Slide",
      "Agility",
      "Aura Sphere",
      "Round",
      "Body Slam",
      "Bulldoze",
      "Substitute",
      "Brick Break",
      "Attract",
      "Helping Hand",
      "Protect",
      "Drain Punch",
      "Rain Dance",
      "Mega Punch",
      "Thief",
      "Sunny Day",
      "Focus Blast",
      "Fling",
      "Rock Tomb",
      "Low Kick",
      "Endure",
      "Sleep Talk",
      "Swift",
      "Thunder Punch",
      "Low Sweep",
      "Fire Punch",
      "Ice Punch"
    ],
    "tutorMoves": {
      "Regular": [
        "Coaching"
      ],
      "Transfer": [
        "Rock Smash",
        "Comet Punch",
        "Secret Power",
        "Natural Gift",
        "Confide",
        "Curse",
        "Double-Edge",
        "Leer",
        "Take Down",
        "Hidden Power",
        "Dizzy Punch",
        "Bide",
        "Double Team",
        "Mud-Slap",
        "Toxic",
        "Rock Climb",
        "Seismic Toss",
        "Rage",
        "Headbutt",
        "Dynamic Punch",
        "Skull Bash",
        "Swagger",
        "Ally Switch",
        "Return",
        "Submission",
        "Mimic",
        "Captivate",
        "Sky Uppercut",
        "Pursuit",
        "Role Play",
        "Covet",
        "Strength",
        "Frustration",
        "Laser Focus"
      ]
    }
  }
}