{
  "pixelmonName": "Ho-Oh",
  "spDef": 154,
  "spAtt": 110,
  "speed": 90,
  "defence": 90,
  "attack": 130,
  "hp": 106,
  "catchRate": 3,
  "malePercent": -1,
  "nationalPokedexNumber": 250,
  "spawnLevel": 70,
  "spawnLevelRange": 0,
  "baseExp": 220,
  "baseFriendship": 0,
  "rarity": {
    "day": -1,
    "dawndusk": 0,
    "night": 0
  },
  "type1": "Fire",
  "type2": "Flying",
  "height": 3.8,
  "width": 1.0,
  "length": 1.0,
  "giScale": 1.0,
  "canFly": true,
  "isRideable": true,
  "preEvolutions": [],
  "experienceGroup": "Slow",
  "aggression": {
    "timid": 80,
    "passive": 0,
    "aggressive": 20
  },
  "flyingParameters": {
    "flyHeightMin": 30,
    "flyHeightMax": 50,
    "flySpeedModifier": 1.0,
    "flyRefreshRateY": 100,
    "flyRefreshRateXZ": 400,
    "flyRefreshRateSpeed": 400,
    "flightTimeMin": 0,
    "flightTimeMax": 20,
    "flapRate": 5,
    "landingMaterial": "GrassAndLeaves"
  },
  "spawnLocations": [
    "AirPersistent"
  ],
  "biomeIDs": [
    165,
    130
  ],
  "evGain": {
    "HP": 0,
    "Attack": 0,
    "Defence": 0,
    "SpecialAttack": 0,
    "SpecialDefence": 3,
    "Speed": 0
  },
  "canSurf": false,
  "ridingOffsets": {
    "standing": {
      "x": 0.0,
      "y": -2.7,
      "z": -0.55
    },
    "moving": {
      "x": 0.0,
      "y": -3.3,
      "z": 0.6
    }
  },
  "maxGroupSize": 1,
  "minGroupSize": 1,
  "hoverHeight": 0.0,
  "doesHover": false,
  "id": 360,
  "baseFormID": 360,
  "weight": 199.0,
  "pokemon": "Hooh",
  "abilities": [
    "Pressure",
    null,
    "Regenerator"
  ],
  "eggGroups": [
    "Undiscovered"
  ],
  "eggCycles": 121,
  "form": -1,
  "evolutionDefs": [],
  "moves": {
    "levelMoves": {
      "1": [
        "Weather Ball",
        "Whirlwind",
        "Ancient Power",
        "Gust"
      ],
      "81": [
        "Future Sight"
      ],
      "18": [
        "Safeguard"
      ],
      "99": [
        "Burn Up"
      ],
      "36": [
        "Extrasensory"
      ],
      "54": [
        "Sacred Fire"
      ],
      "72": [
        "Fire Blast"
      ],
      "9": [
        "Life Dew"
      ],
      "90": [
        "Sky Attack"
      ],
      "27": [
        "Calm Mind"
      ],
      "45": [
        "Recover"
      ],
      "63": [
        "Sunny Day"
      ]
    },
    "eggMoves": [
      "Scorching Sands",
      "Dual Wingbeat"
    ],
    "evolutionMoves": [],
    "tmTRMoves": [
      "Giga Drain",
      "Weather Ball",
      "Snore",
      "Facade",
      "Flamethrower",
      "Air Slash",
      "Light Screen",
      "Overheat",
      "Solar Beam",
      "Brave Bird",
      "Iron Head",
      "Fly",
      "Rest",
      "Earthquake",
      "Earth Power",
      "Round",
      "Shadow Ball",
      "Heat Wave",
      "Sandstorm",
      "Bulldoze",
      "Imprison",
      "Substitute",
      "Giga Impact",
      "Thunder Wave",
      "Hyper Voice",
      "Helping Hand",
      "Future Sight",
      "Safeguard",
      "Protect",
      "Rain Dance",
      "Thunder",
      "Hyper Beam",
      "Sunny Day",
      "Will-O-Wisp",
      "Flare Blitz",
      "Calm Mind",
      "Mystical Fire",
      "Psychic",
      "Reflect",
      "Steel Wing",
      "Endure",
      "Sleep Talk",
      "Fire Spin",
      "Swift",
      "Zen Headbutt",
      "Thunderbolt",
      "Fire Blast"
    ],
    "tutorMoves": {
      "Regular": [
        "Scorching Sands",
        "Dual Wingbeat"
      ],
      "Transfer": [
        "Ominous Wind",
        "Dream Eater",
        "Detect",
        "Tailwind",
        "Natural Gift",
        "Confide",
        "Incinerate",
        "Double-Edge",
        "Roost",
        "Hidden Power",
        "Double Team",
        "Shock Wave",
        "Punishment",
        "Sky Drop",
        "Swagger",
        "Charge Beam",
        "Nightmare",
        "Flame Charge",
        "Dragon Breath",
        "Mimic",
        "Roar",
        "Twister",
        "Frustration",
        "Laser Focus",
        "Rock Smash",
        "Secret Power",
        "Psych Up",
        "Defog",
        "Curse",
        "Pluck",
        "Echoed Voice",
        "Air Cutter",
        "Mud-Slap",
        "Toxic",
        "Aerial Ace",
        "Flash",
        "Signal Beam",
        "Return",
        "Strength",
        "Zap Cannon"
      ],
      "Event": [
        "Celebrate"
      ]
    }
  }
}