{
  "pixelmonName": "Honchkrow",
  "spDef": 52,
  "spAtt": 105,
  "speed": 71,
  "defence": 52,
  "attack": 125,
  "hp": 100,
  "catchRate": 30,
  "malePercent": 50,
  "nationalPokedexNumber": 430,
  "spawnLevel": 30,
  "spawnLevelRange": 30,
  "baseExp": 187,
  "baseFriendship": 35,
  "rarity": {
    "day": 0,
    "dawndusk": 0,
    "night": 0
  },
  "type1": "Dark",
  "type2": "Flying",
  "height": 0.9,
  "width": 0.7,
  "length": 0.7,
  "giScale": 1.0,
  "canFly": true,
  "isRideable": true,
  "preEvolutions": [
    "Murkrow"
  ],
  "experienceGroup": "MediumSlow",
  "aggression": {
    "timid": 80,
    "passive": 0,
    "aggressive": 20
  },
  "flyingParameters": {
    "flyHeightMin": 10,
    "flyHeightMax": 30,
    "flySpeedModifier": 1.0,
    "flyRefreshRateY": 80,
    "flyRefreshRateXZ": 100,
    "flyRefreshRateSpeed": 100,
    "flightTimeMin": 0,
    "flightTimeMax": 20,
    "flapRate": 5,
    "landingMaterial": "GrassAndLeaves"
  },
  "spawnLocations": [
    "AirPersistent"
  ],
  "biomeIDs": [],
  "evGain": {
    "HP": 0,
    "Attack": 2,
    "Defence": 0,
    "SpecialAttack": 0,
    "SpecialDefence": 0,
    "Speed": 0
  },
  "canSurf": false,
  "ridingOffsets": {
    "standing": {
      "x": 0.0,
      "y": -0.3,
      "z": 0.1
    },
    "moving": {
      "x": 0.0,
      "y": -0.8,
      "z": 0.0
    }
  },
  "maxGroupSize": 1,
  "minGroupSize": 1,
  "hoverHeight": 0.0,
  "doesHover": false,
  "id": 511,
  "baseFormID": 511,
  "weight": 27.3,
  "pokemon": "Honchkrow",
  "abilities": [
    "Insomnia",
    "SuperLuck",
    "Moxie"
  ],
  "eggGroups": [
    "Flying"
  ],
  "eggCycles": 21,
  "form": -1,
  "evolutionDefs": [],
  "moves": {
    "levelMoves": {
      "1": [
        "Sucker Punch",
        "Haze",
        "Astonish",
        "Night Slash",
        "Wing Attack",
        "Pursuit"
      ],
      "65": [
        "Quash"
      ],
      "35": [
        "Nasty Plot"
      ],
      "55": [
        "Night Slash"
      ],
      "25": [
        "Swagger"
      ],
      "75": [
        "Dark Pulse"
      ],
      "45": [
        "Foul Play"
      ]
    },
    "eggMoves": [
      "Punishment",
      "Perish Song",
      "Assurance",
      "Flatter",
      "Roost",
      "Sky Attack",
      "Whirlwind",
      "Confuse Ray",
      "Brave Bird",
      "Screech",
      "Drill Peck",
      "Psycho Shift",
      "Faint Attack",
      "Wing Attack",
      "Feather Dance",
      "Mirror Move"
    ],
    "evolutionMoves": [],
    "tmTRMoves": [
      "Fly",
      "Hyper Beam",
      "Giga Impact",
      "Thunder Wave",
      "Screech",
      "Rest",
      "Thief",
      "Snore",
      "Protect",
      "Scary Face",
      "Icy Wind",
      "Steel Wing",
      "Attract",
      "Rain Dance",
      "Sunny Day",
      "Beat Up",
      "Facade",
      "Revenge",
      "Payback",
      "Assurance",
      "Round",
      "Retaliate",
      "Snarl",
      "Air Slash",
      "Psychic",
      "Substitute",
      "Endure",
      "Sleep Talk",
      "Shadow Ball",
      "Uproar",
      "Heat Wave",
      "Taunt",
      "Superpower",
      "Calm Mind",
      "Dark Pulse",
      "Brave Bird",
      "Nasty Plot",
      "Foul Play",
      "Hurricane"
    ],
    "tutorMoves": {
      "Regular": [
        "Defog",
        "Foul Play",
        "Snore",
        "Uproar",
        "Sky Attack",
        "Heat Wave",
        "Spite",
        "Icy Wind",
        "Superpower",
        "Snatch",
        "Tailwind"
      ],
      "Transfer": [
        "Ominous Wind",
        "Secret Power",
        "Psych Up",
        "Dream Eater",
        "Natural Gift",
        "Confide",
        "Incinerate",
        "Pluck",
        "Hidden Power",
        "Air Cutter",
        "Double Team",
        "Swift",
        "Mud-Slap",
        "Toxic",
        "Aerial Ace",
        "Embargo",
        "Return",
        "Captivate",
        "Twister",
        "Torment",
        "Frustration"
      ]
    }
  }
}