{
  "pixelmonName": "Hoopa",
  "spDef": 130,
  "spAtt": 150,
  "speed": 70,
  "defence": 60,
  "attack": 110,
  "hp": 80,
  "catchRate": 3,
  "malePercent": -1,
  "nationalPokedexNumber": 720,
  "spawnLevel": 70,
  "spawnLevelRange": 0,
  "baseExp": 270,
  "baseFriendship": 0,
  "rarity": {
    "day": 0,
    "dawndusk": 0,
    "night": -1
  },
  "type1": "Psychic",
  "type2": "Ghost",
  "height": 2.5,
  "width": 1.0,
  "length": 0.5,
  "giScale": 1.0,
  "canFly": false,
  "isRideable": false,
  "preEvolutions": [],
  "experienceGroup": "Slow",
  "aggression": {
    "timid": 80,
    "passive": 0,
    "aggressive": 20
  },
  "spawnLocations": [
    "Land"
  ],
  "biomeIDs": [
    2,
    17,
    130
  ],
  "evGain": {
    "HP": 0,
    "Attack": 0,
    "Defence": 0,
    "SpecialAttack": 3,
    "SpecialDefence": 0,
    "Speed": 0
  },
  "canSurf": false,
  "maxGroupSize": 1,
  "minGroupSize": 1,
  "hoverHeight": 0.0,
  "doesHover": false,
  "id": 765,
  "baseFormID": 765,
  "weight": 9.0,
  "pokemon": "Hoopa",
  "abilities": [
    "Magician",
    null,
    null
  ],
  "eggGroups": [
    "Undiscovered"
  ],
  "eggCycles": 121,
  "form": 0,
  "evolutionDefs": [],
  "moves": {
    "levelMoves": {
      "1": [
        "Destiny Bond",
        "Hyperspace Hole",
        "Trick",
        "Confusion",
        "Ally Switch"
      ],
      "35": [
        "Phantom Force"
      ],
      "68": [
        "Nasty Plot"
      ],
      "6": [
        "Astonish"
      ],
      "10": [
        "Magic Coat"
      ],
      "75": [
        "Psychic"
      ],
      "46": [
        "Zen Headbutt"
      ],
      "15": [
        "Light Screen"
      ],
      "50": [
        "Wonder Room",
        "Trick Room"
      ],
      "19": [
        "Psybeam"
      ],
      "85": [
        "Hyperspace Hole"
      ],
      "55": [
        "Shadow Ball"
      ],
      "25": [
        "Skill Swap"
      ],
      "29": [
        "Power Split",
        "Guard Split"
      ]
    },
    "eggMoves": [],
    "evolutionMoves": [],
    "tmTRMoves": [
      "Fire Punch",
      "Ice Punch",
      "Thunder Punch",
      "Hyper Beam",
      "Giga Impact",
      "Thunder Wave",
      "Light Screen",
      "Reflect",
      "Safeguard",
      "Rest",
      "Thief",
      "Snore",
      "Protect",
      "Rain Dance",
      "Sunny Day",
      "Facade",
      "Swift",
      "Brick Break",
      "Fling",
      "Drain Punch",
      "Trick Room",
      "Wonder Room",
      "Magic Room",
      "Round",
      "Phantom Force",
      "Thunderbolt",
      "Psychic",
      "Substitute",
      "Psyshock",
      "Endure",
      "Sleep Talk",
      "Shadow Ball",
      "Uproar",
      "Taunt",
      "Trick",
      "Skill Swap",
      "Calm Mind",
      "Dark Pulse",
      "Focus Blast",
      "Energy Ball",
      "Nasty Plot",
      "Zen Headbutt",
      "Gunk Shot",
      "Grass Knot",
      "Foul Play",
      "Ally Switch",
      "Throat Chop"
    ],
    "tutorMoves": {
      "Transfer": [
        "Toxic",
        "Hidden Power",
        "Safeguard",
        "Frustration",
        "Double Team",
        "Torment",
        "Charge Beam",
        "Quash",
        "Embargo",
        "Psych Up",
        "Dream Eater",
        "Swagger",
        "Confide",
        "Ally Switch",
        "Block",
        "Covet",
        "Dual Chop",
        "Focus Punch",
        "Gravity",
        "Knock Off",
        "Laser Focus",
        "Last Resort",
        "Recycle",
        "Role Play",
        "Shock Wave",
        "Signal Beam",
        "Snatch",
        "Telekinesis"
      ]
    }
  }
}