{
  "pixelmonName": "Jellicent",
  "spDef": 105,
  "spAtt": 85,
  "speed": 60,
  "defence": 70,
  "attack": 60,
  "hp": 100,
  "catchRate": 60,
  "malePercent": 50,
  "nationalPokedexNumber": 593,
  "spawnLevel": 40,
  "spawnLevelRange": 20,
  "baseExp": 168,
  "baseFriendship": 70,
  "rarity": {
    "day": 0,
    "dawndusk": 0,
    "night": 45
  },
  "type1": "Water",
  "type2": "Ghost",
  "height": 2.2,
  "width": 1.0,
  "length": 1.0,
  "giScale": 1.0,
  "canFly": false,
  "isRideable": false,
  "preEvolutions": [
    "Frillish"
  ],
  "experienceGroup": "MediumFast",
  "aggression": {
    "timid": 80,
    "passive": 0,
    "aggressive": 20
  },
  "spawnLocations": [
    "Water"
  ],
  "biomeIDs": [
    0,
    24
  ],
  "evGain": {
    "HP": 0,
    "Attack": 0,
    "Defence": 0,
    "SpecialAttack": 0,
    "SpecialDefence": 2,
    "Speed": 0
  },
  "canSurf": true,
  "maxGroupSize": 1,
  "minGroupSize": 1,
  "hoverHeight": 0.0,
  "doesHover": false,
  "id": 663,
  "baseFormID": 663,
  "weight": 135.0,
  "pokemon": "Jellicent",
  "abilities": [
    "WaterAbsorb",
    "CursedBody",
    "Damp"
  ],
  "eggGroups": [
    "Amorphous"
  ],
  "eggCycles": 21,
  "form": -1,
  "evolutionDefs": [],
  "moves": {
    "levelMoves": {
      "16": [
        "Rain Dance"
      ],
      "32": [
        "Shadow Ball"
      ],
      "48": [
        "Destiny Bond"
      ],
      "1": [
        "Water Gun",
        "Night Shade",
        "Poison Sting",
        "Acid Armor",
        "Absorb"
      ],
      "20": [
        "Hex"
      ],
      "36": [
        "Whirlpool"
      ],
      "54": [
        "Water Spout"
      ],
      "24": [
        "Brine"
      ],
      "43": [
        "Hydro Pump"
      ],
      "12": [
        "Water Pulse"
      ],
      "28": [
        "Recover"
      ]
    },
    "eggMoves": [
      "Acid Armor",
      "Mist",
      "Bubble Beam",
      "Confuse Ray",
      "Pain Split",
      "Strength Sap"
    ],
    "evolutionMoves": [],
    "tmTRMoves": [
      "Giga Drain",
      "Snore",
      "Facade",
      "Taunt",
      "Waterfall",
      "Dazzling Gleam",
      "Dark Pulse",
      "Sludge Bomb",
      "Icy Wind",
      "Surf",
      "Rest",
      "Sludge Wave",
      "Hydro Pump",
      "Round",
      "Shadow Ball",
      "Imprison",
      "Substitute",
      "Attract",
      "Hail",
      "Ice Beam",
      "Giga Impact",
      "Energy Ball",
      "Safeguard",
      "Protect",
      "Rain Dance",
      "Trick",
      "Hyper Beam",
      "Brine",
      "Will-O-Wisp",
      "Scald",
      "Psychic",
      "Dive",
      "Endure",
      "Sleep Talk",
      "Whirlpool",
      "Muddy Water",
      "Hex",
      "Trick Room",
      "Blizzard"
    ],
    "tutorMoves": {
      "Regular": [
        "Poltergeist"
      ],
      "Transfer": [
        "Ominous Wind",
        "Secret Power",
        "Psych Up",
        "Dream Eater",
        "Confide",
        "Bubble",
        "Hidden Power",
        "Water Sport",
        "Magic Coat",
        "Double Team",
        "Spite",
        "Shock Wave",
        "Bind",
        "Toxic",
        "Swagger",
        "Flash",
        "Return",
        "Constrict",
        "Wring Out",
        "Frustration"
      ]
    }
  }
}