{
  "pixelmonName": "Kangaskhan",
  "spDef": 100,
  "spAtt": 60,
  "speed": 100,
  "defence": 100,
  "attack": 125,
  "hp": 105,
  "catchRate": 45,
  "malePercent": 0,
  "nationalPokedexNumber": 115,
  "spawnLevel": 1,
  "spawnLevelRange": 99,
  "baseExp": 172,
  "baseFriendship": 0,
  "rarity": {
    "day": 0,
    "dawndusk": 0,
    "night": 0
  },
  "type1": "Normal",
  "height": 2.2,
  "width": 2.2,
  "length": 2.2,
  "giScale": 1.0,
  "canFly": false,
  "isRideable": true,
  "preEvolutions": [],
  "experienceGroup": "MediumFast",
  "aggression": {
    "timid": 80,
    "passive": 0,
    "aggressive": 20
  },
  "spawnLocations": [],
  "biomeIDs": [
    35,
    36,
    163,
    164
  ],
  "evGain": {
    "HP": 2,
    "Attack": 0,
    "Defence": 0,
    "SpecialAttack": 0,
    "SpecialDefence": 0,
    "Speed": 0
  },
  "canSurf": false,
  "maxGroupSize": 1,
  "minGroupSize": 1,
  "hoverHeight": 0.0,
  "doesHover": false,
  "id": 823,
  "baseFormID": 85,
  "weight": 100.0,
  "pokemon": "Kangaskhan",
  "abilities": [
    "ParentalBond",
    null,
    null
  ],
  "eggGroups": [
    "Monster"
  ],
  "eggCycles": 20,
  "form": 1,
  "evolutionDefs": [],
  "moves": {
    "levelMoves": {
      "32": [
        "Double Hit"
      ],
      "1": [
        "Tail Whip",
        "Pound"
      ],
      "4": [
        "Growl"
      ],
      "36": [
        "Crunch"
      ],
      "8": [
        "Fake Out"
      ],
      "40": [
        "Endure"
      ],
      "12": [
        "Bite"
      ],
      "44": [
        "Reversal"
      ],
      "16": [
        "Stomp"
      ],
      "48": [
        "Outrage"
      ],
      "20": [
        "Focus Energy"
      ],
      "52": [
        "Last Resort"
      ],
      "24": [
        "Headbutt"
      ],
      "28": [
        "Sucker Punch"
      ]
    },
    "eggMoves": [
      "Circle Throw",
      "Endeavor",
      "Counter",
      "Disable",
      "Hammer Arm",
      "Double-Edge"
    ],
    "evolutionMoves": [],
    "tmTRMoves": [
      "Assurance",
      "Flamethrower",
      "Uproar",
      "Beat Up",
      "Icy Wind",
      "Surf",
      "Iron Tail",
      "Work Up",
      "Hydro Pump",
      "Body Slam",
      "Bulldoze",
      "Substitute",
      "Attract",
      "Ice Beam",
      "Crunch",
      "Drain Punch",
      "Mega Punch",
      "Sunny Day",
      "Avalanche",
      "Outrage",
      "Fling",
      "Rock Tomb",
      "Endure",
      "Whirlpool",
      "Thunder Punch",
      "Fire Punch",
      "Ice Punch",
      "Fire Blast",
      "Snore",
      "Facade",
      "Focus Energy",
      "Retaliate",
      "Solar Beam",
      "Mega Kick",
      "Rest",
      "Earthquake",
      "Rock Slide",
      "Round",
      "Shadow Ball",
      "Sandstorm",
      "Brick Break",
      "Hail",
      "Giga Impact",
      "Helping Hand",
      "Safeguard",
      "Protect",
      "Dig",
      "Rain Dance",
      "Thunder",
      "Thief",
      "Hyper Beam",
      "Focus Blast",
      "Low Kick",
      "Sleep Talk",
      "Reversal",
      "Shadow Claw",
      "Thunderbolt",
      "Blizzard"
    ],
    "tutorMoves": {
      "Regular": [
        "Terrain Pulse"
      ],
      "Transfer": [
        "Natural Gift",
        "Confide",
        "Incinerate",
        "Leer",
        "Cut",
        "Hidden Power",
        "Power-Up Punch",
        "Water Pulse",
        "Bide",
        "Double Team",
        "Spite",
        "Shock Wave",
        "Seismic Toss",
        "Rage",
        "Dynamic Punch",
        "Skull Bash",
        "Swagger",
        "Aqua Tail",
        "Submission",
        "Mimic",
        "Captivate",
        "Roar",
        "Fury Cutter",
        "Covet",
        "Frustration",
        "Rock Smash",
        "Comet Punch",
        "Secret Power",
        "Crush Claw",
        "Bubble Beam",
        "Chip Away",
        "Trump Card",
        "Curse",
        "Take Down",
        "Fissure",
        "Dizzy Punch",
        "Mud-Slap",
        "Focus Punch",
        "Toxic",
        "Rock Climb",
        "Aerial Ace",
        "Water Gun",
        "Return",
        "Strength",
        "Zap Cannon",
        "Foresight"
      ]
    }
  }
}