{
  "pixelmonName": "Karrablast",
  "spDef": 45,
  "spAtt": 40,
  "speed": 60,
  "defence": 45,
  "attack": 75,
  "hp": 50,
  "catchRate": 200,
  "malePercent": 50,
  "nationalPokedexNumber": 588,
  "spawnLevel": 5,
  "spawnLevelRange": 20,
  "baseExp": 63,
  "baseFriendship": 70,
  "rarity": {
    "day": 0,
    "dawndusk": 0,
    "night": 30
  },
  "type1": "Bug",
  "height": 0.5,
  "width": 0.7,
  "length": 0.7,
  "giScale": 1.0,
  "canFly": false,
  "isRideable": false,
  "preEvolutions": [],
  "experienceGroup": "MediumFast",
  "aggression": {
    "timid": 80,
    "passive": 0,
    "aggressive": 20
  },
  "spawnLocations": [
    "Land"
  ],
  "biomeIDs": [
    1,
    129,
    132
  ],
  "evGain": {
    "HP": 0,
    "Attack": 1,
    "Defence": 0,
    "SpecialAttack": 0,
    "SpecialDefence": 0,
    "Speed": 0
  },
  "canSurf": false,
  "maxGroupSize": 1,
  "minGroupSize": 1,
  "hoverHeight": 0.0,
  "doesHover": false,
  "id": 658,
  "baseFormID": 658,
  "weight": 5.9,
  "pokemon": "Karrablast",
  "abilities": [
    "Swarm",
    "ShedSkin",
    "NoGuard"
  ],
  "eggGroups": [
    "Bug"
  ],
  "eggCycles": 16,
  "form": -1,
  "evolutionDefs": [
    {
      "targetId": 659,
      "evolveCondition": "Trade:Shelmet:Escavalier"
    }
  ],
  "moves": {
    "levelMoves": {
      "32": [
        "X-Scissor"
      ],
      "1": [
        "Leer",
        "Peck"
      ],
      "4": [
        "Fury Cutter"
      ],
      "36": [
        "Swords Dance"
      ],
      "8": [
        "Endure"
      ],
      "40": [
        "Take Down"
      ],
      "12": [
        "False Swipe"
      ],
      "44": [
        "Bug Buzz"
      ],
      "16": [
        "Acid Spray"
      ],
      "48": [
        "Double-Edge"
      ],
      "20": [
        "Headbutt"
      ],
      "24": [
        "Flail"
      ],
      "28": [
        "Scary Face"
      ]
    },
    "eggMoves": [
      "Counter",
      "Knock Off",
      "Night Slash",
      "Bug Bite",
      "Slash"
    ],
    "evolutionMoves": [],
    "tmTRMoves": [
      "Giga Drain",
      "Energy Ball",
      "False Swipe",
      "Snore",
      "Protect",
      "Facade",
      "Rain Dance",
      "Drill Run",
      "X-Scissor",
      "Swords Dance",
      "Screech",
      "Megahorn",
      "Rest",
      "Encore",
      "Bug Buzz",
      "Endure",
      "Sleep Talk",
      "Scary Face",
      "Round",
      "Iron Defense",
      "Substitute",
      "Poison Jab",
      "Attract"
    ],
    "tutorMoves": {
      "Transfer": [
        "Secret Power",
        "Confide",
        "Fury Attack",
        "Cut",
        "Hidden Power",
        "Horn Attack",
        "Double Team",
        "Infestation",
        "Toxic",
        "Aerial Ace",
        "Struggle Bug",
        "Swagger",
        "Signal Beam",
        "Return",
        "Pursuit",
        "Faint Attack",
        "Frustration"
      ]
    }
  }
}