{
  "pixelmonName": "Kartana",
  "spDef": 31,
  "spAtt": 59,
  "speed": 109,
  "defence": 131,
  "attack": 181,
  "hp": 59,
  "catchRate": 45,
  "malePercent": -1,
  "nationalPokedexNumber": 798,
  "spawnLevel": 70,
  "spawnLevelRange": 0,
  "baseExp": 257,
  "baseFriendship": 0,
  "rarity": {
    "day": -1,
    "dawndusk": 0,
    "night": 0
  },
  "type1": "Grass",
  "type2": "Steel",
  "height": 1.0,
  "width": 1.0,
  "length": 1.0,
  "giScale": 2.5,
  "canFly": false,
  "isRideable": false,
  "preEvolutions": [],
  "experienceGroup": "Slow",
  "aggression": {
    "timid": 20,
    "passive": 0,
    "aggressive": 80
  },
  "spawnLocations": [],
  "biomeIDs": [],
  "evGain": {
    "HP": 0,
    "Attack": 3,
    "Defence": 0,
    "SpecialAttack": 0,
    "SpecialDefence": 0,
    "Speed": 0
  },
  "canSurf": false,
  "maxGroupSize": 1,
  "minGroupSize": 1,
  "hoverHeight": 0.0,
  "doesHover": false,
  "id": 977,
  "baseFormID": 977,
  "weight": 0.1,
  "pokemon": "Kartana",
  "abilities": [
    "BeastBoost",
    null,
    null
  ],
  "eggGroups": [
    "Undiscovered"
  ],
  "eggCycles": 120,
  "form": -1,
  "evolutionDefs": [],
  "moves": {
    "levelMoves": {
      "1": [
        "Vacuum Wave",
        "Fury Cutter"
      ],
      "65": [
        "Swords Dance"
      ],
      "35": [
        "Night Slash"
      ],
      "5": [
        "Razor Leaf"
      ],
      "70": [
        "Guillotine"
      ],
      "40": [
        "Synthesis"
      ],
      "10": [
        "False Swipe"
      ],
      "45": [
        "Laser Focus"
      ],
      "15": [
        "Cut"
      ],
      "50": [
        "Defog"
      ],
      "20": [
        "Air Cutter"
      ],
      "55": [
        "Leaf Blade"
      ],
      "25": [
        "Aerial Ace"
      ],
      "60": [
        "Sacred Sword"
      ],
      "30": [
        "Detect"
      ]
    },
    "eggMoves": [],
    "evolutionMoves": [],
    "tmTRMoves": [
      "Giga Drain",
      "False Swipe",
      "Snore",
      "Protect",
      "Air Slash",
      "X-Scissor",
      "Swords Dance",
      "Screech",
      "Calm Mind",
      "Rest",
      "Endure",
      "Sleep Talk",
      "Round",
      "Smart Strike",
      "Psycho Cut",
      "Iron Defense",
      "Substitute",
      "Leaf Blade",
      "Solar Blade",
      "Brick Break",
      "Giga Impact"
    ],
    "tutorMoves": {
      "Transfer": [
        "Toxic",
        "Tailwind",
        "Confide",
        "Swagger",
        "Last Resort",
        "Return",
        "Hidden Power",
        "Knock Off",
        "Double Team",
        "Frustration"
      ]
    }
  }
}