{
  "pixelmonName": "Kingler",
  "spDef": 50,
  "spAtt": 50,
  "speed": 75,
  "defence": 115,
  "attack": 130,
  "hp": 55,
  "catchRate": 60,
  "malePercent": 50,
  "nationalPokedexNumber": 99,
  "spawnLevel": 28,
  "spawnLevelRange": 22,
  "baseExp": 206,
  "baseFriendship": 70,
  "rarity": {
    "day": 55,
    "dawndusk": 0,
    "night": 0
  },
  "type1": "Water",
  "height": 0.9,
  "width": 1.0,
  "length": 1.0,
  "giScale": 1.0,
  "canFly": false,
  "isRideable": false,
  "preEvolutions": [
    "Krabby"
  ],
  "experienceGroup": "MediumFast",
  "aggression": {
    "timid": 80,
    "passive": 0,
    "aggressive": 20
  },
  "spawnLocations": [
    "Water",
    "Land"
  ],
  "biomeIDs": [
    0,
    16,
    24,
    25,
    26
  ],
  "evGain": {
    "HP": 0,
    "Attack": 2,
    "Defence": 0,
    "SpecialAttack": 0,
    "SpecialDefence": 0,
    "Speed": 0
  },
  "canSurf": true,
  "maxGroupSize": 4,
  "minGroupSize": 1,
  "hoverHeight": 0.0,
  "doesHover": false,
  "id": 78,
  "baseFormID": 78,
  "weight": 60.0,
  "pokemon": "Kingler",
  "abilities": [
    "HyperCutter",
    "ShellArmour",
    "SheerForce"
  ],
  "eggGroups": [
    "Water3"
  ],
  "eggCycles": 21,
  "form": -1,
  "evolutionDefs": [],
  "moves": {
    "levelMoves": {
      "16": [
        "Protect"
      ],
      "48": [
        "Swords Dance"
      ],
      "1": [
        "Water Gun",
        "Leer",
        "Metal Claw",
        "Wide Guard",
        "Harden",
        "Hammer Arm"
      ],
      "20": [
        "Bubble Beam"
      ],
      "36": [
        "Razor Shell"
      ],
      "54": [
        "Crabhammer"
      ],
      "24": [
        "Stomp"
      ],
      "42": [
        "Slam"
      ],
      "12": [
        "Mud Shot"
      ],
      "60": [
        "Guillotine"
      ],
      "31": [
        "Flail"
      ]
    },
    "eggMoves": [
      "Knock Off",
      "Night Slash",
      "Ancient Power",
      "Slash",
      "Hammer Arm"
    ],
    "evolutionMoves": [],
    "tmTRMoves": [
      "Snore",
      "Facade",
      "Stomping Tantrum",
      "Swords Dance",
      "Icy Wind",
      "Surf",
      "Rest",
      "Rock Slide",
      "Hydro Pump",
      "Agility",
      "Round",
      "Body Slam",
      "Liquidation",
      "Amnesia",
      "Iron Defense",
      "Mud Shot",
      "Substitute",
      "Superpower",
      "Brick Break",
      "Attract",
      "Hail",
      "Ice Beam",
      "Ally Switch",
      "Giga Impact",
      "False Swipe",
      "Protect",
      "Dig",
      "Rain Dance",
      "High Horsepower",
      "Thief",
      "Razor Shell",
      "Hyper Beam",
      "Brine",
      "Scald",
      "X-Scissor",
      "Fling",
      "Rock Tomb",
      "Dive",
      "Brutal Swing",
      "Endure",
      "Sleep Talk",
      "Whirlpool",
      "Blizzard"
    ],
    "tutorMoves": {
      "Transfer": [
        "Rock Smash",
        "Secret Power",
        "Natural Gift",
        "Confide",
        "Chip Away",
        "Bubble",
        "Curse",
        "Quash",
        "Double-Edge",
        "Mud Sport",
        "Cut",
        "Take Down",
        "Hidden Power",
        "Haze",
        "Water Pulse",
        "Bide",
        "Double Team",
        "Hone Claws",
        "Tickle",
        "Mud-Slap",
        "Toxic",
        "Rage",
        "Headbutt",
        "Vise Grip",
        "Swagger",
        "Return",
        "Mimic",
        "Captivate",
        "Fury Cutter",
        "Strength",
        "Frustration"
      ]
    }
  }
}