{
  "pixelmonName": "Krabby",
  "spDef": 25,
  "spAtt": 25,
  "speed": 50,
  "defence": 90,
  "attack": 105,
  "hp": 30,
  "catchRate": 225,
  "malePercent": 50,
  "nationalPokedexNumber": 98,
  "spawnLevel": 15,
  "spawnLevelRange": 13,
  "baseExp": 115,
  "baseFriendship": 70,
  "rarity": {
    "day": 110,
    "dawndusk": 0,
    "night": 0
  },
  "type1": "Water",
  "height": 0.4,
  "width": 1.0,
  "length": 1.0,
  "giScale": 1.0,
  "canFly": false,
  "isRideable": true,
  "preEvolutions": [],
  "experienceGroup": "MediumFast",
  "aggression": {
    "timid": 80,
    "passive": 0,
    "aggressive": 20
  },
  "spawnLocations": [
    "Water",
    "Land"
  ],
  "biomeIDs": [
    0,
    16,
    24,
    25,
    26
  ],
  "evGain": {
    "HP": 0,
    "Attack": 1,
    "Defence": 0,
    "SpecialAttack": 0,
    "SpecialDefence": 0,
    "Speed": 0
  },
  "canSurf": true,
  "ridingOffsets": {
    "standing": {
      "x": 0.0,
      "y": -0.5,
      "z": 0.0
    },
    "moving": {
      "x": 0.0,
      "y": -0.5,
      "z": 0.0
    }
  },
  "maxGroupSize": 7,
  "minGroupSize": 3,
  "hoverHeight": 0.0,
  "doesHover": false,
  "id": 77,
  "baseFormID": 77,
  "weight": 6.5,
  "pokemon": "Krabby",
  "abilities": [
    "HyperCutter",
    "ShellArmour",
    "SheerForce"
  ],
  "eggGroups": [
    "Water3"
  ],
  "eggCycles": 21,
  "form": -1,
  "evolutionDefs": [
    {
      "targetId": 78,
      "evolveLevel": 28
    }
  ],
  "moves": {
    "levelMoves": {
      "32": [
        "Razor Shell"
      ],
      "1": [
        "Water Gun",
        "Leer"
      ],
      "4": [
        "Harden"
      ],
      "36": [
        "Slam"
      ],
      "8": [
        "Metal Claw"
      ],
      "40": [
        "Swords Dance"
      ],
      "12": [
        "Mud Shot"
      ],
      "44": [
        "Crabhammer"
      ],
      "16": [
        "Protect"
      ],
      "48": [
        "Guillotine"
      ],
      "20": [
        "Bubble Beam"
      ],
      "24": [
        "Stomp"
      ],
      "29": [
        "Flail"
      ]
    },
    "eggMoves": [
      "Knock Off",
      "Night Slash",
      "Ancient Power",
      "Slash",
      "Hammer Arm"
    ],
    "evolutionMoves": [],
    "tmTRMoves": [
      "Snore",
      "Facade",
      "Swords Dance",
      "Icy Wind",
      "Surf",
      "Rest",
      "Rock Slide",
      "Agility",
      "Round",
      "Body Slam",
      "Liquidation",
      "Amnesia",
      "Iron Defense",
      "Mud Shot",
      "Substitute",
      "Superpower",
      "Brick Break",
      "Attract",
      "Hail",
      "Ice Beam",
      "Ally Switch",
      "False Swipe",
      "Protect",
      "Dig",
      "Rain Dance",
      "Thief",
      "Razor Shell",
      "Brine",
      "Scald",
      "X-Scissor",
      "Fling",
      "Rock Tomb",
      "Dive",
      "Endure",
      "Sleep Talk",
      "Whirlpool",
      "Blizzard"
    ],
    "tutorMoves": {
      "Transfer": [
        "Rock Smash",
        "Secret Power",
        "Natural Gift",
        "Confide",
        "Chip Away",
        "Bubble",
        "Curse",
        "Double-Edge",
        "Mud Sport",
        "Cut",
        "Take Down",
        "Hidden Power",
        "Haze",
        "Water Pulse",
        "Bide",
        "Double Team",
        "Hone Claws",
        "Tickle",
        "Mud-Slap",
        "Toxic",
        "Rage",
        "Headbutt",
        "Vise Grip",
        "Swagger",
        "Return",
        "Mimic",
        "Captivate",
        "Fury Cutter",
        "Strength",
        "Frustration"
      ]
    }
  }
}