{
  "pixelmonName": "Krokorok",
  "spDef": 45,
  "spAtt": 45,
  "speed": 74,
  "defence": 45,
  "attack": 82,
  "hp": 60,
  "catchRate": 90,
  "malePercent": 50,
  "nationalPokedexNumber": 552,
  "spawnLevel": 29,
  "spawnLevelRange": 11,
  "baseExp": 123,
  "baseFriendship": 70,
  "rarity": {
    "day": 0,
    "dawndusk": 0,
    "night": 10
  },
  "type1": "Ground",
  "type2": "Dark",
  "height": 1.0,
  "width": 1.0,
  "length": 1.0,
  "giScale": 0.25,
  "canFly": false,
  "isRideable": false,
  "preEvolutions": [
    "Sandile"
  ],
  "experienceGroup": "MediumSlow",
  "aggression": {
    "timid": 80,
    "passive": 0,
    "aggressive": 20
  },
  "spawnLocations": [
    "Land"
  ],
  "biomeIDs": [
    130
  ],
  "evGain": {
    "HP": 0,
    "Attack": 2,
    "Defence": 0,
    "SpecialAttack": 0,
    "SpecialDefence": 0,
    "Speed": 0
  },
  "canSurf": false,
  "maxGroupSize": 4,
  "minGroupSize": 2,
  "hoverHeight": 0.0,
  "doesHover": false,
  "id": 180,
  "baseFormID": 180,
  "weight": 33.4,
  "pokemon": "Krokorok",
  "abilities": [
    "Intimidate",
    "Moxie",
    "AngerPoint"
  ],
  "eggGroups": [
    "Field"
  ],
  "eggCycles": 21,
  "form": -1,
  "evolutionDefs": [
    {
      "targetId": 628,
      "evolveLevel": 40
    }
  ],
  "moves": {
    "levelMoves": {
      "32": [
        "Sandstorm"
      ],
      "1": [
        "Leer",
        "Power Trip",
        "Sand Attack",
        "Hone Claws"
      ],
      "18": [
        "Torment"
      ],
      "35": [
        "Foul Play"
      ],
      "21": [
        "Dig"
      ],
      "24": [
        "Swagger"
      ],
      "9": [
        "Sand Tomb"
      ],
      "42": [
        "Earthquake"
      ],
      "27": [
        "Crunch"
      ],
      "12": [
        "Scary Face"
      ],
      "15": [
        "Bite"
      ],
      "47": [
        "Thrash"
      ]
    },
    "eggMoves": [
      "Counter",
      "Aqua Tail",
      "Spite",
      "Double-Edge"
    ],
    "evolutionMoves": [],
    "tmTRMoves": [
      "Snore",
      "Facade",
      "Assurance",
      "Uproar",
      "Taunt",
      "Focus Energy",
      "Beat Up",
      "Snarl",
      "Dark Pulse",
      "Sludge Bomb",
      "Stone Edge",
      "Grass Knot",
      "Fire Fang",
      "Retaliate",
      "Stomping Tantrum",
      "Revenge",
      "Mega Kick",
      "Rest",
      "Sand Tomb",
      "Thunder Fang",
      "Earthquake",
      "Iron Tail",
      "Rock Slide",
      "Earth Power",
      "Scary Face",
      "Round",
      "Sandstorm",
      "Bulldoze",
      "Substitute",
      "Brick Break",
      "Attract",
      "Crunch",
      "Payback",
      "Protect",
      "Dig",
      "Mega Punch",
      "Thief",
      "Fling",
      "Foul Play",
      "Rock Tomb",
      "Brutal Swing",
      "Low Kick",
      "Endure",
      "Sleep Talk",
      "Stealth Rock",
      "Shadow Claw",
      "Low Sweep"
    ],
    "tutorMoves": {
      "Regular": [
        "Scorching Sands",
        "Skitter Smack",
        "Lash Out"
      ],
      "Transfer": [
        "Rock Smash",
        "Secret Power",
        "Snatch",
        "Confide",
        "Incinerate",
        "Me First",
        "Cut",
        "Hidden Power",
        "Power-Up Punch",
        "Double Team",
        "Mud-Slap",
        "Focus Punch",
        "Toxic",
        "Rock Climb",
        "Rage",
        "Embargo",
        "Mean Look",
        "Return",
        "Knock Off",
        "Roar",
        "Pursuit",
        "Strength",
        "Frustration"
      ]
    }
  }
}