{
  "pixelmonName": "Kyogre",
  "spDef": 160,
  "spAtt": 180,
  "speed": 90,
  "defence": 90,
  "attack": 150,
  "hp": 100,
  "catchRate": 3,
  "malePercent": -1,
  "nationalPokedexNumber": 382,
  "spawnLevel": 1,
  "spawnLevelRange": 99,
  "baseExp": 302,
  "baseFriendship": 0,
  "rarity": {
    "day": 0,
    "dawndusk": 0,
    "night": 0
  },
  "type1": "Water",
  "height": 1.3,
  "width": 3.5,
  "length": 4.0,
  "giScale": 1.0,
  "canFly": false,
  "isRideable": true,
  "preEvolutions": [],
  "experienceGroup": "Slow",
  "aggression": {
    "timid": 80,
    "passive": 0,
    "aggressive": 20
  },
  "spawnLocations": [],
  "biomeIDs": [
    24
  ],
  "evGain": {
    "HP": 0,
    "Attack": 0,
    "Defence": 0,
    "SpecialAttack": 3,
    "SpecialDefence": 0,
    "Speed": 0
  },
  "canSurf": true,
  "maxGroupSize": 1,
  "minGroupSize": 1,
  "hoverHeight": 0.0,
  "doesHover": false,
  "id": 849,
  "baseFormID": 473,
  "weight": 430.0,
  "pokemon": "Kyogre",
  "abilities": [
    "PrimordialSea",
    null,
    null
  ],
  "eggGroups": [
    "Undiscovered"
  ],
  "eggCycles": 121,
  "form": 1,
  "evolutionDefs": [],
  "moves": {
    "levelMoves": {
      "1": [
        "Water Pulse",
        "Scary Face",
        "Ancient Power",
        "Body Slam"
      ],
      "81": [
        "Double-Edge"
      ],
      "18": [
        "Calm Mind"
      ],
      "36": [
        "Ice Beam"
      ],
      "54": [
        "Aqua Ring"
      ],
      "72": [
        "Hydro Pump"
      ],
      "9": [
        "Aqua Tail"
      ],
      "90": [
        "Water Spout"
      ],
      "27": [
        "Muddy Water"
      ],
      "45": [
        "Sheer Cold"
      ],
      "63": [
        "Origin Pulse"
      ]
    },
    "eggMoves": [],
    "evolutionMoves": [],
    "tmTRMoves": [
      "Snore",
      "Facade",
      "Uproar",
      "Heavy Slam",
      "Waterfall",
      "Icy Wind",
      "Iron Head",
      "Surf",
      "Rest",
      "Earthquake",
      "Rock Slide",
      "Hydro Pump",
      "Scary Face",
      "Round",
      "Body Slam",
      "Bulldoze",
      "Liquidation",
      "Substitute",
      "Brick Break",
      "Hail",
      "Ice Beam",
      "Giga Impact",
      "Thunder Wave",
      "Safeguard",
      "Protect",
      "Rain Dance",
      "Thunder",
      "Hyper Beam",
      "Brine",
      "Scald",
      "Avalanche",
      "Calm Mind",
      "Rock Tomb",
      "Dive",
      "Endure",
      "Sleep Talk",
      "Whirlpool",
      "Muddy Water",
      "Thunderbolt",
      "Blizzard"
    ],
    "tutorMoves": {
      "Transfer": [
        "Rock Smash",
        "Secret Power",
        "Psych Up",
        "Natural Gift",
        "Confide",
        "Hidden Power",
        "Block",
        "Double Team",
        "Swift",
        "Shock Wave",
        "Mud-Slap",
        "Toxic",
        "Headbutt",
        "Swagger",
        "Defense Curl",
        "Signal Beam",
        "Return",
        "Mimic",
        "Roar",
        "Strength",
        "Frustration"
      ]
    }
  }
}