{
  "pixelmonName": "Landorus",
  "spDef": 80,
  "spAtt": 115,
  "speed": 101,
  "defence": 90,
  "attack": 125,
  "hp": 89,
  "catchRate": 3,
  "malePercent": 100,
  "nationalPokedexNumber": 645,
  "spawnLevel": 70,
  "spawnLevelRange": 0,
  "baseExp": 270,
  "baseFriendship": 90,
  "rarity": {
    "day": -1,
    "dawndusk": -1,
    "night": 0
  },
  "type1": "Ground",
  "type2": "Flying",
  "height": 1.5,
  "width": 1.0,
  "length": 1.0,
  "giScale": 1.0,
  "canFly": false,
  "isRideable": false,
  "preEvolutions": [],
  "experienceGroup": "Slow",
  "aggression": {
    "timid": 80,
    "passive": 0,
    "aggressive": 20
  },
  "spawnLocations": [
    "Land"
  ],
  "biomeIDs": [
    39,
    18
  ],
  "evGain": {
    "HP": 0,
    "Attack": 0,
    "Defence": 0,
    "SpecialAttack": 3,
    "SpecialDefence": 0,
    "Speed": 0
  },
  "canSurf": false,
  "maxGroupSize": 1,
  "minGroupSize": 1,
  "hoverHeight": 0.0,
  "doesHover": false,
  "id": 715,
  "baseFormID": 715,
  "weight": 68.0,
  "pokemon": "Landorus",
  "abilities": [
    "SandForce",
    null,
    "SheerForce"
  ],
  "eggGroups": [
    "Undiscovered"
  ],
  "eggCycles": 121,
  "form": 0,
  "evolutionDefs": [],
  "moves": {
    "levelMoves": {
      "1": [
        "Sand Tomb",
        "Rock Throw"
      ],
      "65": [
        "Earthquake"
      ],
      "35": [
        "Rock Slide"
      ],
      "5": [
        "Leer"
      ],
      "70": [
        "Outrage"
      ],
      "40": [
        "Earth Power"
      ],
      "10": [
        "Block"
      ],
      "75": [
        "Fissure"
      ],
      "45": [
        "Extrasensory"
      ],
      "15": [
        "Bulldoze"
      ],
      "50": [
        "Stone Edge"
      ],
      "20": [
        "Rock Tomb"
      ],
      "55": [
        "Hammer Arm"
      ],
      "25": [
        "Swords Dance"
      ],
      "60": [
        "Sandstorm"
      ],
      "30": [
        "Imprison"
      ]
    },
    "eggMoves": [],
    "evolutionMoves": [],
    "tmTRMoves": [
      "Weather Ball",
      "Snore",
      "Facade",
      "Sludge Bomb",
      "Stone Edge",
      "Grass Knot",
      "U-turn",
      "Swords Dance",
      "Bulk Up",
      "Fly",
      "Rest",
      "Sand Tomb",
      "Earthquake",
      "Iron Tail",
      "Rock Slide",
      "Sludge Wave",
      "Earth Power",
      "Scary Face",
      "Round",
      "Body Slam",
      "Sandstorm",
      "Bulldoze",
      "Imprison",
      "Mud Shot",
      "Substitute",
      "Superpower",
      "Brick Break",
      "Attract",
      "Giga Impact",
      "Payback",
      "Protect",
      "Dig",
      "Self-Destruct",
      "Hyper Beam",
      "Focus Blast",
      "Outrage",
      "Calm Mind",
      "Fling",
      "Psychic",
      "Rock Tomb",
      "Brutal Swing",
      "Endure",
      "Sleep Talk",
      "Stealth Rock"
    ],
    "tutorMoves": {
      "Transfer": [
        "Rock Smash",
        "Secret Power",
        "Confide",
        "Defog",
        "Explosion",
        "Hidden Power",
        "Smack Down",
        "Double Team",
        "Punishment",
        "Toxic",
        "Swagger",
        "Gravity",
        "Return",
        "Knock Off",
        "Rock Polish",
        "Role Play",
        "Strength",
        "Frustration"
      ]
    }
  }
}