{
  "pixelmonName": "Ledyba",
  "spDef": 80,
  "spAtt": 40,
  "speed": 55,
  "defence": 30,
  "attack": 20,
  "hp": 40,
  "catchRate": 255,
  "malePercent": 50,
  "nationalPokedexNumber": 165,
  "spawnLevel": 5,
  "spawnLevelRange": 12,
  "baseExp": 54,
  "baseFriendship": 70,
  "rarity": {
    "day": 0,
    "dawndusk": 150,
    "night": 150
  },
  "type1": "Bug",
  "type2": "Flying",
  "height": 0.4,
  "width": 1.0,
  "length": 1.0,
  "giScale": 1.0,
  "canFly": true,
  "isRideable": false,
  "preEvolutions": [],
  "experienceGroup": "Fast",
  "aggression": {
    "timid": 80,
    "passive": 0,
    "aggressive": 20
  },
  "flyingParameters": {
    "flyHeightMin": 0,
    "flyHeightMax": 15,
    "flySpeedModifier": 1.0,
    "flyRefreshRateY": 80,
    "flyRefreshRateXZ": 100,
    "flyRefreshRateSpeed": 100,
    "flightTimeMin": 0,
    "flightTimeMax": 20,
    "flapRate": 5,
    "landingMaterial": "GrassAndLeaves"
  },
  "spawnLocations": [
    "Land"
  ],
  "biomeIDs": [
    4,
    18,
    27,
    28,
    29,
    129,
    132,
    155,
    156,
    157
  ],
  "evGain": {
    "HP": 0,
    "Attack": 0,
    "Defence": 0,
    "SpecialAttack": 0,
    "SpecialDefence": 1,
    "Speed": 0
  },
  "canSurf": false,
  "maxGroupSize": 3,
  "minGroupSize": 1,
  "hoverHeight": 0.0,
  "doesHover": false,
  "id": 182,
  "baseFormID": 182,
  "weight": 10.8,
  "pokemon": "Ledyba",
  "abilities": [
    "Swarm",
    "EarlyBird",
    "Rattled"
  ],
  "eggGroups": [
    "Bug"
  ],
  "eggCycles": 16,
  "form": -1,
  "evolutionDefs": [
    {
      "targetId": 183,
      "evolveLevel": 18
    }
  ],
  "moves": {
    "levelMoves": {
      "1": [
        "Tackle"
      ],
      "33": [
        "Bug Buzz"
      ],
      "19": [
        "Silver Wind"
      ],
      "36": [
        "Air Slash"
      ],
      "5": [
        "Supersonic"
      ],
      "22": [
        "Comet Punch"
      ],
      "8": [
        "Swift"
      ],
      "40": [
        "Double-Edge"
      ],
      "26": [
        "Baton Pass"
      ],
      "12": [
        "Safeguard",
        "Reflect",
        "Light Screen"
      ],
      "29": [
        "Agility"
      ],
      "15": [
        "Mach Punch"
      ]
    },
    "eggMoves": [
      "Focus Punch",
      "Drain Punch",
      "Psybeam",
      "Silver Wind",
      "Knock Off",
      "Bug Bite",
      "Screech",
      "Tailwind",
      "Bug Buzz",
      "Encore",
      "Counter",
      "Dizzy Punch",
      "Endure",
      "Bide"
    ],
    "evolutionMoves": [],
    "tmTRMoves": [
      "Mega Punch",
      "Mega Kick",
      "Ice Punch",
      "Thunder Punch",
      "Solar Beam",
      "Dig",
      "Screech",
      "Light Screen",
      "Reflect",
      "Safeguard",
      "Rest",
      "Thief",
      "Snore",
      "Protect",
      "Giga Drain",
      "Attract",
      "Sunny Day",
      "Facade",
      "Swift",
      "Brick Break",
      "U-turn",
      "Assurance",
      "Fling",
      "Drain Punch",
      "Round",
      "Acrobatics",
      "Air Slash",
      "Swords Dance",
      "Agility",
      "Substitute",
      "Endure",
      "Sleep Talk",
      "Baton Pass",
      "Encore",
      "Uproar",
      "Bug Buzz"
    ],
    "tutorMoves": {
      "Regular": [
        "Giga Drain",
        "Focus Punch",
        "Drain Punch",
        "Snore",
        "Uproar",
        "Knock Off",
        "Bug Bite",
        "Tailwind",
        "Thunder Punch",
        "Ice Punch"
      ],
      "Transfer": [
        "Ominous Wind",
        "Secret Power",
        "Natural Gift",
        "Confide",
        "Curse",
        "Roost",
        "Hidden Power",
        "Power-Up Punch",
        "Air Cutter",
        "Double Team",
        "Infestation",
        "Toxic",
        "Aerial Ace",
        "Struggle Bug",
        "Headbutt",
        "Dynamic Punch",
        "Swagger",
        "Flash",
        "Rollout",
        "Return",
        "Sweet Scent",
        "Mimic",
        "Captivate",
        "String Shot",
        "Frustration"
      ]
    }
  }
}