{
  "pixelmonName": "Lombre",
  "spDef": 70,
  "spAtt": 60,
  "speed": 50,
  "defence": 50,
  "attack": 50,
  "hp": 60,
  "catchRate": 120,
  "malePercent": 50,
  "nationalPokedexNumber": 271,
  "spawnLevel": 25,
  "spawnLevelRange": 15,
  "baseExp": 141,
  "baseFriendship": 70,
  "rarity": {
    "day": 0,
    "dawndusk": 0,
    "night": 0
  },
  "type1": "Water",
  "type2": "Grass",
  "height": 1.2,
  "width": 1.0,
  "length": 1.0,
  "giScale": 1.0,
  "canFly": false,
  "isRideable": false,
  "preEvolutions": [
    "Lotad"
  ],
  "experienceGroup": "MediumSlow",
  "aggression": {
    "timid": 80,
    "passive": 0,
    "aggressive": 20
  },
  "spawnLocations": [
    "Land"
  ],
  "biomeIDs": [
    6,
    134
  ],
  "evGain": {
    "HP": 0,
    "Attack": 0,
    "Defence": 0,
    "SpecialAttack": 0,
    "SpecialDefence": 2,
    "Speed": 0
  },
  "canSurf": false,
  "maxGroupSize": 1,
  "minGroupSize": 1,
  "hoverHeight": 0.0,
  "doesHover": false,
  "id": 377,
  "baseFormID": 377,
  "weight": 32.5,
  "pokemon": "Lombre",
  "abilities": [
    "SwiftSwim",
    "RainDish",
    "OwnTempo"
  ],
  "eggGroups": [
    "Water1",
    "Grass"
  ],
  "eggCycles": 16,
  "form": -1,
  "evolutionDefs": [
    {
      "targetId": 378,
      "evolveCondition": "Waterstone:Ludicolo"
    }
  ],
  "moves": {
    "levelMoves": {
      "64": [
        "Hydro Pump"
      ],
      "1": [
        "Water Gun",
        "Flail",
        "Teeter Dance",
        "Astonish",
        "Fake Out",
        "Growl",
        "Knock Off",
        "Absorb"
      ],
      "18": [
        "Fury Swipes"
      ],
      "50": [
        "Zen Headbutt"
      ],
      "36": [
        "Giga Drain"
      ],
      "24": [
        "Bubble Beam"
      ],
      "9": [
        "Mist"
      ],
      "57": [
        "Energy Ball"
      ],
      "43": [
        "Rain Dance"
      ],
      "12": [
        "Mega Drain"
      ],
      "30": [
        "Nature Power"
      ]
    },
    "eggMoves": [
      "Counter",
      "Synthesis",
      "Teeter Dance",
      "Sweet Scent",
      "Razor Leaf",
      "Tickle",
      "Leech Seed"
    ],
    "evolutionMoves": [],
    "tmTRMoves": [
      "Giga Drain",
      "Snore",
      "Facade",
      "Uproar",
      "Waterfall",
      "Grass Knot",
      "Swords Dance",
      "Solar Beam",
      "Icy Wind",
      "Mega Kick",
      "Surf",
      "Rest",
      "Seed Bomb",
      "Encore",
      "Hydro Pump",
      "Bullet Seed",
      "Round",
      "Body Slam",
      "Mud Shot",
      "Substitute",
      "Brick Break",
      "Attract",
      "Hail",
      "Ice Beam",
      "Hyper Voice",
      "Energy Ball",
      "Protect",
      "Drain Punch",
      "Rain Dance",
      "Mega Punch",
      "Thief",
      "Sunny Day",
      "Scald",
      "Fling",
      "Dive",
      "Endure",
      "Sleep Talk",
      "Whirlpool",
      "Muddy Water",
      "Zen Headbutt",
      "Thunder Punch",
      "Fire Punch",
      "Ice Punch",
      "Blizzard"
    ],
    "tutorMoves": {
      "Regular": [
        "Grassy Glide"
      ],
      "Transfer": [
        "Rock Smash",
        "Secret Power",
        "Natural Gift",
        "Confide",
        "Bubble",
        "Double-Edge",
        "Hidden Power",
        "Water Sport",
        "Power-Up Punch",
        "Echoed Voice",
        "Water Pulse",
        "Double Team",
        "Hone Claws",
        "Mud-Slap",
        "Toxic",
        "Headbutt",
        "Dynamic Punch",
        "Swagger",
        "Flash",
        "Return",
        "Mimic",
        "Captivate",
        "Strength",
        "Frustration"
      ]
    }
  }
}