{
  "pixelmonName": "Lopunny",
  "spDef": 96,
  "spAtt": 54,
  "speed": 105,
  "defence": 84,
  "attack": 76,
  "hp": 65,
  "catchRate": 60,
  "malePercent": 50,
  "nationalPokedexNumber": 428,
  "spawnLevel": 45,
  "spawnLevelRange": 5,
  "baseExp": 178,
  "baseFriendship": 140,
  "rarity": {
    "day": 50,
    "dawndusk": 0,
    "night": 0
  },
  "type1": "Normal",
  "height": 1.2,
  "width": 1.0,
  "length": 1.0,
  "giScale": 1.0,
  "canFly": false,
  "isRideable": false,
  "preEvolutions": [
    "Buneary"
  ],
  "experienceGroup": "MediumFast",
  "aggression": {
    "timid": 80,
    "passive": 0,
    "aggressive": 20
  },
  "spawnLocations": [
    "Land"
  ],
  "biomeIDs": [
    13,
    30,
    31,
    158
  ],
  "evGain": {
    "HP": 0,
    "Attack": 0,
    "Defence": 0,
    "SpecialAttack": 0,
    "SpecialDefence": 0,
    "Speed": 2
  },
  "canSurf": false,
  "maxGroupSize": 1,
  "minGroupSize": 1,
  "hoverHeight": 0.0,
  "doesHover": false,
  "id": 509,
  "baseFormID": 509,
  "weight": 33.3,
  "pokemon": "Lopunny",
  "abilities": [
    "CuteCharm",
    "Klutz",
    "Limber"
  ],
  "eggGroups": [
    "Field",
    "Humanlike"
  ],
  "eggCycles": 21,
  "form": -1,
  "evolutionDefs": [],
  "moves": {
    "levelMoves": {
      "32": [
        "Headbutt"
      ],
      "1": [
        "Baby-Doll Eyes",
        "Mirror Coat",
        "Pound",
        "Splash",
        "Defense Curl",
        "Magic Coat"
      ],
      "36": [
        "Agility"
      ],
      "40": [
        "Entrainment"
      ],
      "12": [
        "After You"
      ],
      "44": [
        "Flatter"
      ],
      "16": [
        "Quick Attack"
      ],
      "48": [
        "Bounce"
      ],
      "20": [
        "Double Kick"
      ],
      "52": [
        "Healing Wish"
      ],
      "24": [
        "Charm"
      ],
      "56": [
        "Hi Jump Kick"
      ],
      "28": [
        "Baton Pass"
      ]
    },
    "eggMoves": [
      "Circle Throw",
      "Double Hit",
      "Focus Punch",
      "Flail",
      "Teeter Dance",
      "Fake Out",
      "Switcheroo",
      "Sweet Kiss",
      "Copycat"
    ],
    "evolutionMoves": [],
    "tmTRMoves": [
      "Assurance",
      "Uproar",
      "Play Rough",
      "Close Combat",
      "Encore",
      "Iron Tail",
      "Work Up",
      "Agility",
      "Aura Sphere",
      "Substitute",
      "Attract",
      "Ice Beam",
      "Thunder Wave",
      "Payback",
      "Drain Punch",
      "Mega Punch",
      "Fake Tears",
      "Cosmic Power",
      "Sunny Day",
      "Fling",
      "Brutal Swing",
      "Endure",
      "Swift",
      "Thunder Punch",
      "Low Sweep",
      "Fire Punch",
      "Ice Punch",
      "Snore",
      "Facade",
      "Grass Knot",
      "U-turn",
      "Retaliate",
      "Solar Beam",
      "Mega Kick",
      "Rest",
      "Charm",
      "Round",
      "Shadow Ball",
      "Bounce",
      "Acrobatics",
      "Giga Impact",
      "Hyper Voice",
      "Helping Hand",
      "Protect",
      "Dig",
      "Rain Dance",
      "Thunder",
      "Hyper Beam",
      "Baton Pass",
      "Focus Blast",
      "Low Kick",
      "Sleep Talk",
      "Reversal",
      "Thunderbolt",
      "Blizzard"
    ],
    "tutorMoves": {
      "Regular": [
        "Triple Axel"
      ],
      "Transfer": [
        "Natural Gift",
        "Confide",
        "Mud Sport",
        "Cut",
        "Hidden Power",
        "Power-Up Punch",
        "Water Pulse",
        "Double Team",
        "Shock Wave",
        "Rototiller",
        "Jump Kick",
        "Swagger",
        "Charge Beam",
        "Captivate",
        "Sky Uppercut",
        "Fury Cutter",
        "Covet",
        "Frustration",
        "Laser Focus",
        "Rock Smash",
        "Secret Power",
        "Dizzy Punch",
        "Heal Bell",
        "Mud-Slap",
        "Toxic",
        "Endeavor",
        "Last Resort",
        "Return",
        "Strength",
        "Foresight"
      ]
    }
  }
}