{
  "pixelmonName": "Lotad",
  "spDef": 50,
  "spAtt": 40,
  "speed": 30,
  "defence": 30,
  "attack": 30,
  "hp": 40,
  "catchRate": 255,
  "malePercent": 50,
  "nationalPokedexNumber": 270,
  "spawnLevel": 3,
  "spawnLevelRange": 11,
  "baseExp": 74,
  "baseFriendship": 70,
  "rarity": {
    "day": 100,
    "dawndusk": 10,
    "night": 10
  },
  "type1": "Water",
  "type2": "Grass",
  "height": 0.5,
  "width": 0.5,
  "length": 0.6,
  "giScale": 1.0,
  "canFly": false,
  "isRideable": false,
  "preEvolutions": [],
  "experienceGroup": "MediumSlow",
  "aggression": {
    "timid": 80,
    "passive": 0,
    "aggressive": 20
  },
  "swimmingParameters": {
    "depthRangeStart": 0,
    "depthRangeEnd": 5,
    "swimSpeed": 1.0,
    "decayRate": 0.99,
    "refreshRate": 100
  },
  "spawnLocations": [
    "Water"
  ],
  "biomeIDs": [
    6,
    134
  ],
  "evGain": {
    "HP": 0,
    "Attack": 0,
    "Defence": 0,
    "SpecialAttack": 0,
    "SpecialDefence": 1,
    "Speed": 0
  },
  "canSurf": true,
  "maxGroupSize": 5,
  "minGroupSize": 2,
  "hoverHeight": 0.0,
  "doesHover": false,
  "id": 121,
  "baseFormID": 121,
  "weight": 2.6,
  "pokemon": "Lotad",
  "abilities": [
    "SwiftSwim",
    "RainDish",
    "OwnTempo"
  ],
  "eggGroups": [
    "Water1",
    "Grass"
  ],
  "eggCycles": 16,
  "form": -1,
  "evolutionDefs": [
    {
      "targetId": 377,
      "evolveLevel": 14
    }
  ],
  "moves": {
    "levelMoves": {
      "16": [
        "Flail"
      ],
      "1": [
        "Astonish",
        "Growl"
      ],
      "33": [
        "Rain Dance"
      ],
      "3": [
        "Absorb"
      ],
      "20": [
        "Bubble Beam"
      ],
      "6": [
        "Water Gun"
      ],
      "38": [
        "Zen Headbutt"
      ],
      "24": [
        "Nature Power"
      ],
      "9": [
        "Mist"
      ],
      "43": [
        "Energy Ball"
      ],
      "12": [
        "Mega Drain"
      ],
      "28": [
        "Giga Drain"
      ]
    },
    "eggMoves": [
      "Counter",
      "Synthesis",
      "Teeter Dance",
      "Sweet Scent",
      "Razor Leaf",
      "Tickle",
      "Leech Seed"
    ],
    "evolutionMoves": [],
    "tmTRMoves": [
      "Giga Drain",
      "Snore",
      "Facade",
      "Uproar",
      "Grass Knot",
      "Swords Dance",
      "Solar Beam",
      "Icy Wind",
      "Surf",
      "Rest",
      "Seed Bomb",
      "Bullet Seed",
      "Round",
      "Body Slam",
      "Substitute",
      "Attract",
      "Hail",
      "Ice Beam",
      "Energy Ball",
      "Protect",
      "Rain Dance",
      "Thief",
      "Sunny Day",
      "Scald",
      "Endure",
      "Sleep Talk",
      "Whirlpool",
      "Zen Headbutt",
      "Blizzard"
    ],
    "tutorMoves": {
      "Regular": [
        "Grassy Glide"
      ],
      "Transfer": [
        "Secret Power",
        "Natural Gift",
        "Confide",
        "Bubble",
        "Double-Edge",
        "Hidden Power",
        "Echoed Voice",
        "Water Pulse",
        "Double Team",
        "Toxic",
        "Headbutt",
        "Swagger",
        "Flash",
        "Return",
        "Mimic",
        "Captivate",
        "Frustration"
      ]
    }
  }
}