{
  "pixelmonName": "Ludicolo",
  "spDef": 100,
  "spAtt": 90,
  "speed": 70,
  "defence": 70,
  "attack": 70,
  "hp": 80,
  "catchRate": 45,
  "malePercent": 50,
  "nationalPokedexNumber": 272,
  "spawnLevel": 40,
  "spawnLevelRange": 15,
  "baseExp": 181,
  "baseFriendship": 70,
  "rarity": {
    "day": 0,
    "dawndusk": 0,
    "night": 0
  },
  "type1": "Water",
  "type2": "Grass",
  "height": 1.5,
  "width": 1.0,
  "length": 1.0,
  "giScale": 1.0,
  "canFly": false,
  "isRideable": false,
  "preEvolutions": [
    "Lombre",
    "Lotad"
  ],
  "experienceGroup": "MediumSlow",
  "aggression": {
    "timid": 80,
    "passive": 0,
    "aggressive": 20
  },
  "spawnLocations": [
    "Land"
  ],
  "biomeIDs": [
    6,
    134
  ],
  "evGain": {
    "HP": 0,
    "Attack": 0,
    "Defence": 0,
    "SpecialAttack": 0,
    "SpecialDefence": 3,
    "Speed": 0
  },
  "canSurf": false,
  "maxGroupSize": 1,
  "minGroupSize": 1,
  "hoverHeight": 0.0,
  "doesHover": false,
  "id": 378,
  "baseFormID": 378,
  "weight": 55.0,
  "pokemon": "Ludicolo",
  "abilities": [
    "SwiftSwim",
    "RainDish",
    "OwnTempo"
  ],
  "eggGroups": [
    "Water1",
    "Grass"
  ],
  "eggCycles": 16,
  "form": -1,
  "evolutionDefs": [],
  "moves": {
    "levelMoves": {
      "1": [
        "Energy Ball",
        "Giga Drain",
        "Water Gun",
        "Rain Dance",
        "Nature Power",
        "Teeter Dance",
        "Astonish",
        "Fake Out",
        "Growl",
        "Knock Off",
        "Absorb",
        "Bubble Beam",
        "Fury Swipes",
        "Mega Drain",
        "Flail",
        "Hydro Pump",
        "Mist",
        "Zen Headbutt"
      ]
    },
    "eggMoves": [
      "Counter",
      "Synthesis",
      "Teeter Dance",
      "Sweet Scent",
      "Razor Leaf",
      "Tickle",
      "Leech Seed"
    ],
    "evolutionMoves": [],
    "tmTRMoves": [
      "Uproar",
      "Metronome",
      "Swords Dance",
      "Icy Wind",
      "Surf",
      "Seed Bomb",
      "Encore",
      "Hydro Pump",
      "Body Slam",
      "Leaf Storm",
      "Mud Shot",
      "Substitute",
      "Attract",
      "Ice Beam",
      "Drain Punch",
      "Mega Punch",
      "Sunny Day",
      "Fling",
      "Dive",
      "Endure",
      "Whirlpool",
      "Muddy Water",
      "Zen Headbutt",
      "Thunder Punch",
      "Fire Punch",
      "Ice Punch",
      "Giga Drain",
      "Weather Ball",
      "Snore",
      "Facade",
      "Waterfall",
      "Grass Knot",
      "Solar Beam",
      "Mega Kick",
      "Rest",
      "Bullet Seed",
      "Round",
      "Amnesia",
      "Brick Break",
      "Hail",
      "Giga Impact",
      "Hyper Voice",
      "Energy Ball",
      "Protect",
      "Rain Dance",
      "Thief",
      "Hyper Beam",
      "Scald",
      "Focus Blast",
      "Sleep Talk",
      "Blizzard"
    ],
    "tutorMoves": {
      "Regular": [
        "Grassy Glide"
      ],
      "Transfer": [
        "Rock Smash",
        "Secret Power",
        "Natural Gift",
        "Confide",
        "Double-Edge",
        "Hidden Power",
        "Power-Up Punch",
        "Echoed Voice",
        "Water Pulse",
        "Double Team",
        "Hone Claws",
        "Mud-Slap",
        "Focus Punch",
        "Toxic",
        "Rock Climb",
        "Seismic Toss",
        "Headbutt",
        "Dynamic Punch",
        "Swagger",
        "Flash",
        "Return",
        "Mimic",
        "Captivate",
        "Strength",
        "Frustration"
      ]
    }
  }
}