{
  "pixelmonName": "Lugia",
  "spDef": 154,
  "spAtt": 90,
  "speed": 110,
  "defence": 130,
  "attack": 90,
  "hp": 106,
  "catchRate": 3,
  "malePercent": -1,
  "nationalPokedexNumber": 249,
  "spawnLevel": 70,
  "spawnLevelRange": 0,
  "baseExp": 220,
  "baseFriendship": 0,
  "rarity": {
    "day": 0,
    "dawndusk": 0,
    "night": -1
  },
  "type1": "Psychic",
  "type2": "Flying",
  "height": 2.5,
  "width": 1.0,
  "length": 5.2,
  "giScale": 1.0,
  "canFly": true,
  "isRideable": true,
  "preEvolutions": [],
  "experienceGroup": "Slow",
  "aggression": {
    "timid": 80,
    "passive": 0,
    "aggressive": 20
  },
  "swimmingParameters": {
    "depthRangeStart": 0,
    "depthRangeEnd": 40,
    "swimSpeed": 0.5,
    "decayRate": 0.99,
    "refreshRate": 200
  },
  "flyingParameters": {
    "flyHeightMin": 30,
    "flyHeightMax": 50,
    "flySpeedModifier": 1.0,
    "flyRefreshRateY": 100,
    "flyRefreshRateXZ": 400,
    "flyRefreshRateSpeed": 400,
    "flightTimeMin": 0,
    "flightTimeMax": 20,
    "flapRate": 5,
    "landingMaterial": "GrassAndLeaves"
  },
  "spawnLocations": [
    "AirPersistent"
  ],
  "biomeIDs": [
    24
  ],
  "evGain": {
    "HP": 0,
    "Attack": 0,
    "Defence": 0,
    "SpecialAttack": 0,
    "SpecialDefence": 3,
    "Speed": 0
  },
  "canSurf": false,
  "ridingOffsets": {
    "standing": {
      "x": 0.0,
      "y": -1.1,
      "z": 0.2
    },
    "moving": {
      "x": 0.0,
      "y": -1.1,
      "z": -0.2
    }
  },
  "maxGroupSize": 1,
  "minGroupSize": 1,
  "hoverHeight": 0.0,
  "doesHover": false,
  "id": 359,
  "baseFormID": 359,
  "weight": 216.0,
  "pokemon": "Lugia",
  "abilities": [
    "Pressure",
    null,
    "Multiscale"
  ],
  "eggGroups": [
    "Undiscovered"
  ],
  "eggCycles": 121,
  "form": -1,
  "evolutionDefs": [],
  "moves": {
    "levelMoves": {
      "1": [
        "Weather Ball",
        "Whirlwind",
        "Dragon Rush",
        "Ancient Power",
        "Gust"
      ],
      "81": [
        "Future Sight"
      ],
      "18": [
        "Safeguard"
      ],
      "36": [
        "Extrasensory"
      ],
      "54": [
        "Aeroblast"
      ],
      "72": [
        "Hydro Pump"
      ],
      "9": [
        "Mist"
      ],
      "90": [
        "Sky Attack"
      ],
      "27": [
        "Calm Mind"
      ],
      "45": [
        "Recover"
      ],
      "63": [
        "Rain Dance"
      ]
    },
    "eggMoves": [
      "Dual Wingbeat",
      "Scale Shot"
    ],
    "evolutionMoves": [],
    "tmTRMoves": [
      "Light Screen",
      "Icy Wind",
      "Iron Head",
      "Surf",
      "Wonder Room",
      "Iron Tail",
      "Hydro Pump",
      "Body Slam",
      "Bulldoze",
      "Imprison",
      "Substitute",
      "Ice Beam",
      "Thunder Wave",
      "Future Sight",
      "Sunny Day",
      "Brine",
      "Avalanche",
      "Calm Mind",
      "Dive",
      "Steel Wing",
      "Endure",
      "Whirlpool",
      "Swift",
      "Zen Headbutt",
      "Giga Drain",
      "Weather Ball",
      "Snore",
      "Facade",
      "Waterfall",
      "Air Slash",
      "Fly",
      "Rest",
      "Earthquake",
      "Earth Power",
      "Round",
      "Shadow Ball",
      "Sandstorm",
      "Hurricane",
      "Hail",
      "Skill Swap",
      "Giga Impact",
      "Hyper Voice",
      "Helping Hand",
      "Safeguard",
      "Dragon Pulse",
      "Protect",
      "Rain Dance",
      "Thunder",
      "Psyshock",
      "Trick",
      "Hyper Beam",
      "Psychic",
      "Reflect",
      "Sleep Talk",
      "Thunderbolt",
      "Blizzard"
    ],
    "tutorMoves": {
      "Regular": [
        "Dual Wingbeat",
        "Scale Shot"
      ],
      "Transfer": [
        "Ominous Wind",
        "Dream Eater",
        "Detect",
        "Tailwind",
        "Natural Gift",
        "Confide",
        "Double-Edge",
        "Roost",
        "Hidden Power",
        "Water Pulse",
        "Double Team",
        "Shock Wave",
        "Punishment",
        "Telekinesis",
        "Headbutt",
        "Dragon Tail",
        "Sky Drop",
        "Swagger",
        "Charge Beam",
        "Aqua Tail",
        "Nightmare",
        "Dragon Breath",
        "Mimic",
        "Roar",
        "Twister",
        "Frustration",
        "Laser Focus",
        "Rock Smash",
        "Secret Power",
        "Psych Up",
        "Defog",
        "Curse",
        "Echoed Voice",
        "Air Cutter",
        "Mud-Slap",
        "Toxic",
        "Aerial Ace",
        "Flash",
        "Signal Beam",
        "Return",
        "Strength",
        "Zap Cannon"
      ]
    }
  }
}