{
  "pixelmonName": "Lumineon",
  "spDef": 86,
  "spAtt": 69,
  "speed": 91,
  "defence": 76,
  "attack": 69,
  "hp": 69,
  "catchRate": 75,
  "malePercent": 50,
  "nationalPokedexNumber": 457,
  "spawnLevel": 30,
  "spawnLevelRange": 10,
  "baseExp": 156,
  "baseFriendship": 70,
  "rarity": {
    "day": 0,
    "dawndusk": 0,
    "night": 3
  },
  "type1": "Water",
  "height": 1.2,
  "width": 1.0,
  "length": 1.0,
  "giScale": 1.0,
  "canFly": false,
  "isRideable": false,
  "preEvolutions": [
    "Finneon"
  ],
  "experienceGroup": "Erratic",
  "aggression": {
    "timid": 80,
    "passive": 0,
    "aggressive": 20
  },
  "swimmingParameters": {
    "depthRangeStart": 5,
    "depthRangeEnd": 15,
    "swimSpeed": 1.0,
    "decayRate": 0.8,
    "refreshRate": 80
  },
  "spawnLocations": [
    "Water"
  ],
  "biomeIDs": [
    0,
    16,
    24,
    25
  ],
  "evGain": {
    "HP": 0,
    "Attack": 0,
    "Defence": 0,
    "SpecialAttack": 0,
    "SpecialDefence": 0,
    "Speed": 2
  },
  "canSurf": true,
  "maxGroupSize": 1,
  "minGroupSize": 1,
  "hoverHeight": 0.0,
  "doesHover": false,
  "id": 538,
  "baseFormID": 538,
  "weight": 24.0,
  "pokemon": "Lumineon",
  "abilities": [
    "SwiftSwim",
    "StormDrain",
    "WaterVeil"
  ],
  "eggGroups": [
    "Water2"
  ],
  "eggCycles": 21,
  "form": -1,
  "evolutionDefs": [],
  "moves": {
    "levelMoves": {
      "1": [
        "Soak",
        "Water Gun",
        "Pound",
        "Gust",
        "Attract"
      ],
      "66": [
        "Soak"
      ],
      "35": [
        "Aqua Ring"
      ],
      "6": [
        "Water Gun"
      ],
      "10": [
        "Attract"
      ],
      "42": [
        "Whirlpool"
      ],
      "13": [
        "Rain Dance"
      ],
      "48": [
        "U-turn"
      ],
      "17": [
        "Gust"
      ],
      "53": [
        "Bounce"
      ],
      "22": [
        "Water Pulse"
      ],
      "26": [
        "Captivate"
      ],
      "59": [
        "Silver Wind"
      ],
      "29": [
        "Safeguard"
      ]
    },
    "eggMoves": [
      "Flail",
      "Psybeam",
      "Aurora Beam",
      "Agility",
      "Brine",
      "Charm",
      "Splash",
      "Aqua Tail",
      "Sweet Kiss",
      "Confuse Ray",
      "Tickle",
      "Signal Beam"
    ],
    "evolutionMoves": [],
    "tmTRMoves": [
      "Hyper Beam",
      "Giga Impact",
      "Safeguard",
      "Rest",
      "Snore",
      "Protect",
      "Icy Wind",
      "Charm",
      "Attract",
      "Rain Dance",
      "Hail",
      "Whirlpool",
      "Facade",
      "Dive",
      "Bounce",
      "Brine",
      "U-turn",
      "Payback",
      "Round",
      "Surf",
      "Ice Beam",
      "Blizzard",
      "Agility",
      "Waterfall",
      "Substitute",
      "Endure",
      "Sleep Talk",
      "Scald"
    ],
    "tutorMoves": {
      "Regular": [
        "Defog",
        "Snore",
        "Water Pulse",
        "Aqua Tail",
        "Bounce",
        "Icy Wind",
        "Tailwind",
        "Signal Beam"
      ],
      "Transfer": [
        "Ominous Wind",
        "Secret Power",
        "Psych Up",
        "Natural Gift",
        "Confide",
        "Hidden Power",
        "Air Cutter",
        "Double Team",
        "Swift",
        "Toxic",
        "Swagger",
        "Flash",
        "Return",
        "Twister",
        "Frustration"
      ]
    }
  }
}