{
  "pixelmonName": "Lycanroc",
  "spDef": 65,
  "spAtt": 55,
  "speed": 110,
  "defence": 65,
  "attack": 117,
  "hp": 75,
  "catchRate": 90,
  "malePercent": 50,
  "nationalPokedexNumber": 745,
  "spawnLevel": 25,
  "spawnLevelRange": 15,
  "baseExp": 170,
  "baseFriendship": 70,
  "rarity": {
    "day": 0,
    "dawndusk": 0,
    "night": 40
  },
  "type1": "Rock",
  "height": 0.79,
  "width": 1.0,
  "length": 1.0,
  "giScale": 1.0,
  "canFly": false,
  "isRideable": false,
  "preEvolutions": [
    "Rockruff"
  ],
  "experienceGroup": "MediumFast",
  "aggression": {
    "timid": 80,
    "passive": 0,
    "aggressive": 20
  },
  "spawnLocations": [],
  "biomeIDs": [],
  "evGain": {
    "HP": 0,
    "Attack": 2,
    "Defence": 0,
    "SpecialAttack": 0,
    "SpecialDefence": 0,
    "Speed": 0
  },
  "canSurf": false,
  "maxGroupSize": 1,
  "minGroupSize": 1,
  "hoverHeight": 0.0,
  "doesHover": false,
  "id": 952,
  "baseFormID": 952,
  "weight": 25.0,
  "pokemon": "Lycanroc",
  "abilities": [
    "ToughClaws",
    null,
    null
  ],
  "eggGroups": [
    "Field"
  ],
  "eggCycles": 15,
  "form": 2,
  "evolutionDefs": [],
  "moves": {
    "levelMoves": {
      "16": [
        "Howl"
      ],
      "48": [
        "Scary Face"
      ],
      "1": [
        "Quick Attack",
        "Leer",
        "Taunt",
        "Sand Attack",
        "Crush Claw",
        "Sucker Punch",
        "Tackle",
        "Counter",
        "Accelerock",
        "Endure",
        "Reversal",
        "Double Team",
        "Quick Guard"
      ],
      "20": [
        "Bite"
      ],
      "36": [
        "Rock Slide"
      ],
      "54": [
        "Stealth Rock"
      ],
      "24": [
        "Rock Tomb"
      ],
      "42": [
        "Crunch"
      ],
      "12": [
        "Rock Throw"
      ],
      "60": [
        "Stone Edge"
      ],
      "30": [
        "Roar"
      ]
    },
    "eggMoves": [],
    "evolutionMoves": [
      "Crush Claw"
    ],
    "tmTRMoves": [
      "Snore",
      "Facade",
      "Taunt",
      "Focus Energy",
      "Play Rough",
      "Snarl",
      "Stone Edge",
      "Fire Fang",
      "Stomping Tantrum",
      "Swords Dance",
      "Rock Blast",
      "Bulk Up",
      "Close Combat",
      "Iron Head",
      "Rest",
      "Thunder Fang",
      "Iron Tail",
      "Work Up",
      "Rock Slide",
      "Earth Power",
      "Scary Face",
      "Round",
      "Sandstorm",
      "Iron Defense",
      "Substitute",
      "Brick Break",
      "Attract",
      "Giga Impact",
      "Crunch",
      "Hyper Voice",
      "Protect",
      "Psychic Fangs",
      "Drill Run",
      "Outrage",
      "Tail Slap",
      "Rock Tomb",
      "Endure",
      "Sleep Talk",
      "Stealth Rock",
      "Reversal",
      "Zen Headbutt"
    ],
    "tutorMoves": {
      "Transfer": [
        "Thrash",
        "Rock Climb",
        "Endeavor",
        "Last Resort",
        "Odor Sleuth",
        "Covet"
      ]
    }
  }
}