{
  "pixelmonName": "Machop",
  "spDef": 35,
  "spAtt": 35,
  "speed": 35,
  "defence": 50,
  "attack": 80,
  "hp": 70,
  "catchRate": 180,
  "malePercent": 75,
  "nationalPokedexNumber": 66,
  "spawnLevel": 5,
  "spawnLevelRange": 23,
  "baseExp": 75,
  "baseFriendship": 70,
  "rarity": {
    "day": 90,
    "dawndusk": 0,
    "night": 0
  },
  "type1": "Fighting",
  "height": 0.8,
  "width": 1.0,
  "length": 1.0,
  "giScale": 0.5,
  "canFly": false,
  "isRideable": false,
  "preEvolutions": [],
  "experienceGroup": "MediumSlow",
  "aggression": {
    "timid": 80,
    "passive": 0,
    "aggressive": 20
  },
  "spawnLocations": [
    "Land"
  ],
  "biomeIDs": [
    3,
    3,
    34,
    131,
    162
  ],
  "evGain": {
    "HP": 0,
    "Attack": 1,
    "Defence": 0,
    "SpecialAttack": 0,
    "SpecialDefence": 0,
    "Speed": 0
  },
  "canSurf": false,
  "maxGroupSize": 3,
  "minGroupSize": 1,
  "hoverHeight": 0.0,
  "doesHover": false,
  "id": 149,
  "baseFormID": 149,
  "weight": 19.5,
  "pokemon": "Machop",
  "abilities": [
    "Guts",
    "NoGuard",
    "Steadfast"
  ],
  "eggGroups": [
    "Humanlike"
  ],
  "eggCycles": 21,
  "form": -1,
  "evolutionDefs": [
    {
      "targetId": 150,
      "evolveLevel": 28
    }
  ],
  "moves": {
    "levelMoves": {
      "32": [
        "Dual Chop"
      ],
      "1": [
        "Leer",
        "Low Kick"
      ],
      "4": [
        "Focus Energy"
      ],
      "36": [
        "Bulk Up"
      ],
      "8": [
        "Revenge"
      ],
      "40": [
        "Seismic Toss"
      ],
      "12": [
        "Low Sweep"
      ],
      "44": [
        "Dynamic Punch"
      ],
      "16": [
        "Knock Off"
      ],
      "48": [
        "Cross Chop"
      ],
      "20": [
        "Scary Face"
      ],
      "52": [
        "Double-Edge"
      ],
      "24": [
        "Vital Throw"
      ],
      "29": [
        "Strength"
      ]
    },
    "eggMoves": [
      "Counter",
      "Submission",
      "Quick Guard",
      "Tickle",
      "Bullet Punch"
    ],
    "evolutionMoves": [],
    "tmTRMoves": [
      "Snore",
      "Facade",
      "Flamethrower",
      "Heavy Slam",
      "Focus Energy",
      "Metronome",
      "Light Screen",
      "Retaliate",
      "Revenge",
      "Bulk Up",
      "Close Combat",
      "Mega Kick",
      "Rest",
      "Encore",
      "Earthquake",
      "Work Up",
      "Rock Slide",
      "Scary Face",
      "Round",
      "Body Slam",
      "Bulldoze",
      "Substitute",
      "Superpower",
      "Poison Jab",
      "Brick Break",
      "Attract",
      "Helping Hand",
      "Payback",
      "Protect",
      "Dig",
      "Rain Dance",
      "Mega Punch",
      "Thief",
      "Sunny Day",
      "Focus Blast",
      "Fling",
      "Rock Tomb",
      "Low Kick",
      "Endure",
      "Sleep Talk",
      "Reversal",
      "Thunder Punch",
      "Low Sweep",
      "Fire Punch",
      "Ice Punch",
      "Fire Blast"
    ],
    "tutorMoves": {
      "Regular": [
        "Coaching"
      ],
      "Transfer": [
        "Rock Smash",
        "Secret Power",
        "Detect",
        "Natural Gift",
        "Confide",
        "Curse",
        "Incinerate",
        "Karate Chop",
        "Take Down",
        "Hidden Power",
        "Vacuum Wave",
        "Fissure",
        "Power-Up Punch",
        "Smack Down",
        "Bide",
        "Double Team",
        "Mud-Slap",
        "Focus Punch",
        "Toxic",
        "Rock Climb",
        "Rage",
        "Headbutt",
        "Power Trick",
        "Skull Bash",
        "Swagger",
        "Rolling Kick",
        "Return",
        "Mimic",
        "Captivate",
        "Meditate",
        "Wake-Up Slap",
        "Role Play",
        "Smelling Salts",
        "Frustration",
        "Foresight"
      ]
    }
  }
}