{
  "pixelmonName": "Magnemite",
  "spDef": 55,
  "spAtt": 95,
  "speed": 45,
  "defence": 70,
  "attack": 35,
  "hp": 25,
  "catchRate": 190,
  "malePercent": -1,
  "nationalPokedexNumber": 81,
  "spawnLevel": 10,
  "spawnLevelRange": 20,
  "baseExp": 89,
  "baseFriendship": 70,
  "rarity": {
    "day": 200,
    "dawndusk": 20,
    "night": 20
  },
  "type1": "Electric",
  "type2": "Steel",
  "height": 0.3,
  "width": 1.0,
  "length": 1.0,
  "giScale": 0.26,
  "canFly": false,
  "isRideable": false,
  "preEvolutions": [],
  "experienceGroup": "MediumFast",
  "aggression": {
    "timid": 80,
    "passive": 0,
    "aggressive": 20
  },
  "spawnLocations": [
    "Land"
  ],
  "biomeIDs": [
    10,
    11,
    12,
    13,
    26,
    30,
    31,
    140,
    158
  ],
  "evGain": {
    "HP": 0,
    "Attack": 0,
    "Defence": 0,
    "SpecialAttack": 1,
    "SpecialDefence": 0,
    "Speed": 0
  },
  "canSurf": false,
  "maxGroupSize": 1,
  "minGroupSize": 1,
  "hoverHeight": 1.0,
  "doesHover": true,
  "id": 221,
  "baseFormID": 221,
  "weight": 6.0,
  "pokemon": "Magnemite",
  "abilities": [
    "MagnetPull",
    "Sturdy",
    "Analytic"
  ],
  "eggGroups": [
    "Mineral"
  ],
  "eggCycles": 21,
  "form": -1,
  "evolutionDefs": [
    {
      "targetId": 70,
      "evolveLevel": 30
    }
  ],
  "moves": {
    "levelMoves": {
      "32": [
        "Flash Cannon"
      ],
      "1": [
        "Tackle",
        "Thunder Shock"
      ],
      "4": [
        "Supersonic"
      ],
      "36": [
        "Discharge"
      ],
      "8": [
        "Thunder Wave"
      ],
      "40": [
        "Metal Sound"
      ],
      "12": [
        "Electro Ball"
      ],
      "44": [
        "Light Screen"
      ],
      "16": [
        "Gyro Ball"
      ],
      "48": [
        "Lock-On"
      ],
      "20": [
        "Spark"
      ],
      "52": [
        "Zap Cannon"
      ],
      "24": [
        "Screech"
      ],
      "28": [
        "Magnet Rise"
      ]
    },
    "eggMoves": [
      "Rising Voltage"
    ],
    "evolutionMoves": [],
    "tmTRMoves": [
      "Snore",
      "Protect",
      "Facade",
      "Rain Dance",
      "Thunder",
      "Wild Charge",
      "Sunny Day",
      "Light Screen",
      "Volt Switch",
      "Gyro Ball",
      "Flash Cannon",
      "Screech",
      "Rest",
      "Reflect",
      "Endure",
      "Sleep Talk",
      "Round",
      "Swift",
      "Iron Defense",
      "Electro Ball",
      "Thunderbolt",
      "Substitute",
      "Electroweb",
      "Thunder Wave"
    ],
    "tutorMoves": {
      "Regular": [
        "Rising Voltage",
        "Steel Beam"
      ],
      "Transfer": [
        "Secret Power",
        "Psych Up",
        "Magnet Bomb",
        "Teleport",
        "Natural Gift",
        "Confide",
        "Curse",
        "Double-Edge",
        "Explosion",
        "Take Down",
        "Hidden Power",
        "Magic Coat",
        "Bide",
        "Recycle",
        "Double Team",
        "Shock Wave",
        "Toxic",
        "Rage",
        "Headbutt",
        "Mirror Shot",
        "Swagger",
        "Charge Beam",
        "Flash",
        "Rollout",
        "Signal Beam",
        "Gravity",
        "Sonic Boom",
        "Return",
        "Mimic",
        "Frustration"
      ]
    }
  }
}