{
  "pixelmonName": "Makuhita",
  "spDef": 30,
  "spAtt": 20,
  "speed": 25,
  "defence": 30,
  "attack": 60,
  "hp": 72,
  "catchRate": 180,
  "malePercent": 75,
  "nationalPokedexNumber": 296,
  "spawnLevel": 5,
  "spawnLevelRange": 10,
  "baseExp": 87,
  "baseFriendship": 70,
  "rarity": {
    "day": 0,
    "dawndusk": 0,
    "night": 100
  },
  "type1": "Fighting",
  "height": 1.0,
  "width": 1.0,
  "length": 1.0,
  "giScale": 1.0,
  "canFly": false,
  "isRideable": false,
  "preEvolutions": [],
  "experienceGroup": "Fluctuating",
  "aggression": {
    "timid": 80,
    "passive": 0,
    "aggressive": 20
  },
  "spawnLocations": [
    "Land"
  ],
  "biomeIDs": [
    3,
    3,
    34,
    131,
    162
  ],
  "evGain": {
    "HP": 1,
    "Attack": 0,
    "Defence": 0,
    "SpecialAttack": 0,
    "SpecialDefence": 0,
    "Speed": 0
  },
  "canSurf": false,
  "maxGroupSize": 1,
  "minGroupSize": 1,
  "hoverHeight": 0.0,
  "doesHover": false,
  "id": 402,
  "baseFormID": 402,
  "weight": 86.4,
  "pokemon": "Makuhita",
  "abilities": [
    "ThickFat",
    "Guts",
    "SheerForce"
  ],
  "eggGroups": [
    "Humanlike"
  ],
  "eggCycles": 21,
  "form": -1,
  "evolutionDefs": [
    {
      "targetId": 403,
      "evolveLevel": 24
    }
  ],
  "moves": {
    "levelMoves": {
      "1": [
        "Tackle",
        "Focus Energy"
      ],
      "34": [
        "Wake-Up Slap"
      ],
      "4": [
        "Sand Attack"
      ],
      "37": [
        "Endure"
      ],
      "7": [
        "Arm Thrust"
      ],
      "40": [
        "Close Combat"
      ],
      "10": [
        "Fake Out"
      ],
      "43": [
        "Reversal"
      ],
      "13": [
        "Force Palm"
      ],
      "46": [
        "Heavy Slam"
      ],
      "16": [
        "Whirlwind"
      ],
      "19": [
        "Knock Off"
      ],
      "22": [
        "Vital Throw"
      ],
      "25": [
        "Belly Drum"
      ],
      "28": [
        "Smelling Salts"
      ],
      "31": [
        "Seismic Toss"
      ]
    },
    "eggMoves": [
      "Helping Hand",
      "Focus Punch",
      "Cross Chop",
      "Detect",
      "Revenge",
      "Wake-Up Slap",
      "Chip Away",
      "Faint Attack",
      "Counter",
      "Dynamic Punch",
      "Wide Guard",
      "Feint",
      "Bullet Punch",
      "Foresight"
    ],
    "evolutionMoves": [],
    "tmTRMoves": [
      "Mega Punch",
      "Mega Kick",
      "Fire Punch",
      "Ice Punch",
      "Thunder Punch",
      "Dig",
      "Rest",
      "Rock Slide",
      "Snore",
      "Protect",
      "Attract",
      "Rain Dance",
      "Sunny Day",
      "Whirlpool",
      "Facade",
      "Swift",
      "Helping Hand",
      "Revenge",
      "Brick Break",
      "Rock Tomb",
      "Assurance",
      "Fling",
      "Low Sweep",
      "Round",
      "Retaliate",
      "Bulldoze",
      "Body Slam",
      "Surf",
      "Low Kick",
      "Earthquake",
      "Focus Energy",
      "Metronome",
      "Substitute",
      "Reversal",
      "Endure",
      "Sleep Talk",
      "Superpower",
      "Bulk Up",
      "Close Combat",
      "Poison Jab",
      "Focus Blast",
      "Heavy Slam",
      "Work Up"
    ],
    "tutorMoves": {
      "Regular": [
        "Helping Hand",
        "Focus Punch",
        "Snore",
        "Low Kick",
        "Knock Off",
        "Superpower",
        "Thunder Punch",
        "Fire Punch",
        "Ice Punch",
        "Role Play"
      ],
      "Transfer": [
        "Rock Smash",
        "Secret Power",
        "Natural Gift",
        "Confide",
        "Double-Edge",
        "Hidden Power",
        "Vacuum Wave",
        "Power-Up Punch",
        "Smack Down",
        "Double Team",
        "Mud-Slap",
        "Toxic",
        "Rock Climb",
        "Headbutt",
        "Swagger",
        "Return",
        "Mimic",
        "Captivate",
        "Strength",
        "Frustration"
      ]
    }
  }
}