{
  "pixelmonName": "Marshadow",
  "spDef": 90,
  "spAtt": 90,
  "speed": 125,
  "defence": 80,
  "attack": 125,
  "hp": 90,
  "catchRate": 3,
  "malePercent": -1,
  "nationalPokedexNumber": 802,
  "spawnLevel": 70,
  "spawnLevelRange": 0,
  "baseExp": 120,
  "baseFriendship": 0,
  "rarity": {
    "day": 0,
    "dawndusk": -1,
    "night": 0
  },
  "type1": "Fighting",
  "type2": "Ghost",
  "height": 0.7,
  "width": 0.4,
  "length": 0.3,
  "giScale": 1.0,
  "canFly": false,
  "isRideable": false,
  "preEvolutions": [],
  "experienceGroup": "Slow",
  "aggression": {
    "timid": 99,
    "passive": 0,
    "aggressive": 1
  },
  "spawnLocations": [
    "Land",
    "Land"
  ],
  "biomeIDs": [
    134,
    29
  ],
  "evGain": {
    "HP": 0,
    "Attack": 2,
    "Defence": 0,
    "SpecialAttack": 0,
    "SpecialDefence": 0,
    "Speed": 1
  },
  "canSurf": false,
  "maxGroupSize": 1,
  "minGroupSize": 1,
  "hoverHeight": 0.0,
  "doesHover": false,
  "id": 923,
  "baseFormID": 923,
  "weight": 22.2,
  "pokemon": "Marshadow",
  "abilities": [
    "Technician",
    null,
    null
  ],
  "eggGroups": [
    "Undiscovered"
  ],
  "eggCycles": 120,
  "form": -1,
  "evolutionDefs": [],
  "moves": {
    "levelMoves": {
      "1": [
        "Counter",
        "Feint",
        "Shadow Sneak",
        "Thunder Punch",
        "Copycat",
        "Fire Punch",
        "Ice Punch"
      ],
      "81": [
        "Laser Focus"
      ],
      "18": [
        "Shadow Punch"
      ],
      "99": [
        "Close Combat"
      ],
      "36": [
        "Assurance"
      ],
      "54": [
        "Drain Punch"
      ],
      "72": [
        "Spectral Thief"
      ],
      "9": [
        "Role Play"
      ],
      "90": [
        "Endeavor"
      ],
      "27": [
        "Force Palm"
      ],
      "45": [
        "Sucker Punch"
      ],
      "63": [
        "Psych Up"
      ]
    },
    "eggMoves": [
      "Skitter Smack",
      "Coaching",
      "Poltergeist"
    ],
    "evolutionMoves": [],
    "tmTRMoves": [
      "Assurance",
      "Revenge",
      "Throat Chop",
      "Close Combat",
      "Iron Head",
      "Work Up",
      "Agility",
      "Aura Sphere",
      "Substitute",
      "Poison Jab",
      "Payback",
      "False Swipe",
      "Drain Punch",
      "Mega Punch",
      "Outrage",
      "Calm Mind",
      "Fling",
      "Rock Tomb",
      "Endure",
      "Swift",
      "Zen Headbutt",
      "Blaze Kick",
      "Thunder Punch",
      "Low Sweep",
      "Fire Punch",
      "Ice Punch",
      "Snore",
      "Facade",
      "Stone Edge",
      "Grass Knot",
      "Bulk Up",
      "Mega Kick",
      "Rest",
      "Rock Slide",
      "Round",
      "Shadow Ball",
      "Bounce",
      "Superpower",
      "Brick Break",
      "Acrobatics",
      "Giga Impact",
      "Protect",
      "Thief",
      "Hyper Beam",
      "Will-O-Wisp",
      "Focus Blast",
      "Phantom Force",
      "Foul Play",
      "Low Kick",
      "Sleep Talk",
      "Reversal",
      "Shadow Claw",
      "Hex"
    ],
    "tutorMoves": {
      "Regular": [
        "Skitter Smack",
        "Coaching",
        "Poltergeist"
      ],
      "Transfer": [
        "Snatch",
        "Confide",
        "Hidden Power",
        "Echoed Voice",
        "Smack Down",
        "Double Team",
        "Focus Punch",
        "Toxic",
        "Jump Kick",
        "Swagger",
        "Rolling Kick",
        "Last Resort",
        "Return",
        "Knock Off",
        "Pursuit",
        "Frustration"
      ]
    }
  }
}