{
  "pixelmonName": "Mewtwo",
  "spDef": 100,
  "spAtt": 154,
  "speed": 130,
  "defence": 100,
  "attack": 190,
  "hp": 106,
  "catchRate": 3,
  "malePercent": -1,
  "nationalPokedexNumber": 150,
  "spawnLevel": 1,
  "spawnLevelRange": 99,
  "baseExp": 306,
  "baseFriendship": 0,
  "rarity": {
    "day": 0,
    "dawndusk": 0,
    "night": 0
  },
  "type1": "Psychic",
  "type2": "Fighting",
  "height": 2.3,
  "width": 2.3,
  "length": 2.3,
  "giScale": 0.5,
  "canFly": true,
  "isRideable": true,
  "preEvolutions": [],
  "experienceGroup": "Slow",
  "aggression": {
    "timid": 80,
    "passive": 0,
    "aggressive": 20
  },
  "spawnLocations": [],
  "biomeIDs": [
    22,
    149
  ],
  "evGain": {
    "HP": 0,
    "Attack": 0,
    "Defence": 0,
    "SpecialAttack": 3,
    "SpecialDefence": 0,
    "Speed": 0
  },
  "canSurf": false,
  "maxGroupSize": 1,
  "minGroupSize": 1,
  "hoverHeight": 0.0,
  "doesHover": false,
  "id": 832,
  "baseFormID": 107,
  "weight": 127.0,
  "pokemon": "Mewtwo",
  "abilities": [
    "Steadfast",
    null,
    null
  ],
  "eggGroups": [
    "Undiscovered"
  ],
  "eggCycles": 121,
  "form": 1,
  "evolutionDefs": [],
  "moves": {
    "levelMoves": {
      "16": [
        "Psycho Cut"
      ],
      "32": [
        "Amnesia"
      ],
      "48": [
        "Psychic"
      ],
      "64": [
        "Mist"
      ],
      "80": [
        "Recover"
      ],
      "1": [
        "Life Dew",
        "Swift",
        "Confusion",
        "Disable",
        "Laser Focus"
      ],
      "8": [
        "Ancient Power"
      ],
      "24": [
        "Safeguard"
      ],
      "40": [
        "Aura Sphere"
      ],
      "56": [
        "Guard Swap",
        "Power Swap"
      ],
      "72": [
        "Psystrike"
      ],
      "88": [
        "Future Sight"
      ]
    },
    "eggMoves": [
      "Expanding Force"
    ],
    "evolutionMoves": [],
    "tmTRMoves": [
      "Flamethrower",
      "Taunt",
      "Metronome",
      "Light Screen",
      "Icy Wind",
      "Wonder Room",
      "Iron Tail",
      "Agility",
      "Nasty Plot",
      "Aura Sphere",
      "Body Slam",
      "Bulldoze",
      "Substitute",
      "Poison Jab",
      "Power Swap",
      "Ice Beam",
      "Thunder Wave",
      "Future Sight",
      "Drain Punch",
      "Tri Attack",
      "Mega Punch",
      "Self-Destruct",
      "Sunny Day",
      "Avalanche",
      "Calm Mind",
      "Fling",
      "Rock Tomb",
      "Psychic Terrain",
      "Dive",
      "Brutal Swing",
      "Endure",
      "Swift",
      "Zen Headbutt",
      "Thunder Punch",
      "Low Sweep",
      "Fire Punch",
      "Ice Punch",
      "Trick Room",
      "Fire Blast",
      "Snore",
      "Facade",
      "Stone Edge",
      "Magic Room",
      "Grass Knot",
      "Solar Beam",
      "Bulk Up",
      "Mega Kick",
      "Stored Power",
      "Rest",
      "Earthquake",
      "Pay Day",
      "Rock Slide",
      "Round",
      "Shadow Ball",
      "Sandstorm",
      "Amnesia",
      "Hurricane",
      "Brick Break",
      "Hail",
      "Skill Swap",
      "Ally Switch",
      "Giga Impact",
      "Energy Ball",
      "Safeguard",
      "Protect",
      "Guard Swap",
      "Rain Dance",
      "Thunder",
      "Psyshock",
      "Trick",
      "Hyper Beam",
      "Will-O-Wisp",
      "Focus Blast",
      "Psychic",
      "Foul Play",
      "Reflect",
      "Low Kick",
      "Sleep Talk",
      "Speed Swap",
      "Psycho Cut",
      "Electro Ball",
      "Thunderbolt",
      "Blizzard"
    ],
    "tutorMoves": {
      "Regular": [
        "Expanding Force"
      ],
      "Transfer": [
        "Dream Eater",
        "Detect",
        "Snatch",
        "Natural Gift",
        "Confide",
        "Incinerate",
        "Me First",
        "Double-Edge",
        "Hidden Power",
        "Power-Up Punch",
        "Water Pulse",
        "Bide",
        "Double Team",
        "Shock Wave",
        "Telekinesis",
        "Seismic Toss",
        "Rage",
        "Headbutt",
        "Dynamic Punch",
        "Skull Bash",
        "Swagger",
        "Charge Beam",
        "Aqua Tail",
        "Nightmare",
        "Psybeam",
        "Submission",
        "Mimic",
        "Miracle Eye",
        "Role Play",
        "Torment",
        "Frustration",
        "Rock Smash",
        "Secret Power",
        "Psych Up",
        "Bubble Beam",
        "Teleport",
        "Counter",
        "Curse",
        "Take Down",
        "Magic Coat",
        "Recycle",
        "Psywave",
        "Mud-Slap",
        "Focus Punch",
        "Toxic",
        "Rock Climb",
        "Aerial Ace",
        "Barrier",
        "Confuse Ray",
        "Embargo",
        "Flash",
        "Signal Beam",
        "Gravity",
        "Water Gun",
        "Return",
        "Strength",
        "Zap Cannon"
      ]
    }
  }
}