{
  "pixelmonName": "Miltank",
  "spDef": 70,
  "spAtt": 40,
  "speed": 100,
  "defence": 105,
  "attack": 80,
  "hp": 95,
  "catchRate": 45,
  "malePercent": 0,
  "nationalPokedexNumber": 241,
  "spawnLevel": 5,
  "spawnLevelRange": 10,
  "baseExp": 200,
  "baseFriendship": 70,
  "rarity": {
    "day": 125,
    "dawndusk": 0,
    "night": 0
  },
  "type1": "Normal",
  "height": 1.2,
  "width": 1.0,
  "length": 1.0,
  "giScale": 1.0,
  "canFly": false,
  "isRideable": false,
  "preEvolutions": [],
  "experienceGroup": "Slow",
  "aggression": {
    "timid": 80,
    "passive": 0,
    "aggressive": 20
  },
  "spawnLocations": [
    "Land"
  ],
  "biomeIDs": [
    1
  ],
  "evGain": {
    "HP": 0,
    "Attack": 0,
    "Defence": 2,
    "SpecialAttack": 0,
    "SpecialDefence": 0,
    "Speed": 0
  },
  "canSurf": false,
  "maxGroupSize": 5,
  "minGroupSize": 2,
  "hoverHeight": 0.0,
  "doesHover": false,
  "id": 235,
  "baseFormID": 235,
  "weight": 75.5,
  "pokemon": "Miltank",
  "abilities": [
    "ThickFat",
    "Scrappy",
    "SapSipper"
  ],
  "eggGroups": [
    "Field"
  ],
  "eggCycles": 21,
  "form": -1,
  "evolutionDefs": [],
  "moves": {
    "levelMoves": {
      "1": [
        "Tackle",
        "Growl"
      ],
      "50": [
        "Charm"
      ],
      "35": [
        "Milk Drink"
      ],
      "20": [
        "Heal Bell"
      ],
      "5": [
        "Rollout"
      ],
      "55": [
        "High Horsepower"
      ],
      "40": [
        "Body Slam"
      ],
      "25": [
        "Headbutt"
      ],
      "10": [
        "Defense Curl"
      ],
      "45": [
        "Play Rough"
      ],
      "30": [
        "Zen Headbutt"
      ],
      "15": [
        "Stomp"
      ]
    },
    "eggMoves": [
      "Focus Punch",
      "Curse",
      "Seismic Toss",
      "Present",
      "Hammer Arm",
      "Belch",
      "Double-Edge"
    ],
    "evolutionMoves": [],
    "tmTRMoves": [
      "Play Rough",
      "Metronome",
      "Icy Wind",
      "Iron Head",
      "Surf",
      "Iron Tail",
      "Work Up",
      "Body Slam",
      "Bulldoze",
      "Substitute",
      "Attract",
      "Ice Beam",
      "Thunder Wave",
      "Mega Punch",
      "Sunny Day",
      "Fling",
      "Rock Tomb",
      "Endure",
      "Whirlpool",
      "Zen Headbutt",
      "Thunder Punch",
      "Fire Punch",
      "Ice Punch",
      "Snore",
      "Facade",
      "Heavy Slam",
      "Retaliate",
      "Stomping Tantrum",
      "Solar Beam",
      "Mega Kick",
      "Rest",
      "Earthquake",
      "Rock Slide",
      "Charm",
      "Round",
      "Shadow Ball",
      "Sandstorm",
      "Brick Break",
      "Giga Impact",
      "Body Press",
      "Helping Hand",
      "Protect",
      "Rain Dance",
      "Thunder",
      "High Horsepower",
      "Hyper Beam",
      "Gyro Ball",
      "Focus Blast",
      "Sleep Talk",
      "Stealth Rock",
      "Reversal",
      "Thunderbolt",
      "Blizzard"
    ],
    "tutorMoves": {
      "Regular": [
        "Steel Roller"
      ],
      "Transfer": [
        "Natural Gift",
        "Confide",
        "Heart Stamp",
        "Hidden Power",
        "Power-Up Punch",
        "Water Pulse",
        "Bide",
        "Double Team",
        "Shock Wave",
        "Punishment",
        "Dynamic Punch",
        "Swagger",
        "Mimic",
        "Captivate",
        "Wake-Up Slap",
        "Frustration",
        "Rock Smash",
        "After You",
        "Secret Power",
        "Psych Up",
        "Counter",
        "Echoed Voice",
        "Dizzy Punch",
        "Block",
        "Mud-Slap",
        "Toxic",
        "Return",
        "Sweet Scent",
        "Strength",
        "Zap Cannon"
      ]
    }
  }
}