{
  "pixelmonName": "MimeJr",
  "spDef": 90,
  "spAtt": 70,
  "speed": 60,
  "defence": 45,
  "attack": 25,
  "hp": 20,
  "catchRate": 145,
  "malePercent": 50,
  "nationalPokedexNumber": 439,
  "spawnLevel": 9,
  "spawnLevelRange": 4,
  "baseExp": 78,
  "baseFriendship": 70,
  "rarity": {
    "day": 0,
    "dawndusk": 0,
    "night": 30
  },
  "type1": "Psychic",
  "type2": "Fairy",
  "height": 0.6,
  "width": 0.7,
  "length": 0.7,
  "giScale": 1.0,
  "canFly": false,
  "isRideable": false,
  "preEvolutions": [],
  "experienceGroup": "MediumFast",
  "aggression": {
    "timid": 80,
    "passive": 0,
    "aggressive": 20
  },
  "spawnLocations": [
    "Land"
  ],
  "biomeIDs": [
    4,
    5,
    18,
    19,
    27,
    28,
    29,
    32,
    33,
    133,
    155,
    156,
    157,
    160,
    161
  ],
  "evGain": {
    "HP": 0,
    "Attack": 0,
    "Defence": 0,
    "SpecialAttack": 0,
    "SpecialDefence": 1,
    "Speed": 0
  },
  "canSurf": false,
  "maxGroupSize": 1,
  "minGroupSize": 1,
  "hoverHeight": 0.0,
  "doesHover": false,
  "id": 520,
  "baseFormID": 520,
  "weight": 13.0,
  "pokemon": "MimeJr",
  "abilities": [
    "Soundproof",
    "Filter",
    "Technician"
  ],
  "eggGroups": [
    "Undiscovered"
  ],
  "eggCycles": 26,
  "form": -1,
  "evolutionDefs": [
    {
      "targetId": 90,
      "formTo": -1,
      "evolveCondition": "Move:137:MrMime"
    },
    {
      "targetId": 1125,
      "formTo": 10,
      "evolveCondition": "Icestone:MrMime"
    }
  ],
  "moves": {
    "levelMoves": {
      "32": [
        "Mimic"
      ],
      "1": [
        "Pound",
        "Copycat"
      ],
      "4": [
        "Baton Pass"
      ],
      "36": [
        "Safeguard",
        "Reflect",
        "Light Screen"
      ],
      "8": [
        "Encore"
      ],
      "40": [
        "Sucker Punch"
      ],
      "12": [
        "Confusion"
      ],
      "44": [
        "Dazzling Gleam"
      ],
      "16": [
        "Role Play"
      ],
      "48": [
        "Psychic"
      ],
      "20": [
        "Protect"
      ],
      "52": [
        "Teeter Dance"
      ],
      "24": [
        "Recycle"
      ],
      "28": [
        "Psybeam"
      ]
    },
    "eggMoves": [
      "Power Split",
      "Fake Out",
      "Confuse Ray",
      "Hypnosis",
      "Tickle"
    ],
    "evolutionMoves": [],
    "tmTRMoves": [
      "Snore",
      "Facade",
      "Uproar",
      "Taunt",
      "Dazzling Gleam",
      "Light Screen",
      "Magic Room",
      "Grass Knot",
      "Solar Beam",
      "Icy Wind",
      "Stored Power",
      "Rest",
      "Encore",
      "Wonder Room",
      "Charm",
      "Nasty Plot",
      "Round",
      "Misty Terrain",
      "Shadow Ball",
      "Substitute",
      "Brick Break",
      "Attract",
      "Skill Swap",
      "Ally Switch",
      "Thunder Wave",
      "Helping Hand",
      "Future Sight",
      "Safeguard",
      "Protect",
      "Drain Punch",
      "Rain Dance",
      "Thunder",
      "Thief",
      "Psyshock",
      "Trick",
      "Sunny Day",
      "Baton Pass",
      "Calm Mind",
      "Fling",
      "Psychic",
      "Psychic Terrain",
      "Reflect",
      "Endure",
      "Sleep Talk",
      "Thunderbolt",
      "Trick Room"
    ],
    "tutorMoves": {
      "Transfer": [
        "Secret Power",
        "Psych Up",
        "Dream Eater",
        "Snatch",
        "Natural Gift",
        "Confide",
        "Healing Wish",
        "Hidden Power",
        "Magic Coat",
        "Double Team",
        "Infestation",
        "Shock Wave",
        "Mud-Slap",
        "Focus Punch",
        "Double Slap",
        "Telekinesis",
        "Toxic",
        "Barrier",
        "Headbutt",
        "Swagger",
        "Charge Beam",
        "Flash",
        "Signal Beam",
        "Return",
        "Captivate",
        "Meditate",
        "Wake-Up Slap",
        "Torment",
        "Covet",
        "Frustration"
      ]
    }
  }
}