{
  "pixelmonName": "MissingNo",
  "spDef": 6,
  "spAtt": 6,
  "speed": 29,
  "defence": 0,
  "attack": 136,
  "hp": 33,
  "catchRate": 45,
  "malePercent": -1,
  "nationalPokedexNumber": 0,
  "spawnLevel": 10,
  "spawnLevelRange": 6,
  "baseExp": 64,
  "baseFriendship": 70,
  "rarity": {
    "day": -1,
    "dawndusk": 0,
    "night": 0
  },
  "type1": "Normal",
  "height": 0.7,
  "width": 0.7,
  "length": 0.7,
  "giScale": 300.0,
  "canFly": false,
  "isRideable": false,
  "preEvolutions": [],
  "experienceGroup": "MediumSlow",
  "aggression": {
    "timid": 80,
    "passive": 0,
    "aggressive": 20
  },
  "spawnLocations": [],
  "biomeIDs": [],
  "evGain": {
    "HP": 0,
    "Attack": 0,
    "Defence": 0,
    "SpecialAttack": 0,
    "SpecialDefence": 0,
    "Speed": 0
  },
  "canSurf": false,
  "maxGroupSize": 1,
  "minGroupSize": 1,
  "hoverHeight": 0.0,
  "doesHover": false,
  "id": 1171,
  "baseFormID": 993,
  "weight": 10.7,
  "pokemon": "MissingNo",
  "abilities": [
    "Unknown",
    null,
    null
  ],
  "eggGroups": [
    "Undiscovered"
  ],
  "eggCycles": 21,
  "form": 19,
  "evolutionDefs": [],
  "moves": {
    "levelMoves": {
      "1": [
        "Water Gun",
        "Sky Attack",
        "Pay Day",
        "Bind"
      ]
    },
    "tmTRMoves": [
      "Mega Punch",
      "Razor Wind",
      "Swords Dance",
      "Mega Kick",
      "Toxic",
      "Take Down",
      "Double-Edge",
      "Bubble Beam",
      "Ice Beam",
      "Blizzard",
      "Submission",
      "Seismic Toss",
      "Rage",
      "Thunder",
      "Earthquake",
      "Fissure",
      "Psychic",
      "Teleport",
      "Sky Attack",
      "Rest",
      "Thunder Wave",
      "Tri Attack",
      "Substitute",
      "Cut",
      "Fly"
    ],
    "tutorMoves": {
      "None": [],
      "Regular": [],
      "Event": []
    },
    "eggMoves": []
  }
}