{
  "pixelmonName": "Moltres",
  "spDef": 85,
  "spAtt": 125,
  "speed": 90,
  "defence": 90,
  "attack": 100,
  "hp": 90,
  "catchRate": 3,
  "malePercent": -1,
  "nationalPokedexNumber": 146,
  "spawnLevel": 70,
  "spawnLevelRange": 0,
  "baseExp": 217,
  "baseFriendship": 35,
  "rarity": {
    "day": 0,
    "dawndusk": 0,
    "night": 0
  },
  "type1": "Fire",
  "type2": "Flying",
  "height": 2.0,
  "width": 1.0,
  "length": 1.0,
  "giScale": 1.0,
  "canFly": true,
  "isRideable": true,
  "preEvolutions": [],
  "experienceGroup": "Slow",
  "aggression": {
    "timid": 80,
    "passive": 0,
    "aggressive": 20
  },
  "flyingParameters": {
    "flyHeightMin": 30,
    "flyHeightMax": 50,
    "flySpeedModifier": 1.0,
    "flyRefreshRateY": 100,
    "flyRefreshRateXZ": 400,
    "flyRefreshRateSpeed": 400,
    "flightTimeMin": 0,
    "flightTimeMax": 20,
    "flapRate": 5,
    "landingMaterial": "GrassAndLeaves"
  },
  "spawnLocations": [
    "AirPersistent"
  ],
  "biomeIDs": [
    167
  ],
  "evGain": {
    "HP": 0,
    "Attack": 0,
    "Defence": 0,
    "SpecialAttack": 3,
    "SpecialDefence": 0,
    "Speed": 0
  },
  "canSurf": false,
  "ridingOffsets": {
    "standing": {
      "x": 0.0,
      "y": -1.0,
      "z": 0.0
    }
  },
  "maxGroupSize": 1,
  "minGroupSize": 1,
  "hoverHeight": 0.0,
  "doesHover": false,
  "id": 103,
  "baseFormID": 103,
  "weight": 60.0,
  "pokemon": "Moltres",
  "abilities": [
    "Pressure",
    null,
    "FlameBody"
  ],
  "eggGroups": [
    "Undiscovered"
  ],
  "eggCycles": 81,
  "form": -1,
  "evolutionDefs": [],
  "moves": {
    "levelMoves": {
      "1": [
        "Leer",
        "Gust"
      ],
      "65": [
        "Burn Up"
      ],
      "35": [
        "Air Slash"
      ],
      "5": [
        "Ember"
      ],
      "70": [
        "Sky Attack"
      ],
      "40": [
        "Roost"
      ],
      "10": [
        "Safeguard"
      ],
      "45": [
        "Heat Wave"
      ],
      "15": [
        "Wing Attack"
      ],
      "50": [
        "Sunny Day"
      ],
      "20": [
        "Agility"
      ],
      "55": [
        "Hurricane"
      ],
      "25": [
        "Ancient Power"
      ],
      "60": [
        "Endure"
      ],
      "30": [
        "Incinerate"
      ]
    },
    "eggMoves": [
      "Scorching Sands",
      "Lash Out",
      "Dual Wingbeat",
      "Burning Jealousy"
    ],
    "evolutionMoves": [],
    "tmTRMoves": [
      "Weather Ball",
      "Snore",
      "Facade",
      "Flamethrower",
      "Air Slash",
      "Overheat",
      "U-turn",
      "Solar Beam",
      "Brave Bird",
      "Fly",
      "Rest",
      "Agility",
      "Round",
      "Heat Wave",
      "Sandstorm",
      "Substitute",
      "Hurricane",
      "Giga Impact",
      "Safeguard",
      "Protect",
      "Rain Dance",
      "Hyper Beam",
      "Sunny Day",
      "Will-O-Wisp",
      "Flare Blitz",
      "Mystical Fire",
      "Steel Wing",
      "Endure",
      "Sleep Talk",
      "Fire Spin",
      "Swift",
      "Fire Blast"
    ],
    "tutorMoves": {
      "Regular": [
        "Scorching Sands",
        "Dual Wingbeat",
        "Burning Jealousy"
      ],
      "Transfer": [
        "Rock Smash",
        "Ominous Wind",
        "Whirlwind",
        "Secret Power",
        "Detect",
        "Tailwind",
        "Natural Gift",
        "Confide",
        "Defog",
        "Curse",
        "Peck",
        "Pluck",
        "Double-Edge",
        "Take Down",
        "Hidden Power",
        "Air Cutter",
        "Bide",
        "Double Team",
        "Mud-Slap",
        "Toxic",
        "Aerial Ace",
        "Rage",
        "Headbutt",
        "Razor Wind",
        "Sky Drop",
        "Swagger",
        "Flame Charge",
        "Return",
        "Mimic",
        "Roar",
        "Twister",
        "Reflect",
        "Frustration",
        "Laser Focus"
      ]
    }
  }
}
