{
  "pixelmonName": "Morgrem",
  "spDef": 55,
  "spAtt": 75,
  "speed": 70,
  "defence": 45,
  "attack": 60,
  "hp": 65,
  "catchRate": 120,
  "malePercent": 100,
  "nationalPokedexNumber": 860,
  "spawnLevel": 32,
  "spawnLevelRange": 20,
  "baseExp": 130,
  "baseFriendship": 50,
  "rarity": {
    "day": 1,
    "dawndusk": 0,
    "night": 0
  },
  "type1": "Dark",
  "type2": "Fairy",
  "height": 0.8,
  "width": 1.0,
  "length": 1.0,
  "giScale": 1.0,
  "canFly": false,
  "isRideable": false,
  "preEvolutions": [
    "Impidimp"
  ],
  "experienceGroup": "MediumFast",
  "aggression": {
    "timid": 80,
    "passive": 0,
    "aggressive": 20
  },
  "spawnLocations": [
    "Land"
  ],
  "biomeIDs": [
    21
  ],
  "evGain": {
    "HP": 0,
    "Attack": 0,
    "Defence": 0,
    "SpecialAttack": 2,
    "SpecialDefence": 0,
    "Speed": 0
  },
  "canSurf": false,
  "maxGroupSize": 1,
  "minGroupSize": 1,
  "hoverHeight": 0.0,
  "doesHover": false,
  "id": 1084,
  "baseFormID": 1084,
  "weight": 12.5,
  "pokemon": "Morgrem",
  "abilities": [
    "Prankster",
    "Frisk",
    "Pickpocket"
  ],
  "eggGroups": [
    "Fairy",
    "Humanlike"
  ],
  "eggCycles": 6,
  "form": -1,
  "evolutionDefs": [
    {
      "targetId": 1085,
      "evolveLevel": 42
    }
  ],
  "moves": {
    "levelMoves": {
      "16": [
        "Assurance"
      ],
      "1": [
        "Flatter",
        "Bite",
        "Fake Out",
        "False Surrender",
        "Confide"
      ],
      "35": [
        "Dark Pulse"
      ],
      "20": [
        "Swagger"
      ],
      "52": [
        "Foul Play"
      ],
      "24": [
        "Sucker Punch"
      ],
      "40": [
        "Nasty Plot"
      ],
      "12": [
        "Fake Tears"
      ],
      "28": [
        "Torment"
      ],
      "46": [
        "Play Rough"
      ]
    },
    "eggMoves": [
      "Lash Out",
      "Burning Jealousy"
    ],
    "evolutionMoves": [
      "False Surrender"
    ],
    "tmTRMoves": [
      "Snore",
      "Facade",
      "Assurance",
      "Uproar",
      "Taunt",
      "Play Rough",
      "Dazzling Gleam",
      "Metronome",
      "Dark Pulse",
      "Leech Life",
      "Light Screen",
      "Retaliate",
      "Revenge",
      "Throat Chop",
      "Mega Kick",
      "Rest",
      "Nasty Plot",
      "Round",
      "Substitute",
      "Attract",
      "Thunder Wave",
      "Protect",
      "Drain Punch",
      "Mega Punch",
      "Thief",
      "Fake Tears",
      "Trick",
      "Foul Play",
      "Reflect",
      "Low Kick",
      "Endure",
      "Sleep Talk",
      "Shadow Claw",
      "Draining Kiss"
    ],
    "tutorMoves": {
      "Regular": [
        "Lash Out",
        "Burning Jealousy"
      ]
    }
  }
}