{
  "pixelmonName": "MrMime",
  "spDef": 120,
  "spAtt": 100,
  "speed": 90,
  "defence": 65,
  "attack": 45,
  "hp": 40,
  "catchRate": 45,
  "malePercent": 50,
  "nationalPokedexNumber": 122,
  "spawnLevel": 20,
  "spawnLevelRange": 30,
  "baseExp": 136,
  "baseFriendship": 70,
  "rarity": {
    "day": 0,
    "dawndusk": 0,
    "night": 30
  },
  "type1": "Psychic",
  "type2": "Fairy",
  "height": 1.3,
  "width": 1.0,
  "length": 1.0,
  "giScale": 1.0,
  "canFly": false,
  "isRideable": false,
  "preEvolutions": [
    "MimeJr"
  ],
  "experienceGroup": "MediumFast",
  "aggression": {
    "timid": 80,
    "passive": 0,
    "aggressive": 20
  },
  "spawnLocations": [
    "Land"
  ],
  "biomeIDs": [
    5,
    19,
    27,
    28,
    32,
    33,
    133,
    160,
    161
  ],
  "evGain": {
    "HP": 0,
    "Attack": 0,
    "Defence": 0,
    "SpecialAttack": 0,
    "SpecialDefence": 2,
    "Speed": 0
  },
  "canSurf": false,
  "maxGroupSize": 1,
  "minGroupSize": 1,
  "hoverHeight": 0.0,
  "doesHover": false,
  "id": 90,
  "baseFormID": 90,
  "weight": 54.5,
  "pokemon": "MrMime",
  "abilities": [
    "Soundproof",
    "Filter",
    "Technician"
  ],
  "eggGroups": [
    "Humanlike"
  ],
  "eggCycles": 26,
  "form": -1,
  "evolutionDefs": [],
  "moves": {
    "levelMoves": {
      "16": [
        "Role Play"
      ],
      "32": [
        "Mimic"
      ],
      "48": [
        "Psychic"
      ],
      "1": [
        "Guard Swap",
        "Encore",
        "Wide Guard",
        "Pound",
        "Baton Pass",
        "Quick Guard",
        "Power Swap",
        "Copycat"
      ],
      "20": [
        "Protect"
      ],
      "36": [
        "Reflect",
        "Light Screen"
      ],
      "52": [
        "Teeter Dance"
      ],
      "24": [
        "Recycle"
      ],
      "40": [
        "Sucker Punch"
      ],
      "12": [
        "Confusion"
      ],
      "28": [
        "Psybeam"
      ],
      "44": [
        "Dazzling Gleam"
      ]
    },
    "eggMoves": [
      "Power Split",
      "Fake Out",
      "Confuse Ray",
      "Hypnosis",
      "Tickle"
    ],
    "evolutionMoves": [],
    "tmTRMoves": [
      "Uproar",
      "Taunt",
      "Dazzling Gleam",
      "Metronome",
      "Light Screen",
      "Icy Wind",
      "Magical Leaf",
      "Encore",
      "Wonder Room",
      "Nasty Plot",
      "Body Slam",
      "Substitute",
      "Power Swap",
      "Attract",
      "Thunder Wave",
      "Payback",
      "Future Sight",
      "Drain Punch",
      "Mega Punch",
      "Sunny Day",
      "Calm Mind",
      "Fling",
      "Mystical Fire",
      "Psychic Terrain",
      "Endure",
      "Zen Headbutt",
      "Thunder Punch",
      "Fire Punch",
      "Ice Punch",
      "Trick Room",
      "Snore",
      "Facade",
      "Magic Room",
      "Grass Knot",
      "Solar Beam",
      "Mega Kick",
      "Stored Power",
      "Rest",
      "Charm",
      "Round",
      "Misty Terrain",
      "Shadow Ball",
      "Iron Defense",
      "Brick Break",
      "Skill Swap",
      "Ally Switch",
      "Giga Impact",
      "Helping Hand",
      "Energy Ball",
      "Safeguard",
      "Protect",
      "Guard Swap",
      "Rain Dance",
      "Thunder",
      "Thief",
      "Psyshock",
      "Trick",
      "Hyper Beam",
      "Baton Pass",
      "Focus Blast",
      "Psychic",
      "Foul Play",
      "Reflect",
      "Sleep Talk",
      "Thunderbolt"
    ],
    "tutorMoves": {
      "Transfer": [
        "Dream Eater",
        "Snatch",
        "Natural Gift",
        "Confide",
        "Double-Edge",
        "Hidden Power",
        "Power-Up Punch",
        "Bide",
        "Double Team",
        "Infestation",
        "Shock Wave",
        "Double Slap",
        "Telekinesis",
        "Seismic Toss",
        "Rage",
        "Headbutt",
        "Dynamic Punch",
        "Skull Bash",
        "Swagger",
        "Charge Beam",
        "Nightmare",
        "Submission",
        "Captivate",
        "Meditate",
        "Wake-Up Slap",
        "Torment",
        "Covet",
        "Frustration",
        "Secret Power",
        "Psych Up",
        "Teleport",
        "Counter",
        "Curse",
        "Healing Wish",
        "Take Down",
        "Magic Coat",
        "Psywave",
        "Mud-Slap",
        "Focus Punch",
        "Toxic",
        "Aerial Ace",
        "Barrier",
        "Flash",
        "Signal Beam",
        "Return",
        "Zap Cannon"
      ]
    }
  }
}