{
  "pixelmonName": "Natu",
  "spDef": 45,
  "spAtt": 70,
  "speed": 70,
  "defence": 45,
  "attack": 50,
  "hp": 40,
  "catchRate": 190,
  "malePercent": 50,
  "nationalPokedexNumber": 177,
  "spawnLevel": 5,
  "spawnLevelRange": 19,
  "baseExp": 73,
  "baseFriendship": 70,
  "rarity": {
    "day": 0,
    "dawndusk": 150,
    "night": 150
  },
  "type1": "Psychic",
  "type2": "Flying",
  "height": 0.2,
  "width": 1.0,
  "length": 1.0,
  "giScale": 1.0,
  "canFly": true,
  "isRideable": false,
  "preEvolutions": [],
  "experienceGroup": "MediumFast",
  "aggression": {
    "timid": 80,
    "passive": 0,
    "aggressive": 20
  },
  "flyingParameters": {
    "flyHeightMin": 0,
    "flyHeightMax": 8,
    "flySpeedModifier": 1.0,
    "flyRefreshRateY": 80,
    "flyRefreshRateXZ": 100,
    "flyRefreshRateSpeed": 100,
    "flightTimeMin": 0,
    "flightTimeMax": 20,
    "flapRate": 5,
    "landingMaterial": "GrassAndLeaves"
  },
  "spawnLocations": [
    "Land"
  ],
  "biomeIDs": [
    21,
    22,
    23,
    149,
    151
  ],
  "evGain": {
    "HP": 0,
    "Attack": 0,
    "Defence": 0,
    "SpecialAttack": 1,
    "SpecialDefence": 0,
    "Speed": 0
  },
  "canSurf": false,
  "maxGroupSize": 3,
  "minGroupSize": 1,
  "hoverHeight": 0.0,
  "doesHover": false,
  "id": 229,
  "baseFormID": 229,
  "weight": 2.0,
  "pokemon": "Natu",
  "abilities": [
    "Synchronize",
    "EarlyBird",
    "MagicBounce"
  ],
  "eggGroups": [
    "Flying"
  ],
  "eggCycles": 21,
  "form": -1,
  "evolutionDefs": [
    {
      "targetId": 12,
      "evolveLevel": 25
    }
  ],
  "moves": {
    "levelMoves": {
      "1": [
        "Leer",
        "Peck"
      ],
      "35": [
        "Guard Swap",
        "Psychic"
      ],
      "20": [
        "Night Shade"
      ],
      "5": [
        "Stored Power"
      ],
      "40": [
        "Wish"
      ],
      "10": [
        "Teleport"
      ],
      "26": [
        "Psycho Shift"
      ],
      "45": [
        "Future Sight"
      ],
      "30": [
        "Power Swap"
      ],
      "15": [
        "Confuse Ray"
      ]
    },
    "eggMoves": [
      "Sucker Punch",
      "Quick Attack",
      "Roost",
      "Simple Beam",
      "Feather Dance",
      "Drill Peck"
    ],
    "evolutionMoves": [],
    "tmTRMoves": [
      "Giga Drain",
      "Snore",
      "Facade",
      "Dazzling Gleam",
      "Air Slash",
      "Light Screen",
      "Magic Room",
      "Grass Knot",
      "U-turn",
      "Solar Beam",
      "Stored Power",
      "Rest",
      "Round",
      "Shadow Ball",
      "Heat Wave",
      "Imprison",
      "Substitute",
      "Power Swap",
      "Attract",
      "Skill Swap",
      "Ally Switch",
      "Thunder Wave",
      "Future Sight",
      "Protect",
      "Guard Swap",
      "Rain Dance",
      "Thief",
      "Psyshock",
      "Trick",
      "Cosmic Power",
      "Sunny Day",
      "Baton Pass",
      "Calm Mind",
      "Psychic",
      "Reflect",
      "Steel Wing",
      "Endure",
      "Sleep Talk",
      "Swift",
      "Zen Headbutt",
      "Trick Room"
    ],
    "tutorMoves": {
      "Regular": [
        "Dual Wingbeat",
        "Expanding Force"
      ],
      "Transfer": [
        "Ominous Wind",
        "Silver Wind",
        "Secret Power",
        "Psych Up",
        "Dream Eater",
        "Detect",
        "Tailwind",
        "Natural Gift",
        "Confide",
        "Curse",
        "Pluck",
        "Me First",
        "Double-Edge",
        "Hidden Power",
        "Haze",
        "Magic Coat",
        "Lucky Chant",
        "Synchronoise",
        "Air Cutter",
        "Double Team",
        "Telekinesis",
        "Toxic",
        "Sky Attack",
        "Aerial Ace",
        "Refresh",
        "Swagger",
        "Nightmare",
        "Pain Split",
        "Flash",
        "Signal Beam",
        "Return",
        "Mimic",
        "Miracle Eye",
        "Captivate",
        "Twister",
        "Faint Attack",
        "Frustration"
      ]
    }
  }
}