{
  "pixelmonName": "Necrozma",
  "spDef": 97,
  "spAtt": 167,
  "speed": 129,
  "defence": 97,
  "attack": 167,
  "hp": 97,
  "catchRate": 3,
  "malePercent": -1,
  "nationalPokedexNumber": 800,
  "spawnLevel": 70,
  "spawnLevelRange": 0,
  "baseExp": 306,
  "baseFriendship": 70,
  "rarity": {
    "day": 0,
    "dawndusk": 0,
    "night": -1
  },
  "type1": "Psychic",
  "type2": "Dragon",
  "height": 7.5,
  "width": 1.0,
  "length": 1.0,
  "giScale": 0.75,
  "canFly": true,
  "isRideable": true,
  "preEvolutions": [],
  "experienceGroup": "Slow",
  "aggression": {
    "timid": 80,
    "passive": 0,
    "aggressive": 20
  },
  "spawnLocations": [],
  "biomeIDs": [
    131,
    34
  ],
  "evGain": {
    "HP": 0,
    "Attack": 1,
    "Defence": 0,
    "SpecialAttack": 1,
    "SpecialDefence": 0,
    "Speed": 1
  },
  "canSurf": false,
  "maxGroupSize": 1,
  "minGroupSize": 1,
  "hoverHeight": 0.0,
  "doesHover": false,
  "id": 1097,
  "baseFormID": 929,
  "weight": 230.0,
  "pokemon": "Necrozma",
  "abilities": [
    "Neuroforce",
    null,
    null
  ],
  "eggGroups": [
    "Undiscovered"
  ],
  "eggCycles": 120,
  "form": 4,
  "evolutionDefs": [],
  "moves": {
    "levelMoves": {
      "16": [
        "Slash"
      ],
      "32": [
        "Psycho Cut"
      ],
      "48": [
        "Rock Blast"
      ],
      "64": [
        "Power Gem"
      ],
      "80": [
        "Autotomize"
      ],
      "1": [
        "Metal Claw",
        "Moonlight",
        "Charge Beam",
        "Confusion",
        "Morning Sun",
        "Gravity"
      ],
      "8": [
        "Stealth Rock"
      ],
      "24": [
        "Night Slash"
      ],
      "40": [
        "Stored Power"
      ],
      "56": [
        "Iron Defense"
      ],
      "72": [
        "Photon Geyser"
      ],
      "88": [
        "Prismatic Laser"
      ]
    },
    "eggMoves": [],
    "evolutionMoves": [],
    "tmTRMoves": [
      "Light Screen",
      "Swords Dance",
      "Rock Blast",
      "Breaking Swipe",
      "Iron Head",
      "Heat Wave",
      "Bulldoze",
      "Imprison",
      "Substitute",
      "Dragon Dance",
      "Thunder Wave",
      "Future Sight",
      "Cosmic Power",
      "Psychic Fangs",
      "Flash Cannon",
      "Outrage",
      "Calm Mind",
      "Fling",
      "Rock Tomb",
      "Brutal Swing",
      "Endure",
      "Trick Room",
      "Snore",
      "Facade",
      "Dark Pulse",
      "Stone Edge",
      "Solar Beam",
      "Power Gem",
      "Stored Power",
      "Rest",
      "Earthquake",
      "Rock Slide",
      "Earth Power",
      "Scary Face",
      "Round",
      "Iron Defense",
      "Brick Break",
      "Ally Switch",
      "Giga Impact",
      "Hyper Voice",
      "Dragon Pulse",
      "Protect",
      "Thief",
      "Psyshock",
      "Hyper Beam",
      "X-Scissor",
      "Gyro Ball",
      "Psychic",
      "Reflect",
      "Sleep Talk",
      "Stealth Rock",
      "Shadow Claw",
      "Smart Strike",
      "Psycho Cut"
    ],
    "tutorMoves": {
      "Regular": [
        "Meteor Beam",
        "Expanding Force"
      ],
      "Transfer": [
        "Confide",
        "Hidden Power",
        "Magnet Rise",
        "Recycle",
        "Double Team",
        "Shock Wave",
        "Telekinesis",
        "Toxic",
        "Aerial Ace",
        "Embargo",
        "Mirror Shot",
        "Swagger",
        "Signal Beam",
        "Return",
        "Knock Off",
        "Rock Polish",
        "Wring Out",
        "Frustration"
      ]
    }
  }
}