{
  "pixelmonName": "Nidoqueen",
  "spDef": 85,
  "spAtt": 75,
  "speed": 76,
  "defence": 87,
  "attack": 92,
  "hp": 90,
  "catchRate": 45,
  "malePercent": 0,
  "nationalPokedexNumber": 31,
  "spawnLevel": 30,
  "spawnLevelRange": 20,
  "baseExp": 194,
  "baseFriendship": 70,
  "rarity": {
    "day": 5,
    "dawndusk": 5,
    "night": 0
  },
  "type1": "Poison",
  "type2": "Ground",
  "height": 1.3,
  "width": 0.7,
  "length": 0.7,
  "giScale": 1.0,
  "canFly": false,
  "isRideable": true,
  "preEvolutions": [
    "Nidorina",
    "Nidoranfemale"
  ],
  "experienceGroup": "MediumSlow",
  "aggression": {
    "timid": 80,
    "passive": 0,
    "aggressive": 20
  },
  "spawnLocations": [
    "Land"
  ],
  "biomeIDs": [
    35,
    36,
    163,
    164
  ],
  "evGain": {
    "HP": 3,
    "Attack": 0,
    "Defence": 0,
    "SpecialAttack": 0,
    "SpecialDefence": 0,
    "Speed": 0
  },
  "canSurf": false,
  "ridingOffsets": {
    "standing": {
      "x": 0.0,
      "y": -1.0,
      "z": 0.0
    }
  },
  "maxGroupSize": 1,
  "minGroupSize": 1,
  "hoverHeight": 0.0,
  "doesHover": false,
  "id": 44,
  "baseFormID": 44,
  "weight": 60.0,
  "pokemon": "Nidoqueen",
  "abilities": [
    "PoisonPoint",
    "Rivalry",
    "SheerForce"
  ],
  "eggGroups": [
    "Undiscovered"
  ],
  "eggCycles": 21,
  "form": -1,
  "evolutionDefs": [],
  "moves": {
    "levelMoves": {
      "1": [
        "Helping Hand",
        "Flatter",
        "Tail Whip",
        "Toxic",
        "Bite",
        "Double Kick",
        "Growl",
        "Fury Swipes",
        "Scratch",
        "Poison Sting",
        "Earth Power",
        "Superpower",
        "Toxic Spikes",
        "Crunch"
      ]
    },
    "eggMoves": [
      "Scorching Sands"
    ],
    "evolutionMoves": [
      "Superpower"
    ],
    "tmTRMoves": [
      "Flamethrower",
      "Uproar",
      "Taunt",
      "Beat Up",
      "Icy Wind",
      "Rock Blast",
      "Throat Chop",
      "Surf",
      "Sand Tomb",
      "Iron Tail",
      "Sludge Wave",
      "Venom Drench",
      "Body Slam",
      "Bulldoze",
      "Mud Shot",
      "Substitute",
      "Poison Jab",
      "Attract",
      "Ice Beam",
      "Crunch",
      "Mega Punch",
      "Sunny Day",
      "Drill Run",
      "Avalanche",
      "Outrage",
      "Fling",
      "Rock Tomb",
      "Endure",
      "Whirlpool",
      "Thunder Punch",
      "Toxic Spikes",
      "Fire Punch",
      "Ice Punch",
      "Fire Blast",
      "Snore",
      "Facade",
      "Focus Energy",
      "Sludge Bomb",
      "Stone Edge",
      "Stomping Tantrum",
      "Mega Kick",
      "Rest",
      "Earthquake",
      "Pay Day",
      "Rock Slide",
      "Charm",
      "Earth Power",
      "Round",
      "Shadow Ball",
      "Sandstorm",
      "Superpower",
      "Brick Break",
      "Giga Impact",
      "Body Press",
      "Helping Hand",
      "Dragon Pulse",
      "Protect",
      "Venoshock",
      "Dig",
      "Rain Dance",
      "Thunder",
      "High Horsepower",
      "Thief",
      "Hyper Beam",
      "Focus Blast",
      "Sleep Talk",
      "Stealth Rock",
      "Shadow Claw",
      "Hex",
      "Thunderbolt",
      "Blizzard"
    ],
    "tutorMoves": {
      "Regular": [
        "Scorching Sands"
      ],
      "Transfer": [
        "Detect",
        "Natural Gift",
        "Confide",
        "Incinerate",
        "Disable",
        "Quash",
        "Double-Edge",
        "Cut",
        "Hidden Power",
        "Supersonic",
        "Power-Up Punch",
        "Tackle",
        "Water Pulse",
        "Bide",
        "Double Team",
        "Hone Claws",
        "Shock Wave",
        "Seismic Toss",
        "Rage",
        "Headbutt",
        "Dynamic Punch",
        "Dragon Tail",
        "Skull Bash",
        "Swagger",
        "Aqua Tail",
        "Defense Curl",
        "Submission",
        "Mimic",
        "Captivate",
        "Horn Drill",
        "Roar",
        "Pursuit",
        "Fury Cutter",
        "Reflect",
        "Torment",
        "Frustration",
        "Rock Smash",
        "Secret Power",
        "Bubble Beam",
        "Chip Away",
        "Counter",
        "Poison Tail",
        "Curse",
        "Take Down",
        "Super Fang",
        "Fissure",
        "Echoed Voice",
        "Smack Down",
        "Mud-Slap",
        "Focus Punch",
        "Rock Climb",
        "Aerial Ace",
        "Water Gun",
        "Return",
        "Strength"
      ]
    }
  }
}