{
  "pixelmonName": "Nincada",
  "spDef": 30,
  "spAtt": 30,
  "speed": 40,
  "defence": 90,
  "attack": 45,
  "hp": 31,
  "catchRate": 255,
  "malePercent": 50,
  "nationalPokedexNumber": 290,
  "spawnLevel": 5,
  "spawnLevelRange": 13,
  "baseExp": 65,
  "baseFriendship": 70,
  "rarity": {
    "day": 0,
    "dawndusk": 100,
    "night": 0
  },
  "type1": "Bug",
  "type2": "Ground",
  "height": 0.5,
  "width": 0.7,
  "length": 0.7,
  "giScale": 1.0,
  "canFly": false,
  "isRideable": false,
  "preEvolutions": [],
  "experienceGroup": "Erratic",
  "aggression": {
    "timid": 80,
    "passive": 0,
    "aggressive": 20
  },
  "spawnLocations": [
    "Land"
  ],
  "biomeIDs": [
    27,
    28,
    132,
    155,
    156
  ],
  "evGain": {
    "HP": 0,
    "Attack": 0,
    "Defence": 1,
    "SpecialAttack": 0,
    "SpecialDefence": 0,
    "Speed": 0
  },
  "canSurf": false,
  "maxGroupSize": 5,
  "minGroupSize": 2,
  "hoverHeight": 0.0,
  "doesHover": false,
  "id": 396,
  "baseFormID": 396,
  "weight": 5.5,
  "pokemon": "Nincada",
  "abilities": [
    "CompoundEyes",
    null,
    "RunAway"
  ],
  "eggGroups": [
    "Bug"
  ],
  "eggCycles": 16,
  "form": -1,
  "evolutionDefs": [
    {
      "targetId": 397,
      "evolveLevel": 20
    }
  ],
  "moves": {
    "levelMoves": {
      "1": [
        "Scratch",
        "Sand Attack"
      ],
      "35": [
        "Mind Reader"
      ],
      "5": [
        "Harden"
      ],
      "21": [
        "Absorb"
      ],
      "40": [
        "Dig"
      ],
      "25": [
        "Metal Claw"
      ],
      "10": [
        "False Swipe"
      ],
      "30": [
        "Fury Swipes"
      ],
      "15": [
        "Mud-Slap"
      ]
    },
    "eggMoves": [
      "Final Gambit",
      "Flail",
      "Night Slash",
      "Bug Bite",
      "Gust"
    ],
    "evolutionMoves": [],
    "tmTRMoves": [
      "Giga Drain",
      "False Swipe",
      "Snore",
      "Protect",
      "Facade",
      "Dig",
      "Sunny Day",
      "Leech Life",
      "X-Scissor",
      "Solar Beam",
      "Rest",
      "Bug Buzz",
      "Endure",
      "Sleep Talk",
      "Round",
      "Shadow Ball",
      "Sandstorm",
      "Substitute"
    ],
    "tutorMoves": {
      "Regular": [
        "Skitter Smack"
      ],
      "Transfer": [
        "Silver Wind",
        "Secret Power",
        "Natural Gift",
        "Confide",
        "Double-Edge",
        "Cut",
        "Hidden Power",
        "Bide",
        "Double Team",
        "Hone Claws",
        "Spite",
        "Toxic",
        "Aerial Ace",
        "Struggle Bug",
        "Swagger",
        "Flash",
        "Return",
        "Mimic",
        "Fury Cutter",
        "Faint Attack",
        "String Shot",
        "Frustration"
      ]
    }
  }
}