{
  "pixelmonName": "Noctowl",
  "spDef": 96,
  "spAtt": 86,
  "speed": 70,
  "defence": 50,
  "attack": 50,
  "hp": 100,
  "catchRate": 90,
  "malePercent": 50,
  "nationalPokedexNumber": 164,
  "spawnLevel": 20,
  "spawnLevelRange": 35,
  "baseExp": 162,
  "baseFriendship": 70,
  "rarity": {
    "day": 0,
    "dawndusk": 0,
    "night": 50
  },
  "type1": "Normal",
  "type2": "Flying",
  "height": 1.6,
  "width": 1.0,
  "length": 1.0,
  "giScale": 1.0,
  "canFly": true,
  "isRideable": true,
  "preEvolutions": [
    "Hoothoot"
  ],
  "experienceGroup": "MediumFast",
  "aggression": {
    "timid": 80,
    "passive": 0,
    "aggressive": 20
  },
  "flyingParameters": {
    "flyHeightMin": 10,
    "flyHeightMax": 20,
    "flySpeedModifier": 0.6,
    "flyRefreshRateY": 100,
    "flyRefreshRateXZ": 100,
    "flyRefreshRateSpeed": 100,
    "flightTimeMin": 10,
    "flightTimeMax": 30,
    "flapRate": 2,
    "landingMaterial": "GrassAndLeaves"
  },
  "spawnLocations": [
    "Air"
  ],
  "biomeIDs": [
    4,
    5,
    18,
    19,
    27,
    28,
    29,
    32,
    33,
    133,
    155,
    156,
    157,
    160,
    161
  ],
  "evGain": {
    "HP": 2,
    "Attack": 0,
    "Defence": 0,
    "SpecialAttack": 0,
    "SpecialDefence": 0,
    "Speed": 0
  },
  "canSurf": false,
  "ridingOffsets": {
    "standing": {
      "x": 0.0,
      "y": -1.0,
      "z": -0.5
    },
    "moving": {
      "x": -0.15,
      "y": -1.6,
      "z": -0.4
    }
  },
  "maxGroupSize": 1,
  "minGroupSize": 1,
  "hoverHeight": 0.0,
  "doesHover": false,
  "id": 228,
  "baseFormID": 228,
  "weight": 40.8,
  "pokemon": "Noctowl",
  "abilities": [
    "Insomnia",
    "KeenEye",
    "TintedLens"
  ],
  "eggGroups": [
    "Flying"
  ],
  "eggCycles": 16,
  "form": -1,
  "evolutionDefs": [],
  "moves": {
    "levelMoves": {
      "48": [
        "Hypnosis"
      ],
      "1": [
        "Tackle",
        "Echoed Voice",
        "Sky Attack",
        "Growl",
        "Peck"
      ],
      "33": [
        "Uproar"
      ],
      "18": [
        "Air Slash"
      ],
      "53": [
        "Dream Eater"
      ],
      "38": [
        "Roost"
      ],
      "23": [
        "Extrasensory"
      ],
      "9": [
        "Confusion"
      ],
      "43": [
        "Moonblast"
      ],
      "12": [
        "Reflect"
      ],
      "28": [
        "Take Down"
      ],
      "15": [
        "Psycho Shift"
      ]
    },
    "eggMoves": [
      "Defog",
      "Supersonic",
      "Night Shade",
      "Whirlwind",
      "Wing Attack",
      "Feather Dance"
    ],
    "evolutionMoves": [],
    "tmTRMoves": [
      "Snore",
      "Facade",
      "Uproar",
      "Air Slash",
      "Screech",
      "Stored Power",
      "Fly",
      "Rest",
      "Work Up",
      "Agility",
      "Nasty Plot",
      "Round",
      "Shadow Ball",
      "Heat Wave",
      "Amnesia",
      "Imprison",
      "Substitute",
      "Hurricane",
      "Attract",
      "Giga Impact",
      "Hyper Voice",
      "Future Sight",
      "Protect",
      "Rain Dance",
      "Thief",
      "Hyper Beam",
      "Sunny Day",
      "Calm Mind",
      "Psychic",
      "Reflect",
      "Steel Wing",
      "Endure",
      "Sleep Talk",
      "Swift",
      "Zen Headbutt"
    ],
    "tutorMoves": {
      "Regular": [
        "Dual Wingbeat"
      ],
      "Transfer": [
        "Ominous Wind",
        "Silver Wind",
        "Secret Power",
        "Psych Up",
        "Detect",
        "Tailwind",
        "Natural Gift",
        "Confide",
        "Curse",
        "Pluck",
        "Double-Edge",
        "Hidden Power",
        "Magic Coat",
        "Synchronoise",
        "Air Cutter",
        "Recycle",
        "Double Team",
        "Mud-Slap",
        "Toxic",
        "Aerial Ace",
        "Swagger",
        "Nightmare",
        "Flash",
        "Mean Look",
        "Return",
        "Mimic",
        "Captivate",
        "Twister",
        "Faint Attack",
        "Frustration",
        "Mirror Move",
        "Laser Focus",
        "Foresight"
      ]
    }
  }
}