{
  "pixelmonName": "Nosepass",
  "spDef": 90,
  "spAtt": 45,
  "speed": 30,
  "defence": 135,
  "attack": 45,
  "hp": 30,
  "catchRate": 255,
  "malePercent": 50,
  "nationalPokedexNumber": 299,
  "spawnLevel": 10,
  "spawnLevelRange": 40,
  "baseExp": 108,
  "baseFriendship": 70,
  "rarity": {
    "day": 50,
    "dawndusk": 5,
    "night": 5
  },
  "type1": "Rock",
  "height": 1.0,
  "width": 1.0,
  "length": 1.0,
  "giScale": 1.0,
  "canFly": false,
  "isRideable": false,
  "preEvolutions": [],
  "experienceGroup": "MediumFast",
  "aggression": {
    "timid": 80,
    "passive": 0,
    "aggressive": 20
  },
  "spawnLocations": [
    "Land",
    "UnderGround"
  ],
  "biomeIDs": [
    37,
    38,
    39,
    165,
    166,
    167
  ],
  "evGain": {
    "HP": 0,
    "Attack": 0,
    "Defence": 1,
    "SpecialAttack": 0,
    "SpecialDefence": 0,
    "Speed": 0
  },
  "canSurf": false,
  "maxGroupSize": 2,
  "minGroupSize": 1,
  "hoverHeight": 0.0,
  "doesHover": false,
  "id": 405,
  "baseFormID": 405,
  "weight": 97.0,
  "pokemon": "Nosepass",
  "abilities": [
    "Sturdy",
    "MagnetPull",
    "SandForce"
  ],
  "eggGroups": [
    "Mineral"
  ],
  "eggCycles": 21,
  "form": -1,
  "evolutionDefs": [
    {
      "targetId": 0,
      "formTo": -1,
      "evolveCondition": "LevelupBiome:ExtremeHills:Probopass"
    }
  ],
  "moves": {
    "levelMoves": {
      "1": [
        "Tackle"
      ],
      "34": [
        "Sandstorm"
      ],
      "4": [
        "Harden"
      ],
      "37": [
        "Earth Power"
      ],
      "7": [
        "Block"
      ],
      "40": [
        "Stone Edge"
      ],
      "10": [
        "Rock Throw"
      ],
      "43": [
        "Lock-On",
        "Zap Cannon"
      ],
      "13": [
        "Thunder Wave"
      ],
      "16": [
        "Rest"
      ],
      "19": [
        "Spark"
      ],
      "22": [
        "Rock Slide"
      ],
      "25": [
        "Power Gem"
      ],
      "28": [
        "Rock Blast"
      ],
      "31": [
        "Discharge"
      ]
    },
    "eggMoves": [
      "Wide Guard",
      "Endure",
      "Stealth Rock",
      "Block",
      "Magnitude",
      "Rollout",
      "Double-Edge"
    ],
    "evolutionMoves": [],
    "tmTRMoves": [
      "Fire Punch",
      "Ice Punch",
      "Thunder Punch",
      "Thunder Wave",
      "Self-destruct",
      "Rest",
      "Rock Slide",
      "Snore",
      "Protect",
      "Attract",
      "Sandstorm",
      "Sunny Day",
      "Facade",
      "Helping Hand",
      "Rock Tomb",
      "Sand Tomb",
      "Rock Blast",
      "Round",
      "Volt Switch",
      "Bulldoze",
      "Stomping Tantrum",
      "Body Slam",
      "Thunderbolt",
      "Thunder",
      "Earthquake",
      "Substitute",
      "Endure",
      "Sleep Talk",
      "Taunt",
      "Iron Defense",
      "Power Gem",
      "Earth Power",
      "Stone Edge",
      "Stealth Rock",
      "Heavy Slam",
      "Dazzling Gleam",
      "Body Press"
    ],
    "tutorMoves": {
      "Regular": [
        "Snore",
        "Magnet Rise",
        "Stomping Tantrum",
        "Magic Coat",
        "Stealth Rock",
        "Earth Power",
        "Block",
        "Iron Defense",
        "Pain Split",
        "Shock Wave",
        "Thunder Punch",
        "Fire Punch",
        "Gravity",
        "Ice Punch"
      ],
      "Transfer": [
        "Rock Smash",
        "Secret Power",
        "Natural Gift",
        "Confide",
        "Explosion",
        "Hidden Power",
        "Ancient Power",
        "Smack Down",
        "Double Team",
        "Mud-Slap",
        "Toxic",
        "Headbutt",
        "Dynamic Punch",
        "Head Smash",
        "Swagger",
        "Defense Curl",
        "Return",
        "Mimic",
        "Captivate",
        "Rock Polish",
        "Torment",
        "Strength",
        "Frustration"
      ]
    }
  }
}