{
  "pixelmonName": "Palkia",
  "spDef": 120,
  "spAtt": 150,
  "speed": 100,
  "defence": 100,
  "attack": 120,
  "hp": 90,
  "catchRate": 3,
  "malePercent": -1,
  "nationalPokedexNumber": 484,
  "spawnLevel": 70,
  "spawnLevelRange": 0,
  "baseExp": 220,
  "baseFriendship": 0,
  "rarity": {
    "day": 0,
    "dawndusk": 0,
    "night": 0
  },
  "type1": "Water",
  "type2": "Dragon",
  "height": 3.0,
  "width": 1.4,
  "length": 1.4,
  "giScale": 0.75,
  "canFly": true,
  "isRideable": true,
  "preEvolutions": [],
  "experienceGroup": "Slow",
  "aggression": {
    "timid": 80,
    "passive": 0,
    "aggressive": 20
  },
  "spawnLocations": [
    "Land",
    "Land"
  ],
  "biomeIDs": [
    131
  ],
  "evGain": {
    "HP": 0,
    "Attack": 0,
    "Defence": 0,
    "SpecialAttack": 3,
    "SpecialDefence": 0,
    "Speed": 0
  },
  "canSurf": false,
  "ridingOffsets": {
    "standing": {
      "x": 0.0,
      "y": -1.0,
      "z": 0.0
    },
    "moving": {
      "x": 0.0,
      "y": -1.8,
      "z": 1.3
    }
  },
  "maxGroupSize": 1,
  "minGroupSize": 1,
  "hoverHeight": 0.0,
  "doesHover": false,
  "id": 31,
  "baseFormID": 31,
  "weight": 336.0,
  "pokemon": "Palkia",
  "abilities": [
    "Pressure",
    null,
    "Telepathy"
  ],
  "eggGroups": [
    "Undiscovered"
  ],
  "eggCycles": 121,
  "form": -1,
  "evolutionDefs": [],
  "moves": {
    "levelMoves": {
      "16": [
        "Ancient Power"
      ],
      "32": [
        "Aqua Ring"
      ],
      "48": [
        "Aura Sphere"
      ],
      "64": [
        "Aqua Tail"
      ],
      "80": [
        "Spacial Rend"
      ],
      "1": [
        "Water Pulse",
        "Scary Face"
      ],
      "8": [
        "Dragon Breath"
      ],
      "24": [
        "Slash"
      ],
      "40": [
        "Dragon Claw"
      ],
      "56": [
        "Power Gem"
      ],
      "72": [
        "Earth Power"
      ],
      "88": [
        "Hydro Pump"
      ]
    },
    "eggMoves": [
      "Dual Wingbeat",
      "Scale Shot"
    ],
    "evolutionMoves": [],
    "tmTRMoves": [
      "Flamethrower",
      "Breaking Swipe",
      "Surf",
      "Hydro Pump",
      "Aura Sphere",
      "Body Slam",
      "Bulldoze",
      "Substitute",
      "Ice Beam",
      "Thunder Wave",
      "Sunny Day",
      "Brine",
      "Dragon Claw",
      "Avalanche",
      "Outrage",
      "Fling",
      "Rock Tomb",
      "Dive",
      "Endure",
      "Whirlpool",
      "Swift",
      "Trick Room",
      "Fire Blast",
      "Snore",
      "Facade",
      "Heavy Slam",
      "Stone Edge",
      "Stomping Tantrum",
      "Bulk Up",
      "Power Gem",
      "Rest",
      "Earthquake",
      "Rock Slide",
      "Earth Power",
      "Scary Face",
      "Round",
      "Sandstorm",
      "Liquidation",
      "Brick Break",
      "Hail",
      "Giga Impact",
      "Hyper Voice",
      "Body Press",
      "Safeguard",
      "Dragon Pulse",
      "Protect",
      "Rain Dance",
      "Thunder",
      "Hyper Beam",
      "Focus Blast",
      "Sleep Talk",
      "Shadow Claw",
      "Thunderbolt",
      "Blizzard"
    ],
    "tutorMoves": {
      "Regular": [
        "Dual Wingbeat",
        "Scale Shot"
      ],
      "Transfer": [
        "Rock Smash",
        "Secret Power",
        "Psych Up",
        "Draco Meteor",
        "Natural Gift",
        "Confide",
        "Incinerate",
        "Cut",
        "Hidden Power",
        "Echoed Voice",
        "Double Team",
        "Hone Claws",
        "Shock Wave",
        "Mud-Slap",
        "Focus Punch",
        "Toxic",
        "Aerial Ace",
        "Headbutt",
        "Dragon Tail",
        "Swagger",
        "Gravity",
        "Heal Block",
        "Return",
        "Roar",
        "Fury Cutter",
        "Twister",
        "Strength",
        "Frustration"
      ]
    }
  }
}