{
  "pixelmonName": "Palossand",
  "spDef": 75,
  "spAtt": 100,
  "speed": 35,
  "defence": 110,
  "attack": 75,
  "hp": 85,
  "catchRate": 60,
  "malePercent": 50,
  "nationalPokedexNumber": 770,
  "spawnLevel": 42,
  "spawnLevelRange": 20,
  "baseExp": 168,
  "baseFriendship": 70,
  "rarity": {
    "day": 0,
    "dawndusk": 0,
    "night": 20
  },
  "type1": "Ghost",
  "type2": "Ground",
  "height": 1.3,
  "width": 1.3,
  "length": 1.3,
  "giScale": 1.0,
  "canFly": false,
  "isRideable": false,
  "preEvolutions": [
    "Sandygast"
  ],
  "experienceGroup": "MediumFast",
  "aggression": {
    "timid": 80,
    "passive": 0,
    "aggressive": 20
  },
  "spawnLocations": [
    "Land"
  ],
  "biomeIDs": [
    16
  ],
  "evGain": {
    "HP": 0,
    "Attack": 0,
    "Defence": 2,
    "SpecialAttack": 0,
    "SpecialDefence": 0,
    "Speed": 0
  },
  "canSurf": false,
  "maxGroupSize": 1,
  "minGroupSize": 1,
  "hoverHeight": 0.0,
  "doesHover": false,
  "id": 945,
  "baseFormID": 945,
  "weight": 250.0,
  "pokemon": "Palossand",
  "abilities": [
    "WaterCompaction",
    null,
    "SandVeil"
  ],
  "eggGroups": [
    "Amorphous"
  ],
  "eggCycles": 15,
  "form": -1,
  "evolutionDefs": [],
  "moves": {
    "levelMoves": {
      "1": [
        "Sand Tomb",
        "Astonish",
        "Absorb",
        "Harden"
      ],
      "35": [
        "Giga Drain"
      ],
      "20": [
        "Sand Attack"
      ],
      "68": [
        "Sandstorm"
      ],
      "54": [
        "Earth Power"
      ],
      "40": [
        "Iron Defense"
      ],
      "25": [
        "Bulldoze"
      ],
      "61": [
        "Shore Up"
      ],
      "30": [
        "Hypnosis"
      ],
      "15": [
        "Mega Drain"
      ],
      "47": [
        "Shadow Ball"
      ]
    },
    "eggMoves": [
      "Destiny Bond",
      "Spit Up",
      "Curse",
      "Ancient Power",
      "Swallow",
      "Stockpile"
    ],
    "evolutionMoves": [],
    "tmTRMoves": [
      "Giga Drain",
      "Snore",
      "Facade",
      "Sludge Bomb",
      "Stone Edge",
      "Rest",
      "Sand Tomb",
      "Earthquake",
      "Rock Slide",
      "Earth Power",
      "Round",
      "Shadow Ball",
      "Sandstorm",
      "Bulldoze",
      "Amnesia",
      "Iron Defense",
      "Mud Shot",
      "Substitute",
      "Attract",
      "Skill Swap",
      "Giga Impact",
      "Energy Ball",
      "Protect",
      "Trick",
      "Brine",
      "Fling",
      "Psychic",
      "Rock Tomb",
      "Endure",
      "Sleep Talk",
      "Stealth Rock"
    ],
    "tutorMoves": {
      "Regular": [
        "Scorching Sands",
        "Poltergeist",
        "Terrain Pulse"
      ],
      "Transfer": [
        "After You",
        "Confide",
        "Quash",
        "Hidden Power",
        "Recycle",
        "Block",
        "Double Team",
        "Spite",
        "Infestation",
        "Toxic",
        "Embargo",
        "Swagger",
        "Pain Split",
        "Gravity",
        "Return",
        "Rock Polish",
        "Role Play",
        "Frustration"
      ]
    }
  }
}