{
  "pixelmonName": "Pangoro",
  "spDef": 71,
  "spAtt": 69,
  "speed": 58,
  "defence": 78,
  "attack": 124,
  "hp": 95,
  "catchRate": 65,
  "malePercent": 50,
  "nationalPokedexNumber": 675,
  "spawnLevel": 32,
  "spawnLevelRange": 28,
  "baseExp": 173,
  "baseFriendship": 0,
  "rarity": {
    "day": 50,
    "dawndusk": 0,
    "night": 0
  },
  "type1": "Fighting",
  "type2": "Dark",
  "height": 1.1,
  "width": 2.1,
  "length": 2.1,
  "giScale": 1.0,
  "canFly": false,
  "isRideable": true,
  "preEvolutions": [
    "Pancham"
  ],
  "experienceGroup": "MediumFast",
  "aggression": {
    "timid": 80,
    "passive": 0,
    "aggressive": 20
  },
  "spawnLocations": [
    "Land"
  ],
  "biomeIDs": [
    21
  ],
  "evGain": {
    "HP": 0,
    "Attack": 2,
    "Defence": 0,
    "SpecialAttack": 0,
    "SpecialDefence": 0,
    "Speed": 0
  },
  "canSurf": false,
  "maxGroupSize": 1,
  "minGroupSize": 1,
  "hoverHeight": 0.0,
  "doesHover": false,
  "id": 774,
  "baseFormID": 774,
  "weight": 136.0,
  "pokemon": "Pangoro",
  "abilities": [
    "IronFist",
    "MoldBreaker",
    "Scrappy"
  ],
  "eggGroups": [
    "Field",
    "Humanlike"
  ],
  "eggCycles": 26,
  "form": -1,
  "evolutionDefs": [],
  "moves": {
    "levelMoves": {
      "16": [
        "Low Sweep"
      ],
      "1": [
        "Arm Thrust",
        "Leer",
        "Tackle",
        "Taunt",
        "Night Slash",
        "Bullet Punch"
      ],
      "35": [
        "Crunch"
      ],
      "20": [
        "Work Up"
      ],
      "52": [
        "Entrainment"
      ],
      "24": [
        "Slash"
      ],
      "40": [
        "Body Slam"
      ],
      "58": [
        "Hammer Arm"
      ],
      "12": [
        "Circle Throw"
      ],
      "28": [
        "Vital Throw"
      ],
      "46": [
        "Parting Shot"
      ]
    },
    "eggMoves": [
      "Power Trip",
      "Seismic Toss",
      "Quick Guard",
      "Storm Throw",
      "Quash"
    ],
    "evolutionMoves": [
      "Night Slash"
    ],
    "tmTRMoves": [
      "Uproar",
      "Taunt",
      "Beat Up",
      "Swords Dance",
      "Revenge",
      "Throat Chop",
      "Close Combat",
      "Iron Head",
      "Surf",
      "Work Up",
      "Body Slam",
      "Bulldoze",
      "Substitute",
      "Poison Jab",
      "Gunk Shot",
      "Attract",
      "Crunch",
      "Payback",
      "False Swipe",
      "Drain Punch",
      "Mega Punch",
      "Sunny Day",
      "Dragon Claw",
      "Darkest Lariat",
      "Outrage",
      "Fling",
      "Rock Tomb",
      "Endure",
      "Zen Headbutt",
      "Thunder Punch",
      "Low Sweep",
      "Fire Punch",
      "Ice Punch",
      "Snore",
      "Facade",
      "Focus Energy",
      "Snarl",
      "Dark Pulse",
      "Sludge Bomb",
      "Stone Edge",
      "Grass Knot",
      "Retaliate",
      "Stomping Tantrum",
      "Bulk Up",
      "Mega Kick",
      "Rest",
      "Earthquake",
      "Rock Slide",
      "Scary Face",
      "Round",
      "Superpower",
      "Brick Break",
      "Giga Impact",
      "Hyper Voice",
      "Helping Hand",
      "Protect",
      "Dig",
      "Rain Dance",
      "Thief",
      "Hyper Beam",
      "X-Scissor",
      "Focus Blast",
      "Foul Play",
      "Low Kick",
      "Sleep Talk",
      "Reversal",
      "Shadow Claw"
    ],
    "tutorMoves": {
      "Regular": [
        "Coaching",
        "Lash Out"
      ],
      "Transfer": [
        "Snatch",
        "Confide",
        "Me First",
        "Cut",
        "Hidden Power",
        "Power-Up Punch",
        "Hone Claws",
        "Double Team",
        "Spite",
        "Infestation",
        "Swagger",
        "Knock Off",
        "Roar",
        "Sky Uppercut",
        "Torment",
        "Covet",
        "Frustration",
        "Laser Focus",
        "Rock Smash",
        "Secret Power",
        "Comet Punch",
        "Karate Chop",
        "Dual Chop",
        "Echoed Voice",
        "Block",
        "Focus Punch",
        "Toxic",
        "Aerial Ace",
        "Embargo",
        "Endeavor",
        "Return",
        "Strength"
      ]
    }
  }
}