{
  "pixelmonName": "Pansage",
  "spDef": 48,
  "spAtt": 53,
  "speed": 64,
  "defence": 48,
  "attack": 53,
  "hp": 50,
  "catchRate": 190,
  "malePercent": 87,
  "nationalPokedexNumber": 511,
  "spawnLevel": 5,
  "spawnLevelRange": 30,
  "baseExp": 63,
  "baseFriendship": 70,
  "rarity": {
    "day": 40,
    "dawndusk": 40,
    "night": 40
  },
  "type1": "Grass",
  "height": 0.6,
  "width": 0.7,
  "length": 0.7,
  "giScale": 1.0,
  "canFly": false,
  "isRideable": false,
  "preEvolutions": [],
  "experienceGroup": "MediumFast",
  "aggression": {
    "timid": 80,
    "passive": 0,
    "aggressive": 20
  },
  "spawnLocations": [
    "Land"
  ],
  "biomeIDs": [
    21,
    22,
    149,
    151
  ],
  "evGain": {
    "HP": 0,
    "Attack": 0,
    "Defence": 0,
    "SpecialAttack": 0,
    "SpecialDefence": 0,
    "Speed": 1
  },
  "canSurf": false,
  "maxGroupSize": 1,
  "minGroupSize": 1,
  "hoverHeight": 0.0,
  "doesHover": false,
  "id": 588,
  "baseFormID": 588,
  "weight": 10.5,
  "pokemon": "Pansage",
  "abilities": [
    "Gluttony",
    null,
    "Overgrow"
  ],
  "eggGroups": [
    "Field"
  ],
  "eggCycles": 21,
  "form": -1,
  "evolutionDefs": [
    {
      "targetId": 589,
      "evolveCondition": "Leafstone:Simisage"
    }
  ],
  "moves": {
    "levelMoves": {
      "1": [
        "Scratch",
        "Play Nice"
      ],
      "34": [
        "Grass Knot"
      ],
      "4": [
        "Leer"
      ],
      "37": [
        "Recycle"
      ],
      "7": [
        "Lick"
      ],
      "40": [
        "Natural Gift"
      ],
      "10": [
        "Vine Whip"
      ],
      "43": [
        "Crunch"
      ],
      "13": [
        "Fury Swipes"
      ],
      "16": [
        "Leech Seed"
      ],
      "19": [
        "Bite"
      ],
      "22": [
        "Seed Bomb"
      ],
      "25": [
        "Torment"
      ],
      "28": [
        "Fling"
      ],
      "31": [
        "Acrobatics"
      ]
    },
    "eggMoves": [
      "Disarming Voice",
      "Magical Leaf",
      "Low Kick",
      "Astonish",
      "Grass Whistle",
      "Nasty Plot",
      "Bullet Seed",
      "Leaf Storm",
      "Tickle",
      "Spiky Shield",
      "Covet",
      "Role Play"
    ],
    "evolutionMoves": [],
    "tmTRMoves": [
      "Magical Leaf",
      "Solar Beam",
      "Dig",
      "Rest",
      "Thief",
      "Snore",
      "Protect",
      "Giga Drain",
      "Attract",
      "Sunny Day",
      "Facade",
      "Swift",
      "Helping Hand",
      "Rock Tomb",
      "Bullet Seed",
      "Payback",
      "Fling",
      "Shadow Claw",
      "Low Sweep",
      "Round",
      "Acrobatics",
      "Low Kick",
      "Substitute",
      "Endure",
      "Sleep Talk",
      "Iron Tail",
      "Crunch",
      "Uproar",
      "Taunt",
      "Seed Bomb",
      "Energy Ball",
      "Nasty Plot",
      "Leaf Storm",
      "Gunk Shot",
      "Grass Knot",
      "Work Up"
    ],
    "tutorMoves": {
      "Regular": [
        "Giga Drain",
        "Helping Hand",
        "Focus Punch",
        "Grass Pledge",
        "Endeavor",
        "Snore",
        "Uproar",
        "Worry Seed",
        "Knock Off",
        "Role Play",
        "Seed Bomb",
        "Synthesis",
        "Iron Tail",
        "Low Kick",
        "Recycle",
        "Gastro Acid",
        "Covet",
        "Gunk Shot"
      ],
      "Transfer": [
        "Rock Smash",
        "Secret Power",
        "Confide",
        "Cut",
        "Hidden Power",
        "Hone Claws",
        "Double Team",
        "Toxic",
        "Swagger",
        "Flash",
        "Return",
        "Nature Power",
        "Frustration"
      ]
    }
  }
}