{
  "pixelmonName": "Pelipper",
  "spDef": 70,
  "spAtt": 95,
  "speed": 65,
  "defence": 100,
  "attack": 50,
  "hp": 60,
  "catchRate": 45,
  "malePercent": 50,
  "nationalPokedexNumber": 279,
  "spawnLevel": 25,
  "spawnLevelRange": 30,
  "baseExp": 164,
  "baseFriendship": 70,
  "rarity": {
    "day": 90,
    "dawndusk": 0,
    "night": 0
  },
  "type1": "Water",
  "type2": "Flying",
  "height": 1.2,
  "width": 1.0,
  "length": 1.0,
  "giScale": 1.0,
  "canFly": true,
  "isRideable": false,
  "preEvolutions": [
    "Wingull"
  ],
  "experienceGroup": "MediumFast",
  "aggression": {
    "timid": 80,
    "passive": 0,
    "aggressive": 20
  },
  "flyingParameters": {
    "flyHeightMin": 0,
    "flyHeightMax": 10,
    "flySpeedModifier": 1.0,
    "flyRefreshRateY": 80,
    "flyRefreshRateXZ": 100,
    "flyRefreshRateSpeed": 100,
    "flightTimeMin": 0,
    "flightTimeMax": 20,
    "flapRate": 5,
    "landingMaterial": "GrassAndLeaves"
  },
  "spawnLocations": [
    "Land"
  ],
  "biomeIDs": [
    0,
    16,
    24,
    25
  ],
  "evGain": {
    "HP": 0,
    "Attack": 0,
    "Defence": 2,
    "SpecialAttack": 0,
    "SpecialDefence": 0,
    "Speed": 0
  },
  "canSurf": false,
  "maxGroupSize": 2,
  "minGroupSize": 1,
  "hoverHeight": 0.0,
  "doesHover": false,
  "id": 385,
  "baseFormID": 385,
  "weight": 28.0,
  "pokemon": "Pelipper",
  "abilities": [
    "KeenEye",
    "Drizzle",
    "RainDish"
  ],
  "eggGroups": [
    "Water1",
    "Flying"
  ],
  "eggCycles": 21,
  "form": -1,
  "evolutionDefs": [],
  "moves": {
    "levelMoves": {
      "48": [
        "Roost"
      ],
      "1": [
        "Quick Attack",
        "Soak",
        "Supersonic",
        "Water Gun",
        "Protect",
        "Air Slash",
        "Agility",
        "Growl",
        "Tailwind"
      ],
      "34": [
        "Fling"
      ],
      "20": [
        "Water Pulse"
      ],
      "55": [
        "Hurricane"
      ],
      "41": [
        "Mist"
      ],
      "28": [
        "Spit Up",
        "Swallow",
        "Stockpile"
      ],
      "62": [
        "Hydro Pump"
      ],
      "15": [
        "Wing Attack"
      ]
    },
    "eggMoves": [
      "Soak",
      "Wide Guard",
      "Air Cutter",
      "Knock Off",
      "Aerial Ace",
      "Aqua Ring",
      "Gust",
      "Twister"
    ],
    "evolutionMoves": [],
    "tmTRMoves": [
      "Weather Ball",
      "Snore",
      "Facade",
      "Uproar",
      "Air Slash",
      "U-turn",
      "Icy Wind",
      "Brave Bird",
      "Surf",
      "Fly",
      "Rest",
      "Seed Bomb",
      "Hydro Pump",
      "Agility",
      "Round",
      "Liquidation",
      "Substitute",
      "Hurricane",
      "Gunk Shot",
      "Attract",
      "Hail",
      "Ice Beam",
      "Giga Impact",
      "Payback",
      "Protect",
      "Rain Dance",
      "Thief",
      "Hyper Beam",
      "Brine",
      "Scald",
      "Fling",
      "Steel Wing",
      "Endure",
      "Sleep Talk",
      "Whirlpool",
      "Swift",
      "Blizzard"
    ],
    "tutorMoves": {
      "Regular": [
        "Dual Wingbeat"
      ],
      "Transfer": [
        "Ominous Wind",
        "Secret Power",
        "Natural Gift",
        "Confide",
        "Defog",
        "Pluck",
        "Double-Edge",
        "Hidden Power",
        "Water Sport",
        "Echoed Voice",
        "Double Team",
        "Shock Wave",
        "Mud-Slap",
        "Toxic",
        "Sky Attack",
        "Sky Drop",
        "Swagger",
        "Return",
        "Mimic",
        "Captivate",
        "Frustration"
      ]
    }
  }
}