{
  "pixelmonName": "Pidgey",
  "spDef": 35,
  "spAtt": 35,
  "speed": 56,
  "defence": 40,
  "attack": 45,
  "hp": 40,
  "catchRate": 255,
  "malePercent": 50,
  "nationalPokedexNumber": 16,
  "spawnLevel": 2,
  "spawnLevelRange": 14,
  "baseExp": 50,
  "baseFriendship": 70,
  "rarity": {
    "day": 200,
    "dawndusk": 0,
    "night": 0
  },
  "type1": "Normal",
  "type2": "Flying",
  "height": 0.3,
  "width": 0.4,
  "length": 0.4,
  "giScale": 1.0,
  "canFly": true,
  "isRideable": false,
  "preEvolutions": [],
  "experienceGroup": "MediumSlow",
  "aggression": {
    "timid": 80,
    "passive": 0,
    "aggressive": 20
  },
  "flyingParameters": {
    "flyHeightMin": 0,
    "flyHeightMax": 10,
    "flySpeedModifier": 0.6,
    "flyRefreshRateY": 100,
    "flyRefreshRateXZ": 100,
    "flyRefreshRateSpeed": 100,
    "flightTimeMin": 0,
    "flightTimeMax": 20,
    "flapRate": 5,
    "landingMaterial": "GrassAndLeaves"
  },
  "spawnLocations": [
    "Air"
  ],
  "biomeIDs": [
    1,
    3,
    4,
    5,
    18,
    19,
    27,
    28,
    29,
    32,
    33,
    129,
    132,
    155,
    156,
    157,
    160,
    161
  ],
  "evGain": {
    "HP": 0,
    "Attack": 0,
    "Defence": 0,
    "SpecialAttack": 0,
    "SpecialDefence": 0,
    "Speed": 1
  },
  "canSurf": false,
  "maxGroupSize": 1,
  "minGroupSize": 1,
  "hoverHeight": 0.0,
  "doesHover": false,
  "id": 236,
  "baseFormID": 236,
  "weight": 1.8,
  "pokemon": "Pidgey",
  "abilities": [
    "KeenEye",
    "TangledFeet",
    "BigPecks"
  ],
  "eggGroups": [
    "Flying"
  ],
  "eggCycles": 16,
  "form": -1,
  "evolutionDefs": [
    {
      "targetId": 237,
      "evolveLevel": 18
    }
  ],
  "moves": {
    "levelMoves": {
      "1": [
        "Tackle"
      ],
      "33": [
        "Wing Attack"
      ],
      "3": [
        "Sand Attack"
      ],
      "5": [
        "Sand Attack",
        "Gust"
      ],
      "37": [
        "Roost"
      ],
      "9": [
        "Gust",
        "Mirror Move"
      ],
      "41": [
        "Tailwind"
      ],
      "11": [
        "Quick Attack"
      ],
      "13": [
        "Quick Attack"
      ],
      "45": [
        "Mirror Move"
      ],
      "15": [
        "Wing Attack"
      ],
      "17": [
        "Roost",
        "Whirlwind"
      ],
      "49": [
        "Air Slash"
      ],
      "21": [
        "Whirlwind",
        "Twister"
      ],
      "53": [
        "Hurricane"
      ],
      "23": [
        "Agility"
      ],
      "25": [
        "Feather Dance"
      ],
      "27": [
        "Air Slash"
      ],
      "29": [
        "Razor Wind",
        "Agility"
      ]
    },
    "eggMoves": [
      "Defog",
      "Faint Attack",
      "Uproar",
      "Air Cutter",
      "Steel Wing",
      "Air Slash",
      "Brave Bird",
      "Pursuit",
      "Foresight"
    ],
    "evolutionMoves": [],
    "tmTRMoves": [
      "Fly",
      "Rest",
      "Thief",
      "Snore",
      "Protect",
      "Steel Wing",
      "Attract",
      "Rain Dance",
      "Sunny Day",
      "Facade",
      "U-turn",
      "Round",
      "Air Slash",
      "Agility",
      "Substitute",
      "Endure",
      "Sleep Talk",
      "Uproar",
      "Brave Bird",
      "Work Up",
      "Hurricane"
    ],
    "tutorMoves": {
      "Regular": [
        "Defog",
        "Snore",
        "Uproar",
        "Sky Attack",
        "Heat Wave",
        "Tailwind"
      ],
      "Transfer": [
        "Ominous Wind",
        "Secret Power",
        "Detect",
        "Natural Gift",
        "Confide",
        "Curse",
        "Pluck",
        "Double-Edge",
        "Take Down",
        "Hidden Power",
        "Bide",
        "Double Team",
        "Swift",
        "Mud-Slap",
        "Toxic",
        "Aerial Ace",
        "Rage",
        "Headbutt",
        "Swagger",
        "Return",
        "Mimic",
        "Captivate",
        "Reflect",
        "Frustration"
      ]
    }
  }
}