{
  "pixelmonName": "Piloswine",
  "spDef": 60,
  "spAtt": 60,
  "speed": 50,
  "defence": 80,
  "attack": 100,
  "hp": 100,
  "catchRate": 75,
  "malePercent": 50,
  "nationalPokedexNumber": 221,
  "spawnLevel": 33,
  "spawnLevelRange": 17,
  "baseExp": 160,
  "baseFriendship": 70,
  "rarity": {
    "day": 0,
    "dawndusk": 50,
    "night": 50
  },
  "type1": "Ice",
  "type2": "Ground",
  "height": 1.1,
  "width": 1.0,
  "length": 1.0,
  "giScale": 0.12,
  "canFly": false,
  "isRideable": false,
  "preEvolutions": [
    "Swinub"
  ],
  "experienceGroup": "Slow",
  "aggression": {
    "timid": 80,
    "passive": 0,
    "aggressive": 20
  },
  "spawnLocations": [
    "Land"
  ],
  "biomeIDs": [
    12,
    13,
    140
  ],
  "evGain": {
    "HP": 1,
    "Attack": 1,
    "Defence": 0,
    "SpecialAttack": 0,
    "SpecialDefence": 0,
    "Speed": 0
  },
  "canSurf": false,
  "maxGroupSize": 2,
  "minGroupSize": 1,
  "hoverHeight": 0.0,
  "doesHover": false,
  "id": 210,
  "baseFormID": 210,
  "weight": 55.8,
  "pokemon": "Piloswine",
  "abilities": [
    "Oblivious",
    "SnowCloak",
    "ThickFat"
  ],
  "eggGroups": [
    "Field"
  ],
  "eggCycles": 21,
  "form": -1,
  "evolutionDefs": [
    {
      "targetId": 0,
      "formTo": -1,
      "evolveCondition": "Move:320:Mamoswine"
    }
  ],
  "moves": {
    "levelMoves": {
      "1": [
        "Mud-Slap",
        "Flail",
        "Tackle",
        "Ice Fang",
        "Powder Snow",
        "Ancient Power"
      ],
      "65": [
        "Thrash"
      ],
      "51": [
        "Earthquake"
      ],
      "20": [
        "Mist"
      ],
      "37": [
        "Amnesia"
      ],
      "25": [
        "Endure"
      ],
      "58": [
        "Blizzard"
      ],
      "44": [
        "Take Down"
      ],
      "30": [
        "Icy Wind"
      ],
      "15": [
        "Ice Shard"
      ]
    },
    "eggMoves": [
      "Icicle Crash",
      "Curse",
      "Bite",
      "Ancient Power",
      "Freeze-Dry",
      "Fissure",
      "Double-Edge"
    ],
    "evolutionMoves": [
      "Ice Fang"
    ],
    "tmTRMoves": [
      "Snore",
      "Facade",
      "Icicle Spear",
      "Stone Edge",
      "Light Screen",
      "Stomping Tantrum",
      "Icy Wind",
      "Rest",
      "Sand Tomb",
      "Earthquake",
      "Ice Fang",
      "Rock Slide",
      "Earth Power",
      "Scary Face",
      "Round",
      "Body Slam",
      "Sandstorm",
      "Bulldoze",
      "Amnesia",
      "Mud Shot",
      "Substitute",
      "Superpower",
      "Attract",
      "Hail",
      "Ice Beam",
      "Giga Impact",
      "Protect",
      "Dig",
      "Rain Dance",
      "High Horsepower",
      "Hyper Beam",
      "Avalanche",
      "Rock Tomb",
      "Reflect",
      "Endure",
      "Sleep Talk",
      "Stealth Rock",
      "Blizzard"
    ],
    "tutorMoves": {
      "Transfer": [
        "Rock Smash",
        "Secret Power",
        "Detect",
        "Natural Gift",
        "Confide",
        "Peck",
        "Fury Attack",
        "Mud Sport",
        "Hidden Power",
        "Horn Attack",
        "Double Team",
        "Mud Bomb",
        "Toxic",
        "Headbutt",
        "Swagger",
        "Defense Curl",
        "Endeavor",
        "Return",
        "Mimic",
        "Odor Sleuth",
        "Captivate",
        "Roar",
        "Strength",
        "Frustration"
      ]
    }
  }
}