{
  "pixelmonName": "Politoed",
  "spDef": 100,
  "spAtt": 90,
  "speed": 70,
  "defence": 75,
  "attack": 75,
  "hp": 90,
  "catchRate": 45,
  "malePercent": 50,
  "nationalPokedexNumber": 186,
  "spawnLevel": 30,
  "spawnLevelRange": 10,
  "baseExp": 185,
  "baseFriendship": 70,
  "rarity": {
    "day": 0,
    "dawndusk": 0,
    "night": 0
  },
  "type1": "Water",
  "height": 1.1,
  "width": 0.6,
  "length": 0.5,
  "giScale": 1.0,
  "canFly": false,
  "isRideable": false,
  "preEvolutions": [
    "Poliwhirl",
    "Poliwag"
  ],
  "experienceGroup": "MediumSlow",
  "aggression": {
    "timid": 80,
    "passive": 0,
    "aggressive": 20
  },
  "spawnLocations": [
    "Land"
  ],
  "biomeIDs": [
    6,
    7,
    134
  ],
  "evGain": {
    "HP": 0,
    "Attack": 0,
    "Defence": 0,
    "SpecialAttack": 0,
    "SpecialDefence": 3,
    "Speed": 0
  },
  "canSurf": false,
  "maxGroupSize": 1,
  "minGroupSize": 1,
  "hoverHeight": 0.0,
  "doesHover": false,
  "id": 122,
  "baseFormID": 122,
  "weight": 33.9,
  "pokemon": "Politoed",
  "abilities": [
    "WaterAbsorb",
    "Damp",
    "Drizzle"
  ],
  "eggGroups": [
    "Water1"
  ],
  "eggCycles": 21,
  "form": -1,
  "evolutionDefs": [],
  "moves": {
    "levelMoves": {
      "1": [
        "Perish Song",
        "Water Gun",
        "Rain Dance",
        "Bubble Beam",
        "Earth Power",
        "Hydro Pump",
        "Pound",
        "Swagger",
        "Body Slam",
        "Bounce",
        "Hypnosis",
        "Belly Drum",
        "Mud Shot",
        "Double-Edge",
        "Hyper Voice"
      ]
    },
    "eggMoves": [
      "Endeavor",
      "Water Pulse",
      "Haze",
      "Splash",
      "Mind Reader",
      "Mist"
    ],
    "evolutionMoves": [
      "Bounce"
    ],
    "tmTRMoves": [
      "Weather Ball",
      "Snore",
      "Facade",
      "Uproar",
      "Waterfall",
      "Metronome",
      "Icy Wind",
      "Screech",
      "Mega Kick",
      "Surf",
      "Rest",
      "Encore",
      "Earthquake",
      "Hydro Pump",
      "Earth Power",
      "Round",
      "Body Slam",
      "Bounce",
      "Bulldoze",
      "Liquidation",
      "Mud Shot",
      "Substitute",
      "Brick Break",
      "Attract",
      "Hail",
      "Ice Beam",
      "Giga Impact",
      "Hyper Voice",
      "Helping Hand",
      "Payback",
      "Protect",
      "Dig",
      "Rain Dance",
      "Mega Punch",
      "Thief",
      "Hyper Beam",
      "Scald",
      "Focus Blast",
      "Fling",
      "Psychic",
      "Dive",
      "Endure",
      "Sleep Talk",
      "Whirlpool",
      "Muddy Water",
      "Ice Punch",
      "Blizzard"
    ],
    "tutorMoves": {
      "Transfer": [
        "Rock Smash",
        "Secret Power",
        "Detect",
        "Natural Gift",
        "Confide",
        "Counter",
        "Curse",
        "Hidden Power",
        "Water Sport",
        "Power-Up Punch",
        "Echoed Voice",
        "Double Team",
        "Mud-Slap",
        "Double Slap",
        "Focus Punch",
        "Toxic",
        "Seismic Toss",
        "Headbutt",
        "Ice Ball",
        "Refresh",
        "Dynamic Punch",
        "Defense Curl",
        "Return",
        "Mimic",
        "Captivate",
        "Strength",
        "Frustration"
      ]
    }
  }
}