{
  "pixelmonName": "Poliwrath",
  "spDef": 90,
  "spAtt": 70,
  "speed": 70,
  "defence": 95,
  "attack": 95,
  "hp": 90,
  "catchRate": 45,
  "malePercent": 50,
  "nationalPokedexNumber": 62,
  "spawnLevel": 35,
  "spawnLevelRange": 15,
  "baseExp": 185,
  "baseFriendship": 70,
  "rarity": {
    "day": 0,
    "dawndusk": 0,
    "night": 0
  },
  "type1": "Water",
  "type2": "Fighting",
  "height": 1.3,
  "width": 0.9,
  "length": 0.6,
  "giScale": 0.75,
  "canFly": false,
  "isRideable": true,
  "preEvolutions": [
    "Poliwhirl",
    "Poliwag"
  ],
  "experienceGroup": "MediumSlow",
  "aggression": {
    "timid": 80,
    "passive": 0,
    "aggressive": 20
  },
  "spawnLocations": [
    "Land"
  ],
  "biomeIDs": [
    6,
    7,
    134
  ],
  "evGain": {
    "HP": 0,
    "Attack": 0,
    "Defence": 3,
    "SpecialAttack": 0,
    "SpecialDefence": 0,
    "Speed": 0
  },
  "canSurf": false,
  "ridingOffsets": {
    "standing": {
      "x": 0.0,
      "y": -1.0,
      "z": -0.6
    }
  },
  "maxGroupSize": 1,
  "minGroupSize": 1,
  "hoverHeight": 0.0,
  "doesHover": false,
  "id": 62,
  "baseFormID": 62,
  "weight": 54.0,
  "pokemon": "Poliwrath",
  "abilities": [
    "WaterAbsorb",
    "Damp",
    "SwiftSwim"
  ],
  "eggGroups": [
    "Water1"
  ],
  "eggCycles": 21,
  "form": -1,
  "evolutionDefs": [],
  "moves": {
    "levelMoves": {
      "1": [
        "Circle Throw",
        "Water Gun",
        "Rain Dance",
        "Submission",
        "Mind Reader",
        "Bubble Beam",
        "Dynamic Punch",
        "Earth Power",
        "Hydro Pump",
        "Pound",
        "Body Slam",
        "Hypnosis",
        "Belly Drum",
        "Mud Shot",
        "Double-Edge"
      ]
    },
    "eggMoves": [
      "Endeavor",
      "Water Pulse",
      "Haze",
      "Splash",
      "Mind Reader",
      "Mist"
    ],
    "evolutionMoves": [
      "Submission"
    ],
    "tmTRMoves": [
      "Metronome",
      "Icy Wind",
      "Throat Chop",
      "Close Combat",
      "Surf",
      "Encore",
      "Work Up",
      "Hydro Pump",
      "Body Slam",
      "Bulldoze",
      "Mud Shot",
      "Substitute",
      "Poison Jab",
      "Attract",
      "Ice Beam",
      "Payback",
      "Drain Punch",
      "Mega Punch",
      "Darkest Lariat",
      "Fling",
      "Rock Tomb",
      "Dive",
      "Endure",
      "Whirlpool",
      "Muddy Water",
      "Low Sweep",
      "Ice Punch",
      "Snore",
      "Facade",
      "Waterfall",
      "Bulk Up",
      "Mega Kick",
      "Rest",
      "Earthquake",
      "Rock Slide",
      "Earth Power",
      "Round",
      "Liquidation",
      "Superpower",
      "Brick Break",
      "Hail",
      "Giga Impact",
      "Helping Hand",
      "Protect",
      "Dig",
      "Rain Dance",
      "High Horsepower",
      "Thief",
      "Hyper Beam",
      "Scald",
      "Focus Blast",
      "Psychic",
      "Sleep Talk",
      "Reversal",
      "Blizzard"
    ],
    "tutorMoves": {
      "Regular": [
        "Coaching"
      ],
      "Transfer": [
        "Detect",
        "Natural Gift",
        "Confide",
        "Hidden Power",
        "Power-Up Punch",
        "Bide",
        "Double Team",
        "Double Slap",
        "Seismic Toss",
        "Rage",
        "Headbutt",
        "Refresh",
        "Skull Bash",
        "Swagger",
        "Defense Curl",
        "Mimic",
        "Captivate",
        "Frustration",
        "Rock Smash",
        "Secret Power",
        "Bubble",
        "Counter",
        "Curse",
        "Take Down",
        "Water Sport",
        "Vacuum Wave",
        "Dual Chop",
        "Fissure",
        "Psywave",
        "Mud-Slap",
        "Focus Punch",
        "Toxic",
        "Rock Climb",
        "Ice Ball",
        "Return",
        "Strength"
      ]
    }
  }
}