{
  "pixelmonName": "Popplio",
  "spDef": 56,
  "spAtt": 66,
  "speed": 40,
  "defence": 54,
  "attack": 54,
  "hp": 50,
  "catchRate": 45,
  "malePercent": 88,
  "nationalPokedexNumber": 728,
  "spawnLevel": 5,
  "spawnLevelRange": 10,
  "baseExp": 64,
  "baseFriendship": 70,
  "rarity": {
    "day": 5,
    "dawndusk": 0,
    "night": 0
  },
  "type1": "Water",
  "height": 0.41,
  "width": 1.0,
  "length": 1.0,
  "giScale": 1.0,
  "canFly": false,
  "isRideable": false,
  "preEvolutions": [],
  "experienceGroup": "MediumSlow",
  "aggression": {
    "timid": 80,
    "passive": 0,
    "aggressive": 20
  },
  "spawnLocations": [
    "Land"
  ],
  "biomeIDs": [
    16
  ],
  "evGain": {
    "HP": 0,
    "Attack": 0,
    "Defence": 0,
    "SpecialAttack": 1,
    "SpecialDefence": 0,
    "Speed": 0
  },
  "canSurf": false,
  "maxGroupSize": 1,
  "minGroupSize": 1,
  "hoverHeight": 0.0,
  "doesHover": false,
  "id": 858,
  "baseFormID": 858,
  "weight": 7.5,
  "pokemon": "Popplio",
  "abilities": [
    "Torrent",
    null,
    "LiquidVoice"
  ],
  "eggGroups": [
    "Field",
    "Water1"
  ],
  "eggCycles": 15,
  "form": -1,
  "evolutionDefs": [
    {
      "targetId": 859,
      "evolveLevel": 17
    }
  ],
  "moves": {
    "levelMoves": {
      "1": [
        "Growl",
        "Pound"
      ],
      "33": [
        "Moonblast"
      ],
      "3": [
        "Water Gun"
      ],
      "36": [
        "Hydro Pump"
      ],
      "6": [
        "Disarming Voice"
      ],
      "9": [
        "Aqua Jet"
      ],
      "12": [
        "Baby-Doll Eyes"
      ],
      "15": [
        "Icy Wind"
      ],
      "18": [
        "Sing"
      ],
      "21": [
        "Bubble Beam"
      ],
      "24": [
        "Encore"
      ],
      "27": [
        "Misty Terrain"
      ],
      "30": [
        "Hyper Voice"
      ]
    },
    "eggMoves": [
      "Perish Song",
      "Life Dew",
      "Aqua Ring"
    ],
    "evolutionMoves": [],
    "tmTRMoves": [
      "Snore",
      "Facade",
      "Uproar",
      "Waterfall",
      "Play Rough",
      "Icy Wind",
      "Surf",
      "Rest",
      "Encore",
      "Wonder Room",
      "Iron Tail",
      "Work Up",
      "Charm",
      "Hydro Pump",
      "Round",
      "Misty Terrain",
      "Amnesia",
      "Substitute",
      "Acrobatics",
      "Attract",
      "Hail",
      "Ice Beam",
      "Hyper Voice",
      "Helping Hand",
      "Protect",
      "Rain Dance",
      "Brine",
      "Scald",
      "Dive",
      "Endure",
      "Sleep Talk",
      "Whirlpool",
      "Draining Kiss",
      "Blizzard"
    ],
    "tutorMoves": {
      "Regular": [
        "Triple Axel",
        "Flip Turn"
      ],
      "Transfer": [
        "Confide",
        "Water Pledge",
        "Hidden Power",
        "Echoed Voice",
        "Water Pulse",
        "Double Team",
        "Double Slap",
        "Toxic",
        "Aromatic Mist",
        "Swagger",
        "Aqua Tail",
        "Return",
        "Captivate",
        "Covet",
        "Frustration"
      ]
    }
  }
}