{
  "pixelmonName": "Porygon2",
  "spDef": 95,
  "spAtt": 105,
  "speed": 60,
  "defence": 90,
  "attack": 80,
  "hp": 85,
  "catchRate": 45,
  "malePercent": -1,
  "nationalPokedexNumber": 233,
  "spawnLevel": 20,
  "spawnLevelRange": 10,
  "baseExp": 180,
  "baseFriendship": 70,
  "rarity": {
    "day": 0,
    "dawndusk": 0,
    "night": 0
  },
  "type1": "Normal",
  "height": 0.6,
  "width": 0.6,
  "length": 0.6,
  "giScale": 1.0,
  "canFly": false,
  "isRideable": false,
  "preEvolutions": [
    "Porygon"
  ],
  "experienceGroup": "MediumFast",
  "aggression": {
    "timid": 80,
    "passive": 0,
    "aggressive": 20
  },
  "spawnLocations": [
    "Land"
  ],
  "biomeIDs": [],
  "evGain": {
    "HP": 0,
    "Attack": 0,
    "Defence": 0,
    "SpecialAttack": 2,
    "SpecialDefence": 0,
    "Speed": 0
  },
  "canSurf": false,
  "maxGroupSize": 1,
  "minGroupSize": 1,
  "hoverHeight": 0.0,
  "doesHover": false,
  "id": 345,
  "baseFormID": 345,
  "weight": 32.5,
  "pokemon": "Porygon2",
  "abilities": [
    "Trace",
    "Download",
    "Analytic"
  ],
  "eggGroups": [
    "Mineral"
  ],
  "eggCycles": 21,
  "form": -1,
  "evolutionDefs": [
    {
      "targetId": 0,
      "formTo": -1,
      "evolveCondition": "Trade:Dubious Disc:Porygon-Z"
    }
  ],
  "moves": {
    "levelMoves": {
      "1": [
        "Tackle",
        "Magnet Rise",
        "Recycle",
        "Defense Curl",
        "Conversion"
      ],
      "65": [
        "Hyper Beam"
      ],
      "50": [
        "Magic Coat"
      ],
      "35": [
        "Recover"
      ],
      "20": [
        "Psybeam"
      ],
      "55": [
        "Lock-On"
      ],
      "40": [
        "Discharge"
      ],
      "25": [
        "Conversion 2"
      ],
      "60": [
        "Zap Cannon"
      ],
      "45": [
        "Tri Attack"
      ],
      "30": [
        "Agility"
      ],
      "15": [
        "Thunder Shock"
      ]
    },
    "eggMoves": [],
    "evolutionMoves": [],
    "tmTRMoves": [
      "Snore",
      "Facade",
      "Eerie Impulse",
      "Solar Beam",
      "Icy Wind",
      "Rest",
      "Wonder Room",
      "Iron Tail",
      "Agility",
      "Round",
      "Shadow Ball",
      "Substitute",
      "Power Swap",
      "Electroweb",
      "Ice Beam",
      "Ally Switch",
      "Giga Impact",
      "Thunder Wave",
      "Protect",
      "Guard Swap",
      "Rain Dance",
      "Thunder",
      "Tri Attack",
      "Thief",
      "Psyshock",
      "Trick",
      "Hyper Beam",
      "Sunny Day",
      "Psychic",
      "Foul Play",
      "Endure",
      "Sleep Talk",
      "Speed Swap",
      "Swift",
      "Zen Headbutt",
      "Thunderbolt",
      "Trick Room",
      "Blizzard"
    ],
    "tutorMoves": {
      "Transfer": [
        "Secret Power",
        "Psych Up",
        "Dream Eater",
        "Natural Gift",
        "Confide",
        "Curse",
        "Double-Edge",
        "Hidden Power",
        "Double Team",
        "Shock Wave",
        "Telekinesis",
        "Toxic",
        "Aerial Ace",
        "Swagger",
        "Charge Beam",
        "Sharpen",
        "Nightmare",
        "Pain Split",
        "Flash",
        "Signal Beam",
        "Gravity",
        "Last Resort",
        "Return",
        "Mimic",
        "Frustration"
      ]
    }
  }
}