{
  "pixelmonName": "Primarina",
  "spDef": 116,
  "spAtt": 126,
  "speed": 60,
  "defence": 74,
  "attack": 74,
  "hp": 80,
  "catchRate": 45,
  "malePercent": 88,
  "nationalPokedexNumber": 730,
  "spawnLevel": 35,
  "spawnLevelRange": 25,
  "baseExp": 239,
  "baseFriendship": 70,
  "rarity": {
    "day": 10,
    "dawndusk": 0,
    "night": 0
  },
  "type1": "Water",
  "type2": "Fairy",
  "height": 1.8,
  "width": 1.0,
  "length": 1.0,
  "giScale": 1.0,
  "canFly": false,
  "isRideable": false,
  "preEvolutions": [
    "Brionne",
    "Popplio"
  ],
  "experienceGroup": "MediumSlow",
  "aggression": {
    "timid": 80,
    "passive": 0,
    "aggressive": 20
  },
  "spawnLocations": [
    "Land"
  ],
  "biomeIDs": [
    16
  ],
  "evGain": {
    "HP": 0,
    "Attack": 0,
    "Defence": 0,
    "SpecialAttack": 3,
    "SpecialDefence": 0,
    "Speed": 0
  },
  "canSurf": true,
  "maxGroupSize": 1,
  "minGroupSize": 1,
  "hoverHeight": 0.0,
  "doesHover": false,
  "id": 860,
  "baseFormID": 860,
  "weight": 44.0,
  "pokemon": "Primarina",
  "abilities": [
    "Torrent",
    null,
    "LiquidVoice"
  ],
  "eggGroups": [
    "Field",
    "Water1"
  ],
  "eggCycles": 15,
  "form": -1,
  "evolutionDefs": [],
  "moves": {
    "levelMoves": {
      "1": [
        "Disarming Voice",
        "Water Gun",
        "Growl",
        "Pound",
        "Sparkling Aria"
      ],
      "51": [
        "Moonblast"
      ],
      "20": [
        "Sing"
      ],
      "37": [
        "Misty Terrain"
      ],
      "9": [
        "Aqua Jet"
      ],
      "25": [
        "Bubble Beam"
      ],
      "58": [
        "Hydro Pump"
      ],
      "12": [
        "Baby-Doll Eyes"
      ],
      "44": [
        "Hyper Voice"
      ],
      "30": [
        "Encore"
      ],
      "15": [
        "Icy Wind"
      ]
    },
    "eggMoves": [
      "Perish Song",
      "Life Dew",
      "Aqua Ring"
    ],
    "evolutionMoves": [
      "Sparkling Aria"
    ],
    "tmTRMoves": [
      "Weather Ball",
      "Snore",
      "Facade",
      "Uproar",
      "Waterfall",
      "Play Rough",
      "Dazzling Gleam",
      "Light Screen",
      "Icy Wind",
      "Stored Power",
      "Surf",
      "Rest",
      "Encore",
      "Wonder Room",
      "Iron Tail",
      "Work Up",
      "Charm",
      "Hydro Pump",
      "Round",
      "Misty Terrain",
      "Shadow Ball",
      "Liquidation",
      "Amnesia",
      "Substitute",
      "Acrobatics",
      "Attract",
      "Hail",
      "Ice Beam",
      "Giga Impact",
      "Hyper Voice",
      "Helping Hand",
      "Energy Ball",
      "Protect",
      "Rain Dance",
      "Hyper Beam",
      "Brine",
      "Scald",
      "Calm Mind",
      "Psychic",
      "Dive",
      "Reflect",
      "Endure",
      "Sleep Talk",
      "Whirlpool",
      "Draining Kiss",
      "Blizzard"
    ],
    "tutorMoves": {
      "Regular": [
        "Triple Axel",
        "Flip Turn",
        "Misty Explosion"
      ],
      "Transfer": [
        "Psych Up",
        "Confide",
        "Water Pledge",
        "Hidden Power",
        "Magic Coat",
        "Echoed Voice",
        "Water Pulse",
        "Double Team",
        "Double Slap",
        "Toxic",
        "Aromatic Mist",
        "Swagger",
        "Aqua Tail",
        "Return",
        "Captivate",
        "Hydro Cannon",
        "Covet",
        "Frustration"
      ]
    }
  }
}