{
  "pixelmonName": "Psyduck",
  "spDef": 50,
  "spAtt": 65,
  "speed": 55,
  "defence": 48,
  "attack": 52,
  "hp": 50,
  "catchRate": 190,
  "malePercent": 50,
  "nationalPokedexNumber": 54,
  "spawnLevel": 5,
  "spawnLevelRange": 28,
  "baseExp": 80,
  "baseFriendship": 70,
  "rarity": {
    "day": 150,
    "dawndusk": 0,
    "night": 0
  },
  "type1": "Water",
  "height": 0.9,
  "width": 0.55,
  "length": 0.55,
  "giScale": 1.0,
  "canFly": false,
  "isRideable": false,
  "preEvolutions": [],
  "experienceGroup": "MediumFast",
  "aggression": {
    "timid": 80,
    "passive": 0,
    "aggressive": 20
  },
  "spawnLocations": [
    "Land"
  ],
  "biomeIDs": [
    6,
    7,
    21,
    22,
    23,
    134,
    149,
    151
  ],
  "evGain": {
    "HP": 0,
    "Attack": 0,
    "Defence": 0,
    "SpecialAttack": 1,
    "SpecialDefence": 0,
    "Speed": 0
  },
  "canSurf": false,
  "maxGroupSize": 4,
  "minGroupSize": 1,
  "hoverHeight": 0.0,
  "doesHover": false,
  "id": 54,
  "baseFormID": 54,
  "weight": 19.6,
  "pokemon": "Psyduck",
  "abilities": [
    "Damp",
    "CloudNine",
    "SwiftSwim"
  ],
  "eggGroups": [
    "Water1",
    "Field"
  ],
  "eggCycles": 21,
  "form": -1,
  "evolutionDefs": [
    {
      "targetId": 55,
      "evolveLevel": 33
    }
  ],
  "moves": {
    "levelMoves": {
      "1": [
        "Scratch",
        "Tail Whip"
      ],
      "34": [
        "Amnesia"
      ],
      "3": [
        "Water Gun"
      ],
      "36": [
        "Hydro Pump"
      ],
      "6": [
        "Confusion"
      ],
      "39": [
        "Wonder Room"
      ],
      "9": [
        "Fury Swipes"
      ],
      "12": [
        "Water Pulse"
      ],
      "15": [
        "Disable"
      ],
      "18": [
        "Zen Headbutt"
      ],
      "21": [
        "Screech"
      ],
      "24": [
        "Aqua Tail"
      ],
      "27": [
        "Soak"
      ],
      "30": [
        "Psych Up"
      ]
    },
    "eggMoves": [
      "Psybeam",
      "Simple Beam",
      "Yawn",
      "Cross Chop",
      "Clear Smog",
      "Confuse Ray",
      "Hypnosis"
    ],
    "evolutionMoves": [],
    "tmTRMoves": [
      "Snore",
      "Facade",
      "Waterfall",
      "Light Screen",
      "Icy Wind",
      "Screech",
      "Mega Kick",
      "Surf",
      "Rest",
      "Encore",
      "Pay Day",
      "Wonder Room",
      "Iron Tail",
      "Hydro Pump",
      "Round",
      "Body Slam",
      "Amnesia",
      "Substitute",
      "Brick Break",
      "Attract",
      "Hail",
      "Ice Beam",
      "Future Sight",
      "Protect",
      "Dig",
      "Rain Dance",
      "Mega Punch",
      "Psyshock",
      "Brine",
      "Scald",
      "Calm Mind",
      "Fling",
      "Psychic",
      "Dive",
      "Endure",
      "Sleep Talk",
      "Whirlpool",
      "Shadow Claw",
      "Swift",
      "Zen Headbutt",
      "Ice Punch",
      "Blizzard"
    ],
    "tutorMoves": {
      "Transfer": [
        "Natural Gift",
        "Confide",
        "Double-Edge",
        "Hidden Power",
        "Power-Up Punch",
        "Synchronoise",
        "Bide",
        "Double Team",
        "Hone Claws",
        "Telekinesis",
        "Seismic Toss",
        "Rage",
        "Headbutt",
        "Refresh",
        "Dynamic Punch",
        "Skull Bash",
        "Swagger",
        "Submission",
        "Mimic",
        "Captivate",
        "Role Play",
        "Frustration",
        "Rock Smash",
        "Secret Power",
        "Bubble Beam",
        "Counter",
        "Curse",
        "Take Down",
        "Water Sport",
        "Mud Bomb",
        "Mud-Slap",
        "Focus Punch",
        "Worry Seed",
        "Toxic",
        "Aerial Ace",
        "Flash",
        "Signal Beam",
        "Return",
        "Strength",
        "Foresight"
      ]
    }
  }
}