{
  "pixelmonName": "Purrloin",
  "spDef": 37,
  "spAtt": 50,
  "speed": 66,
  "defence": 37,
  "attack": 50,
  "hp": 41,
  "catchRate": 255,
  "malePercent": 50,
  "nationalPokedexNumber": 509,
  "spawnLevel": 3,
  "spawnLevelRange": 17,
  "baseExp": 56,
  "baseFriendship": 70,
  "rarity": {
    "day": 0,
    "dawndusk": 0,
    "night": 50
  },
  "type1": "Dark",
  "height": 0.4,
  "width": 0.7,
  "length": 0.7,
  "giScale": 1.0,
  "canFly": false,
  "isRideable": false,
  "preEvolutions": [],
  "experienceGroup": "MediumFast",
  "aggression": {
    "timid": 80,
    "passive": 0,
    "aggressive": 20
  },
  "spawnLocations": [
    "Land"
  ],
  "biomeIDs": [
    35,
    36,
    163,
    164
  ],
  "evGain": {
    "HP": 0,
    "Attack": 0,
    "Defence": 0,
    "SpecialAttack": 0,
    "SpecialDefence": 0,
    "Speed": 1
  },
  "canSurf": false,
  "maxGroupSize": 1,
  "minGroupSize": 1,
  "hoverHeight": 0.0,
  "doesHover": false,
  "id": 586,
  "baseFormID": 586,
  "weight": 10.1,
  "pokemon": "Purrloin",
  "abilities": [
    "Limber",
    "Unburden",
    "Prankster"
  ],
  "eggGroups": [
    "Field"
  ],
  "eggCycles": 21,
  "form": -1,
  "evolutionDefs": [
    {
      "targetId": 587,
      "evolveLevel": 20
    }
  ],
  "moves": {
    "levelMoves": {
      "16": [
        "Torment"
      ],
      "32": [
        "Nasty Plot"
      ],
      "1": [
        "Scratch",
        "Growl"
      ],
      "4": [
        "Sand Attack"
      ],
      "36": [
        "Night Slash"
      ],
      "5": [
        "Fake Out"
      ],
      "21": [
        "Assurance"
      ],
      "24": [
        "Hone Claws"
      ],
      "40": [
        "Play Rough"
      ],
      "12": [
        "Fury Swipes"
      ],
      "28": [
        "Sucker Punch"
      ]
    },
    "eggMoves": [
      "Quick Attack",
      "Yawn",
      "Slash",
      "Double Team",
      "Covet",
      "Copycat"
    ],
    "evolutionMoves": [],
    "tmTRMoves": [
      "Snore",
      "Facade",
      "Assurance",
      "Taunt",
      "Play Rough",
      "Snarl",
      "Dark Pulse",
      "Grass Knot",
      "U-turn",
      "Screech",
      "Rest",
      "Seed Bomb",
      "Encore",
      "Pay Day",
      "Iron Tail",
      "Charm",
      "Nasty Plot",
      "Round",
      "Shadow Ball",
      "Substitute",
      "Gunk Shot",
      "Attract",
      "Thunder Wave",
      "Hyper Voice",
      "Payback",
      "Protect",
      "Rain Dance",
      "Thief",
      "Fake Tears",
      "Trick",
      "Sunny Day",
      "Baton Pass",
      "Foul Play",
      "Endure",
      "Sleep Talk",
      "Shadow Claw",
      "Swift"
    ],
    "tutorMoves": {
      "Regular": [
        "Lash Out"
      ],
      "Transfer": [
        "Secret Power",
        "Psych Up",
        "Dream Eater",
        "Snatch",
        "Confide",
        "Cut",
        "Hidden Power",
        "Echoed Voice",
        "Spite",
        "Toxic",
        "Aerial Ace",
        "Embargo",
        "Swagger",
        "Return",
        "Captivate",
        "Knock Off",
        "Pursuit",
        "Role Play",
        "Faint Attack",
        "Assist",
        "Frustration"
      ]
    }
  }
}