{
  "pixelmonName": "Qwilfish",
  "spDef": 55,
  "spAtt": 55,
  "speed": 85,
  "defence": 85,
  "attack": 95,
  "hp": 65,
  "catchRate": 45,
  "malePercent": 50,
  "nationalPokedexNumber": 211,
  "spawnLevel": 5,
  "spawnLevelRange": 40,
  "baseExp": 100,
  "baseFriendship": 70,
  "rarity": {
    "day": 0,
    "dawndusk": 0,
    "night": 120
  },
  "type1": "Water",
  "type2": "Poison",
  "height": 0.5,
  "width": 0.7,
  "length": 0.7,
  "giScale": 1.0,
  "canFly": false,
  "isRideable": false,
  "preEvolutions": [],
  "experienceGroup": "MediumFast",
  "aggression": {
    "timid": 80,
    "passive": 0,
    "aggressive": 20
  },
  "swimmingParameters": {
    "depthRangeStart": 0,
    "depthRangeEnd": 25,
    "swimSpeed": 0.5,
    "decayRate": 0.99,
    "refreshRate": 200
  },
  "spawnLocations": [
    "Water"
  ],
  "biomeIDs": [
    0,
    24
  ],
  "evGain": {
    "HP": 0,
    "Attack": 1,
    "Defence": 0,
    "SpecialAttack": 0,
    "SpecialDefence": 0,
    "Speed": 0
  },
  "canSurf": true,
  "maxGroupSize": 1,
  "minGroupSize": 1,
  "hoverHeight": 0.0,
  "doesHover": false,
  "id": 326,
  "baseFormID": 326,
  "weight": 3.9,
  "pokemon": "Qwilfish",
  "abilities": [
    "PoisonPoint",
    "SwiftSwim",
    "Intimidate"
  ],
  "eggGroups": [
    "Water2"
  ],
  "eggCycles": 21,
  "form": -1,
  "evolutionDefs": [],
  "moves": {
    "levelMoves": {
      "32": [
        "Pin Missile"
      ],
      "1": [
        "Tackle",
        "Poison Sting"
      ],
      "66": [
        "Destiny Bond"
      ],
      "4": [
        "Harden"
      ],
      "36": [
        "Toxic Spikes"
      ],
      "8": [
        "Water Gun"
      ],
      "40": [
        "Poison Jab"
      ],
      "12": [
        "Fell Stinger"
      ],
      "44": [
        "Spit Up",
        "Stockpile"
      ],
      "16": [
        "Minimize"
      ],
      "48": [
        "Take Down"
      ],
      "20": [
        "Spikes"
      ],
      "52": [
        "Toxic"
      ],
      "24": [
        "Brine"
      ],
      "56": [
        "Aqua Tail"
      ],
      "28": [
        "Revenge"
      ],
      "60": [
        "Acupressure"
      ]
    },
    "eggMoves": [
      "Supersonic",
      "Acid Spray",
      "Flail",
      "Water Pulse",
      "Haze",
      "Astonish",
      "Bubble Beam",
      "Aqua Jet"
    ],
    "evolutionMoves": [],
    "tmTRMoves": [
      "Pin Missile",
      "Snore",
      "Facade",
      "Assurance",
      "Taunt",
      "Waterfall",
      "Sludge Bomb",
      "Swords Dance",
      "Icy Wind",
      "Revenge",
      "Throat Chop",
      "Surf",
      "Rest",
      "Sludge Wave",
      "Venom Drench",
      "Hydro Pump",
      "Scary Face",
      "Round",
      "Shadow Ball",
      "Bounce",
      "Liquidation",
      "Substitute",
      "Poison Jab",
      "Attract",
      "Hail",
      "Ice Beam",
      "Thunder Wave",
      "Payback",
      "Protect",
      "Venoshock",
      "Rain Dance",
      "Self-Destruct",
      "Brine",
      "Scald",
      "Gyro Ball",
      "Spikes",
      "Dive",
      "Endure",
      "Sleep Talk",
      "Whirlpool",
      "Reversal",
      "Swift",
      "Hex",
      "Toxic Spikes",
      "Blizzard"
    ],
    "tutorMoves": {
      "Regular": [
        "Steel Roller",
        "Scale Shot"
      ],
      "Transfer": [
        "Secret Power",
        "Natural Gift",
        "Confide",
        "Bubble",
        "Curse",
        "Double-Edge",
        "Explosion",
        "Hidden Power",
        "Double Team",
        "Shock Wave",
        "Headbutt",
        "Swagger",
        "Defense Curl",
        "Pain Split",
        "Rollout",
        "Signal Beam",
        "Return",
        "Mimic",
        "Captivate",
        "Frustration"
      ]
    }
  }
}