{
  "pixelmonName": "Raboot",
  "spDef": 60,
  "spAtt": 55,
  "speed": 94,
  "defence": 60,
  "attack": 86,
  "hp": 65,
  "catchRate": 45,
  "malePercent": 87,
  "nationalPokedexNumber": 814,
  "spawnLevel": 16,
  "spawnLevelRange": 8,
  "baseExp": 147,
  "baseFriendship": 50,
  "rarity": {
    "day": 40,
    "dawndusk": 0,
    "night": 0
  },
  "type1": "Fire",
  "height": 0.6,
  "width": 0.6,
  "length": 0.6,
  "giScale": 1.0,
  "canFly": false,
  "isRideable": false,
  "preEvolutions": [
    "Scorbunny"
  ],
  "experienceGroup": "MediumSlow",
  "aggression": {
    "timid": 80,
    "passive": 0,
    "aggressive": 20
  },
  "spawnLocations": [],
  "biomeIDs": [],
  "evGain": {
    "HP": 0,
    "Attack": 0,
    "Defence": 0,
    "SpecialAttack": 0,
    "SpecialDefence": 0,
    "Speed": 2
  },
  "canSurf": false,
  "maxGroupSize": 2,
  "minGroupSize": 1,
  "hoverHeight": 0.0,
  "doesHover": false,
  "id": 1001,
  "baseFormID": 1001,
  "weight": 9.0,
  "pokemon": "Raboot",
  "abilities": [
    "Blaze",
    null,
    "Libero"
  ],
  "eggGroups": [
    "Field",
    "Humanlike"
  ],
  "eggCycles": 21,
  "form": -1,
  "evolutionDefs": [
    {
      "targetId": 1002,
      "evolveLevel": 35
    }
  ],
  "moves": {
    "levelMoves": {
      "48": [
        "Double-Edge"
      ],
      "1": [
        "Quick Attack",
        "Tackle",
        "Growl",
        "Ember"
      ],
      "19": [
        "Flame Charge"
      ],
      "36": [
        "Counter"
      ],
      "24": [
        "Agility"
      ],
      "42": [
        "Bounce"
      ],
      "12": [
        "Double Kick"
      ],
      "30": [
        "Headbutt"
      ]
    },
    "eggMoves": [
      "Sucker Punch",
      "Super Fang",
      "Hi Jump Kick",
      "Sand Attack"
    ],
    "evolutionMoves": [],
    "tmTRMoves": [
      "Snore",
      "Facade",
      "Assurance",
      "Flamethrower",
      "Taunt",
      "Focus Energy",
      "Overheat",
      "U-turn",
      "Fire Fang",
      "Bulk Up",
      "Mega Kick",
      "Rest",
      "Work Up",
      "Agility",
      "Round",
      "Heat Wave",
      "Bounce",
      "Mud Shot",
      "Substitute",
      "Acrobatics",
      "Gunk Shot",
      "Attract",
      "Ally Switch",
      "Protect",
      "Sunny Day",
      "Baton Pass",
      "Flare Blitz",
      "Low Kick",
      "Endure",
      "Sleep Talk",
      "Reversal",
      "Swift",
      "Electro Ball",
      "Blaze Kick",
      "Low Sweep",
      "Fire Blast"
    ],
    "tutorMoves": {}
  }
}