{
  "pixelmonName": "Rattata",
  "spDef": 35,
  "spAtt": 25,
  "speed": 72,
  "defence": 35,
  "attack": 56,
  "hp": 30,
  "catchRate": 255,
  "malePercent": 50,
  "nationalPokedexNumber": 19,
  "spawnLevel": 2,
  "spawnLevelRange": 18,
  "baseExp": 51,
  "baseFriendship": 70,
  "rarity": {
    "day": 200,
    "dawndusk": 0,
    "night": 200
  },
  "type1": "Normal",
  "height": 0.3,
  "width": 0.3,
  "length": 0.5,
  "giScale": 0.5,
  "canFly": false,
  "isRideable": false,
  "preEvolutions": [],
  "experienceGroup": "MediumFast",
  "aggression": {
    "timid": 80,
    "passive": 0,
    "aggressive": 20
  },
  "spawnLocations": [
    "Land"
  ],
  "biomeIDs": [
    1,
    129
  ],
  "evGain": {
    "HP": 0,
    "Attack": 0,
    "Defence": 0,
    "SpecialAttack": 0,
    "SpecialDefence": 0,
    "Speed": 1
  },
  "canSurf": false,
  "maxGroupSize": 3,
  "minGroupSize": 2,
  "hoverHeight": 0.0,
  "doesHover": false,
  "id": 232,
  "baseFormID": 232,
  "weight": 3.5,
  "pokemon": "Rattata",
  "abilities": [
    "RunAway",
    "Guts",
    "Hustle"
  ],
  "eggGroups": [
    "Field"
  ],
  "eggCycles": 16,
  "form": -1,
  "evolutionDefs": [
    {
      "targetId": 38,
      "evolveLevel": 20
    }
  ],
  "moves": {
    "levelMoves": {
      "1": [
        "Tackle",
        "Tail Whip"
      ],
      "34": [
        "Endeavor"
      ],
      "3": [
        "Tail Whip"
      ],
      "4": [
        "Quick Attack"
      ],
      "6": [
        "Quick Attack"
      ],
      "7": [
        "Focus Energy"
      ],
      "9": [
        "Focus Energy"
      ],
      "10": [
        "Bite"
      ],
      "12": [
        "Bite"
      ],
      "13": [
        "Pursuit"
      ],
      "15": [
        "Super Fang"
      ],
      "16": [
        "Hyper Fang"
      ],
      "18": [
        "Crunch"
      ],
      "19": [
        "Assurance"
      ],
      "21": [
        "Hyper Fang"
      ],
      "22": [
        "Crunch"
      ],
      "24": [
        "Sucker Punch"
      ],
      "25": [
        "Sucker Punch"
      ],
      "27": [
        "Double-Edge"
      ],
      "28": [
        "Super Fang"
      ],
      "31": [
        "Double-Edge"
      ]
    },
    "eggMoves": [
      "Flame Wheel",
      "Final Gambit",
      "Last Resort",
      "Uproar",
      "Counter",
      "Bite",
      "Reversal",
      "Fury Swipes",
      "Revenge",
      "Screech",
      "Me First"
    ],
    "evolutionMoves": [],
    "tmTRMoves": [
      "Thunder Wave",
      "Dig",
      "Screech",
      "Rest",
      "Thief",
      "Snore",
      "Protect",
      "Icy Wind",
      "Attract",
      "Rain Dance",
      "Sunny Day",
      "Beat Up",
      "Facade",
      "Revenge",
      "Assurance",
      "Round",
      "Retaliate",
      "Body Slam",
      "Ice Beam",
      "Blizzard",
      "Thunderbolt",
      "Thunder",
      "Focus Energy",
      "Substitute",
      "Reversal",
      "Sludge Bomb",
      "Endure",
      "Sleep Talk",
      "Iron Tail",
      "Crunch",
      "Shadow Ball",
      "Uproar",
      "Taunt",
      "Zen Headbutt",
      "Grass Knot",
      "Work Up",
      "Wild Charge"
    ],
    "tutorMoves": {
      "Regular": [
        "Endeavor",
        "Last Resort",
        "Snore",
        "Uproar",
        "Iron Tail",
        "Super Fang",
        "Zen Headbutt",
        "Icy Wind",
        "Covet",
        "Shock Wave"
      ],
      "Transfer": [
        "Rock Smash",
        "Secret Power",
        "Bubble Beam",
        "Natural Gift",
        "Confide",
        "Curse",
        "Pluck",
        "Cut",
        "Take Down",
        "Hidden Power",
        "Bide",
        "Double Team",
        "Swift",
        "Mud-Slap",
        "Toxic",
        "U-turn",
        "Rage",
        "Headbutt",
        "Skull Bash",
        "Swagger",
        "Charge Beam",
        "Defense Curl",
        "Water Gun",
        "Return",
        "Mimic",
        "Captivate",
        "Frustration"
      ]
    }
  }
}