{
  "pixelmonName": "Rattata",
  "spDef": 35,
  "spAtt": 25,
  "speed": 72,
  "defence": 35,
  "attack": 56,
  "hp": 30,
  "catchRate": 255,
  "malePercent": 50,
  "nationalPokedexNumber": 19,
  "spawnLevel": 2,
  "spawnLevelRange": 18,
  "baseExp": 57,
  "baseFriendship": 70,
  "rarity": {
    "day": 0,
    "dawndusk": 0,
    "night": 20
  },
  "type1": "Dark",
  "type2": "Normal",
  "height": 0.3,
  "width": 1.0,
  "length": 1.0,
  "giScale": 1.0,
  "canFly": false,
  "isRideable": false,
  "preEvolutions": [],
  "experienceGroup": "MediumFast",
  "aggression": {
    "timid": 80,
    "passive": 0,
    "aggressive": 20
  },
  "spawnLocations": [
    "Land"
  ],
  "biomeIDs": [
    1,
    129
  ],
  "evGain": {
    "HP": 0,
    "Attack": 0,
    "Defence": 0,
    "SpecialAttack": 0,
    "SpecialDefence": 0,
    "Speed": 1
  },
  "canSurf": false,
  "maxGroupSize": 1,
  "minGroupSize": 1,
  "hoverHeight": 0.0,
  "doesHover": false,
  "id": 876,
  "baseFormID": 232,
  "weight": 3.8,
  "pokemon": "Rattata",
  "abilities": [
    "Gluttony",
    "Hustle",
    "ThickFat"
  ],
  "eggGroups": [
    "Field"
  ],
  "eggCycles": 15,
  "form": 3,
  "evolutionDefs": [
    {
      "targetId": 877,
      "formTo": 3,
      "evolveLevel": 20,
      "evolveCondition": "Time:Night:Raticate"
    }
  ],
  "moves": {
    "levelMoves": {},
    "eggMoves": [
      "Final Gambit",
      "Uproar",
      "Counter",
      "Switcheroo",
      "Reversal",
      "Fury Swipes",
      "Swallow",
      "Revenge",
      "Stockpile",
      "Snatch",
      "Me First"
    ],
    "evolutionMoves": [],
    "tmTRMoves": [
      "Thunder Wave",
      "Dig",
      "Screech",
      "Rest",
      "Thief",
      "Snore",
      "Protect",
      "Icy Wind",
      "Attract",
      "Rain Dance",
      "Sunny Day",
      "Beat Up",
      "Facade",
      "Revenge",
      "Assurance",
      "Round",
      "Retaliate",
      "Snarl",
      "Body Slam",
      "Ice Beam",
      "Blizzard",
      "Thunderbolt",
      "Thunder",
      "Focus Energy",
      "Substitute",
      "Reversal",
      "Sludge Bomb",
      "Endure",
      "Sleep Talk",
      "Iron Tail",
      "Crunch",
      "Shadow Ball",
      "Uproar",
      "Taunt",
      "Dark Pulse",
      "Zen Headbutt",
      "Grass Knot"
    ],
    "tutorMoves": {
      "Regular": [
        "Endeavor",
        "Last Resort",
        "Snore",
        "Uproar",
        "Iron Tail",
        "Super Fang",
        "Zen Headbutt",
        "Icy Wind",
        "Covet",
        "Shock Wave",
        "Snatch"
      ],
      "Transfer": [
        "Confide",
        "Quash",
        "Hidden Power",
        "Double Team",
        "Toxic",
        "U-turn",
        "Headbutt",
        "Embargo",
        "Swagger",
        "Return",
        "Shadow Claw",
        "Torment",
        "Frustration"
      ]
    }
  }
}