{
  "pixelmonName": "Regieleki",
  "spDef": 50,
  "spAtt": 100,
  "speed": 200,
  "defence": 50,
  "attack": 100,
  "hp": 80,
  "catchRate": 3,
  "malePercent": -1,
  "nationalPokedexNumber": 894,
  "spawnLevel": 40,
  "spawnLevelRange": 0,
  "baseExp": 0,
  "baseFriendship": 0,
  "rarity": {
    "day": 0,
    "dawndusk": -1,
    "night": 0
  },
  "type1": "Electric",
  "height": 1.9,
  "width": 1.0,
  "length": 1.0,
  "giScale": 1.0,
  "canFly": false,
  "isRideable": false,
  "preEvolutions": [],
  "experienceGroup": "Slow",
  "aggression": {
    "timid": 80,
    "passive": 0,
    "aggressive": 20
  },
  "spawnLocations": [
    "Land"
  ],
  "biomeIDs": [
    165
  ],
  "evGain": {
    "HP": 0,
    "Attack": 0,
    "Defence": 0,
    "SpecialAttack": 0,
    "SpecialDefence": 0,
    "Speed": 3
  },
  "canSurf": false,
  "maxGroupSize": 1,
  "minGroupSize": 1,
  "hoverHeight": 0.0,
  "doesHover": false,
  "id": 1156,
  "baseFormID": 1156,
  "weight": 145.0,
  "pokemon": "Regieleki",
  "abilities": [
    "Transistor",
    null,
    null
  ],
  "eggGroups": [
    "Undiscovered"
  ],
  "eggCycles": 120,
  "form": -1,
  "evolutionDefs": [],
  "moves": {
    "levelMoves": {
      "1": [
        "Rapid Spin",
        "Thunder Shock"
      ],
      "66": [
        "Zap Cannon"
      ],
      "36": [
        "Thunder Cage"
      ],
      "6": [
        "Electroweb"
      ],
      "72": [
        "Hyper Beam"
      ],
      "42": [
        "Thunderbolt"
      ],
      "12": [
        "Ancient Power"
      ],
      "78": [
        "Explosion"
      ],
      "48": [
        "Magnet Rise"
      ],
      "18": [
        "Shock Wave"
      ],
      "54": [
        "Thrash"
      ],
      "24": [
        "Thunder Wave"
      ],
      "60": [
        "Lock-On"
      ],
      "30": [
        "Extreme Speed"
      ]
    },
    "eggMoves": [
      "Rising Voltage"
    ],
    "evolutionMoves": [],
    "tmTRMoves": [
      "Snore",
      "Facade",
      "Assurance",
      "Light Screen",
      "Volt Switch",
      "Eerie Impulse",
      "Screech",
      "Rest",
      "Agility",
      "Round",
      "Body Slam",
      "Bounce",
      "Substitute",
      "Acrobatics",
      "Electroweb",
      "Giga Impact",
      "Thunder Wave",
      "Protect",
      "Rain Dance",
      "Thunder",
      "Self-Destruct",
      "Wild Charge",
      "Hyper Beam",
      "Electric Terrain",
      "Reflect",
      "Endure",
      "Sleep Talk",
      "Swift",
      "Electro Ball",
      "Thunderbolt"
    ],
    "tutorMoves": {
      "Regular": [
        "Rising Voltage"
      ]
    }
  }
}