{
  "pixelmonName": "Remoraid",
  "spDef": 35,
  "spAtt": 65,
  "speed": 65,
  "defence": 35,
  "attack": 65,
  "hp": 35,
  "catchRate": 190,
  "malePercent": 50,
  "nationalPokedexNumber": 223,
  "spawnLevel": 5,
  "spawnLevelRange": 19,
  "baseExp": 78,
  "baseFriendship": 70,
  "rarity": {
    "day": 200,
    "dawndusk": 0,
    "night": 0
  },
  "type1": "Water",
  "height": 0.6,
  "width": 0.7,
  "length": 0.7,
  "giScale": 1.0,
  "canFly": false,
  "isRideable": false,
  "preEvolutions": [],
  "experienceGroup": "MediumFast",
  "aggression": {
    "timid": 80,
    "passive": 0,
    "aggressive": 20
  },
  "swimmingParameters": {
    "depthRangeStart": 0,
    "depthRangeEnd": 5,
    "swimSpeed": 0.8,
    "decayRate": 0.99,
    "refreshRate": 200
  },
  "spawnLocations": [
    "Water"
  ],
  "biomeIDs": [
    0,
    16,
    24,
    25
  ],
  "evGain": {
    "HP": 0,
    "Attack": 0,
    "Defence": 0,
    "SpecialAttack": 1,
    "SpecialDefence": 0,
    "Speed": 0
  },
  "canSurf": true,
  "maxGroupSize": 1,
  "minGroupSize": 1,
  "hoverHeight": 0.0,
  "doesHover": false,
  "id": 336,
  "baseFormID": 336,
  "weight": 12.0,
  "pokemon": "Remoraid",
  "abilities": [
    "Hustle",
    "Sniper",
    "Moody"
  ],
  "eggGroups": [
    "Water1",
    "Water2"
  ],
  "eggCycles": 21,
  "form": -1,
  "evolutionDefs": [
    {
      "targetId": 337,
      "evolveLevel": 25
    }
  ],
  "moves": {
    "levelMoves": {
      "16": [
        "Aurora Beam"
      ],
      "32": [
        "Ice Beam"
      ],
      "1": [
        "Helping Hand",
        "Water Gun"
      ],
      "4": [
        "Water Pulse"
      ],
      "20": [
        "Bubble Beam"
      ],
      "36": [
        "Hydro Pump"
      ],
      "8": [
        "Focus Energy"
      ],
      "24": [
        "Lock-On"
      ],
      "40": [
        "Soak"
      ],
      "12": [
        "Psybeam"
      ],
      "28": [
        "Bullet Seed"
      ],
      "44": [
        "Hyper Beam"
      ]
    },
    "eggMoves": [
      "Supersonic",
      "Acid Spray",
      "Flail",
      "Water Spout",
      "Haze",
      "Octazooka"
    ],
    "evolutionMoves": [],
    "tmTRMoves": [
      "Snore",
      "Facade",
      "Assurance",
      "Flamethrower",
      "Focus Energy",
      "Waterfall",
      "Icy Wind",
      "Rock Blast",
      "Screech",
      "Surf",
      "Rest",
      "Seed Bomb",
      "Hydro Pump",
      "Bullet Seed",
      "Round",
      "Bounce",
      "Mud Shot",
      "Substitute",
      "Gunk Shot",
      "Attract",
      "Ice Beam",
      "Thunder Wave",
      "Helping Hand",
      "Protect",
      "Rain Dance",
      "Thief",
      "Hyper Beam",
      "Sunny Day",
      "Brine",
      "Scald",
      "Psychic",
      "Dive",
      "Endure",
      "Sleep Talk",
      "Whirlpool",
      "Swift",
      "Blizzard",
      "Fire Blast"
    ],
    "tutorMoves": {
      "Transfer": [
        "Secret Power",
        "Natural Gift",
        "Confide",
        "Curse",
        "Incinerate",
        "Entrainment",
        "Double-Edge",
        "Hidden Power",
        "Smack Down",
        "Double Team",
        "Mud-Slap",
        "Toxic",
        "Swagger",
        "Charge Beam",
        "Defense Curl",
        "Signal Beam",
        "Return",
        "Mimic",
        "Captivate",
        "String Shot",
        "Frustration"
      ]
    }
  }
}