{
  "pixelmonName": "Reshiram",
  "spDef": 120,
  "spAtt": 150,
  "speed": 90,
  "defence": 100,
  "attack": 120,
  "hp": 100,
  "catchRate": 45,
  "malePercent": -1,
  "nationalPokedexNumber": 643,
  "spawnLevel": 70,
  "spawnLevelRange": 0,
  "baseExp": 306,
  "baseFriendship": 0,
  "rarity": {
    "day": 0,
    "dawndusk": 0,
    "night": -1
  },
  "type1": "Dragon",
  "type2": "Fire",
  "height": 3.2,
  "width": 1.0,
  "length": 1.0,
  "giScale": 1.0,
  "canFly": true,
  "isRideable": true,
  "preEvolutions": [],
  "experienceGroup": "Slow",
  "aggression": {
    "timid": 80,
    "passive": 0,
    "aggressive": 20
  },
  "spawnLocations": [
    "Land"
  ],
  "biomeIDs": [
    28,
    131,
    37
  ],
  "evGain": {
    "HP": 0,
    "Attack": 0,
    "Defence": 0,
    "SpecialAttack": 3,
    "SpecialDefence": 0,
    "Speed": 0
  },
  "canSurf": false,
  "maxGroupSize": 1,
  "minGroupSize": 1,
  "hoverHeight": 0.0,
  "doesHover": false,
  "id": 713,
  "baseFormID": 713,
  "weight": 330.0,
  "pokemon": "Reshiram",
  "abilities": [
    "Turboblaze",
    null,
    null
  ],
  "eggGroups": [
    "Undiscovered"
  ],
  "eggCycles": 121,
  "form": -1,
  "evolutionDefs": [],
  "moves": {
    "levelMoves": {
      "16": [
        "Crunch"
      ],
      "32": [
        "Dragon Pulse"
      ],
      "48": [
        "Fusion Flare"
      ],
      "64": [
        "Fire Blast"
      ],
      "80": [
        "Outrage"
      ],
      "1": [
        "Noble Roar",
        "Dragon Breath",
        "Ancient Power",
        "Fire Fang"
      ],
      "8": [
        "Slash"
      ],
      "24": [
        "Extrasensory"
      ],
      "40": [
        "Flamethrower"
      ],
      "56": [
        "Hyper Voice"
      ],
      "72": [
        "Imprison"
      ],
      "88": [
        "Blue Flare"
      ]
    },
    "eggMoves": [
      "Scorching Sands",
      "Dual Wingbeat",
      "Scale Shot"
    ],
    "evolutionMoves": [],
    "tmTRMoves": [
      "Flamethrower",
      "Light Screen",
      "Overheat",
      "Fire Fang",
      "Breaking Swipe",
      "Heat Wave",
      "Imprison",
      "Substitute",
      "Dragon Dance",
      "Crunch",
      "Payback",
      "Sunny Day",
      "Dragon Claw",
      "Outrage",
      "Fling",
      "Mystical Fire",
      "Rock Tomb",
      "Steel Wing",
      "Brutal Swing",
      "Endure",
      "Swift",
      "Zen Headbutt",
      "Heat Crash",
      "Fire Blast",
      "Weather Ball",
      "Snore",
      "Facade",
      "Stone Edge",
      "Solar Beam",
      "Fly",
      "Rest",
      "Rock Slide",
      "Earth Power",
      "Round",
      "Shadow Ball",
      "Giga Impact",
      "Hyper Voice",
      "Body Press",
      "Helping Hand",
      "Safeguard",
      "Dragon Pulse",
      "Protect",
      "Rain Dance",
      "Hyper Beam",
      "Will-O-Wisp",
      "Focus Blast",
      "Flare Blitz",
      "Psychic",
      "Reflect",
      "Sleep Talk",
      "Shadow Claw"
    ],
    "tutorMoves": {
      "Regular": [
        "Scorching Sands",
        "Dual Wingbeat",
        "Draco Meteor",
        "Scale Shot"
      ],
      "Transfer": [
        "Rock Smash",
        "Secret Power",
        "Tailwind",
        "Confide",
        "Defog",
        "Incinerate",
        "Cut",
        "Roost",
        "Hidden Power",
        "Echoed Voice",
        "Hone Claws",
        "Double Team",
        "Toxic",
        "Dragon Tail",
        "Swagger",
        "Dragon Rage",
        "Flame Charge",
        "Return",
        "Strength",
        "Frustration",
        "Laser Focus"
      ]
    }
  }
}