{
  "pixelmonName": "Rhydon",
  "spDef": 45,
  "spAtt": 45,
  "speed": 40,
  "defence": 120,
  "attack": 130,
  "hp": 105,
  "catchRate": 60,
  "malePercent": 50,
  "nationalPokedexNumber": 112,
  "spawnLevel": 42,
  "spawnLevelRange": 8,
  "baseExp": 204,
  "baseFriendship": 70,
  "rarity": {
    "day": 40,
    "dawndusk": 8,
    "night": 0
  },
  "type1": "Ground",
  "type2": "Rock",
  "height": 2.2,
  "width": 1.1,
  "length": 1.1,
  "giScale": 1.0,
  "canFly": false,
  "isRideable": true,
  "preEvolutions": [
    "Rhyhorn"
  ],
  "experienceGroup": "Slow",
  "aggression": {
    "timid": 80,
    "passive": 0,
    "aggressive": 20
  },
  "spawnLocations": [
    "Land"
  ],
  "biomeIDs": [
    37,
    38,
    39,
    165,
    166,
    167
  ],
  "evGain": {
    "HP": 0,
    "Attack": 2,
    "Defence": 0,
    "SpecialAttack": 0,
    "SpecialDefence": 0,
    "Speed": 0
  },
  "canSurf": false,
  "ridingOffsets": {
    "standing": {
      "x": 0.0,
      "y": -1.0,
      "z": -0.3
    }
  },
  "maxGroupSize": 2,
  "minGroupSize": 1,
  "hoverHeight": 0.0,
  "doesHover": false,
  "id": 165,
  "baseFormID": 165,
  "weight": 120.0,
  "pokemon": "Rhydon",
  "abilities": [
    "LightningRod",
    "RockHead",
    "Reckless"
  ],
  "eggGroups": [
    "Monster",
    "Field"
  ],
  "eggCycles": 21,
  "form": -1,
  "evolutionDefs": [
    {
      "targetId": 0,
      "formTo": -1,
      "evolveCondition": "Trade:Protector:Rhyperior"
    }
  ],
  "moves": {
    "levelMoves": {
      "1": [
        "Tackle",
        "Smack Down",
        "Tail Whip",
        "Bulldoze",
        "Hammer Arm"
      ],
      "35": [
        "Drill Run"
      ],
      "20": [
        "Scary Face"
      ],
      "68": [
        "Horn Drill"
      ],
      "54": [
        "Stone Edge"
      ],
      "40": [
        "Take Down"
      ],
      "25": [
        "Stomp"
      ],
      "61": [
        "Megahorn"
      ],
      "30": [
        "Rock Blast"
      ],
      "15": [
        "Horn Attack"
      ],
      "47": [
        "Earthquake"
      ]
    },
    "eggMoves": [
      "Counter",
      "Curse",
      "Skull Bash",
      "Dragon Rush",
      "Metal Burst",
      "Rock Polish",
      "Guard Split"
    ],
    "evolutionMoves": [
      "Hammer Arm"
    ],
    "tmTRMoves": [
      "Flamethrower",
      "Uproar",
      "Fire Fang",
      "Swords Dance",
      "Icy Wind",
      "Rock Blast",
      "Breaking Swipe",
      "Surf",
      "Ice Fang",
      "Iron Tail",
      "Hydro Pump",
      "Body Slam",
      "Bulldoze",
      "Mud Shot",
      "Substitute",
      "Poison Jab",
      "Attract",
      "Ice Beam",
      "Crunch",
      "Payback",
      "Mega Punch",
      "Sunny Day",
      "Drill Run",
      "Avalanche",
      "Outrage",
      "Fling",
      "Rock Tomb",
      "Brutal Swing",
      "Endure",
      "Whirlpool",
      "Heat Crash",
      "Thunder Punch",
      "Fire Punch",
      "Ice Punch",
      "Fire Blast",
      "Snore",
      "Facade",
      "Heavy Slam",
      "Stone Edge",
      "Stomping Tantrum",
      "Mega Kick",
      "Megahorn",
      "Rest",
      "Thunder Fang",
      "Earthquake",
      "Pay Day",
      "Rock Slide",
      "Earth Power",
      "Scary Face",
      "Round",
      "Sandstorm",
      "Iron Defense",
      "Superpower",
      "Brick Break",
      "Giga Impact",
      "Body Press",
      "Helping Hand",
      "Dragon Pulse",
      "Protect",
      "Dig",
      "Rain Dance",
      "Thunder",
      "High Horsepower",
      "Thief",
      "Hyper Beam",
      "Focus Blast",
      "Sleep Talk",
      "Stealth Rock",
      "Reversal",
      "Shadow Claw",
      "Smart Strike",
      "Thunderbolt",
      "Blizzard"
    ],
    "tutorMoves": {
      "Regular": [
        "Scorching Sands",
        "Meteor Beam"
      ],
      "Transfer": [
        "Natural Gift",
        "Confide",
        "Incinerate",
        "Thrash",
        "Fury Attack",
        "Double-Edge",
        "Leer",
        "Cut",
        "Hidden Power",
        "Ancient Power",
        "Power-Up Punch",
        "Bide",
        "Double Team",
        "Spite",
        "Shock Wave",
        "Rototiller",
        "Seismic Toss",
        "Rage",
        "Headbutt",
        "Dynamic Punch",
        "Dragon Tail",
        "Swagger",
        "Aqua Tail",
        "Submission",
        "Mimic",
        "Captivate",
        "Roar",
        "Pursuit",
        "Fury Cutter",
        "Frustration",
        "Rock Smash",
        "Secret Power",
        "Rock Throw",
        "Crush Claw",
        "Bubble Beam",
        "Chip Away",
        "Fissure",
        "Block",
        "Mud-Slap",
        "Focus Punch",
        "Toxic",
        "Rock Climb",
        "Sand Attack",
        "Magnitude",
        "Rollout",
        "Water Gun",
        "Endeavor",
        "Return",
        "Strength",
        "Zap Cannon"
      ]
    }
  }
}