{
  "pixelmonName": "Rotom",
  "spDef": 77,
  "spAtt": 95,
  "speed": 91,
  "defence": 77,
  "attack": 50,
  "hp": 50,
  "catchRate": 45,
  "malePercent": -1,
  "nationalPokedexNumber": 479,
  "spawnLevel": 30,
  "spawnLevelRange": 15,
  "baseExp": 154,
  "baseFriendship": 70,
  "rarity": {
    "day": 0,
    "dawndusk": 0,
    "night": 1
  },
  "type1": "Electric",
  "type2": "Ghost",
  "height": 0.3,
  "width": 0.7,
  "length": 0.7,
  "giScale": 1.0,
  "canFly": false,
  "isRideable": false,
  "preEvolutions": [],
  "experienceGroup": "MediumFast",
  "aggression": {
    "timid": 80,
    "passive": 0,
    "aggressive": 20
  },
  "spawnLocations": [
    "Land"
  ],
  "biomeIDs": [
    6,
    134
  ],
  "evGain": {
    "HP": 0,
    "Attack": 0,
    "Defence": 0,
    "SpecialAttack": 1,
    "SpecialDefence": 0,
    "Speed": 1
  },
  "canSurf": false,
  "maxGroupSize": 1,
  "minGroupSize": 1,
  "hoverHeight": 0.0,
  "doesHover": false,
  "id": 558,
  "baseFormID": 558,
  "weight": 0.3,
  "pokemon": "Rotom",
  "abilities": [
    "Levitate",
    null,
    null
  ],
  "eggGroups": [
    "Amorphous"
  ],
  "eggCycles": 21,
  "form": 0,
  "evolutionDefs": [],
  "moves": {
    "levelMoves": {
      "1": [
        "Astonish",
        "Double Team"
      ],
      "50": [
        "Discharge"
      ],
      "35": [
        "Hex"
      ],
      "20": [
        "Electro Ball"
      ],
      "5": [
        "Thunder Shock"
      ],
      "55": [
        "Uproar"
      ],
      "40": [
        "Substitute"
      ],
      "25": [
        "Thunder Wave"
      ],
      "10": [
        "Confuse Ray"
      ],
      "45": [
        "Trick"
      ],
      "30": [
        "Shock Wave"
      ],
      "15": [
        "Charge"
      ]
    },
    "eggMoves": [],
    "evolutionMoves": [],
    "tmTRMoves": [
      "Snore",
      "Facade",
      "Uproar",
      "Dark Pulse",
      "Light Screen",
      "Volt Switch",
      "Eerie Impulse",
      "Stored Power",
      "Rest",
      "Nasty Plot",
      "Round",
      "Shadow Ball",
      "Substitute",
      "Electroweb",
      "Ally Switch",
      "Thunder Wave",
      "Hyper Voice",
      "Helping Hand",
      "Protect",
      "Rain Dance",
      "Thunder",
      "Thief",
      "Trick",
      "Sunny Day",
      "Will-O-Wisp",
      "Electric Terrain",
      "Foul Play",
      "Reflect",
      "Endure",
      "Sleep Talk",
      "Swift",
      "Hex",
      "Electro Ball",
      "Thunderbolt"
    ],
    "tutorMoves": {
      "Regular": [
        "Poltergeist",
        "Rising Voltage"
      ],
      "Transfer": [
        "Ominous Wind",
        "Secret Power",
        "Psych Up",
        "Dream Eater",
        "Snatch",
        "Natural Gift",
        "Confide",
        "Defog",
        "Hidden Power",
        "Spite",
        "Mud-Slap",
        "Telekinesis",
        "Toxic",
        "Swagger",
        "Charge Beam",
        "Pain Split",
        "Flash",
        "Signal Beam",
        "Return",
        "Sucker Punch",
        "Frustration"
      ]
    }
  }
}