{
  "pixelmonName": "Sandshrew",
  "spDef": 35,
  "spAtt": 10,
  "speed": 40,
  "defence": 90,
  "attack": 75,
  "hp": 50,
  "catchRate": 255,
  "malePercent": 50,
  "nationalPokedexNumber": 27,
  "spawnLevel": 12,
  "spawnLevelRange": 10,
  "baseExp": 93,
  "baseFriendship": 70,
  "rarity": {
    "day": 20,
    "dawndusk": 20,
    "night": 0
  },
  "type1": "Ice",
  "type2": "Steel",
  "height": 0.71,
  "width": 0.71,
  "length": 0.71,
  "giScale": 1.0,
  "canFly": false,
  "isRideable": false,
  "preEvolutions": [],
  "experienceGroup": "MediumFast",
  "aggression": {
    "timid": 80,
    "passive": 0,
    "aggressive": 20
  },
  "spawnLocations": [
    "Land"
  ],
  "biomeIDs": [
    2,
    17,
    37,
    38,
    39,
    130,
    165,
    166,
    167
  ],
  "evGain": {
    "HP": 0,
    "Attack": 0,
    "Defence": 0,
    "SpecialAttack": 1,
    "SpecialDefence": 0,
    "Speed": 0
  },
  "canSurf": false,
  "maxGroupSize": 1,
  "minGroupSize": 1,
  "hoverHeight": 0.0,
  "doesHover": false,
  "id": 958,
  "baseFormID": 139,
  "weight": 40.0,
  "pokemon": "Sandshrew",
  "abilities": [
    "SnowCloak",
    null,
    "SlushRush"
  ],
  "eggGroups": [
    "Field"
  ],
  "eggCycles": 20,
  "form": 3,
  "evolutionDefs": [
    {
      "targetId": 959,
      "evolveCondition": "sandshrew"
    }
  ],
  "moves": {
    "levelMoves": {
      "1": [
        "Scratch",
        "Defense Curl"
      ],
      "33": [
        "Iron Head"
      ],
      "3": [
        "Mist"
      ],
      "36": [
        "Gyro Ball"
      ],
      "6": [
        "Powder Snow"
      ],
      "39": [
        "Swords Dance"
      ],
      "9": [
        "Rollout"
      ],
      "42": [
        "Hail"
      ],
      "12": [
        "Fury Cutter"
      ],
      "45": [
        "Blizzard"
      ],
      "15": [
        "Rapid Spin"
      ],
      "18": [
        "Metal Claw"
      ],
      "21": [
        "Swift"
      ],
      "24": [
        "Fury Swipes"
      ],
      "27": [
        "Iron Defense"
      ],
      "30": [
        "Slash"
      ]
    },
    "eggMoves": [
      "Flail",
      "Counter",
      "Curse",
      "Crush Claw",
      "Night Slash",
      "Hone Claws"
    ],
    "evolutionMoves": [],
    "tmTRMoves": [
      "Snore",
      "Facade",
      "Icicle Spear",
      "Leech Life",
      "Swords Dance",
      "Icy Wind",
      "Throat Chop",
      "Iron Head",
      "Rest",
      "Earthquake",
      "Iron Tail",
      "Work Up",
      "Rock Slide",
      "Round",
      "Body Slam",
      "Bulldoze",
      "Amnesia",
      "Iron Defense",
      "Substitute",
      "Poison Jab",
      "Brick Break",
      "Attract",
      "Hail",
      "Safeguard",
      "Protect",
      "Dig",
      "Thief",
      "Sunny Day",
      "X-Scissor",
      "Gyro Ball",
      "Avalanche",
      "Fling",
      "Rock Tomb",
      "Endure",
      "Sleep Talk",
      "Stealth Rock",
      "Shadow Claw",
      "Swift",
      "Ice Punch",
      "Blizzard"
    ],
    "tutorMoves": {
      "Regular": [
        "Triple Axel",
        "Steel Roller",
        "Steel Beam"
      ],
      "Transfer": [
        "Ice Shard",
        "Mirror Coat",
        "Confide",
        "Chip Away",
        "Frost Breath",
        "Ice Beam",
        "Hidden Power",
        "Super Fang",
        "Bide",
        "Double Team",
        "Focus Punch",
        "Toxic",
        "Aerial Ace",
        "Seismic Toss",
        "Headbutt",
        "Ice Ball",
        "Swagger",
        "Aqua Tail",
        "Return",
        "Aurora Veil",
        "Knock Off",
        "Icicle Crash",
        "Covet",
        "Frustration"
      ]
    }
  }
}