{
  "pixelmonName": "Seaking",
  "spDef": 80,
  "spAtt": 65,
  "speed": 68,
  "defence": 65,
  "attack": 92,
  "hp": 80,
  "catchRate": 60,
  "malePercent": 50,
  "nationalPokedexNumber": 119,
  "spawnLevel": 33,
  "spawnLevelRange": 5,
  "baseExp": 170,
  "baseFriendship": 70,
  "rarity": {
    "day": 50,
    "dawndusk": 50,
    "night": 50
  },
  "type1": "Water",
  "height": 1.3,
  "width": 1.0,
  "length": 1.0,
  "giScale": 0.7,
  "canFly": false,
  "isRideable": true,
  "preEvolutions": [
    "Goldeen"
  ],
  "experienceGroup": "MediumFast",
  "aggression": {
    "timid": 80,
    "passive": 0,
    "aggressive": 20
  },
  "swimmingParameters": {
    "depthRangeStart": 4,
    "depthRangeEnd": 10,
    "swimSpeed": 1.8,
    "decayRate": 0.99,
    "refreshRate": 180
  },
  "spawnLocations": [
    "Water"
  ],
  "biomeIDs": [
    0,
    7,
    10,
    11,
    16,
    24,
    25,
    26
  ],
  "evGain": {
    "HP": 0,
    "Attack": 2,
    "Defence": 0,
    "SpecialAttack": 0,
    "SpecialDefence": 0,
    "Speed": 0
  },
  "canSurf": true,
  "ridingOffsets": {
    "standing": {
      "x": 0.0,
      "y": -1.0,
      "z": -0.6
    }
  },
  "maxGroupSize": 5,
  "minGroupSize": 2,
  "hoverHeight": 0.0,
  "doesHover": false,
  "id": 89,
  "baseFormID": 89,
  "weight": 39.0,
  "pokemon": "Seaking",
  "abilities": [
    "SwiftSwim",
    "WaterVeil",
    "LightningRod"
  ],
  "eggGroups": [
    "Water2"
  ],
  "eggCycles": 21,
  "form": -1,
  "evolutionDefs": [],
  "moves": {
    "levelMoves": {
      "1": [
        "Supersonic",
        "Tail Whip",
        "Water Pulse",
        "Peck"
      ],
      "51": [
        "Megahorn"
      ],
      "20": [
        "Agility"
      ],
      "37": [
        "Waterfall"
      ],
      "25": [
        "Aqua Ring"
      ],
      "58": [
        "Horn Drill"
      ],
      "44": [
        "Soak"
      ],
      "30": [
        "Flail"
      ],
      "15": [
        "Horn Attack"
      ]
    },
    "eggMoves": [
      "Mud-Slap",
      "Psybeam",
      "Acupressure",
      "Haze",
      "Aqua Tail"
    ],
    "evolutionMoves": [],
    "tmTRMoves": [
      "Snore",
      "Facade",
      "Waterfall",
      "Swords Dance",
      "Icy Wind",
      "Throat Chop",
      "Megahorn",
      "Surf",
      "Rest",
      "Hydro Pump",
      "Agility",
      "Round",
      "Body Slam",
      "Bounce",
      "Mud Shot",
      "Substitute",
      "Poison Jab",
      "Attract",
      "Hail",
      "Ice Beam",
      "Giga Impact",
      "Protect",
      "Rain Dance",
      "Hyper Beam",
      "Drill Run",
      "Scald",
      "Dive",
      "Endure",
      "Sleep Talk",
      "Whirlpool",
      "Muddy Water",
      "Smart Strike",
      "Swift",
      "Blizzard"
    ],
    "tutorMoves": {
      "Regular": [
        "Flip Turn",
        "Scale Shot"
      ],
      "Transfer": [
        "Secret Power",
        "Bubble Beam",
        "Natural Gift",
        "Confide",
        "Curse",
        "Fury Attack",
        "Double-Edge",
        "Mud Sport",
        "Quick Attack",
        "Take Down",
        "Hidden Power",
        "Water Sport",
        "Bide",
        "Double Team",
        "Toxic",
        "Rage",
        "Headbutt",
        "Skull Bash",
        "Swagger",
        "Signal Beam",
        "Water Gun",
        "Return",
        "Mimic",
        "Captivate",
        "Knock Off",
        "Fury Cutter",
        "Frustration"
      ]
    }
  }
}