{
  "pixelmonName": "Sealeo",
  "spDef": 70,
  "spAtt": 75,
  "speed": 45,
  "defence": 70,
  "attack": 60,
  "hp": 90,
  "catchRate": 120,
  "malePercent": 50,
  "nationalPokedexNumber": 364,
  "spawnLevel": 32,
  "spawnLevelRange": 11,
  "baseExp": 128,
  "baseFriendship": 70,
  "rarity": {
    "day": 30,
    "dawndusk": 0,
    "night": 0
  },
  "type1": "Ice",
  "type2": "Water",
  "height": 1.1,
  "width": 1.0,
  "length": 1.0,
  "giScale": 1.0,
  "canFly": false,
  "isRideable": false,
  "preEvolutions": [
    "Spheal"
  ],
  "experienceGroup": "MediumSlow",
  "aggression": {
    "timid": 80,
    "passive": 0,
    "aggressive": 20
  },
  "spawnLocations": [
    "Water",
    "Land"
  ],
  "biomeIDs": [
    10,
    11,
    12,
    13,
    26,
    30,
    31,
    140,
    158
  ],
  "evGain": {
    "HP": 2,
    "Attack": 0,
    "Defence": 0,
    "SpecialAttack": 0,
    "SpecialDefence": 0,
    "Speed": 0
  },
  "canSurf": true,
  "maxGroupSize": 1,
  "minGroupSize": 1,
  "hoverHeight": 0.0,
  "doesHover": false,
  "id": 457,
  "baseFormID": 457,
  "weight": 87.6,
  "pokemon": "Sealeo",
  "abilities": [
    "ThickFat",
    "IceBody",
    "Oblivious"
  ],
  "eggGroups": [
    "Water1",
    "Field"
  ],
  "eggCycles": 21,
  "form": -1,
  "evolutionDefs": [
    {
      "targetId": 458,
      "evolveLevel": 44
    }
  ],
  "moves": {
    "levelMoves": {
      "16": [
        "Rest"
      ],
      "64": [
        "Sheer Cold"
      ],
      "1": [
        "Water Gun",
        "Growl",
        "Swagger",
        "Defense Curl",
        "Rollout"
      ],
      "35": [
        "Encore"
      ],
      "20": [
        "Snore"
      ],
      "52": [
        "Blizzard"
      ],
      "24": [
        "Brine"
      ],
      "40": [
        "Body Slam"
      ],
      "58": [
        "Hail"
      ],
      "12": [
        "Powder Snow"
      ],
      "28": [
        "Aurora Beam"
      ],
      "46": [
        "Surf"
      ]
    },
    "eggMoves": [
      "Steel Roller"
    ],
    "evolutionMoves": [
      "Swagger"
    ],
    "tmTRMoves": [
      "Snore",
      "Facade",
      "Icicle Spear",
      "Waterfall",
      "Icy Wind",
      "Surf",
      "Rest",
      "Encore",
      "Earthquake",
      "Iron Tail",
      "Rock Slide",
      "Round",
      "Body Slam",
      "Bulldoze",
      "Substitute",
      "Attract",
      "Hail",
      "Ice Beam",
      "Protect",
      "Rain Dance",
      "Brine",
      "Rock Tomb",
      "Dive",
      "Endure",
      "Sleep Talk",
      "Whirlpool",
      "Blizzard"
    ],
    "tutorMoves": {
      "Regular": [
        "Steel Roller"
      ],
      "Transfer": [
        "Rock Smash",
        "Secret Power",
        "Natural Gift",
        "Confide",
        "Curse",
        "Frost Breath",
        "Belly Drum",
        "Double-Edge",
        "Hidden Power",
        "Super Fang",
        "Water Sport",
        "Fissure",
        "Spit Up",
        "Echoed Voice",
        "Water Pulse",
        "Double Team",
        "Stockpile",
        "Mud-Slap",
        "Toxic",
        "Headbutt",
        "Ice Ball",
        "Yawn",
        "Aqua Tail",
        "Signal Beam",
        "Return",
        "Mimic",
        "Captivate",
        "Roar",
        "Aqua Ring",
        "Swallow",
        "Strength",
        "Frustration"
      ]
    }
  }
}