{
  "pixelmonName": "Seismitoad",
  "spDef": 75,
  "spAtt": 85,
  "speed": 74,
  "defence": 75,
  "attack": 95,
  "hp": 105,
  "catchRate": 45,
  "malePercent": 50,
  "nationalPokedexNumber": 537,
  "spawnLevel": 36,
  "spawnLevelRange": 24,
  "baseExp": 225,
  "baseFriendship": 70,
  "rarity": {
    "day": 0,
    "dawndusk": 0,
    "night": 5
  },
  "type1": "Water",
  "type2": "Ground",
  "height": 1.5,
  "width": 1.0,
  "length": 1.0,
  "giScale": 1.0,
  "canFly": false,
  "isRideable": false,
  "preEvolutions": [
    "Palpitoad",
    "Tympole"
  ],
  "experienceGroup": "MediumSlow",
  "aggression": {
    "timid": 80,
    "passive": 0,
    "aggressive": 20
  },
  "spawnLocations": [
    "Land"
  ],
  "biomeIDs": [
    6,
    7,
    134
  ],
  "evGain": {
    "HP": 3,
    "Attack": 0,
    "Defence": 0,
    "SpecialAttack": 0,
    "SpecialDefence": 0,
    "Speed": 0
  },
  "canSurf": false,
  "maxGroupSize": 1,
  "minGroupSize": 1,
  "hoverHeight": 0.0,
  "doesHover": false,
  "id": 614,
  "baseFormID": 614,
  "weight": 62.0,
  "pokemon": "Seismitoad",
  "abilities": [
    "SwiftSwim",
    "PoisonTouch",
    "WaterAbsorb"
  ],
  "eggGroups": [
    "Water1"
  ],
  "eggCycles": 21,
  "form": -1,
  "evolutionDefs": [],
  "moves": {
    "levelMoves": {
      "16": [
        "Round"
      ],
      "1": [
        "Supersonic",
        "Acid",
        "Drain Punch",
        "Echoed Voice",
        "Growl",
        "Gastro Acid"
      ],
      "20": [
        "Bubble Beam"
      ],
      "54": [
        "Muddy Water"
      ],
      "70": [
        "Hydro Pump"
      ],
      "39": [
        "Aqua Ring"
      ],
      "24": [
        "Flail"
      ],
      "12": [
        "Mud Shot"
      ],
      "30": [
        "Uproar"
      ],
      "46": [
        "Hyper Voice"
      ],
      "62": [
        "Rain Dance"
      ]
    },
    "eggMoves": [
      "Mud-Slap",
      "Toxic",
      "Water Pulse",
      "Mist"
    ],
    "evolutionMoves": [
      "Drain Punch"
    ],
    "tmTRMoves": [
      "Uproar",
      "Icy Wind",
      "Screech",
      "Surf",
      "Sludge Wave",
      "Venom Drench",
      "Hydro Pump",
      "Bulldoze",
      "Mud Shot",
      "Substitute",
      "Poison Jab",
      "Attract",
      "Payback",
      "Drain Punch",
      "Mega Punch",
      "Power Whip",
      "Fling",
      "Rock Tomb",
      "Dive",
      "Endure",
      "Muddy Water",
      "Ice Punch",
      "Weather Ball",
      "Snore",
      "Facade",
      "Sludge Bomb",
      "Grass Knot",
      "Stomping Tantrum",
      "Mega Kick",
      "Rest",
      "Earthquake",
      "Rock Slide",
      "Earth Power",
      "Round",
      "Bounce",
      "Liquidation",
      "Brick Break",
      "Hail",
      "Giga Impact",
      "Hyper Voice",
      "Protect",
      "Venoshock",
      "Dig",
      "Rain Dance",
      "Hyper Beam",
      "Scald",
      "Focus Blast",
      "Low Kick",
      "Sleep Talk",
      "Stealth Rock"
    ],
    "tutorMoves": {
      "Transfer": [
        "Rock Smash",
        "After You",
        "Secret Power",
        "Confide",
        "Bubble",
        "Mud Sport",
        "Hidden Power",
        "Power-Up Punch",
        "Double Team",
        "Mud Bomb",
        "Infestation",
        "Focus Punch",
        "Refresh",
        "Swagger",
        "Endeavor",
        "Return",
        "Knock Off",
        "Strength",
        "Frustration"
      ]
    }
  }
}