{
  "pixelmonName": "Servine",
  "spDef": 75,
  "spAtt": 60,
  "speed": 83,
  "defence": 75,
  "attack": 60,
  "hp": 60,
  "catchRate": 45,
  "malePercent": 87,
  "nationalPokedexNumber": 496,
  "spawnLevel": 17,
  "spawnLevelRange": 18,
  "baseExp": 145,
  "baseFriendship": 70,
  "rarity": {
    "day": 5,
    "dawndusk": 0,
    "night": 0
  },
  "type1": "Grass",
  "height": 0.8,
  "width": 0.4,
  "length": 0.4,
  "giScale": 1.0,
  "canFly": false,
  "isRideable": false,
  "preEvolutions": [
    "Snivy"
  ],
  "experienceGroup": "MediumSlow",
  "aggression": {
    "timid": 80,
    "passive": 0,
    "aggressive": 20
  },
  "spawnLocations": [
    "Land"
  ],
  "biomeIDs": [
    4,
    18
  ],
  "evGain": {
    "HP": 0,
    "Attack": 0,
    "Defence": 0,
    "SpecialAttack": 0,
    "SpecialDefence": 0,
    "Speed": 2
  },
  "canSurf": false,
  "maxGroupSize": 1,
  "minGroupSize": 1,
  "hoverHeight": 0.0,
  "doesHover": false,
  "id": 573,
  "baseFormID": 573,
  "weight": 16.0,
  "pokemon": "Servine",
  "abilities": [
    "Overgrow",
    null,
    "Contrary"
  ],
  "eggGroups": [
    "Field",
    "Grass"
  ],
  "eggCycles": 21,
  "form": -1,
  "evolutionDefs": [
    {
      "targetId": 574,
      "evolveLevel": 36
    }
  ],
  "moves": {
    "levelMoves": {
      "32": [
        "Leaf Blade"
      ],
      "1": [
        "Leer",
        "Tackle",
        "Wrap",
        "Vine Whip"
      ],
      "4": [
        "Leer"
      ],
      "36": [
        "Coil"
      ],
      "7": [
        "Vine Whip"
      ],
      "40": [
        "Giga Drain"
      ],
      "10": [
        "Wrap"
      ],
      "44": [
        "Wring Out"
      ],
      "13": [
        "Growth"
      ],
      "16": [
        "Leaf Tornado"
      ],
      "48": [
        "Gastro Acid"
      ],
      "20": [
        "Leech Seed"
      ],
      "52": [
        "Leaf Storm"
      ],
      "24": [
        "Mega Drain"
      ],
      "28": [
        "Slam"
      ]
    },
    "eggMoves": [
      "Magical Leaf",
      "Glare",
      "Iron Tail",
      "Sweet Scent",
      "Captivate",
      "Mirror Coat",
      "Grassy Terrain",
      "Pursuit",
      "Twister",
      "Mean Look",
      "Natural Gift"
    ],
    "evolutionMoves": [],
    "tmTRMoves": [
      "Magical Leaf",
      "Solar Beam",
      "Light Screen",
      "Reflect",
      "Safeguard",
      "Rest",
      "Snore",
      "Protect",
      "Giga Drain",
      "Attract",
      "Sunny Day",
      "Facade",
      "Round",
      "Grassy Terrain",
      "Swords Dance",
      "Substitute",
      "Endure",
      "Sleep Talk",
      "Iron Tail",
      "Taunt",
      "Calm Mind",
      "Leaf Blade",
      "Seed Bomb",
      "Energy Ball",
      "Leaf Storm",
      "Grass Knot",
      "Work Up"
    ],
    "tutorMoves": {
      "Regular": [
        "Giga Drain",
        "Grass Pledge",
        "Bind",
        "Snore",
        "Worry Seed",
        "Knock Off",
        "Snatch",
        "Defog",
        "Seed Bomb",
        "Synthesis",
        "Iron Tail",
        "Aqua Tail",
        "Gastro Acid"
      ],
      "Transfer": [
        "Secret Power",
        "Confide",
        "Cut",
        "Hidden Power",
        "Double Team",
        "Toxic",
        "Aerial Ace",
        "Swagger",
        "Flash",
        "Return",
        "Nature Power",
        "Torment",
        "Frustration"
      ]
    }
  }
}