{
  "pixelmonName": "Seviper",
  "spDef": 60,
  "spAtt": 100,
  "speed": 65,
  "defence": 60,
  "attack": 100,
  "hp": 73,
  "catchRate": 90,
  "malePercent": 50,
  "nationalPokedexNumber": 336,
  "spawnLevel": 5,
  "spawnLevelRange": 60,
  "baseExp": 165,
  "baseFriendship": 70,
  "rarity": {
    "day": 0,
    "dawndusk": 0,
    "night": 125
  },
  "type1": "Poison",
  "height": 1.0,
  "width": 1.0,
  "length": 2.7,
  "giScale": 1.0,
  "canFly": false,
  "isRideable": false,
  "preEvolutions": [],
  "experienceGroup": "Fluctuating",
  "aggression": {
    "timid": 80,
    "passive": 0,
    "aggressive": 20
  },
  "spawnLocations": [
    "Land"
  ],
  "biomeIDs": [
    1
  ],
  "evGain": {
    "HP": 0,
    "Attack": 1,
    "Defence": 0,
    "SpecialAttack": 1,
    "SpecialDefence": 0,
    "Speed": 0
  },
  "canSurf": false,
  "maxGroupSize": 2,
  "minGroupSize": 1,
  "hoverHeight": 0.0,
  "doesHover": false,
  "id": 437,
  "baseFormID": 437,
  "weight": 52.5,
  "pokemon": "Seviper",
  "abilities": [
    "ShedSkin",
    null,
    "Infiltrator"
  ],
  "eggGroups": [
    "Field",
    "Dragon"
  ],
  "eggCycles": 21,
  "form": -1,
  "evolutionDefs": [],
  "moves": {
    "levelMoves": {
      "1": [
        "Wrap",
        "Swagger"
      ],
      "34": [
        "Haze"
      ],
      "4": [
        "Bite"
      ],
      "36": [
        "Swords Dance"
      ],
      "6": [
        "Lick"
      ],
      "39": [
        "Crunch"
      ],
      "9": [
        "Poison Tail"
      ],
      "41": [
        "Belch"
      ],
      "11": [
        "Feint"
      ],
      "44": [
        "Coil"
      ],
      "14": [
        "Screech"
      ],
      "46": [
        "Wring Out"
      ],
      "16": [
        "Venoshock"
      ],
      "19": [
        "Glare"
      ],
      "21": [
        "Poison Fang"
      ],
      "24": [
        "Venom Drench"
      ],
      "26": [
        "Night Slash"
      ],
      "29": [
        "Gastro Acid"
      ],
      "31": [
        "Poison Jab"
      ]
    },
    "eggMoves": [
      "Punishment",
      "Final Gambit",
      "Assurance",
      "Spit Up",
      "Wring Out",
      "Iron Tail",
      "Night Slash",
      "Switcheroo",
      "Scary Face",
      "Body Slam",
      "Swallow",
      "Stockpile"
    ],
    "evolutionMoves": [],
    "tmTRMoves": [
      "Dig",
      "Screech",
      "Rest",
      "Thief",
      "Snore",
      "Protect",
      "Scary Face",
      "Giga Drain",
      "Attract",
      "Rain Dance",
      "Sunny Day",
      "Facade",
      "Payback",
      "Assurance",
      "Venoshock",
      "Round",
      "Retaliate",
      "Bulldoze",
      "Brutal Swing",
      "Swords Dance",
      "Body Slam",
      "Flamethrower",
      "Earthquake",
      "Substitute",
      "Sludge Bomb",
      "Endure",
      "Sleep Talk",
      "Iron Tail",
      "Crunch",
      "Taunt",
      "Poison Jab",
      "Dark Pulse",
      "X-scissor",
      "Power Whip",
      "Sludge Wave",
      "Venom Drench",
      "Throat Chop"
    ],
    "tutorMoves": {
      "Regular": [
        "Giga Drain",
        "Bind",
        "Snore",
        "Iron Tail",
        "Knock Off",
        "Aqua Tail",
        "Gastro Acid",
        "Throat Chop",
        "Snatch"
      ],
      "Transfer": [
        "Rock Smash",
        "Secret Power",
        "Natural Gift",
        "Confide",
        "Double-Edge",
        "Hidden Power",
        "Double Team",
        "Swift",
        "Infestation",
        "Mud-Slap",
        "Toxic",
        "Headbutt",
        "Dragon Tail",
        "Return",
        "Mimic",
        "Captivate",
        "X-Scissor",
        "Fury Cutter",
        "Sucker Punch",
        "Strength",
        "Frustration"
      ]
    }
  }
}