{
  "pixelmonName": "Sharpedo",
  "spDef": 65,
  "spAtt": 110,
  "speed": 105,
  "defence": 70,
  "attack": 140,
  "hp": 70,
  "catchRate": 60,
  "malePercent": 50,
  "nationalPokedexNumber": 319,
  "spawnLevel": 1,
  "spawnLevelRange": 99,
  "baseExp": 161,
  "baseFriendship": 0,
  "rarity": {
    "day": 0,
    "dawndusk": 0,
    "night": 0
  },
  "type1": "Water",
  "type2": "Dark",
  "height": 2.5,
  "width": 2.5,
  "length": 2.5,
  "giScale": 1.0,
  "canFly": false,
  "isRideable": true,
  "preEvolutions": [
    "Carvanha"
  ],
  "experienceGroup": "Slow",
  "aggression": {
    "timid": 80,
    "passive": 0,
    "aggressive": 20
  },
  "spawnLocations": [],
  "biomeIDs": [
    0,
    16,
    24,
    25
  ],
  "evGain": {
    "HP": 0,
    "Attack": 2,
    "Defence": 0,
    "SpecialAttack": 0,
    "SpecialDefence": 0,
    "Speed": 0
  },
  "canSurf": true,
  "ridingOffsets": {
    "standing": {
      "x": 0.0,
      "y": -0.4,
      "z": -0.4
    },
    "moving": {
      "x": 0.0,
      "y": -0.4,
      "z": -0.4
    }
  },
  "maxGroupSize": 1,
  "minGroupSize": 1,
  "hoverHeight": 0.0,
  "doesHover": false,
  "id": 840,
  "baseFormID": 425,
  "weight": 130.3,
  "pokemon": "Sharpedo",
  "abilities": [
    "StrongJaw",
    null,
    null
  ],
  "eggGroups": [
    "Water2"
  ],
  "eggCycles": 20,
  "form": 1,
  "evolutionDefs": [],
  "moves": {
    "levelMoves": {
      "16": [
        "Bite"
      ],
      "1": [
        "Leer",
        "Focus Energy",
        "Night Slash",
        "Poison Fang",
        "Slash",
        "Aqua Jet"
      ],
      "34": [
        "Crunch"
      ],
      "20": [
        "Ice Fang"
      ],
      "52": [
        "Take Down"
      ],
      "24": [
        "Screech"
      ],
      "40": [
        "Agility"
      ],
      "12": [
        "Scary Face"
      ],
      "28": [
        "Swagger"
      ],
      "46": [
        "Liquidation"
      ]
    },
    "eggMoves": [
      "Destiny Bond",
      "Water Pulse",
      "Ancient Power",
      "Thrash",
      "Double-Edge"
    ],
    "evolutionMoves": [
      "Slash"
    ],
    "tmTRMoves": [
      "Snore",
      "Facade",
      "Assurance",
      "Uproar",
      "Taunt",
      "Focus Energy",
      "Waterfall",
      "Snarl",
      "Dark Pulse",
      "Retaliate",
      "Icy Wind",
      "Screech",
      "Close Combat",
      "Surf",
      "Rest",
      "Earthquake",
      "Ice Fang",
      "Hydro Pump",
      "Agility",
      "Scary Face",
      "Round",
      "Bounce",
      "Bulldoze",
      "Liquidation",
      "Substitute",
      "Poison Jab",
      "Attract",
      "Hail",
      "Ice Beam",
      "Giga Impact",
      "Crunch",
      "Payback",
      "Protect",
      "Rain Dance",
      "Thief",
      "Hyper Beam",
      "Brine",
      "Psychic Fangs",
      "Scald",
      "Avalanche",
      "Rock Tomb",
      "Dive",
      "Endure",
      "Sleep Talk",
      "Whirlpool",
      "Swift",
      "Zen Headbutt",
      "Blizzard"
    ],
    "tutorMoves": {
      "Regular": [
        "Flip Turn",
        "Scale Shot"
      ],
      "Transfer": [
        "Rock Smash",
        "Secret Power",
        "Natural Gift",
        "Confide",
        "Hidden Power",
        "Super Fang",
        "Feint",
        "Double Team",
        "Spite",
        "Mud-Slap",
        "Toxic",
        "Rage",
        "Skull Bash",
        "Return",
        "Mimic",
        "Captivate",
        "Roar",
        "Fury Cutter",
        "Torment",
        "Strength",
        "Frustration"
      ]
    }
  }
}