{
  "pixelmonName": "Shaymin",
  "spDef": 75,
  "spAtt": 120,
  "speed": 127,
  "defence": 75,
  "attack": 103,
  "hp": 100,
  "catchRate": 45,
  "malePercent": -1,
  "nationalPokedexNumber": 492,
  "spawnLevel": 70,
  "spawnLevelRange": 0,
  "baseExp": 270,
  "baseFriendship": 100,
  "rarity": {
    "day": -1,
    "dawndusk": 0,
    "night": 0
  },
  "type1": "Grass",
  "type2": "Flying",
  "height": 0.4,
  "width": 0.7,
  "length": 0.7,
  "giScale": 1.0,
  "canFly": false,
  "isRideable": false,
  "preEvolutions": [],
  "experienceGroup": "MediumSlow",
  "aggression": {
    "timid": 80,
    "passive": 0,
    "aggressive": 20
  },
  "spawnLocations": [],
  "biomeIDs": [],
  "evGain": {
    "HP": 0,
    "Attack": 0,
    "Defence": 0,
    "SpecialAttack": 0,
    "SpecialDefence": 0,
    "Speed": 3
  },
  "canSurf": false,
  "maxGroupSize": 1,
  "minGroupSize": 1,
  "hoverHeight": 0.0,
  "doesHover": false,
  "id": 938,
  "baseFormID": 938,
  "weight": 5.2,
  "pokemon": "Shaymin",
  "abilities": [
    "SereneGrace",
    null,
    null
  ],
  "eggGroups": [
    "Undiscovered"
  ],
  "eggCycles": 121,
  "form": 1,
  "evolutionDefs": [],
  "moves": {
    "levelMoves": {
      "64": [
        "Air Slash"
      ],
      "1": [
        "Growth"
      ],
      "82": [
        "Sweet Kiss"
      ],
      "19": [
        "Leech Seed"
      ],
      "100": [
        "Seed Flare"
      ],
      "37": [
        "Sweet Scent"
      ],
      "55": [
        "Worry Seed"
      ],
      "73": [
        "Energy Ball"
      ],
      "10": [
        "Magical Leaf"
      ],
      "91": [
        "Leaf Storm"
      ],
      "28": [
        "Quick Attack"
      ],
      "46": [
        "Natural Gift"
      ]
    },
    "eggMoves": [
      "Giga Drain",
      "Last Resort",
      "Seed Bomb",
      "Snore",
      "Worry Seed",
      "Synthesis",
      "Zen Headbutt",
      "Covet",
      "Tailwind",
      "Laser Focus"
    ],
    "evolutionMoves": [],
    "tmTRMoves": [
      "Hyper Beam",
      "Giga Impact",
      "Magical Leaf",
      "Solar Beam",
      "Safeguard",
      "Rest",
      "Snore",
      "Protect",
      "Giga Drain",
      "Sunny Day",
      "Facade",
      "Bullet Seed",
      "Round",
      "Air Slash",
      "Swords Dance",
      "Psychic",
      "Substitute",
      "Endure",
      "Sleep Talk",
      "Seed Bomb",
      "Energy Bomb",
      "Earth Power",
      "Zen Headbutt",
      "Leaf Storm",
      "Grass Knot",
      "Dazzing Gleam"
    ],
    "tutorMoves": {
      "Regular": [
        "Giga Drain",
        "Endeavor",
        "Last Resort",
        "Seed Bomb",
        "Snore",
        "Worry Seed",
        "Synthesis",
        "Earth Power",
        "Zen Headbutt",
        "Covet",
        "Laser Focus"
      ],
      "Transfer": [
        "Air Cutter",
        "Endure",
        "Flash",
        "Headbutt",
        "Mud-Slap",
        "Ominous Wind",
        "Secret Power",
        "Swift",
        "Toxic",
        "Hidden Power",
        "Frustration",
        "Return",
        "Double Team",
        "Psych Up",
        "Swagger",
        "Nature Power",
        "Confide"
      ],
      "Event": [
        "Celebrate"
      ]
    }
  }
}