{
  "pixelmonName": "Shedinja",
  "spDef": 30,
  "spAtt": 30,
  "speed": 40,
  "defence": 45,
  "attack": 90,
  "hp": 1,
  "catchRate": 45,
  "malePercent": -1,
  "nationalPokedexNumber": 292,
  "spawnLevel": 20,
  "spawnLevelRange": 20,
  "baseExp": 95,
  "baseFriendship": 70,
  "rarity": {
    "day": 0,
    "dawndusk": 0,
    "night": 0
  },
  "type1": "Bug",
  "type2": "Ghost",
  "height": 0.8,
  "width": 0.7,
  "length": 0.7,
  "giScale": 1.0,
  "canFly": false,
  "isRideable": false,
  "preEvolutions": [
    "Nincada"
  ],
  "experienceGroup": "Erratic",
  "aggression": {
    "timid": 80,
    "passive": 0,
    "aggressive": 20
  },
  "spawnLocations": [
    "Land"
  ],
  "biomeIDs": [
    27,
    28,
    132,
    155,
    156
  ],
  "evGain": {
    "HP": 2,
    "Attack": 0,
    "Defence": 0,
    "SpecialAttack": 0,
    "SpecialDefence": 0,
    "Speed": 0
  },
  "canSurf": false,
  "maxGroupSize": 1,
  "minGroupSize": 1,
  "hoverHeight": 1.0,
  "doesHover": true,
  "id": 398,
  "baseFormID": 398,
  "weight": 1.2,
  "pokemon": "Shedinja",
  "abilities": [
    "WonderGuard",
    null,
    "WonderGuard"
  ],
  "eggGroups": [
    "Mineral"
  ],
  "eggCycles": 16,
  "form": -1,
  "evolutionDefs": [],
  "moves": {
    "levelMoves": {
      "64": [
        "Phantom Force"
      ],
      "1": [
        "Mud-Slap",
        "False Swipe",
        "Metal Claw",
        "Dig",
        "Scratch",
        "Sand Attack",
        "Shadow Claw",
        "Grudge",
        "Harden"
      ],
      "50": [
        "Shadow Ball"
      ],
      "36": [
        "Fury Swipes"
      ],
      "23": [
        "Absorb"
      ],
      "57": [
        "Spite"
      ],
      "43": [
        "Mind Reader"
      ],
      "29": [
        "Shadow Sneak"
      ],
      "15": [
        "Confuse Ray"
      ]
    },
    "eggMoves": [
      "Final Gambit",
      "Flail",
      "Night Slash",
      "Bug Bite",
      "Gust"
    ],
    "evolutionMoves": [],
    "tmTRMoves": [
      "Giga Drain",
      "Snore",
      "Facade",
      "Leech Life",
      "Solar Beam",
      "Rest",
      "Bug Buzz",
      "Agility",
      "Round",
      "Shadow Ball",
      "Sandstorm",
      "Substitute",
      "Ally Switch",
      "Giga Impact",
      "False Swipe",
      "Protect",
      "Dig",
      "Thief",
      "Trick",
      "Hyper Beam",
      "Sunny Day",
      "Will-O-Wisp",
      "X-Scissor",
      "Phantom Force",
      "Endure",
      "Sleep Talk",
      "Shadow Claw",
      "Hex"
    ],
    "tutorMoves": {
      "Regular": [
        "Skitter Smack",
        "Poltergeist"
      ],
      "Transfer": [
        "Silver Wind",
        "Secret Power",
        "Dream Eater",
        "Natural Gift",
        "Confide",
        "Double-Edge",
        "Cut",
        "Hidden Power",
        "Double Team",
        "Hone Claws",
        "Telekinesis",
        "Toxic",
        "Aerial Ace",
        "Struggle Bug",
        "Swagger",
        "Flash",
        "Heal Block",
        "Return",
        "Mimic",
        "Fury Cutter",
        "Faint Attack",
        "Sucker Punch",
        "String Shot",
        "Frustration",
        "Draco Meteor"
      ]
    }
  }
}