{
  "pixelmonName": "Shinx",
  "spDef": 34,
  "spAtt": 40,
  "speed": 45,
  "defence": 34,
  "attack": 65,
  "hp": 45,
  "catchRate": 235,
  "malePercent": 50,
  "nationalPokedexNumber": 403,
  "spawnLevel": 5,
  "spawnLevelRange": 10,
  "baseExp": 60,
  "baseFriendship": 70,
  "rarity": {
    "day": 180,
    "dawndusk": 18,
    "night": 18
  },
  "type1": "Electric",
  "height": 0.5,
  "width": 1.0,
  "length": 1.0,
  "giScale": 1.0,
  "canFly": false,
  "isRideable": false,
  "preEvolutions": [],
  "experienceGroup": "MediumSlow",
  "aggression": {
    "timid": 0,
    "passive": 50,
    "aggressive": 50
  },
  "spawnLocations": [
    "Land"
  ],
  "biomeIDs": [
    35,
    36,
    163,
    164
  ],
  "evGain": {
    "HP": 0,
    "Attack": 1,
    "Defence": 0,
    "SpecialAttack": 0,
    "SpecialDefence": 0,
    "Speed": 0
  },
  "canSurf": false,
  "maxGroupSize": 2,
  "minGroupSize": 1,
  "hoverHeight": 0.0,
  "doesHover": false,
  "id": 490,
  "baseFormID": 490,
  "weight": 9.5,
  "pokemon": "Shinx",
  "abilities": [
    "Rivalry",
    "Intimidate",
    "Guts"
  ],
  "eggGroups": [
    "Field"
  ],
  "eggCycles": 21,
  "form": -1,
  "evolutionDefs": [
    {
      "targetId": 491,
      "evolveLevel": 15
    }
  ],
  "moves": {
    "levelMoves": {
      "32": [
        "Thunder Wave"
      ],
      "1": [
        "Leer",
        "Tackle"
      ],
      "4": [
        "Thunder Shock"
      ],
      "36": [
        "Crunch"
      ],
      "8": [
        "Charge"
      ],
      "40": [
        "Discharge"
      ],
      "12": [
        "Bite"
      ],
      "44": [
        "Swagger"
      ],
      "16": [
        "Spark"
      ],
      "48": [
        "Wild Charge"
      ],
      "20": [
        "Roar"
      ],
      "24": [
        "Volt Switch"
      ],
      "28": [
        "Scary Face"
      ]
    },
    "eggMoves": [
      "Quick Attack",
      "Take Down",
      "Baby-Doll Eyes",
      "Double Kick",
      "Night Slash",
      "Shock Wave",
      "Howl"
    ],
    "evolutionMoves": [],
    "tmTRMoves": [
      "Snore",
      "Facade",
      "Play Rough",
      "Snarl",
      "Light Screen",
      "Volt Switch",
      "Eerie Impulse",
      "Fire Fang",
      "Rest",
      "Thunder Fang",
      "Ice Fang",
      "Iron Tail",
      "Scary Face",
      "Round",
      "Substitute",
      "Attract",
      "Thunder Wave",
      "Crunch",
      "Helping Hand",
      "Protect",
      "Rain Dance",
      "Thunder",
      "Wild Charge",
      "Thief",
      "Fake Tears",
      "Psychic Fangs",
      "Endure",
      "Sleep Talk",
      "Swift",
      "Electro Ball",
      "Thunderbolt"
    ],
    "tutorMoves": {
      "Regular": [
        "Rising Voltage"
      ],
      "Transfer": [
        "Secret Power",
        "Natural Gift",
        "Confide",
        "Hidden Power",
        "Magnet Rise",
        "Double Team",
        "Mud-Slap",
        "Toxic",
        "Headbutt",
        "Charge Beam",
        "Flash",
        "Signal Beam",
        "Return",
        "Captivate",
        "Fury Cutter",
        "Strength",
        "Frustration"
      ]
    }
  }
}