{
  "pixelmonName": "Sigilyph",
  "spDef": 80,
  "spAtt": 103,
  "speed": 97,
  "defence": 80,
  "attack": 58,
  "hp": 72,
  "catchRate": 45,
  "malePercent": 50,
  "nationalPokedexNumber": 561,
  "spawnLevel": 25,
  "spawnLevelRange": 15,
  "baseExp": 172,
  "baseFriendship": 70,
  "rarity": {
    "day": 0,
    "dawndusk": 25,
    "night": 0
  },
  "type1": "Psychic",
  "type2": "Flying",
  "height": 1.4,
  "width": 0.7,
  "length": 0.5,
  "giScale": 1.0,
  "canFly": false,
  "isRideable": false,
  "preEvolutions": [],
  "experienceGroup": "MediumFast",
  "aggression": {
    "timid": 80,
    "passive": 0,
    "aggressive": 20
  },
  "spawnLocations": [
    "Land"
  ],
  "biomeIDs": [
    130
  ],
  "evGain": {
    "HP": 0,
    "Attack": 0,
    "Defence": 0,
    "SpecialAttack": 2,
    "SpecialDefence": 0,
    "Speed": 0
  },
  "canSurf": false,
  "maxGroupSize": 1,
  "minGroupSize": 1,
  "hoverHeight": 1.0,
  "doesHover": true,
  "id": 636,
  "baseFormID": 636,
  "weight": 14.0,
  "pokemon": "Sigilyph",
  "abilities": [
    "WonderSkin",
    "MagicGuard",
    "TintedLens"
  ],
  "eggGroups": [
    "Flying"
  ],
  "eggCycles": 21,
  "form": -1,
  "evolutionDefs": [],
  "moves": {
    "levelMoves": {
      "1": [
        "Confusion",
        "Gust"
      ],
      "35": [
        "Air Slash"
      ],
      "5": [
        "Gravity"
      ],
      "40": [
        "Psychic"
      ],
      "10": [
        "Hypnosis"
      ],
      "45": [
        "Tailwind"
      ],
      "15": [
        "Air Cutter"
      ],
      "50": [
        "Reflect",
        "Light Screen"
      ],
      "20": [
        "Psybeam"
      ],
      "55": [
        "Sky Attack"
      ],
      "25": [
        "Whirlwind"
      ],
      "60": [
        "Skill Swap"
      ],
      "30": [
        "Cosmic Power"
      ]
    },
    "eggMoves": [
      "Roost",
      "Ancient Power",
      "Psycho Shift"
    ],
    "evolutionMoves": [],
    "tmTRMoves": [
      "Snore",
      "Facade",
      "Dazzling Gleam",
      "Dark Pulse",
      "Air Slash",
      "Light Screen",
      "Magic Room",
      "Solar Beam",
      "Icy Wind",
      "Stored Power",
      "Fly",
      "Rest",
      "Round",
      "Shadow Ball",
      "Heat Wave",
      "Imprison",
      "Substitute",
      "Power Swap",
      "Attract",
      "Ice Beam",
      "Skill Swap",
      "Giga Impact",
      "Thunder Wave",
      "Future Sight",
      "Energy Ball",
      "Safeguard",
      "Protect",
      "Rain Dance",
      "Thief",
      "Psyshock",
      "Trick",
      "Cosmic Power",
      "Hyper Beam",
      "Flash Cannon",
      "Calm Mind",
      "Psychic",
      "Reflect",
      "Steel Wing",
      "Endure",
      "Sleep Talk",
      "Speed Swap",
      "Swift",
      "Psycho Cut",
      "Zen Headbutt",
      "Trick Room"
    ],
    "tutorMoves": {
      "Regular": [
        "Dual Wingbeat",
        "Expanding Force"
      ],
      "Transfer": [
        "Secret Power",
        "Psych Up",
        "Dream Eater",
        "Confide",
        "Defog",
        "Pluck",
        "Hidden Power",
        "Magic Coat",
        "Synchronoise",
        "Smack Down",
        "Double Team",
        "Shock Wave",
        "Psywave",
        "Telekinesis",
        "Toxic",
        "Aerial Ace",
        "Swagger",
        "Charge Beam",
        "Flash",
        "Signal Beam",
        "Return",
        "Miracle Eye",
        "Frustration",
        "Mirror Move"
      ]
    }
  }
}