{
  "pixelmonName": "Sizzlipede",
  "spDef": 50,
  "spAtt": 50,
  "speed": 45,
  "defence": 45,
  "attack": 65,
  "hp": 50,
  "catchRate": 190,
  "malePercent": 50,
  "nationalPokedexNumber": 850,
  "spawnLevel": 8,
  "spawnLevelRange": 28,
  "baseExp": 61,
  "baseFriendship": 50,
  "rarity": {
    "day": 1,
    "dawndusk": 0,
    "night": 0
  },
  "type1": "Fire",
  "type2": "Bug",
  "height": 0.7,
  "width": 1.0,
  "length": 1.0,
  "giScale": 1.0,
  "canFly": false,
  "isRideable": false,
  "preEvolutions": [],
  "experienceGroup": "MediumFast",
  "aggression": {
    "timid": 80,
    "passive": 0,
    "aggressive": 20
  },
  "spawnLocations": [
    "Land"
  ],
  "biomeIDs": [
    21
  ],
  "evGain": {
    "HP": 0,
    "Attack": 0,
    "Defence": 0,
    "SpecialAttack": 2,
    "SpecialDefence": 0,
    "Speed": 0
  },
  "canSurf": false,
  "maxGroupSize": 1,
  "minGroupSize": 1,
  "hoverHeight": 0.0,
  "doesHover": false,
  "id": 1076,
  "baseFormID": 1076,
  "weight": 1.0,
  "pokemon": "Sizzlipede",
  "abilities": [
    "FlashFire",
    "WhiteSmoke",
    "FlameBody"
  ],
  "eggGroups": [
    "Bug"
  ],
  "eggCycles": 6,
  "form": -1,
  "evolutionDefs": [
    {
      "targetId": 1077,
      "evolveLevel": 28
    }
  ],
  "moves": {
    "levelMoves": {
      "1": [
        "Ember",
        "Smokescreen"
      ],
      "50": [
        "Lunge"
      ],
      "35": [
        "Fire Spin"
      ],
      "20": [
        "Bug Bite"
      ],
      "5": [
        "Wrap"
      ],
      "55": [
        "Burn Up"
      ],
      "40": [
        "Crunch"
      ],
      "25": [
        "Coil"
      ],
      "10": [
        "Bite"
      ],
      "45": [
        "Fire Lash"
      ],
      "30": [
        "Slam"
      ],
      "15": [
        "Flame Wheel"
      ]
    },
    "eggMoves": [
      "Knock Off",
      "Struggle Bug",
      "Defense Curl",
      "Rollout"
    ],
    "evolutionMoves": [],
    "tmTRMoves": [
      "Snore",
      "Protect",
      "Facade",
      "Venoshock",
      "Power Whip",
      "Sunny Day",
      "Leech Life",
      "Scald",
      "Rest",
      "Bug Buzz",
      "Brutal Swing",
      "Endure",
      "Sleep Talk",
      "Fire Spin",
      "Round",
      "Heat Wave",
      "Heat Crash",
      "Substitute",
      "Attract",
      "Crunch"
    ],
    "tutorMoves": {
      "Regular": [
        "Scorching Sands",
        "Skitter Smack"
      ]
    }
  }
}