{
  "pixelmonName": "Skarmory",
  "spDef": 70,
  "spAtt": 40,
  "speed": 70,
  "defence": 140,
  "attack": 80,
  "hp": 65,
  "catchRate": 25,
  "malePercent": 50,
  "nationalPokedexNumber": 227,
  "spawnLevel": 10,
  "spawnLevelRange": 40,
  "baseExp": 168,
  "baseFriendship": 70,
  "rarity": {
    "day": 0,
    "dawndusk": 0,
    "night": 45
  },
  "type1": "Steel",
  "type2": "Flying",
  "height": 1.7,
  "width": 1.0,
  "length": 1.0,
  "giScale": 1.0,
  "canFly": true,
  "isRideable": true,
  "preEvolutions": [],
  "experienceGroup": "Slow",
  "aggression": {
    "timid": 80,
    "passive": 0,
    "aggressive": 20
  },
  "flyingParameters": {
    "flyHeightMin": 10,
    "flyHeightMax": 30,
    "flySpeedModifier": 1.0,
    "flyRefreshRateY": 80,
    "flyRefreshRateXZ": 100,
    "flyRefreshRateSpeed": 100,
    "flightTimeMin": 0,
    "flightTimeMax": 20,
    "flapRate": 5,
    "landingMaterial": "GrassAndLeaves"
  },
  "spawnLocations": [
    "Land"
  ],
  "biomeIDs": [
    3,
    34,
    131,
    162
  ],
  "evGain": {
    "HP": 0,
    "Attack": 0,
    "Defence": 2,
    "SpecialAttack": 0,
    "SpecialDefence": 0,
    "Speed": 0
  },
  "canSurf": false,
  "ridingOffsets": {
    "standing": {
      "x": 0.0,
      "y": -1.0,
      "z": -0.3
    },
    "moving": {
      "x": 0.0,
      "y": -0.8,
      "z": -0.2
    }
  },
  "maxGroupSize": 1,
  "minGroupSize": 1,
  "hoverHeight": 0.0,
  "doesHover": false,
  "id": 340,
  "baseFormID": 340,
  "weight": 50.5,
  "pokemon": "Skarmory",
  "abilities": [
    "KeenEye",
    "Sturdy",
    "WeakArmor"
  ],
  "eggGroups": [
    "Flying"
  ],
  "eggCycles": 26,
  "form": -1,
  "evolutionDefs": [],
  "moves": {
    "levelMoves": {
      "32": [
        "Autotomize"
      ],
      "1": [
        "Leer",
        "Peck"
      ],
      "4": [
        "Sand Attack"
      ],
      "36": [
        "Drill Peck"
      ],
      "8": [
        "Fury Attack"
      ],
      "40": [
        "Metal Sound"
      ],
      "12": [
        "Metal Claw"
      ],
      "44": [
        "Spikes"
      ],
      "16": [
        "Agility"
      ],
      "48": [
        "Iron Defense"
      ],
      "20": [
        "Wing Attack"
      ],
      "52": [
        "Brave Bird"
      ],
      "24": [
        "Slash"
      ],
      "28": [
        "Steel Wing"
      ]
    },
    "eggMoves": [
      "Roost",
      "Sky Attack",
      "Air Cutter",
      "Curse",
      "Whirlwind",
      "Night Slash",
      "Feint"
    ],
    "evolutionMoves": [],
    "tmTRMoves": [
      "Snore",
      "Facade",
      "Assurance",
      "Taunt",
      "Dark Pulse",
      "Air Slash",
      "Swords Dance",
      "Icy Wind",
      "Brave Bird",
      "Iron Head",
      "Fly",
      "Rest",
      "Sand Tomb",
      "Rock Slide",
      "Agility",
      "Round",
      "Sandstorm",
      "Iron Defense",
      "Substitute",
      "Attract",
      "Body Press",
      "Payback",
      "Protect",
      "Guard Swap",
      "Thief",
      "Sunny Day",
      "X-Scissor",
      "Flash Cannon",
      "Spikes",
      "Rock Tomb",
      "Steel Wing",
      "Endure",
      "Sleep Talk",
      "Stealth Rock",
      "Swift"
    ],
    "tutorMoves": {
      "Regular": [
        "Dual Wingbeat",
        "Steel Beam"
      ],
      "Transfer": [
        "Rock Smash",
        "Ominous Wind",
        "Secret Power",
        "Detect",
        "Tailwind",
        "Natural Gift",
        "Confide",
        "Defog",
        "Counter",
        "Pluck",
        "Double-Edge",
        "Cut",
        "Hidden Power",
        "Double Team",
        "Mud-Slap",
        "Toxic",
        "Aerial Ace",
        "Sky Drop",
        "Swagger",
        "Flash",
        "Return",
        "Mimic",
        "Captivate",
        "Roar",
        "Pursuit",
        "Fury Cutter",
        "Twister",
        "Torment",
        "Frustration"
      ]
    }
  }
}