{
  "pixelmonName": "Skitty",
  "spDef": 35,
  "spAtt": 35,
  "speed": 50,
  "defence": 45,
  "attack": 45,
  "hp": 50,
  "catchRate": 255,
  "malePercent": 25,
  "nationalPokedexNumber": 300,
  "spawnLevel": 2,
  "spawnLevelRange": 28,
  "baseExp": 65,
  "baseFriendship": 70,
  "rarity": {
    "day": 0,
    "dawndusk": 0,
    "night": 180
  },
  "type1": "Normal",
  "height": 0.7,
  "width": 0.7,
  "length": 0.7,
  "giScale": 1.0,
  "canFly": false,
  "isRideable": false,
  "preEvolutions": [],
  "experienceGroup": "Fast",
  "aggression": {
    "timid": 80,
    "passive": 0,
    "aggressive": 20
  },
  "spawnLocations": [
    "Land"
  ],
  "biomeIDs": [
    1
  ],
  "evGain": {
    "HP": 0,
    "Attack": 0,
    "Defence": 0,
    "SpecialAttack": 0,
    "SpecialDefence": 0,
    "Speed": 1
  },
  "canSurf": false,
  "maxGroupSize": 4,
  "minGroupSize": 1,
  "hoverHeight": 0.0,
  "doesHover": false,
  "id": 406,
  "baseFormID": 406,
  "weight": 11.0,
  "pokemon": "Skitty",
  "abilities": [
    "CuteCharm",
    "Normalize",
    "WonderSkin"
  ],
  "eggGroups": [
    "Field",
    "Fairy"
  ],
  "eggCycles": 16,
  "form": -1,
  "evolutionDefs": [
    {
      "targetId": 0,
      "formTo": -1,
      "evolveCondition": "Moonstone:Delcatty"
    }
  ],
  "moves": {
    "levelMoves": {
      "1": [
        "Tackle",
        "Tail Whip",
        "Fake Out",
        "Growl"
      ],
      "34": [
        "Covet"
      ],
      "4": [
        "Foresight"
      ],
      "37": [
        "Heal Bell"
      ],
      "7": [
        "Sing"
      ],
      "40": [
        "Double-Edge"
      ],
      "10": [
        "Attract"
      ],
      "43": [
        "Captivate"
      ],
      "13": [
        "Disarming Voice"
      ],
      "46": [
        "Play Rough"
      ],
      "16": [
        "Double Slap"
      ],
      "19": [
        "Copycat"
      ],
      "22": [
        "Faint Attack"
      ],
      "25": [
        "Charm"
      ],
      "28": [
        "Wake-Up Slap"
      ],
      "31": [
        "Assist"
      ]
    },
    "eggMoves": [
      "Helping Hand",
      "Last Resort",
      "Uproar",
      "Captivate",
      "Cosmic Power",
      "Fake Tears",
      "Fake Out",
      "Baton Pass",
      "Wish",
      "Sucker Punch",
      "Simple Beam",
      "Zen Headbutt",
      "Tickle",
      "Mud Bomb"
    ],
    "evolutionMoves": [],
    "tmTRMoves": [
      "Pay Day",
      "Solar Beam",
      "Thunder Wave",
      "Dig",
      "Safeguard",
      "Rest",
      "Snore",
      "Protect",
      "Icy Wind",
      "Charm",
      "Attract",
      "Rain Dance",
      "Sunny Day",
      "Facade",
      "Helping Hand",
      "Fake Tears",
      "Payback",
      "Round",
      "Retaliate",
      "Tail Slap",
      "Draining Kiss",
      "Body Slam",
      "Ice Beam",
      "Blizzard",
      "Thunderbolt",
      "Thunder",
      "Substitute",
      "Endure",
      "Sleep Talk",
      "Baton Pass",
      "Iron Tail",
      "Shadow Ball",
      "Uproar",
      "Hyper Voice",
      "Cosmic Power",
      "Calm Mind",
      "Nasty Plot",
      "Zen Headbutt",
      "Grass Knot",
      "Work Up",
      "Wild Charge",
      "Play Rough"
    ],
    "tutorMoves": {
      "Regular": [
        "Helping Hand",
        "Last Resort",
        "Snore",
        "Uproar",
        "Iron Tail",
        "Water Pulse",
        "Zen Headbutt",
        "Heal Bell",
        "Icy Wind",
        "Covet",
        "Shock Wave",
        "Hyper Voice"
      ],
      "Transfer": [
        "Secret Power",
        "Psych Up",
        "Dream Eater",
        "Natural Gift",
        "Confide",
        "Hidden Power",
        "Echoed Voice",
        "Double Team",
        "Swift",
        "Mud-Slap",
        "Toxic",
        "Headbutt",
        "Swagger",
        "Charge Beam",
        "Defense Curl",
        "Flash",
        "Rollout",
        "Return",
        "Mimic",
        "Frustration"
      ]
    }
  }
}