{
  "pixelmonName": "Skorupi",
  "spDef": 55,
  "spAtt": 30,
  "speed": 65,
  "defence": 90,
  "attack": 50,
  "hp": 40,
  "catchRate": 120,
  "malePercent": 50,
  "nationalPokedexNumber": 451,
  "spawnLevel": 5,
  "spawnLevelRange": 20,
  "baseExp": 114,
  "baseFriendship": 70,
  "rarity": {
    "day": 0,
    "dawndusk": 120,
    "night": 120
  },
  "type1": "Poison",
  "type2": "Bug",
  "height": 0.8,
  "width": 0.6,
  "length": 0.6,
  "giScale": 1.0,
  "canFly": false,
  "isRideable": false,
  "preEvolutions": [],
  "experienceGroup": "Slow",
  "aggression": {
    "timid": 80,
    "passive": 0,
    "aggressive": 20
  },
  "spawnLocations": [
    "Land"
  ],
  "biomeIDs": [
    2,
    6,
    17,
    37,
    38,
    39,
    130,
    134,
    165,
    166,
    167
  ],
  "evGain": {
    "HP": 0,
    "Attack": 0,
    "Defence": 1,
    "SpecialAttack": 0,
    "SpecialDefence": 0,
    "Speed": 0
  },
  "canSurf": false,
  "maxGroupSize": 1,
  "minGroupSize": 1,
  "hoverHeight": 0.0,
  "doesHover": false,
  "id": 532,
  "baseFormID": 532,
  "weight": 12.0,
  "pokemon": "Skorupi",
  "abilities": [
    "BattleArmour",
    "Sniper",
    "KeenEye"
  ],
  "eggGroups": [
    "Bug",
    "Water3"
  ],
  "eggCycles": 21,
  "form": -1,
  "evolutionDefs": [
    {
      "targetId": 533,
      "evolveLevel": 40
    }
  ],
  "moves": {
    "levelMoves": {
      "1": [
        "Leer",
        "Poison Sting"
      ],
      "33": [
        "Toxic"
      ],
      "3": [
        "Hone Claws"
      ],
      "36": [
        "Night Slash"
      ],
      "6": [
        "Fell Stinger"
      ],
      "39": [
        "Cross Poison"
      ],
      "9": [
        "Poison Fang"
      ],
      "42": [
        "X-Scissor"
      ],
      "12": [
        "Bite"
      ],
      "45": [
        "Acupressure"
      ],
      "15": [
        "Toxic Spikes"
      ],
      "48": [
        "Crunch"
      ],
      "18": [
        "Bug Bite"
      ],
      "21": [
        "Venoshock"
      ],
      "24": [
        "Knock Off"
      ],
      "27": [
        "Scary Face"
      ],
      "30": [
        "Pin Missile"
      ]
    },
    "eggMoves": [
      "Sand Attack",
      "Whirlwind",
      "Slash",
      "Confuse Ray"
    ],
    "evolutionMoves": [],
    "tmTRMoves": [
      "Pin Missile",
      "Snore",
      "Facade",
      "Assurance",
      "Cross Poison",
      "Taunt",
      "Dark Pulse",
      "Sludge Bomb",
      "Swords Dance",
      "Screech",
      "Rest",
      "Bug Buzz",
      "Iron Tail",
      "Agility",
      "Scary Face",
      "Round",
      "Shadow Ball",
      "Substitute",
      "Poison Jab",
      "Brick Break",
      "Attract",
      "Crunch",
      "Payback",
      "False Swipe",
      "Protect",
      "Venoshock",
      "Dig",
      "Rain Dance",
      "Thief",
      "Sunny Day",
      "X-Scissor",
      "Fling",
      "Rock Tomb",
      "Endure",
      "Sleep Talk",
      "Toxic Spikes"
    ],
    "tutorMoves": {
      "Regular": [
        "Skitter Smack"
      ],
      "Transfer": [
        "Rock Smash",
        "Secret Power",
        "Natural Gift",
        "Confide",
        "Poison Tail",
        "Cut",
        "Hidden Power",
        "Twineedle",
        "Double Team",
        "Infestation",
        "Mud-Slap",
        "Aerial Ace",
        "Struggle Bug",
        "Headbutt",
        "Swagger",
        "Aqua Tail",
        "Flash",
        "Return",
        "Captivate",
        "Pursuit",
        "Fury Cutter",
        "Faint Attack",
        "Torment",
        "Strength",
        "Frustration"
      ]
    }
  }
}