{
  "pixelmonName": "Sliggoo",
  "spDef": 113,
  "spAtt": 83,
  "speed": 60,
  "defence": 53,
  "attack": 75,
  "hp": 68,
  "catchRate": 45,
  "malePercent": 50,
  "nationalPokedexNumber": 705,
  "spawnLevel": 40,
  "spawnLevelRange": 5,
  "baseExp": 158,
  "baseFriendship": 0,
  "rarity": {
    "day": 0,
    "dawndusk": 0,
    "night": 10
  },
  "type1": "Dragon",
  "height": 0.8,
  "width": 0.8,
  "length": 0.8,
  "giScale": 1.0,
  "canFly": false,
  "isRideable": false,
  "preEvolutions": [
    "Goomy"
  ],
  "experienceGroup": "Slow",
  "aggression": {
    "timid": 80,
    "passive": 0,
    "aggressive": 20
  },
  "spawnLocations": [
    "Land"
  ],
  "biomeIDs": [
    6
  ],
  "evGain": {
    "HP": 0,
    "Attack": 0,
    "Defence": 0,
    "SpecialAttack": 0,
    "SpecialDefence": 2,
    "Speed": 0
  },
  "canSurf": false,
  "maxGroupSize": 1,
  "minGroupSize": 1,
  "hoverHeight": 0.0,
  "doesHover": false,
  "id": 782,
  "baseFormID": 782,
  "weight": 17.5,
  "pokemon": "Sliggoo",
  "abilities": [
    "SapSipper",
    "Hydration",
    "Gooey"
  ],
  "eggGroups": [
    "Dragon"
  ],
  "eggCycles": 41,
  "form": -1,
  "evolutionDefs": [
    {
      "targetId": 757,
      "evolveLevel": 50
    }
  ],
  "moves": {
    "levelMoves": {
      "1": [
        "Water Gun",
        "Acid Spray",
        "Tackle",
        "Dragon Breath",
        "Absorb"
      ],
      "49": [
        "Body Slam"
      ],
      "35": [
        "Dragon Pulse"
      ],
      "20": [
        "Flail"
      ],
      "56": [
        "Muddy Water"
      ],
      "25": [
        "Water Pulse"
      ],
      "43": [
        "Curse"
      ],
      "30": [
        "Rain Dance"
      ],
      "15": [
        "Protect"
      ]
    },
    "eggMoves": [
      "Counter",
      "Life Dew"
    ],
    "evolutionMoves": [
      "Acid Spray"
    ],
    "tmTRMoves": [
      "Dragon Pulse",
      "Snore",
      "Protect",
      "Facade",
      "Rain Dance",
      "Sunny Day",
      "Sludge Bomb",
      "Outrage",
      "Rest",
      "Iron Tail",
      "Rock Slide",
      "Endure",
      "Sleep Talk",
      "Sludge Wave",
      "Muddy Water",
      "Round",
      "Body Slam",
      "Mud Shot",
      "Thunderbolt",
      "Substitute",
      "Attract",
      "Ice Beam",
      "Blizzard"
    ],
    "tutorMoves": {
      "Regular": [
        "Skitter Smack",
        "Draco Meteor"
      ],
      "Transfer": [
        "Secret Power",
        "Confide",
        "Bubble",
        "Poison Tail",
        "Hidden Power",
        "Bide",
        "Double Team",
        "Infestation",
        "Shock Wave",
        "Toxic",
        "Swagger",
        "Acid Armor",
        "Return",
        "Frustration"
      ]
    }
  }
}