{
  "pixelmonName": "Slowbro",
  "spDef": 70,
  "spAtt": 100,
  "speed": 30,
  "defence": 95,
  "attack": 100,
  "hp": 95,
  "catchRate": 75,
  "malePercent": 50,
  "nationalPokedexNumber": 80,
  "spawnLevel": 37,
  "spawnLevelRange": 13,
  "baseExp": 164,
  "baseFriendship": 70,
  "rarity": {
    "day": 40,
    "dawndusk": 40,
    "night": 40
  },
  "type1": "Poison",
  "type2": "Psychic",
  "height": 2.0,
  "width": 1.0,
  "length": 1.0,
  "giScale": 1.0,
  "canFly": false,
  "isRideable": false,
  "preEvolutions": [
    "Slowpoke"
  ],
  "experienceGroup": "MediumFast",
  "aggression": {
    "timid": 80,
    "passive": 0,
    "aggressive": 20
  },
  "spawnLocations": [
    "Land"
  ],
  "biomeIDs": [
    0,
    6,
    7,
    16,
    24,
    25,
    134
  ],
  "evGain": {
    "HP": 0,
    "Attack": 0,
    "Defence": 2,
    "SpecialAttack": 0,
    "SpecialDefence": 0,
    "Speed": 0
  },
  "canSurf": false,
  "maxGroupSize": 3,
  "minGroupSize": 1,
  "hoverHeight": 0.0,
  "doesHover": false,
  "id": 1133,
  "baseFormID": 153,
  "weight": 70.5,
  "pokemon": "Slowbro",
  "abilities": [
    "QuickDraw",
    "OwnTempo",
    "Regenerator"
  ],
  "eggGroups": [
    "Monster",
    "Water1"
  ],
  "eggCycles": 21,
  "form": 10,
  "evolutionDefs": [],
  "moves": {
    "levelMoves": {
      "1": [
        "Tackle",
        "Acid",
        "Curse",
        "Shell Side Arm",
        "Withdraw",
        "Growl"
      ],
      "33": [
        "Slack Off"
      ],
      "36": [
        "Psychic"
      ],
      "39": [
        "Psych Up"
      ],
      "9": [
        "Yawn"
      ],
      "42": [
        "Rain Dance"
      ],
      "12": [
        "Confusion"
      ],
      "45": [
        "Heal Pulse"
      ],
      "15": [
        "Disable"
      ],
      "18": [
        "Water Pulse"
      ],
      "21": [
        "Headbutt"
      ],
      "24": [
        "Zen Headbutt"
      ],
      "27": [
        "Amnesia"
      ],
      "30": [
        "Surf"
      ]
    },
    "eggMoves": [
      "Block",
      "Stomp",
      "Belly Drum",
      "Belch"
    ],
    "evolutionMoves": [
      "Shell Side Arm"
    ],
    "tmTRMoves": [
      "Flamethrower",
      "Light Screen",
      "Icy Wind",
      "Surf",
      "Wonder Room",
      "Iron Tail",
      "Sludge Wave",
      "Hydro Pump",
      "Nasty Plot",
      "Body Slam",
      "Bulldoze",
      "Imprison",
      "Mud Shot",
      "Substitute",
      "Poison Jab",
      "Attract",
      "Ice Beam",
      "Thunder Wave",
      "Future Sight",
      "Drain Punch",
      "Tri Attack",
      "Mega Punch",
      "Razor Shell",
      "Sunny Day",
      "Brine",
      "Avalanche",
      "Calm Mind",
      "Fling",
      "Psychic Terrain",
      "Dive",
      "Brutal Swing",
      "Endure",
      "Whirlpool",
      "Muddy Water",
      "Swift",
      "Zen Headbutt",
      "Ice Punch",
      "Trick Room",
      "Fire Blast",
      "Weather Ball",
      "Snore",
      "Facade",
      "Sludge Bomb",
      "Grass Knot",
      "Mega Kick",
      "Stored Power",
      "Rest",
      "Earthquake",
      "Pay Day",
      "Round",
      "Shadow Ball",
      "Liquidation",
      "Amnesia",
      "Iron Defense",
      "Brick Break",
      "Hail",
      "Skill Swap",
      "Giga Impact",
      "Safeguard",
      "Protect",
      "Venoshock",
      "Dig",
      "Rain Dance",
      "Psyshock",
      "Trick",
      "Hyper Beam",
      "Scald",
      "Focus Blast",
      "Psychic",
      "Foul Play",
      "Sleep Talk",
      "Blizzard"
    ],
    "tutorMoves": {
      "Regular": [
        "Expanding Force"
      ]
    }
  }
}