{
  "pixelmonName": "Slowpoke",
  "spDef": 40,
  "spAtt": 40,
  "speed": 15,
  "defence": 65,
  "attack": 65,
  "hp": 90,
  "catchRate": 190,
  "malePercent": 50,
  "nationalPokedexNumber": 79,
  "spawnLevel": 15,
  "spawnLevelRange": 22,
  "baseExp": 99,
  "baseFriendship": 70,
  "rarity": {
    "day": 80,
    "dawndusk": 80,
    "night": 80
  },
  "type1": "Water",
  "type2": "Psychic",
  "height": 1.2,
  "width": 1.0,
  "length": 1.0,
  "giScale": 0.7,
  "canFly": false,
  "isRideable": false,
  "preEvolutions": [],
  "experienceGroup": "MediumFast",
  "aggression": {
    "timid": 80,
    "passive": 0,
    "aggressive": 20
  },
  "spawnLocations": [
    "Land"
  ],
  "biomeIDs": [
    0,
    6,
    7,
    16,
    24,
    25,
    134
  ],
  "evGain": {
    "HP": 1,
    "Attack": 0,
    "Defence": 0,
    "SpecialAttack": 0,
    "SpecialDefence": 0,
    "Speed": 0
  },
  "canSurf": false,
  "maxGroupSize": 4,
  "minGroupSize": 1,
  "hoverHeight": 0.0,
  "doesHover": false,
  "id": 152,
  "baseFormID": 152,
  "weight": 36.0,
  "pokemon": "Slowpoke",
  "abilities": [
    "Oblivious",
    "OwnTempo",
    "Regenerator"
  ],
  "eggGroups": [
    "Monster",
    "Water1"
  ],
  "eggCycles": 21,
  "form": -1,
  "evolutionDefs": [
    {
      "targetId": 30,
      "evolveCondition": "Trade:King\u0027s Rock:Slowking"
    },
    {
      "targetId": 153,
      "evolveLevel": 37
    }
  ],
  "moves": {
    "levelMoves": {
      "1": [
        "Tackle",
        "Curse"
      ],
      "33": [
        "Slack Off"
      ],
      "3": [
        "Growl"
      ],
      "36": [
        "Psychic"
      ],
      "6": [
        "Water Gun"
      ],
      "39": [
        "Psych Up"
      ],
      "9": [
        "Yawn"
      ],
      "42": [
        "Rain Dance"
      ],
      "12": [
        "Confusion"
      ],
      "45": [
        "Heal Pulse"
      ],
      "15": [
        "Disable"
      ],
      "18": [
        "Water Pulse"
      ],
      "21": [
        "Headbutt"
      ],
      "24": [
        "Zen Headbutt"
      ],
      "27": [
        "Amnesia"
      ],
      "30": [
        "Surf"
      ]
    },
    "eggMoves": [
      "Block",
      "Stomp",
      "Belly Drum",
      "Belch"
    ],
    "evolutionMoves": [],
    "tmTRMoves": [
      "Flamethrower",
      "Light Screen",
      "Icy Wind",
      "Surf",
      "Wonder Room",
      "Iron Tail",
      "Hydro Pump",
      "Body Slam",
      "Bulldoze",
      "Imprison",
      "Mud Shot",
      "Substitute",
      "Attract",
      "Ice Beam",
      "Thunder Wave",
      "Future Sight",
      "Tri Attack",
      "Sunny Day",
      "Brine",
      "Calm Mind",
      "Psychic Terrain",
      "Dive",
      "Endure",
      "Whirlpool",
      "Swift",
      "Zen Headbutt",
      "Trick Room",
      "Fire Blast",
      "Weather Ball",
      "Snore",
      "Facade",
      "Grass Knot",
      "Stored Power",
      "Rest",
      "Earthquake",
      "Pay Day",
      "Round",
      "Shadow Ball",
      "Liquidation",
      "Amnesia",
      "Hail",
      "Skill Swap",
      "Safeguard",
      "Protect",
      "Dig",
      "Rain Dance",
      "Psyshock",
      "Trick",
      "Scald",
      "Psychic",
      "Sleep Talk",
      "Blizzard"
    ],
    "tutorMoves": {
      "Regular": [
        "Expanding Force"
      ],
      "Transfer": [
        "Dream Eater",
        "Natural Gift",
        "Confide",
        "Incinerate",
        "Me First",
        "Double-Edge",
        "Mud Sport",
        "Hidden Power",
        "Bide",
        "Double Team",
        "Telekinesis",
        "Rage",
        "Skull Bash",
        "Swagger",
        "Aqua Tail",
        "Nightmare",
        "Mimic",
        "Captivate",
        "Reflect",
        "Frustration",
        "After You",
        "Secret Power",
        "Bubble Beam",
        "Teleport",
        "Take Down",
        "Magic Coat",
        "Fissure",
        "Echoed Voice",
        "Recycle",
        "Psywave",
        "Mud-Slap",
        "Toxic",
        "Flash",
        "Signal Beam",
        "Return",
        "Strength",
        "Zap Cannon"
      ]
    }
  }
}