{
  "pixelmonName": "Slurpuff",
  "spDef": 75,
  "spAtt": 85,
  "speed": 72,
  "defence": 86,
  "attack": 80,
  "hp": 82,
  "catchRate": 140,
  "malePercent": 50,
  "nationalPokedexNumber": 685,
  "spawnLevel": 35,
  "spawnLevelRange": 10,
  "baseExp": 168,
  "baseFriendship": 0,
  "rarity": {
    "day": 0,
    "dawndusk": 0,
    "night": 40
  },
  "type1": "Fairy",
  "height": 0.8,
  "width": 0.8,
  "length": 0.8,
  "giScale": 1.0,
  "canFly": false,
  "isRideable": false,
  "preEvolutions": [
    "Swirlix"
  ],
  "experienceGroup": "MediumFast",
  "aggression": {
    "timid": 80,
    "passive": 0,
    "aggressive": 20
  },
  "spawnLocations": [
    "Land"
  ],
  "biomeIDs": [
    27
  ],
  "evGain": {
    "HP": 0,
    "Attack": 0,
    "Defence": 2,
    "SpecialAttack": 0,
    "SpecialDefence": 0,
    "Speed": 0
  },
  "canSurf": false,
  "maxGroupSize": 1,
  "minGroupSize": 1,
  "hoverHeight": 0.0,
  "doesHover": false,
  "id": 783,
  "baseFormID": 783,
  "weight": 5.0,
  "pokemon": "Slurpuff",
  "abilities": [
    "SweetVeil",
    null,
    "Unburden"
  ],
  "eggGroups": [
    "Fairy"
  ],
  "eggCycles": 21,
  "form": -1,
  "evolutionDefs": [],
  "moves": {
    "levelMoves": {
      "1": [
        "Tackle",
        "Sweet Scent",
        "Fairy Wind",
        "Play Nice"
      ],
      "33": [
        "Play Rough"
      ],
      "36": [
        "Cotton Guard"
      ],
      "39": [
        "Endeavor"
      ],
      "9": [
        "Aromatherapy"
      ],
      "42": [
        "Sticky Web"
      ],
      "12": [
        "Draining Kiss"
      ],
      "15": [
        "Fake Tears"
      ],
      "18": [
        "Round"
      ],
      "21": [
        "String Shot"
      ],
      "24": [
        "Cotton Spore"
      ],
      "27": [
        "Energy Ball"
      ],
      "30": [
        "Wish"
      ]
    },
    "eggMoves": [
      "After You",
      "Yawn",
      "Sticky Web",
      "Copycat"
    ],
    "evolutionMoves": [],
    "tmTRMoves": [
      "Snore",
      "Facade",
      "Flamethrower",
      "Play Rough",
      "Dazzling Gleam",
      "Metronome",
      "Light Screen",
      "Surf",
      "Rest",
      "Charm",
      "Round",
      "Amnesia",
      "Substitute",
      "Attract",
      "Giga Impact",
      "Helping Hand",
      "Energy Ball",
      "Safeguard",
      "Protect",
      "Drain Punch",
      "Rain Dance",
      "Thunder",
      "Thief",
      "Fake Tears",
      "Hyper Beam",
      "Sunny Day",
      "Calm Mind",
      "Psychic",
      "Endure",
      "Sleep Talk",
      "Thunderbolt",
      "Draining Kiss"
    ],
    "tutorMoves": {
      "Regular": [
        "Misty Explosion"
      ],
      "Transfer": [
        "Secret Power",
        "Psych Up",
        "Dream Eater",
        "Confide",
        "Belly Drum",
        "Hidden Power",
        "Magic Coat",
        "Double Team",
        "Heal Bell",
        "Toxic",
        "Swagger",
        "Flash",
        "Return",
        "Gastro Acid",
        "Covet",
        "Frustration"
      ]
    }
  }
}