{
  "pixelmonName": "Snorunt",
  "spDef": 50,
  "spAtt": 50,
  "speed": 50,
  "defence": 50,
  "attack": 50,
  "hp": 50,
  "catchRate": 190,
  "malePercent": 50,
  "nationalPokedexNumber": 361,
  "spawnLevel": 15,
  "spawnLevelRange": 15,
  "baseExp": 74,
  "baseFriendship": 70,
  "rarity": {
    "day": 0,
    "dawndusk": 40,
    "night": 40
  },
  "type1": "Ice",
  "height": 0.7,
  "width": 0.5,
  "length": 0.5,
  "giScale": 1.0,
  "canFly": false,
  "isRideable": false,
  "preEvolutions": [],
  "experienceGroup": "MediumFast",
  "aggression": {
    "timid": 50,
    "passive": 50,
    "aggressive": 0
  },
  "spawnLocations": [
    "Land"
  ],
  "biomeIDs": [
    11,
    12,
    140
  ],
  "evGain": {
    "HP": 1,
    "Attack": 0,
    "Defence": 0,
    "SpecialAttack": 0,
    "SpecialDefence": 0,
    "Speed": 0
  },
  "canSurf": false,
  "maxGroupSize": 4,
  "minGroupSize": 1,
  "hoverHeight": 0.0,
  "doesHover": false,
  "id": 454,
  "baseFormID": 454,
  "weight": 16.8,
  "pokemon": "Snorunt",
  "abilities": [
    "InnerFocus",
    "IceBody",
    "Moody"
  ],
  "eggGroups": [
    "Fairy",
    "Mineral"
  ],
  "eggCycles": 21,
  "form": -1,
  "evolutionDefs": [
    {
      "targetId": 455,
      "evolveLevel": 42
    },
    {
      "targetId": 557,
      "evolveCondition": "Dawnstone:Female:Froslass"
    }
  ],
  "moves": {
    "levelMoves": {
      "1": [
        "Astonish",
        "Powder Snow"
      ],
      "35": [
        "Bite"
      ],
      "5": [
        "Leer"
      ],
      "40": [
        "Ice Fang"
      ],
      "10": [
        "Double Team"
      ],
      "45": [
        "Hail"
      ],
      "15": [
        "Ice Shard"
      ],
      "50": [
        "Headbutt"
      ],
      "20": [
        "Protect"
      ],
      "55": [
        "Crunch"
      ],
      "25": [
        "Icy Wind"
      ],
      "60": [
        "Blizzard"
      ],
      "30": [
        "Frost Breath"
      ]
    },
    "eggMoves": [
      "Icicle Crash",
      "Switcheroo",
      "Block",
      "Rollout",
      "Disable"
    ],
    "evolutionMoves": [],
    "tmTRMoves": [
      "Weather Ball",
      "Snore",
      "Facade",
      "Light Screen",
      "Icy Wind",
      "Rest",
      "Ice Fang",
      "Round",
      "Body Slam",
      "Shadow Ball",
      "Substitute",
      "Attract",
      "Hail",
      "Ice Beam",
      "Crunch",
      "Safeguard",
      "Protect",
      "Rain Dance",
      "Fake Tears",
      "Avalanche",
      "Spikes",
      "Endure",
      "Sleep Talk",
      "Hex",
      "Blizzard"
    ],
    "tutorMoves": {
      "Transfer": [
        "Secret Power",
        "Natural Gift",
        "Confide",
        "Double-Edge",
        "Hidden Power",
        "Water Pulse",
        "Bide",
        "Spite",
        "Toxic",
        "Swagger",
        "Flash",
        "Return",
        "Mimic",
        "Captivate",
        "Frustration"
      ]
    }
  }
}