{
  "pixelmonName": "Snover",
  "spDef": 60,
  "spAtt": 62,
  "speed": 40,
  "defence": 50,
  "attack": 62,
  "hp": 60,
  "catchRate": 120,
  "malePercent": 50,
  "nationalPokedexNumber": 459,
  "spawnLevel": 35,
  "spawnLevelRange": 5,
  "baseExp": 131,
  "baseFriendship": 70,
  "rarity": {
    "day": 0,
    "dawndusk": 150,
    "night": 0
  },
  "type1": "Grass",
  "type2": "Ice",
  "height": 1.0,
  "width": 1.0,
  "length": 1.0,
  "giScale": 1.0,
  "canFly": false,
  "isRideable": false,
  "preEvolutions": [],
  "experienceGroup": "Slow",
  "aggression": {
    "timid": 80,
    "passive": 0,
    "aggressive": 20
  },
  "spawnLocations": [
    "Land"
  ],
  "biomeIDs": [
    30,
    31,
    158
  ],
  "evGain": {
    "HP": 0,
    "Attack": 1,
    "Defence": 0,
    "SpecialAttack": 0,
    "SpecialDefence": 0,
    "Speed": 0
  },
  "canSurf": false,
  "maxGroupSize": 2,
  "minGroupSize": 1,
  "hoverHeight": 0.0,
  "doesHover": false,
  "id": 540,
  "baseFormID": 540,
  "weight": 50.5,
  "pokemon": "Snover",
  "abilities": [
    "SnowWarning",
    null,
    "Soundproof"
  ],
  "eggGroups": [
    "Monster",
    "Grass"
  ],
  "eggCycles": 21,
  "form": -1,
  "evolutionDefs": [
    {
      "targetId": 541,
      "evolveLevel": 40
    }
  ],
  "moves": {
    "levelMoves": {
      "1": [
        "Leer",
        "Powder Snow"
      ],
      "50": [
        "Sheer Cold"
      ],
      "35": [
        "Ingrain"
      ],
      "20": [
        "Razor Leaf"
      ],
      "5": [
        "Leafage"
      ],
      "25": [
        "Icy Wind"
      ],
      "41": [
        "Wood Hammer"
      ],
      "10": [
        "Mist"
      ],
      "45": [
        "Blizzard"
      ],
      "30": [
        "Swagger"
      ],
      "15": [
        "Ice Shard"
      ]
    },
    "eggMoves": [
      "Growth",
      "Skull Bash",
      "Stomp",
      "Double-Edge",
      "Leech Seed"
    ],
    "evolutionMoves": [],
    "tmTRMoves": [
      "Giga Drain",
      "Weather Ball",
      "Snore",
      "Facade",
      "Light Screen",
      "Grass Knot",
      "Swords Dance",
      "Solar Beam",
      "Icy Wind",
      "Magical Leaf",
      "Rest",
      "Seed Bomb",
      "Iron Tail",
      "Bullet Seed",
      "Round",
      "Shadow Ball",
      "Substitute",
      "Attract",
      "Hail",
      "Ice Beam",
      "Energy Ball",
      "Safeguard",
      "Protect",
      "Rain Dance",
      "Mega Punch",
      "Avalanche",
      "Endure",
      "Sleep Talk",
      "Ice Punch",
      "Blizzard"
    ],
    "tutorMoves": {
      "Regular": [
        "Grassy Glide"
      ],
      "Transfer": [
        "Secret Power",
        "Grass Whistle",
        "Natural Gift",
        "Confide",
        "Synthesis",
        "Frost Breath",
        "Hidden Power",
        "Water Pulse",
        "Double Team",
        "Mud-Slap",
        "Worry Seed",
        "Toxic",
        "Headbutt",
        "Flash",
        "Return",
        "Captivate",
        "Role Play",
        "Frustration"
      ]
    }
  }
}