{
  "pixelmonName": "Solrock",
  "spDef": 65,
  "spAtt": 55,
  "speed": 70,
  "defence": 85,
  "attack": 95,
  "hp": 90,
  "catchRate": 45,
  "malePercent": -1,
  "nationalPokedexNumber": 338,
  "spawnLevel": 20,
  "spawnLevelRange": 30,
  "baseExp": 150,
  "baseFriendship": 70,
  "rarity": {
    "day": 50,
    "dawndusk": 0,
    "night": 0
  },
  "type1": "Rock",
  "type2": "Psychic",
  "height": 1.2,
  "width": 1.0,
  "length": 1.0,
  "giScale": 1.0,
  "canFly": false,
  "isRideable": false,
  "preEvolutions": [],
  "experienceGroup": "Fast",
  "aggression": {
    "timid": 80,
    "passive": 0,
    "aggressive": 20
  },
  "spawnLocations": [
    "Land",
    "UnderGround"
  ],
  "biomeIDs": [
    37,
    38,
    39,
    165,
    166,
    167
  ],
  "evGain": {
    "HP": 0,
    "Attack": 2,
    "Defence": 0,
    "SpecialAttack": 0,
    "SpecialDefence": 0,
    "Speed": 0
  },
  "canSurf": false,
  "maxGroupSize": 2,
  "minGroupSize": 1,
  "hoverHeight": 1.0,
  "doesHover": true,
  "id": 109,
  "baseFormID": 109,
  "weight": 154.0,
  "pokemon": "Solrock",
  "abilities": [
    "Levitate",
    null,
    null
  ],
  "eggGroups": [
    "Mineral"
  ],
  "eggCycles": 26,
  "form": -1,
  "evolutionDefs": [],
  "moves": {
    "levelMoves": {
      "1": [
        "Tackle",
        "Rock Throw",
        "Confusion",
        "Morning Sun",
        "Harden",
        "Flare Blitz"
      ],
      "50": [
        "Explosion"
      ],
      "35": [
        "Stone Edge"
      ],
      "20": [
        "Zen Headbutt"
      ],
      "5": [
        "Hypnosis"
      ],
      "40": [
        "Solar Beam"
      ],
      "25": [
        "Cosmic Power"
      ],
      "10": [
        "Rock Polish"
      ],
      "45": [
        "Wonder Room"
      ],
      "30": [
        "Psychic"
      ],
      "15": [
        "Rock Slide"
      ]
    },
    "eggMoves": [
      "Meteor Beam"
    ],
    "evolutionMoves": [],
    "tmTRMoves": [
      "Flamethrower",
      "Light Screen",
      "Overheat",
      "Swords Dance",
      "Rock Blast",
      "Iron Head",
      "Sand Tomb",
      "Wonder Room",
      "Body Slam",
      "Heat Wave",
      "Bulldoze",
      "Substitute",
      "Power Swap",
      "Self-Destruct",
      "Cosmic Power",
      "Sunny Day",
      "Calm Mind",
      "Rock Tomb",
      "Psychic Terrain",
      "Endure",
      "Fire Spin",
      "Swift",
      "Zen Headbutt",
      "Trick Room",
      "Fire Blast",
      "Weather Ball",
      "Snore",
      "Facade",
      "Stone Edge",
      "Grass Knot",
      "Stomping Tantrum",
      "Solar Beam",
      "Stored Power",
      "Rest",
      "Earthquake",
      "Rock Slide",
      "Earth Power",
      "Round",
      "Shadow Ball",
      "Sandstorm",
      "Iron Defense",
      "Acrobatics",
      "Skill Swap",
      "Ally Switch",
      "Giga Impact",
      "Helping Hand",
      "Safeguard",
      "Protect",
      "Rain Dance",
      "Psyshock",
      "Hyper Beam",
      "Will-O-Wisp",
      "Baton Pass",
      "Gyro Ball",
      "Flare Blitz",
      "Psychic",
      "Reflect",
      "Sleep Talk",
      "Stealth Rock"
    ],
    "tutorMoves": {
      "Regular": [
        "Meteor Beam"
      ],
      "Transfer": [
        "Dream Eater",
        "Natural Gift",
        "Confide",
        "Incinerate",
        "Double-Edge",
        "Hidden Power",
        "Ancient Power",
        "Double Team",
        "Telekinesis",
        "Swagger",
        "Charge Beam",
        "Defense Curl",
        "Mimic",
        "Frustration",
        "Laser Focus",
        "Secret Power",
        "Psych Up",
        "Magic Coat",
        "Smack Down",
        "Recycle",
        "Psywave",
        "Toxic",
        "Embargo",
        "Pain Split",
        "Flash",
        "Rollout",
        "Signal Beam",
        "Gravity",
        "Heal Block",
        "Return"
      ]
    }
  }
}