{
  "pixelmonName": "Spewpa",
  "spDef": 30,
  "spAtt": 27,
  "speed": 29,
  "defence": 60,
  "attack": 22,
  "hp": 45,
  "catchRate": 120,
  "malePercent": 50,
  "nationalPokedexNumber": 665,
  "spawnLevel": 9,
  "spawnLevelRange": 15,
  "baseExp": 75,
  "baseFriendship": 0,
  "rarity": {
    "day": 50,
    "dawndusk": 0,
    "night": 0
  },
  "type1": "Bug",
  "height": 0.3,
  "width": 0.3,
  "length": 0.3,
  "giScale": 1.0,
  "canFly": false,
  "isRideable": false,
  "preEvolutions": [
    "Scatterbug"
  ],
  "experienceGroup": "MediumFast",
  "aggression": {
    "timid": 80,
    "passive": 0,
    "aggressive": 20
  },
  "spawnLocations": [
    "Land"
  ],
  "biomeIDs": [
    132
  ],
  "evGain": {
    "HP": 0,
    "Attack": 0,
    "Defence": 2,
    "SpecialAttack": 0,
    "SpecialDefence": 0,
    "Speed": 0
  },
  "canSurf": false,
  "maxGroupSize": 1,
  "minGroupSize": 1,
  "hoverHeight": 0.0,
  "doesHover": false,
  "id": 784,
  "baseFormID": 784,
  "weight": 8.4,
  "pokemon": "Spewpa",
  "abilities": [
    "ShedSkin",
    null,
    "FriendGuard"
  ],
  "eggGroups": [
    "Bug"
  ],
  "eggCycles": 16,
  "form": -1,
  "evolutionDefs": [
    {
      "targetId": 792,
      "evolveLevel": 12
    }
  ],
  "moves": {
    "levelMoves": {
      "1": [
        "Protect",
        "Harden"
      ]
    },
    "eggMoves": [
      "Poison Powder",
      "Stun Spore",
      "Rage Powder"
    ],
    "evolutionMoves": [
      "Protect"
    ],
    "tmTRMoves": [
      "Electroweb",
      "Iron Defense"
    ],
    "tutorMoves": {
      "Regular": [
        "Bug Bite",
        "Iron Defense",
        "Electroweb"
      ]
    }
  }
}