{
  "pixelmonName": "Spheal",
  "spDef": 50,
  "spAtt": 55,
  "speed": 25,
  "defence": 50,
  "attack": 40,
  "hp": 70,
  "catchRate": 255,
  "malePercent": 50,
  "nationalPokedexNumber": 363,
  "spawnLevel": 5,
  "spawnLevelRange": 25,
  "baseExp": 75,
  "baseFriendship": 70,
  "rarity": {
    "day": 120,
    "dawndusk": 0,
    "night": 0
  },
  "type1": "Ice",
  "type2": "Water",
  "height": 0.8,
  "width": 0.7,
  "length": 0.7,
  "giScale": 0.8,
  "canFly": false,
  "isRideable": false,
  "preEvolutions": [],
  "experienceGroup": "MediumSlow",
  "aggression": {
    "timid": 80,
    "passive": 0,
    "aggressive": 20
  },
  "spawnLocations": [
    "Water",
    "Land"
  ],
  "biomeIDs": [
    10,
    11,
    12,
    13,
    26,
    30,
    31,
    140,
    158
  ],
  "evGain": {
    "HP": 1,
    "Attack": 0,
    "Defence": 0,
    "SpecialAttack": 0,
    "SpecialDefence": 0,
    "Speed": 0
  },
  "canSurf": true,
  "maxGroupSize": 1,
  "minGroupSize": 1,
  "hoverHeight": 0.0,
  "doesHover": false,
  "id": 456,
  "baseFormID": 456,
  "weight": 39.5,
  "pokemon": "Spheal",
  "abilities": [
    "ThickFat",
    "IceBody",
    "Oblivious"
  ],
  "eggGroups": [
    "Water1",
    "Field"
  ],
  "eggCycles": 21,
  "form": -1,
  "evolutionDefs": [
    {
      "targetId": 457,
      "evolveLevel": 32
    }
  ],
  "moves": {
    "levelMoves": {
      "1": [
        "Defense Curl",
        "Rollout"
      ],
      "33": [
        "Encore"
      ],
      "4": [
        "Growl"
      ],
      "36": [
        "Body Slam"
      ],
      "8": [
        "Water Gun"
      ],
      "40": [
        "Surf"
      ],
      "12": [
        "Powder Snow"
      ],
      "44": [
        "Blizzard"
      ],
      "16": [
        "Rest"
      ],
      "48": [
        "Hail"
      ],
      "20": [
        "Snore"
      ],
      "52": [
        "Sheer Cold"
      ],
      "24": [
        "Brine"
      ],
      "28": [
        "Aurora Beam"
      ]
    },
    "eggMoves": [
      "Spit Up",
      "Curse",
      "Water Pulse",
      "Yawn",
      "Aqua Ring",
      "Swallow",
      "Belly Drum",
      "Stockpile",
      "Fissure"
    ],
    "evolutionMoves": [],
    "tmTRMoves": [
      "Snore",
      "Facade",
      "Waterfall",
      "Icy Wind",
      "Surf",
      "Rest",
      "Encore",
      "Earthquake",
      "Iron Tail",
      "Rock Slide",
      "Round",
      "Body Slam",
      "Bulldoze",
      "Substitute",
      "Attract",
      "Hail",
      "Ice Beam",
      "Protect",
      "Rain Dance",
      "Brine",
      "Rock Tomb",
      "Dive",
      "Endure",
      "Sleep Talk",
      "Whirlpool",
      "Blizzard"
    ],
    "tutorMoves": {
      "Regular": [
        "Steel Roller"
      ],
      "Transfer": [
        "Rock Smash",
        "Secret Power",
        "Natural Gift",
        "Confide",
        "Frost Breath",
        "Double-Edge",
        "Hidden Power",
        "Super Fang",
        "Water Sport",
        "Echoed Voice",
        "Double Team",
        "Mud-Slap",
        "Toxic",
        "Headbutt",
        "Ice Ball",
        "Swagger",
        "Aqua Tail",
        "Signal Beam",
        "Return",
        "Mimic",
        "Captivate",
        "Strength",
        "Frustration"
      ]
    }
  }
}