{
  "pixelmonName": "Spoink",
  "spDef": 80,
  "spAtt": 70,
  "speed": 60,
  "defence": 35,
  "attack": 25,
  "hp": 60,
  "catchRate": 255,
  "malePercent": 50,
  "nationalPokedexNumber": 325,
  "spawnLevel": 10,
  "spawnLevelRange": 15,
  "baseExp": 89,
  "baseFriendship": 70,
  "rarity": {
    "day": 140,
    "dawndusk": 0,
    "night": 0
  },
  "type1": "Psychic",
  "height": 0.7,
  "width": 0.7,
  "length": 0.7,
  "giScale": 1.0,
  "canFly": false,
  "isRideable": false,
  "preEvolutions": [],
  "experienceGroup": "Fast",
  "aggression": {
    "timid": 80,
    "passive": 0,
    "aggressive": 20
  },
  "spawnLocations": [
    "Land"
  ],
  "biomeIDs": [
    3,
    3,
    34,
    131,
    162
  ],
  "evGain": {
    "HP": 0,
    "Attack": 0,
    "Defence": 0,
    "SpecialAttack": 0,
    "SpecialDefence": 1,
    "Speed": 0
  },
  "canSurf": false,
  "maxGroupSize": 1,
  "minGroupSize": 1,
  "hoverHeight": 0.0,
  "doesHover": false,
  "id": 429,
  "baseFormID": 429,
  "weight": 30.6,
  "pokemon": "Spoink",
  "abilities": [
    "ThickFat",
    "OwnTempo",
    "Gluttony"
  ],
  "eggGroups": [
    "Field"
  ],
  "eggCycles": 21,
  "form": -1,
  "evolutionDefs": [
    {
      "targetId": 430,
      "evolveLevel": 32
    }
  ],
  "moves": {
    "levelMoves": {
      "1": [
        "Splash"
      ],
      "33": [
        "Snore"
      ],
      "38": [
        "Psyshock"
      ],
      "7": [
        "Psywave"
      ],
      "40": [
        "Payback"
      ],
      "10": [
        "Odor Sleuth"
      ],
      "44": [
        "Psychic"
      ],
      "14": [
        "Psybeam"
      ],
      "15": [
        "Psych Up"
      ],
      "18": [
        "Confuse Ray"
      ],
      "50": [
        "Bounce"
      ],
      "21": [
        "Magic Coat"
      ],
      "26": [
        "Zen Headbutt"
      ],
      "29": [
        "Rest",
        "Power Gem"
      ]
    },
    "eggMoves": [
      "Future Sight",
      "Lucky Chant",
      "Simple Beam",
      "Endure",
      "Trick",
      "Whirlwind",
      "Mirror Coat",
      "Zen Headbutt",
      "Amnesia",
      "Extrasensory",
      "Skill Swap"
    ],
    "evolutionMoves": [],
    "tmTRMoves": [
      "Thunder Wave",
      "Light Screen",
      "Reflect",
      "Rest",
      "Thief",
      "Snore",
      "Protect",
      "Icy Wind",
      "Attract",
      "Rain Dance",
      "Sunny Day",
      "Facade",
      "Bounce",
      "Payback",
      "Trick Room",
      "Round",
      "Body Slam",
      "Psychic",
      "Amnesia",
      "Substitute",
      "Psyshock",
      "Endure",
      "Sleep Talk",
      "Iron Tail",
      "Shadow Ball",
      "Future Sight",
      "Uproar",
      "Taunt",
      "Trick",
      "Skill Swap",
      "Calm Mind",
      "Power Gem",
      "Zen Headbutt",
      "Grass Knot",
      "Ally Switch"
    ],
    "tutorMoves": {
      "Regular": [
        "Telekinesis",
        "Snore",
        "Trick",
        "Icy Wind",
        "Magic Coat",
        "Snatch",
        "Role Play",
        "Iron Tail",
        "Recycle",
        "Bounce",
        "Zen Headbutt",
        "Heal Bell",
        "Covet",
        "Shock Wave",
        "Ally Switch",
        "Signal Beam",
        "Skill Swap"
      ],
      "Transfer": [
        "Secret Power",
        "Dream Eater",
        "Natural Gift",
        "Confide",
        "Double-Edge",
        "Hidden Power",
        "Double Team",
        "Swift",
        "Toxic",
        "Headbutt",
        "Swagger",
        "Charge Beam",
        "Flash",
        "Return",
        "Mimic",
        "Captivate",
        "Torment",
        "Frustration"
      ]
    }
  }
}