{
  "pixelmonName": "Squirtle",
  "spDef": 64,
  "spAtt": 50,
  "speed": 43,
  "defence": 65,
  "attack": 48,
  "hp": 44,
  "catchRate": 45,
  "malePercent": 87,
  "nationalPokedexNumber": 7,
  "spawnLevel": 10,
  "spawnLevelRange": 6,
  "baseExp": 63,
  "baseFriendship": 70,
  "rarity": {
    "day": 10,
    "dawndusk": 0,
    "night": 10
  },
  "type1": "Water",
  "height": 0.5,
  "width": 0.3,
  "length": 0.3,
  "giScale": 0.65,
  "canFly": false,
  "isRideable": false,
  "preEvolutions": [],
  "experienceGroup": "MediumSlow",
  "aggression": {
    "timid": 80,
    "passive": 0,
    "aggressive": 20
  },
  "spawnLocations": [
    "Land"
  ],
  "biomeIDs": [
    0,
    7,
    16,
    24
  ],
  "evGain": {
    "HP": 0,
    "Attack": 0,
    "Defence": 1,
    "SpecialAttack": 0,
    "SpecialDefence": 0,
    "Speed": 0
  },
  "canSurf": false,
  "maxGroupSize": 5,
  "minGroupSize": 1,
  "hoverHeight": 0.0,
  "doesHover": false,
  "id": 129,
  "baseFormID": 129,
  "weight": 9.0,
  "pokemon": "Squirtle",
  "abilities": [
    "Torrent",
    null,
    "RainDish"
  ],
  "eggGroups": [
    "Monster",
    "Water1"
  ],
  "eggCycles": 21,
  "form": -1,
  "evolutionDefs": [
    {
      "targetId": 130,
      "evolveLevel": 16
    }
  ],
  "moves": {
    "levelMoves": {
      "1": [
        "Tackle",
        "Tail Whip"
      ],
      "33": [
        "Hydro Pump"
      ],
      "3": [
        "Water Gun"
      ],
      "36": [
        "Skull Bash"
      ],
      "6": [
        "Withdraw"
      ],
      "9": [
        "Rapid Spin"
      ],
      "12": [
        "Bite"
      ],
      "15": [
        "Water Pulse"
      ],
      "18": [
        "Protect"
      ],
      "21": [
        "Rain Dance"
      ],
      "24": [
        "Aqua Tail"
      ],
      "27": [
        "Shell Smash"
      ],
      "30": [
        "Iron Defense"
      ]
    },
    "eggMoves": [
      "Flail",
      "Water Spout",
      "Haze",
      "Life Dew",
      "Yawn",
      "Fake Out",
      "Mirror Coat",
      "Aqua Ring",
      "Mist",
      "Aqua Jet"
    ],
    "evolutionMoves": [],
    "tmTRMoves": [
      "Weather Ball",
      "Snore",
      "Facade",
      "Waterfall",
      "Icy Wind",
      "Mega Kick",
      "Surf",
      "Rest",
      "Iron Tail",
      "Work Up",
      "Hydro Pump",
      "Aura Sphere",
      "Round",
      "Body Slam",
      "Iron Defense",
      "Substitute",
      "Brick Break",
      "Attract",
      "Hail",
      "Ice Beam",
      "Helping Hand",
      "False Swipe",
      "Dragon Pulse",
      "Protect",
      "Dig",
      "Rain Dance",
      "Mega Punch",
      "Brine",
      "Scald",
      "Gyro Ball",
      "Fling",
      "Rock Tomb",
      "Dive",
      "Endure",
      "Sleep Talk",
      "Whirlpool",
      "Muddy Water",
      "Zen Headbutt",
      "Ice Punch",
      "Blizzard"
    ],
    "tutorMoves": {
      "Regular": [
        "Flip Turn"
      ],
      "Transfer": [
        "Natural Gift",
        "Confide",
        "Double-Edge",
        "Mud Sport",
        "Water Pledge",
        "Hidden Power",
        "Outrage",
        "Power-Up Punch",
        "Bide",
        "Double Team",
        "Seismic Toss",
        "Rage",
        "Headbutt",
        "Refresh",
        "Dynamic Punch",
        "Swagger",
        "Defense Curl",
        "Submission",
        "Mimic",
        "Captivate",
        "Reflect",
        "Frustration",
        "Rock Smash",
        "Secret Power",
        "Bubble Beam",
        "Bubble",
        "Counter",
        "Curse",
        "Take Down",
        "Mud-Slap",
        "Focus Punch",
        "Toxic",
        "Confusion",
        "Rock Slide",
        "Rollout",
        "Return",
        "Strength",
        "Foresight"
      ],
      "Event": [
        "Celebrate"
      ]
    }
  }
}