{
  "pixelmonName": "Starmie",
  "spDef": 85,
  "spAtt": 100,
  "speed": 115,
  "defence": 85,
  "attack": 75,
  "hp": 60,
  "catchRate": 60,
  "malePercent": -1,
  "nationalPokedexNumber": 121,
  "spawnLevel": 30,
  "spawnLevelRange": 20,
  "baseExp": 207,
  "baseFriendship": 70,
  "rarity": {
    "day": 0,
    "dawndusk": 0,
    "night": 0
  },
  "type1": "Water",
  "type2": "Psychic",
  "height": 1.1,
  "width": 1.0,
  "length": 1.0,
  "giScale": 1.0,
  "canFly": false,
  "isRideable": false,
  "preEvolutions": [
    "Staryu"
  ],
  "experienceGroup": "Slow",
  "aggression": {
    "timid": 80,
    "passive": 0,
    "aggressive": 20
  },
  "swimmingParameters": {
    "depthRangeStart": 5,
    "depthRangeEnd": 100,
    "swimSpeed": 1.0,
    "decayRate": 0.9,
    "refreshRate": 200
  },
  "spawnLocations": [
    "Water"
  ],
  "biomeIDs": [
    24
  ],
  "evGain": {
    "HP": 0,
    "Attack": 0,
    "Defence": 0,
    "SpecialAttack": 0,
    "SpecialDefence": 0,
    "Speed": 2
  },
  "canSurf": true,
  "maxGroupSize": 2,
  "minGroupSize": 1,
  "hoverHeight": 0.0,
  "doesHover": false,
  "id": 168,
  "baseFormID": 168,
  "weight": 80.0,
  "pokemon": "Starmie",
  "abilities": [
    "Illuminate",
    "NaturalCure",
    "Analytic"
  ],
  "eggGroups": [
    "Water3"
  ],
  "eggCycles": 21,
  "form": -1,
  "evolutionDefs": [],
  "moves": {
    "levelMoves": {
      "1": [
        "Water Gun",
        "Psybeam",
        "Cosmic Power",
        "Minimize",
        "Brine",
        "Light Screen",
        "Confuse Ray",
        "Power Gem",
        "Surf",
        "Psychic",
        "Tackle",
        "Rapid Spin",
        "Hydro Pump",
        "Swift",
        "Recover",
        "Harden"
      ]
    },
    "eggMoves": [
      "Meteor Beam",
      "Expanding Force",
      "Flip Turn"
    ],
    "evolutionMoves": [],
    "tmTRMoves": [
      "Snore",
      "Facade",
      "Waterfall",
      "Dazzling Gleam",
      "Light Screen",
      "Grass Knot",
      "Icy Wind",
      "Power Gem",
      "Surf",
      "Rest",
      "Wonder Room",
      "Hydro Pump",
      "Agility",
      "Round",
      "Substitute",
      "Hail",
      "Ice Beam",
      "Skill Swap",
      "Ally Switch",
      "Giga Impact",
      "Thunder Wave",
      "Protect",
      "Rain Dance",
      "Thunder",
      "Tri Attack",
      "Psyshock",
      "Trick",
      "Cosmic Power",
      "Hyper Beam",
      "Brine",
      "Scald",
      "Gyro Ball",
      "Flash Cannon",
      "Avalanche",
      "Psychic",
      "Dive",
      "Reflect",
      "Endure",
      "Sleep Talk",
      "Whirlpool",
      "Swift",
      "Psycho Cut",
      "Thunderbolt",
      "Trick Room",
      "Blizzard"
    ],
    "tutorMoves": {
      "Regular": [
        "Meteor Beam",
        "Expanding Force",
        "Flip Turn"
      ],
      "Transfer": [
        "Dream Eater",
        "Natural Gift",
        "Confide",
        "Attract",
        "Double-Edge",
        "Hidden Power",
        "Supersonic",
        "Water Pulse",
        "Bide",
        "Double Team",
        "Telekinesis",
        "Rage",
        "Headbutt",
        "Skull Bash",
        "Swagger",
        "Nightmare",
        "Mimic",
        "Twister",
        "Frustration",
        "Secret Power",
        "Psych Up",
        "Bubble Beam",
        "Teleport",
        "Curse",
        "Camouflage",
        "Take Down",
        "Spotlight",
        "Magic Coat",
        "Recycle",
        "Psywave",
        "Aurora Beam",
        "Toxic",
        "Barrier",
        "Pain Split",
        "Flash",
        "Rollout",
        "Signal Beam",
        "Gravity",
        "Return",
        "Reflect Type",
        "Zap Cannon"
      ]
    }
  }
}