{
  "pixelmonName": "Stoutland",
  "spDef": 90,
  "spAtt": 45,
  "speed": 80,
  "defence": 90,
  "attack": 110,
  "hp": 85,
  "catchRate": 45,
  "malePercent": 50,
  "nationalPokedexNumber": 508,
  "spawnLevel": 35,
  "spawnLevelRange": 15,
  "baseExp": 221,
  "baseFriendship": 70,
  "rarity": {
    "day": 100,
    "dawndusk": 0,
    "night": 0
  },
  "type1": "Normal",
  "height": 1.2,
  "width": 1.0,
  "length": 1.0,
  "giScale": 1.0,
  "canFly": false,
  "isRideable": true,
  "preEvolutions": [
    "Herdier",
    "Lillipup"
  ],
  "experienceGroup": "MediumSlow",
  "aggression": {
    "timid": 80,
    "passive": 0,
    "aggressive": 20
  },
  "spawnLocations": [
    "Land"
  ],
  "biomeIDs": [
    1
  ],
  "evGain": {
    "HP": 0,
    "Attack": 3,
    "Defence": 0,
    "SpecialAttack": 0,
    "SpecialDefence": 0,
    "Speed": 0
  },
  "canSurf": false,
  "ridingOffsets": {
    "standing": {
      "x": 0.0,
      "y": -1.0,
      "z": 0.0
    }
  },
  "maxGroupSize": 1,
  "minGroupSize": 1,
  "hoverHeight": 0.0,
  "doesHover": false,
  "id": 585,
  "baseFormID": 585,
  "weight": 61.0,
  "pokemon": "Stoutland",
  "abilities": [
    "Intimidate",
    "SandRush",
    "Scrappy"
  ],
  "eggGroups": [
    "Field"
  ],
  "eggCycles": 16,
  "form": -1,
  "evolutionDefs": [],
  "moves": {
    "levelMoves": {
      "1": [
        "Leer",
        "Tackle",
        "Thunder Fang",
        "Ice Fang",
        "Work Up",
        "Bite",
        "Fire Fang"
      ],
      "19": [
        "Baby-Doll Eyes"
      ],
      "38": [
        "Take Down"
      ],
      "54": [
        "Reversal"
      ],
      "70": [
        "Last Resort"
      ],
      "24": [
        "Play Rough"
      ],
      "12": [
        "Retaliate"
      ],
      "30": [
        "Crunch"
      ],
      "46": [
        "Helping Hand"
      ],
      "62": [
        "Roar"
      ],
      "78": [
        "Giga Impact"
      ]
    },
    "eggMoves": [
      "Mud-Slap",
      "After You",
      "Lick",
      "Yawn",
      "Covet",
      "Howl"
    ],
    "evolutionMoves": [],
    "tmTRMoves": [
      "Snore",
      "Facade",
      "Uproar",
      "Play Rough",
      "Snarl",
      "Fire Fang",
      "Retaliate",
      "Stomping Tantrum",
      "Iron Head",
      "Surf",
      "Rest",
      "Thunder Fang",
      "Ice Fang",
      "Work Up",
      "Charm",
      "Round",
      "Shadow Ball",
      "Substitute",
      "Superpower",
      "Attract",
      "Giga Impact",
      "Thunder Wave",
      "Crunch",
      "Hyper Voice",
      "Helping Hand",
      "Payback",
      "Protect",
      "Dig",
      "Rain Dance",
      "Thunder",
      "Wild Charge",
      "Hyper Beam",
      "Sunny Day",
      "Psychic Fangs",
      "Rock Tomb",
      "Endure",
      "Sleep Talk",
      "Reversal",
      "Thunderbolt"
    ],
    "tutorMoves": {
      "Transfer": [
        "Rock Smash",
        "Secret Power",
        "Confide",
        "Hidden Power",
        "Double Team",
        "Shock Wave",
        "Toxic",
        "Sand Attack",
        "Aerial Ace",
        "Swagger",
        "Return",
        "Odor Sleuth",
        "Pursuit",
        "Strength",
        "Frustration"
      ]
    }
  }
}