{
  "pixelmonName": "Surskit",
  "spDef": 52,
  "spAtt": 50,
  "speed": 65,
  "defence": 32,
  "attack": 30,
  "hp": 40,
  "catchRate": 200,
  "malePercent": 50,
  "nationalPokedexNumber": 283,
  "spawnLevel": 5,
  "spawnLevelRange": 15,
  "baseExp": 63,
  "baseFriendship": 70,
  "rarity": {
    "day": 80,
    "dawndusk": 80,
    "night": 0
  },
  "type1": "Bug",
  "type2": "Water",
  "height": 0.5,
  "width": 0.7,
  "length": 0.7,
  "giScale": 1.0,
  "canFly": false,
  "isRideable": false,
  "preEvolutions": [],
  "experienceGroup": "MediumFast",
  "aggression": {
    "timid": 80,
    "passive": 0,
    "aggressive": 20
  },
  "spawnLocations": [
    "Water"
  ],
  "biomeIDs": [
    7,
    6,
    134
  ],
  "evGain": {
    "HP": 0,
    "Attack": 0,
    "Defence": 0,
    "SpecialAttack": 0,
    "SpecialDefence": 0,
    "Speed": 1
  },
  "canSurf": true,
  "maxGroupSize": 1,
  "minGroupSize": 1,
  "hoverHeight": 0.0,
  "doesHover": false,
  "id": 389,
  "baseFormID": 389,
  "weight": 1.7,
  "pokemon": "Surskit",
  "abilities": [
    "SwiftSwim",
    null,
    "RainDish"
  ],
  "eggGroups": [
    "Water1",
    "Bug"
  ],
  "eggCycles": 16,
  "form": -1,
  "evolutionDefs": [
    {
      "targetId": 390,
      "evolveLevel": 22
    }
  ],
  "moves": {
    "levelMoves": {
      "1": [
        "Bubble"
      ],
      "17": [
        "Bubble Beam"
      ],
      "35": [
        "Baton Pass"
      ],
      "6": [
        "Quick Attack"
      ],
      "22": [
        "Agility"
      ],
      "38": [
        "Sticky Web"
      ],
      "9": [
        "Sweet Scent"
      ],
      "25": [
        "Haze",
        "Mist"
      ],
      "14": [
        "Water Sport"
      ],
      "30": [
        "Aqua Jet"
      ]
    },
    "eggMoves": [
      "Power Split",
      "Psybeam",
      "Endure",
      "Lunge",
      "Hydro Pump",
      "Bug Bite",
      "Mind Reader",
      "Mud Shot",
      "Fell Stinger",
      "Signal Beam",
      "Aqua Jet",
      "Foresight"
    ],
    "evolutionMoves": [],
    "tmTRMoves": [
      "Solar Beam",
      "Rest",
      "Thief",
      "Snore",
      "Protect",
      "Icy Wind",
      "Giga Drain",
      "Attract",
      "Rain Dance",
      "Sunny Day",
      "Facade",
      "Mud Shot",
      "Round",
      "Hydro Pump",
      "Ice Beam",
      "Blizzard",
      "Agility",
      "Substitute",
      "Endure",
      "Sleep Talk",
      "Baton Pass",
      "Shadow Ball",
      "Scald",
      "Liquidation"
    ],
    "tutorMoves": {
      "Regular": [
        "Giga Drain",
        "Snore",
        "Water Pulse",
        "Bug Bite",
        "Liquidation",
        "Icy Wind",
        "Signal Beam"
      ],
      "Transfer": [
        "Secret Power",
        "Psych Up",
        "Natural Gift",
        "Confide",
        "Double-Edge",
        "Hidden Power",
        "Double Team",
        "Swift",
        "Infestation",
        "Mud-Slap",
        "Toxic",
        "Struggle Bug",
        "Swagger",
        "Flash",
        "Return",
        "Mimic",
        "Captivate",
        "String Shot",
        "Frustration"
      ]
    }
  }
}