{
  "pixelmonName": "Swellow",
  "spDef": 50,
  "spAtt": 75,
  "speed": 125,
  "defence": 60,
  "attack": 85,
  "hp": 60,
  "catchRate": 45,
  "malePercent": 50,
  "nationalPokedexNumber": 277,
  "spawnLevel": 25,
  "spawnLevelRange": 10,
  "baseExp": 162,
  "baseFriendship": 70,
  "rarity": {
    "day": 60,
    "dawndusk": 0,
    "night": 0
  },
  "type1": "Normal",
  "type2": "Flying",
  "height": 0.7,
  "width": 0.7,
  "length": 0.7,
  "giScale": 1.0,
  "canFly": true,
  "isRideable": false,
  "preEvolutions": [
    "Taillow"
  ],
  "experienceGroup": "MediumSlow",
  "aggression": {
    "timid": 80,
    "passive": 0,
    "aggressive": 20
  },
  "flyingParameters": {
    "flyHeightMin": 5,
    "flyHeightMax": 25,
    "flySpeedModifier": 1.4,
    "flyRefreshRateY": 100,
    "flyRefreshRateXZ": 100,
    "flyRefreshRateSpeed": 100,
    "flightTimeMin": 0,
    "flightTimeMax": 20,
    "flapRate": 5,
    "landingMaterial": "GrassAndLeaves"
  },
  "spawnLocations": [
    "AirPersistent"
  ],
  "biomeIDs": [
    1
  ],
  "evGain": {
    "HP": 0,
    "Attack": 0,
    "Defence": 0,
    "SpecialAttack": 0,
    "SpecialDefence": 0,
    "Speed": 2
  },
  "canSurf": false,
  "maxGroupSize": 2,
  "minGroupSize": 1,
  "hoverHeight": 0.0,
  "doesHover": false,
  "id": 383,
  "baseFormID": 383,
  "weight": 19.8,
  "pokemon": "Swellow",
  "abilities": [
    "Guts",
    null,
    "Scrappy"
  ],
  "eggGroups": [
    "Flying"
  ],
  "eggCycles": 16,
  "form": -1,
  "evolutionDefs": [],
  "moves": {
    "levelMoves": {
      "1": [
        "Quick Attack",
        "Focus Energy",
        "Air Slash",
        "Growl",
        "Peck",
        "Pluck",
        "Brave Bird"
      ],
      "17": [
        "Double Team"
      ],
      "33": [
        "Agility"
      ],
      "51": [
        "Brave Bird"
      ],
      "5": [
        "Focus Energy"
      ],
      "21": [
        "Aerial Ace"
      ],
      "39": [
        "Air Slash"
      ],
      "9": [
        "Quick Attack"
      ],
      "57": [
        "Reversal"
      ],
      "27": [
        "Quick Guard"
      ],
      "13": [
        "Wing Attack"
      ],
      "45": [
        "Endeavor"
      ]
    },
    "eggMoves": [
      "Boomburst",
      "Roost",
      "Sky Attack",
      "Whirlwind",
      "Rage",
      "Brave Bird",
      "Pursuit",
      "Defog",
      "Refresh",
      "Supersonic",
      "Steel Wing",
      "Hurricane",
      "Mirror Move"
    ],
    "evolutionMoves": [],
    "tmTRMoves": [
      "Fly",
      "Hyper Beam",
      "Giga Impact",
      "Rest",
      "Thief",
      "Snore",
      "Protect",
      "Steel Wing",
      "Attract",
      "Rain Dance",
      "Sunny Day",
      "Facade",
      "U-turn",
      "Assurance",
      "Round",
      "Air Slash",
      "Agility",
      "Focus Energy",
      "Substitute",
      "Reversal",
      "Endure",
      "Sleep Talk",
      "Baton Pass",
      "Heat Wave",
      "Brave Bird",
      "Work Up",
      "Hurricane"
    ],
    "tutorMoves": {
      "Regular": [
        "Defog",
        "Endeavor",
        "Snore",
        "Sky Attack",
        "Heat Wave",
        "Tailwind",
        "Laser Focus"
      ],
      "Transfer": [
        "Ominous Wind",
        "Secret Power",
        "Natural Gift",
        "Confide",
        "Counter",
        "Double-Edge",
        "Hidden Power",
        "Echoed Voice",
        "Air Cutter",
        "Swift",
        "Mud-Slap",
        "Toxic",
        "Swagger",
        "Return",
        "Mimic",
        "Captivate",
        "Twister",
        "Frustration"
      ]
    }
  }
}