{
  "pixelmonName": "Teddiursa",
  "spDef": 50,
  "spAtt": 50,
  "speed": 40,
  "defence": 50,
  "attack": 80,
  "hp": 60,
  "catchRate": 120,
  "malePercent": 50,
  "nationalPokedexNumber": 216,
  "spawnLevel": 5,
  "spawnLevelRange": 24,
  "baseExp": 124,
  "baseFriendship": 70,
  "rarity": {
    "day": 180,
    "dawndusk": 18,
    "night": 18
  },
  "type1": "Normal",
  "height": 0.6,
  "width": 0.6,
  "length": 0.6,
  "giScale": 1.0,
  "canFly": false,
  "isRideable": false,
  "preEvolutions": [],
  "experienceGroup": "MediumFast",
  "aggression": {
    "timid": 80,
    "passive": 0,
    "aggressive": 20
  },
  "spawnLocations": [
    "Land"
  ],
  "biomeIDs": [
    18,
    19,
    28,
    33,
    133,
    155,
    156,
    157,
    161
  ],
  "evGain": {
    "HP": 0,
    "Attack": 1,
    "Defence": 0,
    "SpecialAttack": 0,
    "SpecialDefence": 0,
    "Speed": 0
  },
  "canSurf": false,
  "maxGroupSize": 4,
  "minGroupSize": 1,
  "hoverHeight": 0.0,
  "doesHover": false,
  "id": 331,
  "baseFormID": 331,
  "weight": 8.8,
  "pokemon": "Teddiursa",
  "abilities": [
    "Pickup",
    "QuickFeet",
    "HoneyGather"
  ],
  "eggGroups": [
    "Field"
  ],
  "eggCycles": 21,
  "form": -1,
  "evolutionDefs": [
    {
      "targetId": 332,
      "evolveLevel": 30
    }
  ],
  "moves": {
    "levelMoves": {
      "1": [
        "Fling",
        "Lick",
        "Scratch",
        "Baby-Doll Eyes",
        "Fake Tears",
        "Covet"
      ],
      "50": [
        "Thrash"
      ],
      "36": [
        "Charm"
      ],
      "22": [
        "Sweet Scent"
      ],
      "8": [
        "Fury Swipes"
      ],
      "25": [
        "Play Nice"
      ],
      "57": [
        "Fling"
      ],
      "43": [
        "Rest",
        "Snore"
      ],
      "29": [
        "Slash"
      ],
      "15": [
        "Faint Attack"
      ]
    },
    "eggMoves": [
      "Play Rough",
      "Take Down",
      "Fake Tears",
      "Cross Chop",
      "Seismic Toss",
      "Close Combat",
      "Chip Away",
      "Metal Claw",
      "Counter",
      "Sleep Talk",
      "Yawn",
      "Night Slash",
      "Belly Drum",
      "Crunch",
      "Double-Edge"
    ],
    "evolutionMoves": [],
    "tmTRMoves": [
      "Mega Punch",
      "Mega Kick",
      "Fire Punch",
      "Ice Punch",
      "Thunder Punch",
      "Dig",
      "Rest",
      "Rock Slide",
      "Thief",
      "Snore",
      "Protect",
      "Charm",
      "Attract",
      "Rain Dance",
      "Sunny Day",
      "Facade",
      "Swift",
      "Brick Break",
      "Fake Tears",
      "Rock Tomb",
      "Payback",
      "Fling",
      "Shadow Claw",
      "Round",
      "Retaliate",
      "Bulldoze",
      "Swords Dance",
      "Body Slam",
      "Earthquake",
      "Focus Energy",
      "Metronome",
      "Substitute",
      "Endure",
      "Sleep Talk",
      "Crunch",
      "Taunt",
      "Superpower",
      "Hyper Voice",
      "Bulk Up",
      "Close Combat",
      "Seed Bomb",
      "Gunk Shot",
      "Work Up",
      "Play Rough"
    ],
    "tutorMoves": {
      "Regular": [
        "Focus Punch",
        "Last Resort",
        "Seed Bomb",
        "Snore",
        "Superpower",
        "Covet",
        "Gunk Shot",
        "Thunder Punch",
        "Fire Punch",
        "Hyper Voice",
        "Ice Punch"
      ],
      "Transfer": [
        "Rock Smash",
        "Secret Power",
        "Natural Gift",
        "Confide",
        "Curse",
        "Leer",
        "Cut",
        "Hidden Power",
        "Power-Up Punch",
        "Double Team",
        "Hone Claws",
        "Mud-Slap",
        "Toxic",
        "Aerial Ace",
        "Headbutt",
        "Dynamic Punch",
        "Swagger",
        "Defense Curl",
        "Rollout",
        "Return",
        "Mimic",
        "Captivate",
        "Roar",
        "Fury Cutter",
        "Torment",
        "Strength",
        "Zap Cannon",
        "Frustration"
      ]
    }
  }
}