{
  "pixelmonName": "Tepig",
  "spDef": 45,
  "spAtt": 45,
  "speed": 45,
  "defence": 45,
  "attack": 63,
  "hp": 65,
  "catchRate": 45,
  "malePercent": 87,
  "nationalPokedexNumber": 498,
  "spawnLevel": 5,
  "spawnLevelRange": 11,
  "baseExp": 28,
  "baseFriendship": 70,
  "rarity": {
    "day": 0,
    "dawndusk": 10,
    "night": 0
  },
  "type1": "Fire",
  "height": 0.5,
  "width": 0.4,
  "length": 0.5,
  "giScale": 1.0,
  "canFly": false,
  "isRideable": false,
  "preEvolutions": [],
  "experienceGroup": "MediumSlow",
  "aggression": {
    "timid": 80,
    "passive": 0,
    "aggressive": 20
  },
  "spawnLocations": [
    "Land"
  ],
  "biomeIDs": [
    2,
    17,
    130
  ],
  "evGain": {
    "HP": 1,
    "Attack": 0,
    "Defence": 0,
    "SpecialAttack": 0,
    "SpecialDefence": 0,
    "Speed": 0
  },
  "canSurf": false,
  "maxGroupSize": 1,
  "minGroupSize": 1,
  "hoverHeight": 0.0,
  "doesHover": false,
  "id": 575,
  "baseFormID": 575,
  "weight": 9.9,
  "pokemon": "Tepig",
  "abilities": [
    "Blaze",
    null,
    "ThickFat"
  ],
  "eggGroups": [
    "Field"
  ],
  "eggCycles": 21,
  "form": -1,
  "evolutionDefs": [
    {
      "targetId": 576,
      "evolveLevel": 17
    }
  ],
  "moves": {
    "levelMoves": {
      "1": [
        "Tackle"
      ],
      "33": [
        "Flamethrower"
      ],
      "3": [
        "Tail Whip"
      ],
      "37": [
        "Head Smash"
      ],
      "7": [
        "Ember"
      ],
      "39": [
        "Roar"
      ],
      "9": [
        "Odor Sleuth"
      ],
      "43": [
        "Flare Blitz"
      ],
      "13": [
        "Defense Curl"
      ],
      "15": [
        "Flame Charge"
      ],
      "19": [
        "Smog"
      ],
      "21": [
        "Rollout"
      ],
      "25": [
        "Take Down"
      ],
      "27": [
        "Heat Crash"
      ],
      "31": [
        "Assurance"
      ]
    },
    "eggMoves": [
      "Sucker Punch",
      "Endeavor",
      "Heavy Slam",
      "Curse",
      "Sleep Talk",
      "Yawn",
      "Burn Up",
      "Body Slam",
      "Magnitude",
      "Superpower",
      "Covet",
      "Thrash"
    ],
    "evolutionMoves": [],
    "tmTRMoves": [
      "Solar Beam",
      "Rest",
      "Snore",
      "Protect",
      "Attract",
      "Sunny Day",
      "Will-O-Wisp",
      "Facade",
      "Helping Hand",
      "Rock Tomb",
      "Assurance",
      "Round",
      "Stomping Tantrum",
      "Body Slam",
      "Flamethrower",
      "Fire Blast",
      "Substitute",
      "Endure",
      "Sleep Talk",
      "Iron Tail",
      "Heat Wave",
      "Taunt",
      "Superpower",
      "Overheat",
      "Gyro Ball",
      "Flare Blitz",
      "Zen Headbutt",
      "Grass Knot",
      "Heavy Slam",
      "Work Up",
      "Wild Charge",
      "Heat Crash"
    ],
    "tutorMoves": {
      "Regular": [
        "Helping Hand",
        "Endeavor",
        "Snore",
        "Iron Tail",
        "Fire Pledge",
        "Heat Wave",
        "Zen Headbutt",
        "Stomping Tantrum",
        "Superpower",
        "Covet"
      ],
      "Transfer": [
        "Rock Smash",
        "Secret Power",
        "Confide",
        "Incinerate",
        "Hidden Power",
        "Echoed Voice",
        "Double Team",
        "Toxic",
        "Swagger",
        "Return",
        "Will-O-Wisp",
        "Strength",
        "Frustration"
      ]
    }
  }
}