{
  "pixelmonName": "Thundurus",
  "spDef": 80,
  "spAtt": 125,
  "speed": 111,
  "defence": 70,
  "attack": 115,
  "hp": 79,
  "catchRate": 3,
  "malePercent": 100,
  "nationalPokedexNumber": 642,
  "spawnLevel": 70,
  "spawnLevelRange": 0,
  "baseExp": 261,
  "baseFriendship": 90,
  "rarity": {
    "day": 0,
    "dawndusk": 0,
    "night": -1
  },
  "type1": "Electric",
  "type2": "Flying",
  "height": 1.5,
  "width": 1.0,
  "length": 1.0,
  "giScale": 1.0,
  "canFly": false,
  "isRideable": false,
  "preEvolutions": [],
  "experienceGroup": "Slow",
  "aggression": {
    "timid": 80,
    "passive": 0,
    "aggressive": 20
  },
  "spawnLocations": [
    "Land"
  ],
  "biomeIDs": [
    163,
    131
  ],
  "evGain": {
    "HP": 0,
    "Attack": 3,
    "Defence": 0,
    "SpecialAttack": 0,
    "SpecialDefence": 0,
    "Speed": 0
  },
  "canSurf": false,
  "maxGroupSize": 1,
  "minGroupSize": 1,
  "hoverHeight": 0.0,
  "doesHover": false,
  "id": 712,
  "baseFormID": 712,
  "weight": 61.0,
  "pokemon": "Thundurus",
  "abilities": [
    "Prankster",
    null,
    "Defiant"
  ],
  "eggGroups": [
    "Undiscovered"
  ],
  "eggCycles": 121,
  "form": 0,
  "evolutionDefs": [],
  "moves": {
    "levelMoves": {
      "1": [
        "Thunder Shock",
        "Astonish"
      ],
      "65": [
        "Thunder"
      ],
      "35": [
        "Volt Switch"
      ],
      "5": [
        "Leer"
      ],
      "70": [
        "Thrash"
      ],
      "40": [
        "Crunch"
      ],
      "10": [
        "Swagger"
      ],
      "45": [
        "Discharge"
      ],
      "15": [
        "Bite"
      ],
      "50": [
        "Uproar"
      ],
      "20": [
        "Shock Wave"
      ],
      "55": [
        "Hammer Arm"
      ],
      "25": [
        "Agility"
      ],
      "60": [
        "Rain Dance"
      ],
      "30": [
        "Charge"
      ]
    },
    "eggMoves": [
      "Lash Out",
      "Rising Voltage"
    ],
    "evolutionMoves": [],
    "tmTRMoves": [
      "Assurance",
      "Uproar",
      "Taunt",
      "Volt Switch",
      "Eerie Impulse",
      "Revenge",
      "Iron Tail",
      "Sludge Wave",
      "Agility",
      "Nasty Plot",
      "Body Slam",
      "Substitute",
      "Attract",
      "Electroweb",
      "Thunder Wave",
      "Crunch",
      "Payback",
      "Flash Cannon",
      "Fling",
      "Brutal Swing",
      "Endure",
      "Thunder Punch",
      "Weather Ball",
      "Snore",
      "Facade",
      "Dark Pulse",
      "Sludge Bomb",
      "Grass Knot",
      "U-turn",
      "Bulk Up",
      "Fly",
      "Rest",
      "Scary Face",
      "Round",
      "Superpower",
      "Brick Break",
      "Giga Impact",
      "Protect",
      "Rain Dance",
      "Thunder",
      "Wild Charge",
      "Thief",
      "Hyper Beam",
      "Focus Blast",
      "Psychic",
      "Foul Play",
      "Sleep Talk",
      "Smart Strike",
      "Electro Ball",
      "Thunderbolt"
    ],
    "tutorMoves": {
      "Regular": [
        "Lash Out",
        "Rising Voltage"
      ],
      "Transfer": [
        "Rock Smash",
        "Secret Power",
        "Confide",
        "Defog",
        "Incinerate",
        "Hidden Power",
        "Smack Down",
        "Double Team",
        "Toxic",
        "Embargo",
        "Sky Drop",
        "Charge Beam",
        "Heal Block",
        "Return",
        "Knock Off",
        "Role Play",
        "Torment",
        "Strength",
        "Frustration"
      ]
    }
  }
}