{
  "pixelmonName": "Torkoal",
  "spDef": 70,
  "spAtt": 85,
  "speed": 20,
  "defence": 140,
  "attack": 85,
  "hp": 70,
  "catchRate": 90,
  "malePercent": 50,
  "nationalPokedexNumber": 324,
  "spawnLevel": 35,
  "spawnLevelRange": 10,
  "baseExp": 161,
  "baseFriendship": 70,
  "rarity": {
    "day": 80,
    "dawndusk": 0,
    "night": 0
  },
  "type1": "Fire",
  "height": 0.5,
  "width": 0.7,
  "length": 0.7,
  "giScale": 1.0,
  "canFly": false,
  "isRideable": false,
  "preEvolutions": [],
  "experienceGroup": "MediumFast",
  "aggression": {
    "timid": 80,
    "passive": 0,
    "aggressive": 20
  },
  "spawnLocations": [
    "Land"
  ],
  "biomeIDs": [
    131,
    162
  ],
  "evGain": {
    "HP": 0,
    "Attack": 0,
    "Defence": 2,
    "SpecialAttack": 0,
    "SpecialDefence": 0,
    "Speed": 0
  },
  "canSurf": false,
  "maxGroupSize": 1,
  "minGroupSize": 1,
  "hoverHeight": 0.0,
  "doesHover": false,
  "id": 428,
  "baseFormID": 428,
  "weight": 80.4,
  "pokemon": "Torkoal",
  "abilities": [
    "WhiteSmoke",
    "Drought",
    "ShellArmour"
  ],
  "eggGroups": [
    "Field"
  ],
  "eggCycles": 21,
  "form": -1,
  "evolutionDefs": [],
  "moves": {
    "levelMoves": {
      "32": [
        "Body Slam"
      ],
      "64": [
        "Eruption"
      ],
      "1": [
        "Smog",
        "Ember"
      ],
      "4": [
        "Withdraw"
      ],
      "36": [
        "Iron Defense"
      ],
      "8": [
        "Rapid Spin"
      ],
      "40": [
        "Flamethrower"
      ],
      "12": [
        "Smokescreen"
      ],
      "44": [
        "Curse"
      ],
      "16": [
        "Clear Smog"
      ],
      "48": [
        "Heat Wave"
      ],
      "20": [
        "Flame Wheel"
      ],
      "52": [
        "Amnesia"
      ],
      "24": [
        "Protect"
      ],
      "56": [
        "Inferno"
      ],
      "28": [
        "Lava Plume"
      ],
      "60": [
        "Shell Smash"
      ]
    },
    "eggMoves": [
      "Flail",
      "Skull Bash",
      "Yawn",
      "Ancient Power",
      "Fissure"
    ],
    "evolutionMoves": [],
    "tmTRMoves": [
      "Weather Ball",
      "Snore",
      "Facade",
      "Flamethrower",
      "Sludge Bomb",
      "Stone Edge",
      "Overheat",
      "Stomping Tantrum",
      "Solar Beam",
      "Rest",
      "Earthquake",
      "Iron Tail",
      "Rock Slide",
      "Earth Power",
      "Round",
      "Body Slam",
      "Heat Wave",
      "Bulldoze",
      "Amnesia",
      "Iron Defense",
      "Substitute",
      "Superpower",
      "Attract",
      "Giga Impact",
      "Body Press",
      "Protect",
      "Self-Destruct",
      "Hyper Beam",
      "Sunny Day",
      "Will-O-Wisp",
      "Gyro Ball",
      "Rock Tomb",
      "Endure",
      "Sleep Talk",
      "Stealth Rock",
      "Fire Spin",
      "Heat Crash",
      "Fire Blast"
    ],
    "tutorMoves": {
      "Regular": [
        "Scorching Sands",
        "Burning Jealousy"
      ],
      "Transfer": [
        "Rock Smash",
        "After You",
        "Secret Power",
        "Natural Gift",
        "Confide",
        "Incinerate",
        "Double-Edge",
        "Explosion",
        "Hidden Power",
        "Flame Burst",
        "Double Team",
        "Mud-Slap",
        "Toxic",
        "Headbutt",
        "Swagger",
        "Rollout",
        "Flame Charge",
        "Return",
        "Nature Power",
        "Mimic",
        "Captivate",
        "Strength",
        "Frustration"
      ]
    }
  }
}