{
  "pixelmonName": "Tranquill",
  "spDef": 42,
  "spAtt": 50,
  "speed": 65,
  "defence": 62,
  "attack": 77,
  "hp": 62,
  "catchRate": 120,
  "malePercent": 50,
  "nationalPokedexNumber": 520,
  "spawnLevel": 21,
  "spawnLevelRange": 11,
  "baseExp": 125,
  "baseFriendship": 70,
  "rarity": {
    "day": 75,
    "dawndusk": 0,
    "night": 0
  },
  "type1": "Normal",
  "type2": "Flying",
  "height": 0.6,
  "width": 0.7,
  "length": 0.7,
  "giScale": 1.0,
  "canFly": false,
  "isRideable": false,
  "preEvolutions": [
    "Pidove"
  ],
  "experienceGroup": "MediumSlow",
  "aggression": {
    "timid": 80,
    "passive": 0,
    "aggressive": 20
  },
  "spawnLocations": [
    "Land"
  ],
  "biomeIDs": [
    4,
    18,
    27,
    28,
    28,
    27,
    4,
    1,
    29,
    157
  ],
  "evGain": {
    "HP": 0,
    "Attack": 2,
    "Defence": 0,
    "SpecialAttack": 0,
    "SpecialDefence": 0,
    "Speed": 0
  },
  "canSurf": false,
  "maxGroupSize": 1,
  "minGroupSize": 1,
  "hoverHeight": 0.0,
  "doesHover": false,
  "id": 597,
  "baseFormID": 597,
  "weight": 15.0,
  "pokemon": "Tranquill",
  "abilities": [
    "BigPecks",
    "SuperLuck",
    "Rivalry"
  ],
  "eggGroups": [
    "Flying"
  ],
  "eggCycles": 16,
  "form": -1,
  "evolutionDefs": [
    {
      "targetId": 598,
      "evolveLevel": 32
    }
  ],
  "moves": {
    "levelMoves": {
      "16": [
        "Air Cutter"
      ],
      "1": [
        "Quick Attack",
        "Leer",
        "Growl",
        "Gust"
      ],
      "34": [
        "Detect"
      ],
      "50": [
        "Tailwind"
      ],
      "20": [
        "Swagger"
      ],
      "38": [
        "Air Slash"
      ],
      "56": [
        "Sky Attack"
      ],
      "26": [
        "Feather Dance"
      ],
      "12": [
        "Taunt"
      ],
      "44": [
        "Roost"
      ]
    },
    "eggMoves": [
      "Defog",
      "Night Slash",
      "Hypnosis",
      "Morning Sun",
      "Wish"
    ],
    "evolutionMoves": [],
    "tmTRMoves": [
      "Snore",
      "Protect",
      "Facade",
      "Uproar",
      "Rain Dance",
      "Taunt",
      "Focus Energy",
      "Air Slash",
      "Sunny Day",
      "U-turn",
      "Fly",
      "Rest",
      "Steel Wing",
      "Work Up",
      "Endure",
      "Sleep Talk",
      "Agility",
      "Round",
      "Heat Wave",
      "Swift",
      "Substitute",
      "Attract"
    ],
    "tutorMoves": {
      "Regular": [
        "Dual Wingbeat"
      ],
      "Transfer": [
        "Secret Power",
        "Bestow",
        "Confide",
        "Pluck",
        "Hidden Power",
        "Lucky Chant",
        "Echoed Voice",
        "Double Team",
        "Toxic",
        "Aerial Ace",
        "Razor Wind",
        "Return",
        "Frustration"
      ]
    }
  }
}