{
  "pixelmonName": "Tropius",
  "spDef": 87,
  "spAtt": 72,
  "speed": 51,
  "defence": 83,
  "attack": 68,
  "hp": 99,
  "catchRate": 200,
  "malePercent": 50,
  "nationalPokedexNumber": 357,
  "spawnLevel": 15,
  "spawnLevelRange": 15,
  "baseExp": 169,
  "baseFriendship": 70,
  "rarity": {
    "day": 80,
    "dawndusk": 0,
    "night": 0
  },
  "type1": "Grass",
  "type2": "Flying",
  "height": 2.0,
  "width": 1.2,
  "length": 2.0,
  "giScale": 1.0,
  "canFly": true,
  "isRideable": true,
  "preEvolutions": [],
  "experienceGroup": "Slow",
  "aggression": {
    "timid": 80,
    "passive": 0,
    "aggressive": 20
  },
  "flyingParameters": {
    "flyHeightMin": 0,
    "flyHeightMax": 20,
    "flySpeedModifier": 0.6,
    "flyRefreshRateY": 100,
    "flyRefreshRateXZ": 100,
    "flyRefreshRateSpeed": 100,
    "flightTimeMin": 0,
    "flightTimeMax": 20,
    "flapRate": 5,
    "landingMaterial": "GrassAndLeaves"
  },
  "spawnLocations": [
    "Air"
  ],
  "biomeIDs": [
    21,
    22,
    23,
    149,
    151
  ],
  "evGain": {
    "HP": 2,
    "Attack": 0,
    "Defence": 0,
    "SpecialAttack": 0,
    "SpecialDefence": 0,
    "Speed": 0
  },
  "canSurf": false,
  "ridingOffsets": {
    "standing": {
      "x": 0.0,
      "y": -1.5,
      "z": 0.0
    },
    "moving": {
      "x": 0.0,
      "y": -1.5,
      "z": 0.0
    }
  },
  "maxGroupSize": 1,
  "minGroupSize": 1,
  "hoverHeight": 0.0,
  "doesHover": false,
  "id": 452,
  "baseFormID": 452,
  "weight": 100.0,
  "pokemon": "Tropius",
  "abilities": [
    "Chlorophyll",
    "SolarPower",
    "Harvest"
  ],
  "eggGroups": [
    "Monster",
    "Grass"
  ],
  "eggCycles": 26,
  "form": -1,
  "evolutionDefs": [],
  "moves": {
    "levelMoves": {
      "1": [
        "Leer",
        "Growth",
        "Razor Leaf",
        "Leaf Storm",
        "Gust"
      ],
      "36": [
        "Air Slash"
      ],
      "6": [
        "Sweet Scent"
      ],
      "41": [
        "Body Slam"
      ],
      "10": [
        "Stomp"
      ],
      "46": [
        "Bestow"
      ],
      "16": [
        "Magical Leaf"
      ],
      "50": [
        "Synthesis"
      ],
      "21": [
        "Whirlwind"
      ],
      "56": [
        "Solar Beam"
      ],
      "26": [
        "Leaf Tornado"
      ],
      "61": [
        "Leaf Storm"
      ],
      "30": [
        "Natural Gift"
      ]
    },
    "eggMoves": [
      "Slam",
      "Nature Power",
      "Dragon Hammer",
      "Headbutt",
      "Leech Seed",
      "Natural Gift",
      "Razor Wind",
      "Synthesis",
      "Curse",
      "Bullet Seed",
      "Leaf Storm",
      "Leaf Blade",
      "Dragon Dance"
    ],
    "evolutionMoves": [],
    "tmTRMoves": [
      "Fly",
      "Hyper Beam",
      "Giga Impact",
      "Magical Leaf",
      "Solar Beam",
      "Safeguard",
      "Rest",
      "Snore",
      "Protect",
      "Giga Drain",
      "Steel Wing",
      "Attract",
      "Sunny Day",
      "Facade",
      "Bullet Seed",
      "Round",
      "Bulldoze",
      "Air Slash",
      "Brutal Swing",
      "Stomping Tantrum",
      "Swords Dance",
      "Body Slam",
      "Earthquake",
      "Substitute",
      "Outrage",
      "Endure",
      "Sleep Talk",
      "Leaf Blade",
      "Dragon Dance",
      "Seed Bomb",
      "Dragon Pulse",
      "Energy Ball",
      "Leaf Storm",
      "Grass Knot"
    ],
    "tutorMoves": {
      "Regular": [
        "Defog",
        "Giga Drain",
        "Outrage",
        "Dragon Pulse",
        "Seed Bomb",
        "Snore",
        "Worry Seed",
        "Synthesis",
        "Stomping Tantrum",
        "Tailwind"
      ],
      "Transfer": [
        "Rock Smash",
        "Ominous Wind",
        "Silver Wind",
        "Secret Power",
        "Confide",
        "Double-Edge",
        "Cut",
        "Roost",
        "Hidden Power",
        "Air Cutter",
        "Double Team",
        "Mud-Slap",
        "Toxic",
        "Aerial Ace",
        "Swagger",
        "Flash",
        "Return",
        "Mimic",
        "Captivate",
        "Roar",
        "Fury Cutter",
        "Twister",
        "Strength",
        "Frustration"
      ]
    }
  }
}