{
  "pixelmonName": "Tyrogue",
  "spDef": 35,
  "spAtt": 35,
  "speed": 35,
  "defence": 35,
  "attack": 35,
  "hp": 35,
  "catchRate": 75,
  "malePercent": 100,
  "nationalPokedexNumber": 236,
  "spawnLevel": 5,
  "spawnLevelRange": 14,
  "baseExp": 91,
  "baseFriendship": 70,
  "rarity": {
    "day": 0,
    "dawndusk": 0,
    "night": 0
  },
  "type1": "Fighting",
  "height": 0.7,
  "width": 0.7,
  "length": 0.7,
  "giScale": 1.0,
  "canFly": false,
  "isRideable": false,
  "preEvolutions": [],
  "experienceGroup": "MediumFast",
  "aggression": {
    "timid": 80,
    "passive": 0,
    "aggressive": 20
  },
  "spawnLocations": [
    "Land"
  ],
  "biomeIDs": [
    3,
    3,
    34,
    131,
    162
  ],
  "evGain": {
    "HP": 0,
    "Attack": 1,
    "Defence": 0,
    "SpecialAttack": 0,
    "SpecialDefence": 0,
    "Speed": 0
  },
  "canSurf": false,
  "maxGroupSize": 1,
  "minGroupSize": 1,
  "hoverHeight": 0.0,
  "doesHover": false,
  "id": 348,
  "baseFormID": 348,
  "weight": 21.0,
  "pokemon": "Tyrogue",
  "abilities": [
    "Guts",
    "Steadfast",
    "VitalSpirit"
  ],
  "eggGroups": [
    "Undiscovered"
  ],
  "eggCycles": 26,
  "form": -1,
  "evolutionDefs": [
    {
      "targetId": 0,
      "formTo": -1,
      "evolveCondition": "Tyrogue"
    }
  ],
  "moves": {
    "levelMoves": {
      "1": [
        "Helping Hand",
        "Tackle",
        "Focus Energy",
        "Fake Out"
      ]
    },
    "eggMoves": [
      "Counter",
      "Rapid Spin",
      "Hi Jump Kick",
      "Feint",
      "Mind Reader",
      "Vacuum Wave",
      "Mach Punch",
      "Bullet Punch"
    ],
    "evolutionMoves": [],
    "tmTRMoves": [
      "Snore",
      "Facade",
      "Uproar",
      "Focus Energy",
      "Retaliate",
      "Bulk Up",
      "Mega Kick",
      "Rest",
      "Earthquake",
      "Work Up",
      "Rock Slide",
      "Round",
      "Body Slam",
      "Bulldoze",
      "Substitute",
      "Brick Break",
      "Attract",
      "Helping Hand",
      "Protect",
      "Rain Dance",
      "Mega Punch",
      "Thief",
      "Sunny Day",
      "Low Kick",
      "Endure",
      "Sleep Talk",
      "Swift",
      "Low Sweep"
    ],
    "tutorMoves": {
      "Transfer": [
        "Rock Smash",
        "Secret Power",
        "Detect",
        "Natural Gift",
        "Confide",
        "Curse",
        "Double-Edge",
        "Hidden Power",
        "Double Team",
        "Mud-Slap",
        "Toxic",
        "Seismic Toss",
        "Headbutt",
        "Swagger",
        "Ally Switch",
        "Return",
        "Mimic",
        "Captivate",
        "Pursuit",
        "Role Play",
        "Covet",
        "Strength",
        "Frustration",
        "Laser Focus",
        "Foresight"
      ]
    }
  }
}