{
  "pixelmonName": "Vibrava",
  "spDef": 50,
  "spAtt": 50,
  "speed": 70,
  "defence": 50,
  "attack": 70,
  "hp": 50,
  "catchRate": 120,
  "malePercent": 50,
  "nationalPokedexNumber": 329,
  "spawnLevel": 35,
  "spawnLevelRange": 10,
  "baseExp": 126,
  "baseFriendship": 70,
  "rarity": {
    "day": 5,
    "dawndusk": 1,
    "night": 1
  },
  "type1": "Ground",
  "type2": "Dragon",
  "height": 1.1,
  "width": 1.0,
  "length": 1.0,
  "giScale": 1.0,
  "canFly": false,
  "isRideable": false,
  "preEvolutions": [
    "Trapinch"
  ],
  "experienceGroup": "MediumSlow",
  "aggression": {
    "timid": 80,
    "passive": 0,
    "aggressive": 20
  },
  "spawnLocations": [
    "Land"
  ],
  "biomeIDs": [
    2,
    17,
    130
  ],
  "evGain": {
    "HP": 0,
    "Attack": 1,
    "Defence": 0,
    "SpecialAttack": 0,
    "SpecialDefence": 0,
    "Speed": 1
  },
  "canSurf": false,
  "maxGroupSize": 3,
  "minGroupSize": 1,
  "hoverHeight": 0.0,
  "doesHover": false,
  "id": 176,
  "baseFormID": 176,
  "weight": 15.3,
  "pokemon": "Vibrava",
  "abilities": [
    "Levitate",
    "Levitate",
    "Levitate"
  ],
  "eggGroups": [
    "Bug",
    "Dragon"
  ],
  "eggCycles": 21,
  "form": -1,
  "evolutionDefs": [
    {
      "targetId": 177,
      "evolveLevel": 45
    }
  ],
  "moves": {
    "levelMoves": {
      "16": [
        "Sand Tomb"
      ],
      "32": [
        "Sandstorm"
      ],
      "1": [
        "Supersonic",
        "Dig",
        "Dragon Breath",
        "Sand Attack",
        "Astonish",
        "Bite",
        "Bulldoze",
        "Superpower",
        "Fissure",
        "Laser Focus",
        "Crunch"
      ],
      "50": [
        "Uproar"
      ],
      "20": [
        "Dragon Tail"
      ],
      "38": [
        "Earth Power"
      ],
      "24": [
        "Screech"
      ],
      "56": [
        "Dragon Rush"
      ],
      "12": [
        "Mud-Slap"
      ],
      "28": [
        "Bug Buzz"
      ],
      "44": [
        "Earthquake"
      ],
      "62": [
        "Boomburst"
      ]
    },
    "eggMoves": [
      "First Impression",
      "Quick Attack",
      "Flail",
      "Bug Bite",
      "Feint",
      "Fury Cutter",
      "Gust"
    ],
    "evolutionMoves": [
      "Dragon Breath"
    ],
    "tmTRMoves": [
      "Giga Drain",
      "Snore",
      "Facade",
      "Uproar",
      "Focus Energy",
      "Air Slash",
      "U-turn",
      "Solar Beam",
      "Throat Chop",
      "Screech",
      "Fly",
      "Rest",
      "Sand Tomb",
      "Bug Buzz",
      "Earthquake",
      "Rock Slide",
      "Earth Power",
      "Round",
      "Body Slam",
      "Heat Wave",
      "Sandstorm",
      "Bulldoze",
      "Mud Shot",
      "Substitute",
      "Superpower",
      "Attract",
      "Crunch",
      "Dragon Pulse",
      "Protect",
      "Dig",
      "Hyper Beam",
      "Sunny Day",
      "Outrage",
      "Rock Tomb",
      "Steel Wing",
      "Endure",
      "Sleep Talk",
      "Swift"
    ],
    "tutorMoves": {
      "Regular": [
        "Scorching Sands",
        "Draco Meteor",
        "Dual Wingbeat"
      ],
      "Transfer": [
        "Rock Smash",
        "Ominous Wind",
        "Silver Wind",
        "Secret Power",
        "Tailwind",
        "Natural Gift",
        "Confide",
        "Defog",
        "Double-Edge",
        "Roost",
        "Hidden Power",
        "Air Cutter",
        "Bide",
        "Double Team",
        "Toxic",
        "Struggle Bug",
        "Headbutt",
        "Swagger",
        "Signal Beam",
        "Sonic Boom",
        "Return",
        "Mimic",
        "Captivate",
        "Twister",
        "Faint Attack",
        "Strength",
        "Frustration"
      ]
    }
  }
}