{
  "pixelmonName": "Vikavolt",
  "spDef": 75,
  "spAtt": 145,
  "speed": 43,
  "defence": 90,
  "attack": 70,
  "hp": 77,
  "catchRate": 45,
  "malePercent": 50,
  "nationalPokedexNumber": 738,
  "spawnLevel": 40,
  "spawnLevelRange": 24,
  "baseExp": 225,
  "baseFriendship": 70,
  "rarity": {
    "day": 3,
    "dawndusk": 3,
    "night": 30
  },
  "type1": "Bug",
  "type2": "Electric",
  "height": 1.5,
  "width": 2.0,
  "length": 2.5,
  "giScale": 1.3,
  "canFly": false,
  "isRideable": false,
  "preEvolutions": [
    "Charjabug",
    "Grubbin"
  ],
  "experienceGroup": "MediumFast",
  "aggression": {
    "timid": 70,
    "passive": 0,
    "aggressive": 30
  },
  "spawnLocations": [
    "Land"
  ],
  "biomeIDs": [
    5,
    19
  ],
  "evGain": {
    "HP": 0,
    "Attack": 0,
    "Defence": 0,
    "SpecialAttack": 3,
    "SpecialDefence": 0,
    "Speed": 0
  },
  "canSurf": false,
  "maxGroupSize": 1,
  "minGroupSize": 1,
  "hoverHeight": 1.0,
  "doesHover": true,
  "id": 899,
  "baseFormID": 899,
  "weight": 45.0,
  "pokemon": "Vikavolt",
  "abilities": [
    "Levitate",
    null,
    null
  ],
  "eggGroups": [
    "Bug"
  ],
  "eggCycles": 15,
  "form": -1,
  "evolutionDefs": [],
  "moves": {
    "levelMoves": {
      "64": [
        "Zap Cannon"
      ],
      "1": [
        "Mud-Slap",
        "Dig",
        "String Shot",
        "Bug Bite",
        "Charge",
        "X-Scissor",
        "Iron Defense",
        "Thunderbolt",
        "Discharge",
        "Vise Grip",
        "Crunch"
      ],
      "50": [
        "Fly"
      ],
      "36": [
        "Bug Buzz"
      ],
      "23": [
        "Spark"
      ],
      "57": [
        "Agility"
      ],
      "43": [
        "Guillotine"
      ],
      "29": [
        "Sticky Web"
      ],
      "15": [
        "Bite"
      ]
    },
    "eggMoves": [
      "Harden",
      "Discharge"
    ],
    "evolutionMoves": [
      "Thunderbolt"
    ],
    "tmTRMoves": [
      "Snore",
      "Facade",
      "Air Slash",
      "Light Screen",
      "Volt Switch",
      "Eerie Impulse",
      "Solar Beam",
      "Screech",
      "Fly",
      "Rest",
      "Bug Buzz",
      "Agility",
      "Round",
      "Iron Defense",
      "Mud Shot",
      "Substitute",
      "Poison Jab",
      "Acrobatics",
      "Attract",
      "Electroweb",
      "Giga Impact",
      "Thunder Wave",
      "Crunch",
      "Energy Ball",
      "Protect",
      "Dig",
      "Rain Dance",
      "Thunder",
      "Wild Charge",
      "Hyper Beam",
      "X-Scissor",
      "Flash Cannon",
      "Endure",
      "Sleep Talk",
      "Electro Ball",
      "Thunderbolt"
    ],
    "tutorMoves": {
      "Regular": [
        "Skitter Smack",
        "Dual Wingbeat",
        "Rising Voltage"
      ],
      "Transfer": [
        "Confide",
        "Roost",
        "Hidden Power",
        "Magnet Rise",
        "Double Team",
        "Shock Wave",
        "Toxic",
        "Sky Drop",
        "Swagger",
        "Charge Beam",
        "Signal Beam",
        "Return",
        "Frustration",
        "Laser Focus"
      ]
    }
  }
}