{
  "pixelmonName": "Vileplume",
  "spDef": 90,
  "spAtt": 110,
  "speed": 50,
  "defence": 85,
  "attack": 80,
  "hp": 75,
  "catchRate": 45,
  "malePercent": 50,
  "nationalPokedexNumber": 45,
  "spawnLevel": 30,
  "spawnLevelRange": 20,
  "baseExp": 184,
  "baseFriendship": 70,
  "rarity": {
    "day": 0,
    "dawndusk": 0,
    "night": 0
  },
  "type1": "Grass",
  "type2": "Poison",
  "height": 1.2,
  "width": 0.7,
  "length": 0.7,
  "giScale": 1.0,
  "canFly": false,
  "isRideable": false,
  "preEvolutions": [
    "Gloom",
    "Oddish"
  ],
  "experienceGroup": "MediumSlow",
  "aggression": {
    "timid": 80,
    "passive": 0,
    "aggressive": 20
  },
  "spawnLocations": [
    "Land"
  ],
  "biomeIDs": [
    1,
    6,
    21,
    22,
    23,
    29,
    129,
    132,
    134,
    149,
    151,
    157
  ],
  "evGain": {
    "HP": 0,
    "Attack": 0,
    "Defence": 0,
    "SpecialAttack": 3,
    "SpecialDefence": 0,
    "Speed": 0
  },
  "canSurf": false,
  "maxGroupSize": 1,
  "minGroupSize": 1,
  "hoverHeight": 0.0,
  "doesHover": false,
  "id": 143,
  "baseFormID": 143,
  "weight": 18.6,
  "pokemon": "Vileplume",
  "abilities": [
    "Chlorophyll",
    null,
    "EffectSpore"
  ],
  "eggGroups": [
    "Grass"
  ],
  "eggCycles": 21,
  "form": -1,
  "evolutionDefs": [],
  "moves": {
    "levelMoves": {
      "1": [
        "Giga Drain",
        "Poison Powder",
        "Acid",
        "Toxic",
        "Growth",
        "Sweet Scent",
        "Absorb",
        "Sleep Powder",
        "Moonblast",
        "Mega Drain",
        "Petal Dance",
        "Stun Spore",
        "Moonlight",
        "Petal Blizzard",
        "Aromatherapy",
        "Grassy Terrain"
      ]
    },
    "eggMoves": [
      "After You",
      "Flail",
      "Synthesis",
      "Nature Power",
      "Teeter Dance",
      "Razor Leaf",
      "Ingrain",
      "Tickle",
      "Leech Seed",
      "Strength Sap"
    ],
    "evolutionMoves": [
      "Petal Blizzard"
    ],
    "tmTRMoves": [
      "Giga Drain",
      "Snore",
      "Facade",
      "Dazzling Gleam",
      "Sludge Bomb",
      "Grass Knot",
      "Swords Dance",
      "Solar Beam",
      "Rest",
      "Seed Bomb",
      "Sludge Wave",
      "Charm",
      "Bullet Seed",
      "Round",
      "Body Slam",
      "Grassy Terrain",
      "Substitute",
      "Pollen Puff",
      "Attract",
      "Giga Impact",
      "Energy Ball",
      "Safeguard",
      "Protect",
      "Drain Punch",
      "Venoshock",
      "Hyper Beam",
      "Sunny Day",
      "Fling",
      "Endure",
      "Sleep Talk"
    ],
    "tutorMoves": {
      "Regular": [
        "Grassy Glide",
        "Corrosive Gas"
      ],
      "Transfer": [
        "Secret Power",
        "Natural Gift",
        "Confide",
        "Curse",
        "Double-Edge",
        "Cut",
        "Take Down",
        "Hidden Power",
        "Bide",
        "Double Team",
        "Infestation",
        "Worry Seed",
        "Rage",
        "Headbutt",
        "Swagger",
        "Flash",
        "Return",
        "Mimic",
        "Captivate",
        "Reflect",
        "Gastro Acid",
        "Frustration"
      ]
    }
  }
}