{
  "pixelmonName": "Weezing",
  "spDef": 70,
  "spAtt": 85,
  "speed": 60,
  "defence": 120,
  "attack": 90,
  "hp": 65,
  "catchRate": 60,
  "malePercent": 50,
  "nationalPokedexNumber": 110,
  "spawnLevel": 35,
  "spawnLevelRange": 15,
  "baseExp": 173,
  "baseFriendship": 70,
  "rarity": {
    "day": 0,
    "dawndusk": 50,
    "night": 50
  },
  "type1": "Poison",
  "height": 1.2,
  "width": 1.0,
  "length": 1.0,
  "giScale": 0.8,
  "canFly": false,
  "isRideable": false,
  "preEvolutions": [
    "Koffing"
  ],
  "experienceGroup": "MediumFast",
  "aggression": {
    "timid": 80,
    "passive": 0,
    "aggressive": 20
  },
  "spawnLocations": [
    "Land"
  ],
  "biomeIDs": [
    6,
    134
  ],
  "evGain": {
    "HP": 0,
    "Attack": 0,
    "Defence": 2,
    "SpecialAttack": 0,
    "SpecialDefence": 0,
    "Speed": 0
  },
  "canSurf": false,
  "maxGroupSize": 2,
  "minGroupSize": 1,
  "hoverHeight": 1.0,
  "doesHover": true,
  "id": 163,
  "baseFormID": 163,
  "weight": 9.5,
  "pokemon": "Weezing",
  "abilities": [
    "Levitate",
    "NeutralizingGas",
    "Stench"
  ],
  "eggGroups": [
    "Amorphous"
  ],
  "eggCycles": 21,
  "form": -1,
  "evolutionDefs": [],
  "moves": {
    "levelMoves": {
      "32": [
        "Sludge Bomb"
      ],
      "1": [
        "Double Hit",
        "Tackle",
        "Smog",
        "Heat Wave",
        "Smokescreen",
        "Poison Gas"
      ],
      "38": [
        "Toxic"
      ],
      "12": [
        "Clear Smog"
      ],
      "44": [
        "Belch"
      ],
      "16": [
        "Assurance"
      ],
      "50": [
        "Explosion"
      ],
      "20": [
        "Sludge"
      ],
      "24": [
        "Haze"
      ],
      "56": [
        "Memento"
      ],
      "28": [
        "Self-Destruct"
      ],
      "62": [
        "Destiny Bond"
      ]
    },
    "eggMoves": [
      "Psybeam",
      "Spit Up",
      "Curse",
      "Swallow",
      "Pain Split",
      "Spite",
      "Stockpile",
      "Grudge"
    ],
    "evolutionMoves": [
      "Double Hit"
    ],
    "tmTRMoves": [
      "Snore",
      "Facade",
      "Assurance",
      "Flamethrower",
      "Uproar",
      "Taunt",
      "Dark Pulse",
      "Sludge Bomb",
      "Screech",
      "Rest",
      "Sludge Wave",
      "Venom Drench",
      "Round",
      "Shadow Ball",
      "Heat Wave",
      "Substitute",
      "Attract",
      "Giga Impact",
      "Payback",
      "Protect",
      "Venoshock",
      "Rain Dance",
      "Thunder",
      "Self-Destruct",
      "Thief",
      "Hyper Beam",
      "Sunny Day",
      "Will-O-Wisp",
      "Gyro Ball",
      "Endure",
      "Sleep Talk",
      "Thunderbolt",
      "Toxic Spikes",
      "Fire Blast"
    ],
    "tutorMoves": {
      "Regular": [
        "Corrosive Gas"
      ],
      "Transfer": [
        "Secret Power",
        "Natural Gift",
        "Confide",
        "Incinerate",
        "Hidden Power",
        "Bide",
        "Double Team",
        "Infestation",
        "Shock Wave",
        "Psywave",
        "Rage",
        "Headbutt",
        "Swagger",
        "Rollout",
        "Flash",
        "Return",
        "Mimic",
        "Captivate",
        "Torment",
        "Zap Cannon",
        "Frustration"
      ]
    }
  }
}