{
  "pixelmonName": "Wigglytuff",
  "spDef": 50,
  "spAtt": 85,
  "speed": 45,
  "defence": 45,
  "attack": 70,
  "hp": 140,
  "catchRate": 50,
  "malePercent": 25,
  "nationalPokedexNumber": 40,
  "spawnLevel": 30,
  "spawnLevelRange": 20,
  "baseExp": 191,
  "baseFriendship": 70,
  "rarity": {
    "day": 0,
    "dawndusk": 5,
    "night": 5
  },
  "type1": "Normal",
  "type2": "Fairy",
  "height": 1.0,
  "width": 0.5,
  "length": 0.5,
  "giScale": 1.0,
  "canFly": false,
  "isRideable": false,
  "preEvolutions": [
    "Jigglypuff",
    "Igglybuff"
  ],
  "experienceGroup": "Fast",
  "aggression": {
    "timid": 80,
    "passive": 0,
    "aggressive": 20
  },
  "spawnLocations": [
    "Land",
    "UnderGround"
  ],
  "biomeIDs": [
    1,
    129,
    132
  ],
  "evGain": {
    "HP": 3,
    "Attack": 0,
    "Defence": 0,
    "SpecialAttack": 0,
    "SpecialDefence": 0,
    "Speed": 0
  },
  "canSurf": false,
  "maxGroupSize": 1,
  "minGroupSize": 1,
  "hoverHeight": 0.0,
  "doesHover": false,
  "id": 49,
  "baseFormID": 49,
  "weight": 12.0,
  "pokemon": "Wigglytuff",
  "abilities": [
    "CuteCharm",
    "Competitive",
    "Frisk"
  ],
  "eggGroups": [
    "Fairy"
  ],
  "eggCycles": 21,
  "form": -1,
  "evolutionDefs": [],
  "moves": {
    "levelMoves": {
      "1": [
        "Disarming Voice",
        "Play Rough",
        "Mimic",
        "Sing",
        "Sweet Kiss",
        "Gyro Ball",
        "Copycat",
        "Rest",
        "Echoed Voice",
        "Spit Up",
        "Charm",
        "Pound",
        "Body Slam",
        "Round",
        "Swallow",
        "Defense Curl",
        "Stockpile",
        "Covet",
        "Disable",
        "Double-Edge",
        "Hyper Voice"
      ]
    },
    "eggMoves": [
      "Perish Song",
      "Heal Pulse",
      "Last Resort",
      "Present",
      "Rollout",
      "Covet",
      "Wish",
      "Gravity"
    ],
    "evolutionMoves": [],
    "tmTRMoves": [
      "Flamethrower",
      "Uproar",
      "Play Rough",
      "Dazzling Gleam",
      "Light Screen",
      "Icy Wind",
      "Screech",
      "Work Up",
      "Body Slam",
      "Substitute",
      "Attract",
      "Ice Beam",
      "Thunder Wave",
      "Drain Punch",
      "Tri Attack",
      "Mega Punch",
      "Self-Destruct",
      "Fake Tears",
      "Sunny Day",
      "Fling",
      "Endure",
      "Thunder Punch",
      "Draining Kiss",
      "Fire Punch",
      "Ice Punch",
      "Fire Blast",
      "Snore",
      "Facade",
      "Magic Room",
      "Grass Knot",
      "Retaliate",
      "Solar Beam",
      "Mega Kick",
      "Rest",
      "Charm",
      "Round",
      "Misty Terrain",
      "Shadow Ball",
      "Bounce",
      "Brick Break",
      "Ally Switch",
      "Giga Impact",
      "Hyper Voice",
      "Helping Hand",
      "Safeguard",
      "Protect",
      "Dig",
      "Rain Dance",
      "Thunder",
      "Wild Charge",
      "Hyper Beam",
      "Baton Pass",
      "Gyro Ball",
      "Focus Blast",
      "Psychic",
      "Reflect",
      "Sleep Talk",
      "Stealth Rock",
      "Thunderbolt",
      "Blizzard"
    ],
    "tutorMoves": {
      "Regular": [
        "Steel Roller",
        "Expanding Force",
        "Misty Explosion"
      ],
      "Transfer": [
        "Dream Eater",
        "Detect",
        "Snatch",
        "Natural Gift",
        "Confide",
        "Incinerate",
        "Hidden Power",
        "Power-Up Punch",
        "Water Pulse",
        "Bide",
        "Double Team",
        "Shock Wave",
        "Punishment",
        "Double Slap",
        "Telekinesis",
        "Seismic Toss",
        "Rage",
        "Headbutt",
        "Dynamic Punch",
        "Skull Bash",
        "Swagger",
        "Charge Beam",
        "Nightmare",
        "Submission",
        "Captivate",
        "Minimize",
        "Knock Off",
        "Role Play",
        "Faint Attack",
        "Frustration",
        "Laser Focus",
        "Secret Power",
        "Psych Up",
        "Bubble Beam",
        "Teleport",
        "Counter",
        "Curse",
        "Take Down",
        "Magic Coat",
        "Recycle",
        "Heal Bell",
        "Psywave",
        "Mud-Slap",
        "Focus Punch",
        "Toxic",
        "Pain Split",
        "Flash",
        "Water Gun",
        "Endeavor",
        "Return",
        "Strength",
        "Zap Cannon"
      ]
    }
  }
}