{
  "pixelmonName": "Wishiwashi",
  "spDef": 135,
  "spAtt": 140,
  "speed": 30,
  "defence": 130,
  "attack": 140,
  "hp": 45,
  "catchRate": 60,
  "malePercent": 50,
  "nationalPokedexNumber": 746,
  "spawnLevel": 1,
  "spawnLevelRange": 99,
  "baseExp": 217,
  "baseFriendship": 70,
  "rarity": {
    "day": 0,
    "dawndusk": 0,
    "night": 0
  },
  "type1": "Water",
  "height": 1.0,
  "width": 1.0,
  "length": 1.0,
  "giScale": 0.35,
  "canFly": false,
  "isRideable": false,
  "preEvolutions": [],
  "experienceGroup": "Fast",
  "aggression": {
    "timid": 95,
    "passive": 0,
    "aggressive": 5
  },
  "spawnLocations": [],
  "biomeIDs": [],
  "evGain": {
    "HP": 1,
    "Attack": 0,
    "Defence": 0,
    "SpecialAttack": 0,
    "SpecialDefence": 0,
    "Speed": 0
  },
  "canSurf": true,
  "maxGroupSize": 1,
  "minGroupSize": 1,
  "hoverHeight": 0.0,
  "doesHover": false,
  "id": 909,
  "baseFormID": 909,
  "weight": 78.6,
  "pokemon": "Wishiwashi",
  "abilities": [
    "Schooling",
    null,
    null
  ],
  "eggGroups": [
    "Water2"
  ],
  "eggCycles": 15,
  "form": 1,
  "evolutionDefs": [],
  "moves": {
    "levelMoves": {
      "32": [
        "Aqua Tail"
      ],
      "1": [
        "Water Gun",
        "Growl"
      ],
      "4": [
        "Helping Hand"
      ],
      "36": [
        "Aqua Ring"
      ],
      "8": [
        "Beat Up"
      ],
      "40": [
        "Endeavor"
      ],
      "12": [
        "Brine"
      ],
      "44": [
        "Hydro Pump"
      ],
      "16": [
        "Tearful Look"
      ],
      "48": [
        "Double-Edge"
      ],
      "20": [
        "Dive"
      ],
      "24": [
        "Soak"
      ],
      "28": [
        "Uproar"
      ]
    },
    "eggMoves": [
      "Take Down",
      "Water Pulse",
      "Mist"
    ],
    "evolutionMoves": [],
    "tmTRMoves": [
      "Snore",
      "Facade",
      "Uproar",
      "Waterfall",
      "Beat Up",
      "U-turn",
      "Surf",
      "Rest",
      "Earthquake",
      "Iron Tail",
      "Hydro Pump",
      "Round",
      "Bulldoze",
      "Liquidation",
      "Mud Shot",
      "Substitute",
      "Attract",
      "Hail",
      "Ice Beam",
      "Helping Hand",
      "Protect",
      "Rain Dance",
      "Brine",
      "Scald",
      "Dive",
      "Endure",
      "Sleep Talk",
      "Whirlpool",
      "Muddy Water"
    ],
    "tutorMoves": {
      "Regular": [
        "Flip Turn",
        "Scale Shot"
      ],
      "Transfer": [
        "Confide",
        "Hidden Power",
        "Water Sport",
        "Double Team",
        "Toxic",
        "Swagger",
        "Return",
        "Faint Attack",
        "Covet",
        "Frustration"
      ]
    }
  }
}