{
  "pixelmonName": "Wooper",
  "spDef": 25,
  "spAtt": 25,
  "speed": 15,
  "defence": 45,
  "attack": 45,
  "hp": 55,
  "catchRate": 255,
  "malePercent": 50,
  "nationalPokedexNumber": 194,
  "spawnLevel": 5,
  "spawnLevelRange": 14,
  "baseExp": 52,
  "baseFriendship": 70,
  "rarity": {
    "day": 80,
    "dawndusk": 0,
    "night": 0
  },
  "type1": "Water",
  "type2": "Ground",
  "height": 0.4,
  "width": 0.3,
  "length": 0.5,
  "giScale": 1.0,
  "canFly": false,
  "isRideable": false,
  "preEvolutions": [],
  "experienceGroup": "MediumFast",
  "aggression": {
    "timid": 80,
    "passive": 0,
    "aggressive": 20
  },
  "swimmingParameters": {
    "depthRangeStart": 5,
    "depthRangeEnd": 10,
    "swimSpeed": 1.0,
    "decayRate": 0.79,
    "refreshRate": 70
  },
  "spawnLocations": [
    "Water",
    "Land"
  ],
  "biomeIDs": [
    6,
    7,
    134
  ],
  "evGain": {
    "HP": 1,
    "Attack": 0,
    "Defence": 0,
    "SpecialAttack": 0,
    "SpecialDefence": 0,
    "Speed": 0
  },
  "canSurf": true,
  "maxGroupSize": 2,
  "minGroupSize": 1,
  "hoverHeight": 0.0,
  "doesHover": false,
  "id": 197,
  "baseFormID": 197,
  "weight": 8.5,
  "pokemon": "Wooper",
  "abilities": [
    "Damp",
    "WaterAbsorb",
    "Unaware"
  ],
  "eggGroups": [
    "Water1",
    "Field"
  ],
  "eggCycles": 21,
  "form": -1,
  "evolutionDefs": [
    {
      "targetId": 29,
      "evolveLevel": 20
    }
  ],
  "moves": {
    "levelMoves": {
      "16": [
        "Slam"
      ],
      "32": [
        "Amnesia"
      ],
      "1": [
        "Water Gun",
        "Tail Whip"
      ],
      "4": [
        "Rain Dance"
      ],
      "36": [
        "Toxic"
      ],
      "21": [
        "Yawn"
      ],
      "8": [
        "Mud Shot"
      ],
      "24": [
        "Aqua Tail"
      ],
      "40": [
        "Earthquake"
      ],
      "12": [
        "Haze",
        "Mist"
      ],
      "28": [
        "Muddy Water"
      ]
    },
    "eggMoves": [
      "After You",
      "Power-Up Punch",
      "Acid Spray",
      "Counter",
      "Spit Up",
      "Curse",
      "Double Kick",
      "Ancient Power",
      "Swallow",
      "Recover",
      "Stockpile"
    ],
    "evolutionMoves": [],
    "tmTRMoves": [
      "Snore",
      "Facade",
      "Waterfall",
      "Sludge Bomb",
      "Eerie Impulse",
      "Stomping Tantrum",
      "Icy Wind",
      "Surf",
      "Rest",
      "Encore",
      "Earthquake",
      "Iron Tail",
      "Sludge Wave",
      "Hydro Pump",
      "Earth Power",
      "Round",
      "Body Slam",
      "Sandstorm",
      "Bulldoze",
      "Amnesia",
      "Mud Shot",
      "Substitute",
      "Attract",
      "Hail",
      "Ice Beam",
      "Safeguard",
      "Protect",
      "Guard Swap",
      "Dig",
      "Rain Dance",
      "Scald",
      "Dive",
      "Endure",
      "Sleep Talk",
      "Whirlpool",
      "Muddy Water",
      "Ice Punch",
      "Blizzard"
    ],
    "tutorMoves": {
      "Transfer": [
        "Rock Smash",
        "Secret Power",
        "Natural Gift",
        "Confide",
        "Mud Sport",
        "Double-Edge",
        "Hidden Power",
        "Water Pulse",
        "Double Team",
        "Mud Bomb",
        "Infestation",
        "Mud-Slap",
        "Headbutt",
        "Dynamic Punch",
        "Swagger",
        "Defense Curl",
        "Flash",
        "Rollout",
        "Return",
        "Mimic",
        "Captivate",
        "Frustration"
      ]
    }
  }
}