{
  "pixelmonName": "Xatu",
  "spDef": 70,
  "spAtt": 95,
  "speed": 95,
  "defence": 70,
  "attack": 75,
  "hp": 65,
  "catchRate": 75,
  "malePercent": 50,
  "nationalPokedexNumber": 178,
  "spawnLevel": 25,
  "spawnLevelRange": 35,
  "baseExp": 171,
  "baseFriendship": 70,
  "rarity": {
    "day": 0,
    "dawndusk": 75,
    "night": 75
  },
  "type1": "Psychic",
  "type2": "Flying",
  "height": 1.5,
  "width": 1.0,
  "length": 1.0,
  "giScale": 1.0,
  "canFly": true,
  "isRideable": false,
  "preEvolutions": [
    "Natu"
  ],
  "experienceGroup": "MediumFast",
  "aggression": {
    "timid": 80,
    "passive": 0,
    "aggressive": 20
  },
  "flyingParameters": {
    "flyHeightMin": 10,
    "flyHeightMax": 20,
    "flySpeedModifier": 1.0,
    "flyRefreshRateY": 80,
    "flyRefreshRateXZ": 100,
    "flyRefreshRateSpeed": 100,
    "flightTimeMin": 0,
    "flightTimeMax": 20,
    "flapRate": 5,
    "landingMaterial": "GrassAndLeaves"
  },
  "spawnLocations": [
    "AirPersistent"
  ],
  "biomeIDs": [
    21,
    22,
    23,
    149,
    151
  ],
  "evGain": {
    "HP": 0,
    "Attack": 0,
    "Defence": 0,
    "SpecialAttack": 1,
    "SpecialDefence": 0,
    "Speed": 1
  },
  "canSurf": false,
  "maxGroupSize": 1,
  "minGroupSize": 1,
  "hoverHeight": 0.0,
  "doesHover": false,
  "id": 12,
  "baseFormID": 12,
  "weight": 15.0,
  "pokemon": "Xatu",
  "abilities": [
    "Synchronize",
    "EarlyBird",
    "MagicBounce"
  ],
  "eggGroups": [
    "Flying"
  ],
  "eggCycles": 21,
  "form": -1,
  "evolutionDefs": [],
  "moves": {
    "levelMoves": {
      "48": [
        "Wish"
      ],
      "1": [
        "Leer",
        "Air Slash",
        "Peck",
        "Teleport",
        "Tailwind",
        "Stored Power"
      ],
      "34": [
        "Guard Swap",
        "Power Swap"
      ],
      "20": [
        "Night Shade"
      ],
      "55": [
        "Future Sight"
      ],
      "41": [
        "Psychic"
      ],
      "28": [
        "Psycho Shift"
      ],
      "15": [
        "Confuse Ray"
      ]
    },
    "eggMoves": [
      "Sucker Punch",
      "Quick Attack",
      "Roost",
      "Simple Beam",
      "Feather Dance",
      "Drill Peck"
    ],
    "evolutionMoves": [
      "Air Slash"
    ],
    "tmTRMoves": [
      "Giga Drain",
      "Snore",
      "Facade",
      "Dazzling Gleam",
      "Air Slash",
      "Light Screen",
      "Magic Room",
      "Grass Knot",
      "U-turn",
      "Solar Beam",
      "Stored Power",
      "Fly",
      "Rest",
      "Round",
      "Shadow Ball",
      "Heat Wave",
      "Imprison",
      "Substitute",
      "Power Swap",
      "Attract",
      "Skill Swap",
      "Ally Switch",
      "Giga Impact",
      "Thunder Wave",
      "Future Sight",
      "Protect",
      "Guard Swap",
      "Rain Dance",
      "Thief",
      "Psyshock",
      "Trick",
      "Cosmic Power",
      "Hyper Beam",
      "Sunny Day",
      "Baton Pass",
      "Calm Mind",
      "Psychic",
      "Foul Play",
      "Reflect",
      "Steel Wing",
      "Endure",
      "Sleep Talk",
      "Swift",
      "Zen Headbutt",
      "Trick Room"
    ],
    "tutorMoves": {
      "Regular": [
        "Dual Wingbeat",
        "Expanding Force"
      ],
      "Transfer": [
        "Ominous Wind",
        "Silver Wind",
        "Dream Eater",
        "Detect",
        "Natural Gift",
        "Confide",
        "Me First",
        "Double-Edge",
        "Hidden Power",
        "Haze",
        "Synchronoise",
        "Double Team",
        "Telekinesis",
        "Sky Attack",
        "Refresh",
        "Swagger",
        "Nightmare",
        "Mimic",
        "Miracle Eye",
        "Captivate",
        "Twister",
        "Faint Attack",
        "Frustration",
        "Laser Focus",
        "Secret Power",
        "Psych Up",
        "Defog",
        "Curse",
        "Pluck",
        "Magic Coat",
        "Lucky Chant",
        "Air Cutter",
        "Toxic",
        "Aerial Ace",
        "Pain Split",
        "Flash",
        "Signal Beam",
        "Return"
      ]
    }
  }
}