{
  "pixelmonName": "Yanmega",
  "spDef": 56,
  "spAtt": 116,
  "speed": 95,
  "defence": 86,
  "attack": 76,
  "hp": 86,
  "catchRate": 30,
  "malePercent": 50,
  "nationalPokedexNumber": 469,
  "spawnLevel": 34,
  "spawnLevelRange": 11,
  "baseExp": 198,
  "baseFriendship": 70,
  "rarity": {
    "day": 0,
    "dawndusk": 0,
    "night": 0
  },
  "type1": "Bug",
  "type2": "Flying",
  "height": 0.5,
  "width": 1.7,
  "length": 1.9,
  "giScale": 1.0,
  "canFly": false,
  "isRideable": false,
  "preEvolutions": [
    "Yanma"
  ],
  "experienceGroup": "MediumFast",
  "aggression": {
    "timid": 80,
    "passive": 0,
    "aggressive": 20
  },
  "spawnLocations": [
    "Land"
  ],
  "biomeIDs": [
    6,
    21,
    22,
    23,
    134,
    149,
    151
  ],
  "evGain": {
    "HP": 0,
    "Attack": 2,
    "Defence": 0,
    "SpecialAttack": 0,
    "SpecialDefence": 0,
    "Speed": 0
  },
  "canSurf": false,
  "maxGroupSize": 1,
  "minGroupSize": 1,
  "hoverHeight": 1.0,
  "doesHover": true,
  "id": 550,
  "baseFormID": 550,
  "weight": 51.5,
  "pokemon": "Yanmega",
  "abilities": [
    "SpeedBoost",
    "TintedLens",
    "Frisk"
  ],
  "eggGroups": [
    "Bug"
  ],
  "eggCycles": 21,
  "form": -1,
  "evolutionDefs": [],
  "moves": {
    "levelMoves": {
      "1": [
        "Quick Attack",
        "Tackle",
        "Bug Buzz",
        "Air Slash",
        "Night Slash",
        "Bug Bite",
        "Double Team",
        "Foresight"
      ],
      "33": [
        "Ancient Power"
      ],
      "6": [
        "Quick Attack"
      ],
      "38": [
        "Feint"
      ],
      "11": [
        "Double Team"
      ],
      "43": [
        "Slash"
      ],
      "14": [
        "Sonic Boom"
      ],
      "46": [
        "Screech"
      ],
      "17": [
        "Detect"
      ],
      "49": [
        "U-turn"
      ],
      "22": [
        "Supersonic"
      ],
      "54": [
        "Air Slash"
      ],
      "57": [
        "Bug Buzz"
      ],
      "27": [
        "Uproar"
      ],
      "30": [
        "Pursuit"
      ]
    },
    "eggMoves": [
      "Faint Attack",
      "Silver Wind",
      "Secret Power",
      "Whirlwind",
      "Leech Life",
      "Reversal",
      "Feint",
      "Pursuit",
      "Signal Beam",
      "Double-Edge"
    ],
    "evolutionMoves": [],
    "tmTRMoves": [
      "Hyper Beam",
      "Giga Impact",
      "Solar Beam",
      "Screech",
      "Rest",
      "Thief",
      "Snore",
      "Protect",
      "Giga Drain",
      "Steel Wing",
      "Attract",
      "Sunny Day",
      "Facade",
      "U-turn",
      "Round",
      "Air Slash",
      "Swords Dance",
      "Psychic",
      "Agility",
      "Leech Life",
      "Substitute",
      "Reversal",
      "Endure",
      "Sleep Talk",
      "Shadow Ball",
      "Uproar",
      "Bug Buzz"
    ],
    "tutorMoves": {
      "Regular": [
        "Defog",
        "Giga Drain",
        "Snore",
        "Uproar",
        "Bug Bite",
        "Tailwind",
        "Laser Focus",
        "Signal Beam"
      ],
      "Transfer": [
        "Ominous Wind",
        "Psych Up",
        "Dream Eater",
        "Natural Gift",
        "Confide",
        "Roost",
        "Hidden Power",
        "Air Cutter",
        "Swift",
        "Mud-Slap",
        "Toxic",
        "Aerial Ace",
        "Struggle Bug",
        "Headbutt",
        "Swagger",
        "Flash",
        "Return",
        "Captivate",
        "String Shot",
        "Frustration"
      ]
    }
  }
}