{
  "pixelmonName": "Yungoos",
  "spDef": 30,
  "spAtt": 30,
  "speed": 45,
  "defence": 30,
  "attack": 70,
  "hp": 48,
  "catchRate": 255,
  "malePercent": 50,
  "nationalPokedexNumber": 734,
  "spawnLevel": 3,
  "spawnLevelRange": 13,
  "baseExp": 51,
  "baseFriendship": 70,
  "rarity": {
    "day": 100,
    "dawndusk": 100,
    "night": 100
  },
  "type1": "Normal",
  "height": 0.2,
  "width": 0.3,
  "length": 3.0,
  "giScale": 1.0,
  "canFly": false,
  "isRideable": false,
  "preEvolutions": [],
  "experienceGroup": "MediumFast",
  "aggression": {
    "timid": 80,
    "passive": 0,
    "aggressive": 20
  },
  "spawnLocations": [
    "Land"
  ],
  "biomeIDs": [
    1
  ],
  "evGain": {
    "HP": 0,
    "Attack": 1,
    "Defence": 0,
    "SpecialAttack": 0,
    "SpecialDefence": 0,
    "Speed": 0
  },
  "canSurf": false,
  "maxGroupSize": 1,
  "minGroupSize": 1,
  "hoverHeight": 0.0,
  "doesHover": false,
  "id": 892,
  "baseFormID": 892,
  "weight": 13.2,
  "pokemon": "Yungoos",
  "abilities": [
    "Stakeout",
    "StrongJaw",
    "Adaptability"
  ],
  "eggGroups": [
    "Field"
  ],
  "eggCycles": 15,
  "form": -1,
  "evolutionDefs": [
    {
      "targetId": 893,
      "evolveLevel": 20,
      "evolveCondition": "Time:Day:Gumshoos"
    }
  ],
  "moves": {
    "levelMoves": {
      "1": [
        "Tackle"
      ],
      "34": [
        "Crunch"
      ],
      "3": [
        "Leer"
      ],
      "37": [
        "Hyper Fang"
      ],
      "7": [
        "Pursuit"
      ],
      "40": [
        "Yawn"
      ],
      "10": [
        "Sand Attack"
      ],
      "43": [
        "Thrash"
      ],
      "13": [
        "Odor Sleuth"
      ],
      "46": [
        "Rest"
      ],
      "16": [
        "Bide"
      ],
      "19": [
        "Bite"
      ],
      "22": [
        "Mud-Slap"
      ],
      "25": [
        "Super Fang"
      ],
      "28": [
        "Take Down"
      ],
      "31": [
        "Scary Face"
      ]
    },
    "eggMoves": [
      "Last Resort",
      "Thunder Fang",
      "Ice Fang",
      "Fire Fang",
      "Revenge"
    ],
    "evolutionMoves": [],
    "tmTRMoves": [
      "Rest",
      "Thief",
      "Snore",
      "Protect",
      "Scary Face",
      "Attract",
      "Sandstorm",
      "Facade",
      "Revenge",
      "Rock Tomb",
      "U-turn",
      "Payback",
      "Thunder Fang",
      "Ice Fang",
      "Fire Fang",
      "Round",
      "Earthquake",
      "Substitute",
      "Endure",
      "Sleep Talk",
      "Iron Tail",
      "Crunch",
      "Uproar",
      "Taunt",
      "Work Up"
    ],
    "tutorMoves": {
      "Regular": [
        "Endeavor",
        "Last Resort",
        "Snore",
        "Uproar",
        "Iron Tail",
        "Super Fang",
        "Stomping Tantrum",
        "Shock Wave"
      ],
      "Transfer": [
        "Confide",
        "Hidden Power",
        "Echoed Voice",
        "Double Team",
        "Toxic",
        "Swagger",
        "Return",
        "Torment",
        "Frustration"
      ]
    }
  }
}