{
  "pixelmonName": "Zacian",
  "spDef": 115,
  "spAtt": 80,
  "speed": 148,
  "defence": 115,
  "attack": 170,
  "hp": 92,
  "catchRate": 10,
  "malePercent": -1,
  "nationalPokedexNumber": 888,
  "spawnLevel": 70,
  "spawnLevelRange": 0,
  "baseExp": 335,
  "baseFriendship": 0,
  "rarity": {
    "day": 75,
    "dawndusk": 0,
    "night": 0
  },
  "type1": "Fairy",
  "type2": "Steel",
  "height": 1.4,
  "width": 0.7,
  "length": 0.7,
  "giScale": 1.0,
  "canFly": false,
  "isRideable": true,
  "preEvolutions": [],
  "experienceGroup": "Slow",
  "aggression": {
    "timid": 80,
    "passive": 0,
    "aggressive": 20
  },
  "spawnLocations": [
    "Land"
  ],
  "biomeIDs": [
    2,
    130,
    2,
    17,
    130
  ],
  "evGain": {
    "HP": 0,
    "Attack": 0,
    "Defence": 0,
    "SpecialAttack": 0,
    "SpecialDefence": 0,
    "Speed": 3
  },
  "canSurf": false,
  "ridingOffsets": {
    "standing": {
      "x": 0.0,
      "y": -0.5,
      "z": 0.0
    }
  },
  "maxGroupSize": 1,
  "minGroupSize": 1,
  "hoverHeight": 0.0,
  "doesHover": false,
  "id": 1141,
  "baseFormID": 1140,
  "weight": 355.0,
  "pokemon": "Zacian",
  "abilities": [
    "IntrepidSword",
    null,
    null
  ],
  "eggGroups": [
    "Undiscovered"
  ],
  "eggCycles": 21,
  "form": 1,
  "evolutionDefs": [],
  "moves": {
    "levelMoves": {
      "1": [
        "Quick Attack",
        "Metal Claw",
        "Sacred Sword",
        "Bite",
        "Quick Guard",
        "Howl",
        "Behemoth Blade"
      ],
      "33": [
        "Iron Head"
      ],
      "66": [
        "Moonblast"
      ],
      "22": [
        "Swords Dance"
      ],
      "55": [
        "Crunch"
      ],
      "88": [
        "Giga Impact"
      ],
      "11": [
        "Slash"
      ],
      "44": [
        "Laser Focus"
      ],
      "77": [
        "Close Combat"
      ]
    },
    "eggMoves": [],
    "evolutionMoves": [],
    "tmTRMoves": [
      "Snore",
      "Facade",
      "Assurance",
      "Focus Energy",
      "Play Rough",
      "Snarl",
      "Air Slash",
      "Fire Fang",
      "Retaliate",
      "Swords Dance",
      "Revenge",
      "Close Combat",
      "Iron Head",
      "Rest",
      "Thunder Fang",
      "Ice Fang",
      "Iron Tail",
      "Work Up",
      "Agility",
      "Scary Face",
      "Round",
      "Imprison",
      "Substitute",
      "Solar Blade",
      "Brick Break",
      "Giga Impact",
      "Crunch",
      "Hyper Voice",
      "Helping Hand",
      "False Swipe",
      "Protect",
      "Dig",
      "Wild Charge",
      "Hyper Beam",
      "Psychic Fangs",
      "Focus Blast",
      "Tail Slap",
      "Brutal Swing",
      "Endure",
      "Sleep Talk",
      "Reversal",
      "Swift",
      "Psycho Cut"
    ],
    "tutorMoves": {}
  }
}