{
  "pixelmonName": "Zamazenta",
  "spDef": 115,
  "spAtt": 80,
  "speed": 138,
  "defence": 115,
  "attack": 130,
  "hp": 92,
  "catchRate": 10,
  "malePercent": -1,
  "nationalPokedexNumber": 889,
  "spawnLevel": 70,
  "spawnLevelRange": 0,
  "baseExp": 335,
  "baseFriendship": 0,
  "rarity": {
    "day": 75,
    "dawndusk": 0,
    "night": 0
  },
  "type1": "Fighting",
  "height": 1.4,
  "width": 0.7,
  "length": 0.7,
  "giScale": 1.0,
  "canFly": false,
  "isRideable": true,
  "preEvolutions": [],
  "experienceGroup": "Slow",
  "aggression": {
    "timid": 80,
    "passive": 0,
    "aggressive": 20
  },
  "spawnLocations": [
    "Land"
  ],
  "biomeIDs": [
    2,
    130,
    2,
    17,
    130
  ],
  "evGain": {
    "HP": 0,
    "Attack": 0,
    "Defence": 0,
    "SpecialAttack": 0,
    "SpecialDefence": 0,
    "Speed": 3
  },
  "canSurf": false,
  "ridingOffsets": {
    "standing": {
      "x": 0.0,
      "y": -0.8,
      "z": 0.0
    }
  },
  "maxGroupSize": 1,
  "minGroupSize": 1,
  "hoverHeight": 0.0,
  "doesHover": false,
  "id": 1142,
  "baseFormID": 1142,
  "weight": 210.0,
  "pokemon": "Zamazenta",
  "abilities": [
    "DauntlessShield",
    null,
    null
  ],
  "eggGroups": [
    "Undiscovered"
  ],
  "eggCycles": 21,
  "form": 0,
  "evolutionDefs": [],
  "moves": {
    "levelMoves": {
      "1": [
        "Quick Attack",
        "Metal Claw",
        "Wide Guard",
        "Bite",
        "Metal Burst",
        "Howl"
      ],
      "33": [
        "Iron Head"
      ],
      "66": [
        "Moonblast"
      ],
      "22": [
        "Iron Defense"
      ],
      "55": [
        "Crunch"
      ],
      "88": [
        "Giga Impact"
      ],
      "11": [
        "Slash"
      ],
      "44": [
        "Laser Focus"
      ],
      "77": [
        "Close Combat"
      ]
    },
    "eggMoves": [
      "Behemoth Bash"
    ],
    "evolutionMoves": [],
    "tmTRMoves": [
      "Snore",
      "Facade",
      "Focus Energy",
      "Play Rough",
      "Dazzling Gleam",
      "Snarl",
      "Light Screen",
      "Fire Fang",
      "Retaliate",
      "Solar Beam",
      "Revenge",
      "Close Combat",
      "Iron Head",
      "Rest",
      "Thunder Fang",
      "Ice Fang",
      "Iron Tail",
      "Work Up",
      "Agility",
      "Scary Face",
      "Round",
      "Iron Defense",
      "Imprison",
      "Substitute",
      "Power Swap",
      "Giga Impact",
      "Crunch",
      "Hyper Voice",
      "Helping Hand",
      "Payback",
      "Safeguard",
      "Protect",
      "Guard Swap",
      "Dig",
      "Wild Charge",
      "Hyper Beam",
      "Psychic Fangs",
      "Flash Cannon",
      "Focus Blast",
      "Tail Slap",
      "Reflect",
      "Endure",
      "Sleep Talk",
      "Reversal",
      "Swift"
    ],
    "tutorMoves": {
      "Regular": [
        "Coaching"
      ]
    }
  }
}