{
  "pixelmonName": "Zubat",
  "spDef": 40,
  "spAtt": 30,
  "speed": 55,
  "defence": 35,
  "attack": 45,
  "hp": 40,
  "catchRate": 255,
  "malePercent": 50,
  "nationalPokedexNumber": 41,
  "spawnLevel": 5,
  "spawnLevelRange": 17,
  "baseExp": 54,
  "baseFriendship": 70,
  "rarity": {
    "day": 0,
    "dawndusk": 200,
    "night": 200
  },
  "type1": "Poison",
  "type2": "Flying",
  "height": 1.2,
  "width": 0.75,
  "length": 0.75,
  "giScale": 1.0,
  "canFly": true,
  "isRideable": false,
  "preEvolutions": [],
  "experienceGroup": "MediumFast",
  "aggression": {
    "timid": 80,
    "passive": 0,
    "aggressive": 20
  },
  "flyingParameters": {
    "flyHeightMin": 0,
    "flyHeightMax": 10,
    "flySpeedModifier": 0.6,
    "flyRefreshRateY": 80,
    "flyRefreshRateXZ": 200,
    "flyRefreshRateSpeed": 100,
    "flightTimeMin": 0,
    "flightTimeMax": 20,
    "flapRate": 5,
    "landingMaterial": "GrassAndLeaves"
  },
  "spawnLocations": [
    "AirPersistent",
    "UnderGround"
  ],
  "biomeIDs": [
    4,
    5,
    6,
    18,
    19,
    27,
    28,
    29,
    32,
    33,
    132,
    133,
    134,
    155,
    156,
    157,
    160,
    161,
    24
  ],
  "evGain": {
    "HP": 0,
    "Attack": 0,
    "Defence": 0,
    "SpecialAttack": 0,
    "SpecialDefence": 0,
    "Speed": 1
  },
  "canSurf": false,
  "maxGroupSize": 5,
  "minGroupSize": 3,
  "hoverHeight": 0.0,
  "doesHover": false,
  "id": 1,
  "baseFormID": 1,
  "weight": 7.5,
  "pokemon": "Zubat",
  "abilities": [
    "InnerFocus",
    null,
    "Infiltrator"
  ],
  "eggGroups": [
    "Flying"
  ],
  "eggCycles": 16,
  "form": -1,
  "evolutionDefs": [
    {
      "targetId": 2,
      "evolveLevel": 22
    }
  ],
  "moves": {
    "levelMoves": {
      "1": [
        "Supersonic",
        "Absorb"
      ],
      "50": [
        "Air Slash"
      ],
      "35": [
        "Haze"
      ],
      "20": [
        "Quick Guard"
      ],
      "5": [
        "Astonish"
      ],
      "55": [
        "Leech Life"
      ],
      "40": [
        "Venoshock"
      ],
      "25": [
        "Air Cutter"
      ],
      "10": [
        "Mean Look"
      ],
      "45": [
        "Confuse Ray"
      ],
      "30": [
        "Bite"
      ],
      "15": [
        "Poison Fang"
      ]
    },
    "eggMoves": [
      "Defog",
      "Quick Attack",
      "Curse",
      "Whirlwind",
      "Wing Attack",
      "Hypnosis",
      "Gust"
    ],
    "evolutionMoves": [],
    "tmTRMoves": [
      "Giga Drain",
      "Snore",
      "Facade",
      "Assurance",
      "Uproar",
      "Taunt",
      "Air Slash",
      "Leech Life",
      "Sludge Bomb",
      "U-turn",
      "Brave Bird",
      "Fly",
      "Rest",
      "Venom Drench",
      "Agility",
      "Nasty Plot",
      "Round",
      "Shadow Ball",
      "Heat Wave",
      "Substitute",
      "Acrobatics",
      "Attract",
      "Crunch",
      "Payback",
      "Protect",
      "Venoshock",
      "Rain Dance",
      "Thief",
      "Sunny Day",
      "Steel Wing",
      "Endure",
      "Sleep Talk",
      "Swift",
      "Zen Headbutt"
    ],
    "tutorMoves": {
      "Regular": [
        "Dual Wingbeat"
      ],
      "Transfer": [
        "Ominous Wind",
        "Secret Power",
        "Detect",
        "Snatch",
        "Tailwind",
        "Natural Gift",
        "Confide",
        "Pluck",
        "Double-Edge",
        "Roost",
        "Take Down",
        "Hidden Power",
        "Super Fang",
        "Mega Drain",
        "Bide",
        "Double Team",
        "Toxic",
        "Aerial Ace",
        "Rage",
        "Headbutt",
        "Razor Wind",
        "Swagger",
        "Return",
        "Mimic",
        "Captivate",
        "Pursuit",
        "Twister",
        "Faint Attack",
        "Torment",
        "Frustration"
      ]
    }
  }
}