{
  "pixelmonName": "Zygarde",
  "spDef": 95,
  "spAtt": 91,
  "speed": 85,
  "defence": 121,
  "attack": 100,
  "hp": 216,
  "catchRate": 3,
  "malePercent": -1,
  "nationalPokedexNumber": 718,
  "spawnLevel": 70,
  "spawnLevelRange": 0,
  "baseExp": 319,
  "baseFriendship": 0,
  "rarity": {
    "day": 0,
    "dawndusk": 0,
    "night": 0
  },
  "type1": "Dragon",
  "type2": "Ground",
  "height": 4.2,
  "width": 1.0,
  "length": 1.0,
  "giScale": 1.0,
  "canFly": false,
  "isRideable": false,
  "preEvolutions": [],
  "experienceGroup": "Slow",
  "aggression": {
    "timid": 80,
    "passive": 0,
    "aggressive": 20
  },
  "spawnLocations": [],
  "biomeIDs": [],
  "evGain": {
    "HP": 3,
    "Attack": 0,
    "Defence": 0,
    "SpecialAttack": 0,
    "SpecialDefence": 0,
    "Speed": 0
  },
  "canSurf": false,
  "maxGroupSize": 1,
  "minGroupSize": 1,
  "hoverHeight": 0.0,
  "doesHover": false,
  "id": 984,
  "baseFormID": 796,
  "weight": 610.0,
  "pokemon": "Zygarde",
  "abilities": [
    "PowerConstruct",
    null,
    null
  ],
  "eggGroups": [
    "Undiscovered"
  ],
  "eggCycles": 120,
  "form": 2,
  "evolutionDefs": [],
  "moves": {
    "levelMoves": {
      "16": [
        "Dig"
      ],
      "32": [
        "Crunch"
      ],
      "48": [
        "Land\u0027s Wrath"
      ],
      "64": [
        "Sandstorm"
      ],
      "80": [
        "Earthquake"
      ],
      "1": [
        "Bind",
        "Thousand Waves",
        "Dragon Breath",
        "Bite",
        "Thousand Arrows",
        "Bulldoze",
        "Core Enforcer"
      ],
      "8": [
        "Haze"
      ],
      "24": [
        "Safeguard"
      ],
      "40": [
        "Dragon Pulse"
      ],
      "56": [
        "Glare"
      ],
      "72": [
        "Coil"
      ],
      "88": [
        "Outrage"
      ]
    },
    "eggMoves": [
      "Scorching Sands",
      "Skitter Smack",
      "Scale Shot"
    ],
    "evolutionMoves": [],
    "tmTRMoves": [
      "Snore",
      "Facade",
      "Stone Edge",
      "Grass Knot",
      "Retaliate",
      "Stomping Tantrum",
      "Breaking Swipe",
      "Rest",
      "Earthquake",
      "Iron Tail",
      "Rock Slide",
      "Sludge Wave",
      "Earth Power",
      "Round",
      "Body Slam",
      "Sandstorm",
      "Bulldoze",
      "Substitute",
      "Superpower",
      "Brick Break",
      "Dragon Dance",
      "Giga Impact",
      "Crunch",
      "Hyper Voice",
      "Payback",
      "Safeguard",
      "Dragon Pulse",
      "Protect",
      "Dig",
      "High Horsepower",
      "Hyper Beam",
      "Sunny Day",
      "Focus Blast",
      "Outrage",
      "Endure",
      "Sleep Talk",
      "Reversal",
      "Swift",
      "Zen Headbutt"
    ],
    "tutorMoves": {
      "Regular": [
        "Scorching Sands",
        "Skitter Smack",
        "Scale Shot"
      ],
      "Transfer": [
        "Rock Smash",
        "Secret Power",
        "Draco Meteor",
        "Confide",
        "Extreme Speed",
        "Camouflage",
        "Hidden Power",
        "Block",
        "Double Team",
        "Spite",
        "Shock Wave",
        "Toxic",
        "Dragon Tail",
        "Swagger",
        "Pain Split",
        "Return",
        "Strength",
        "Frustration"
      ],
      "Event": [
        "Core Enforcer",
        "Thousand Arrows",
        "Thousand Waves"
      ]
    }
  }
}