{
    "display": {
        "icon": {
            "item": "pixelmon:ice_gem"
        },
        "title": {
            "translate": "advancements.capture_type_ice.title"
        },
        "description": {
            "translate": "advancements.capture_type_ice.description"
        },
        "background": "pixelmon:textures/gui/advancements/backgrounds/ruinswall.png",
        "hidden": true
    },
    "criteria": {
        "capture_ice_50": {
            "trigger": "pixelmon:capture_type_trigger",
            "conditions" : {
                "type" : "ice",
                "count" : 50
            }
        }
    }
}