{
  "data": {
    /* Type options are:
      "PokemartMain" - Spawns as the primary seller in a Poké Mart. Sells main items.
      "PokemartSecond" - Spawns as the secondary seller in a Poké Mart. Sells luxury items.
      "Spawn" - Spawns in the wild as a very rare seller.

      More will be added as new shop types are added.
    */
    "type": "PokemartMain"
  },
  "textures": [
    {
      "name": "shoplady4.png"
    }
  ],
  "names": [
    {
      "name": "Suki"
    }
  ],
  "chat": [
    {
      "hello": "Hola, ¿puedo ayudarte a encontrar tu equipamiento Pokémon? Tenemos algunas ofertas especiales.",
      "goodbye": "Gracias por tus compras. Esperamos poder servirle de nuevo."
    },
    {
      "hello": "Bienvenido a la Tienda Pokémon. ¿Buscas algo en especial?",
      "goodbye": "¡Adiós! ¡Nos vemos pronto!"
    }
  ],
  /*
    Only items listed in the items array will show up in the shop for sale. Any item can be sold to the shop however.
    Items layout:
    name - reference to the name entry in shopItems.json.
    multi - optional field, defaults to 1, changes cost of buying that item by that multiplier.
    rarity - optional field, from 0 - 1, if set the item set there will have a percentage chance of turning up at this shopkeeper. Refreshed every MC day.
    variation - optional field, true or false, if true the items price will vary between 0.9 and 1.1 times the default price. Defaults as True
  */
 "items": [
    {
      "name": "pixelmon:poke_ball",
      "multi": 1.2
    },
    {
      "name": "pixelmon:great_ball"
    },
    {
      "name": "pixelmon:ultra_ball",
      "multi": 1.1,
      "rarity": 0.5
    },
    {
      "name": "pixelmon:friend_ball",
      "rarity": 0.3
    },
    {
      "name": "pixelmon:heal_ball",
      "rarity": 0.3
    },
    {
      "name": "pixelmon:luxury_ball",
      "rarity": 0.3
    },
    {
      "name": "pixelmon:moomoo_milk",
      "rarity": 0.5
    },
    {
      "name": "pixelmon:heal_powder"
    },
    {
      "name": "pixelmon:energy_powder"
    },
    {
      "name": "pixelmon:energy_root"
    },
    {
      "name": "pixelmon:revival_herb",
      "rarity": 0.7
    },
    {
      "name": "pixelmon:x_attack"
    },
    {
      "name": "pixelmon:x_defence"
    },
    {
      "name": "pixelmon:x_special_attack"
    },
    {
      "name": "pixelmon:x_special_defence"
    },
    {
      "name": "pixelmon:x_speed"
    },
    {
      "name": "pixelmon:x_accuracy"
    },
    {
      "name": "pixelmon:dire_hit"
    }
  ]
}
