{
  "id": "Aegislash",
  "spawnInfos": [
    {
      "minLevel": 45,
      "maxLevel": 55,
      "typeID": "pokemon",
      "rarity": 10,
      "spec": {
        "name": "Aegislash",
        "form": 0
      },
      "stringLocationTypes": [
        "Land"
      ],
      "condition": {
        "times": [
          "DAWN",
          "DUSK",
          "NIGHT"
        ],
        "stringBiomes": [
          "minecraft:roofed_forest",
          "biomesoplenty:ominous_woods",
          "biomesoplenty:fen",
          "biomesoplenty:wasteland",
          "biomesoplenty:steppe",
          "biomesoplenty:tundra",
          "minecraft:mutated_roofed_forest",
          "minecraft:ice_mountains",
          "biomesoplenty:glacier",
          "biomesoplenty:alps",
          "minecraft:mutated_extreme_hills",
          "minecraft:mutated_extreme_hills_with_trees",
          "pixelmon:ultraforest",
          "pixelmon:ultraburst",
          "pixelmon:ultradarkforest"
        ]
      }
    }
  ]
}