{
  "id": "Aerodactyl",
  "spawnInfos": [
    {
      "minLevel": 25,
      "maxLevel": 50,
      "typeID": "pokemon",
      "rarity": 0,
      "spec": {
        "name": "Aerodactyl",
        "form": 0
      },
      "stringLocationTypes": [
        "Air"
      ],
      "condition": {
        "times": [
          "DAWN"
        ],
        "stringBiomes": []
      }
    }
  ]
}