{
  "id": "Aggron",
  "spawnInfos": [
    {
      "minLevel": 40,
      "maxLevel": 60,
      "typeID": "pokemon",
      "rarity": 25,
      "spec": {
        "name": "Aggron",
        "form": 0
      },
      "stringLocationTypes": [
        "Land",
        "Underground"
      ],
      "condition": {
        "times": [
          "DAWN",
          "DAY",
          "DUSK",
          "NIGHT"
        ],
        "stringBiomes": [
          "biomesoplenty:mountain",
          "biomesoplenty:alps_foothills",
          "biomesoplenty:mountain_foothills",
          "biomesoplenty:overgrown_cliffs",
          "minecraft:extreme_hills",
          "biomesoplenty:highland",
          "minecraft:extreme_hills_with_trees",
          "minecraft:mutated_taiga",
          "minecraft:mutated_savanna",
          "minecraft:mutated_savanna_rock",
          "minecraft:mutated_mesa",
          "minecraft:ice_mountains",
          "minecraft:mutated_ice_flats",
          "biomesoplenty:glacier",
          "biomesoplenty:cold_desert",
          "minecraft:taiga_cold_hills",
          "biomesoplenty:snowy_tundra",
          "biomesoplenty:shield",
          "minecraft:taiga_hills",
          "minecraft:taiga",
          "pixelmon:ultraforest"
        ]
      }
    }
  ]
}