{
  "id": "Azumarill",
  "spawnInfos": [
    {
      "minLevel": 18,
      "maxLevel": 50,
      "typeID": "pokemon",
      "rarity": 10,
      "spec": {
        "name": "Azumarill",
        "form": 0
      },
      "stringLocationTypes": [
        "Land"
      ],
      "condition": {
        "times": [
          "DAWN",
          "DAY",
          "DUSK",
          "NIGHT"
        ],
        "stringBiomes": [
          "minecraft:beaches",
          "biomesoplenty:white_beach",
          "biomesoplenty:origin_beach",
          "biomesoplenty:land_of_lakes",
          "biomesoplenty:flower_island",
          "biomesoplenty:tropical_island",
          "biomesoplenty:cold_desert",
          "minecraft:taiga_cold_hills",
          "pixelmon:ultraforest"
        ]
      }
    }
  ]
}