{
  "id": "Azurill",
  "spawnInfos": [
    {
      "minLevel": 5,
      "maxLevel": 8,
      "typeID": "pokemon",
      "rarity": 100,
      "spec": {
        "name": "Azurill",
        "form": 0
      },
      "stringLocationTypes": [
        "Land"
      ],
      "condition": {
        "times": [
          "DAWN",
          "DAY",
          "DUSK",
          "NIGHT"
        ],
        "stringBiomes": [
          "minecraft:beaches",
          "biomesoplenty:white_beach",
          "biomesoplenty:origin_beach",
          "biomesoplenty:land_of_lakes",
          "biomesoplenty:flower_island",
          "biomesoplenty:bayou",
          "biomesoplenty:cold_desert",
          "minecraft:cold_beach"
        ]
      }
    }
  ]
}