{
  "id": "Bellossom",
  "spawnInfos": [
    {
      "minLevel": 35,
      "maxLevel": 50,
      "typeID": "pokemon",
      "rarity": 10,
      "spec": {
        "name": "Bellossom",
        "form": 0
      },
      "stringLocationTypes": [
        "Land"
      ],
      "condition": {
        "times": [
          "DAWN",
          "DAY",
          "DUSK",
          "NIGHT"
        ],
        "stringBiomes": [
          "minecraft:plains",
          "biomesoplenty:flower_field",
          "biomesoplenty:lavender_fields",
          "minecraft:savanna",
          "biomesoplenty:chaparral"
        ]
      }
    }
  ]
}