{
  "id": "Bounsweet",
  "spawnInfos": [
    {
      "minLevel": 4,
      "maxLevel": 17,
      "typeID": "pokemon",
      "rarity": 50,
      "spec": {
        "name": "Bounsweet",
        "form": 0
      },
      "stringLocationTypes": [
        "Land"
      ],
      "condition": {
        "times": [
          "DAWN",
          "DAY",
          "DUSK",
          "NIGHT"
        ],
        "stringBiomes": [
          "biomesoplenty:lavender_fields",
          "biomesoplenty:cherry_blossom_grove",
          "minecraft:mutated_plains",
          "minecraft:mutated_forest",
          "biomesoplenty:flower_island",
          "minecraft:mutated_desert"
        ]
      }
    }
  ]
}