{
  "id": "Braviary",
  "spawnInfos": [
    {
      "minLevel": 54,
      "maxLevel": 65,
      "typeID": "pokemon",
      "rarity": 25,
      "spec": {
        "name": "Braviary",
        "form": 0
      },
      "stringLocationTypes": [
        "Air"
      ],
      "condition": {
        "times": [
          "DAWN",
          "DAY",
          "DUSK",
          "NIGHT"
        ],
        "stringBiomes": [
          "biomesoplenty:quagmire",
          "minecraft:roofed_forest",
          "biomesoplenty:dead_forest",
          "biomesoplenty:fen",
          "biomesoplenty:wasteland",
          "biomesoplenty:steppe",
          "minecraft:mutated_roofed_forest",
          "minecraft:plains",
          "minecraft:mutated_plains",
          "biomesoplenty:prairie",
          "biomesoplenty:pasture",
          "biomesoplenty:meadow",
          "biomesoplenty:lavender_fields",
          "minecraft:savanna",
          "biomesoplenty:chaparral",
          "biomesoplenty:shrubland",
          "minecraft:savanna_rock",
          "biomesoplenty:lush_swamp",
          "biomesoplenty:marsh"
        ]
      }
    }
  ]
}