{
  "id": "Buizel",
  "spawnInfos": [
    {
      "minLevel": 10,
      "maxLevel": 20,
      "typeID": "pokemon",
      "rarity": 100,
      "spec": {
        "name": "Buizel",
        "form": 0
      },
      "stringLocationTypes": [
        "Land"
      ],
      "condition": {
        "times": [
          "DAWN",
          "DAY",
          "DUSK"
        ],
        "stringBiomes": [
          "minecraft:beaches",
          "minecraft:stone_beach",
          "minecraft:cold_beach",
          "biomesoplenty:gravel_beach",
          "minecraft:river"
        ]
      }
    }
  ]
}