{
  "id": "Butterfree",
  "spawnInfos": [
    {
      "minLevel": 10,
      "maxLevel": 50,
      "typeID": "pokemon",
      "rarity": 50,
      "spec": {
        "name": "Butterfree",
        "form": 0
      },
      "stringLocationTypes": [
        "Land"
      ],
      "condition": {
        "times": [
          "DAWN",
          "DAY"
        ],
        "stringBiomes": [
          "minecraft:forest",
          "minecraft:birch_forest",
          "biomesoplenty:woodland",
          "biomesoplenty:grove",
          "biomesoplenty:land_of_lakes",
          "biomesoplenty:boreal_forest",
          "biomesoplenty:redwood_forest",
          "biomesoplenty:temperate_rainforest",
          "minecraft:forest_hills",
          "minecraft:birch_forest_hills",
          "minecraft:jungle",
          "biomesoplenty:bamboo_forest",
          "biomesoplenty:tropical_rainforest",
          "minecraft:jungle_hills",
          "minecraft:mutated_jungle",
          "minecraft:beaches",
          "biomesoplenty:white_beach",
          "minecraft:mushroom_island_shore"
        ]
      }
    }
  ]
}