{
  "id": "Carbink",
  "spawnInfos": [
    {
      "minLevel": 30,
      "maxLevel": 60,
      "typeID": "pokemon",
      "rarity": 25,
      "spec": {
        "name": "Carbink",
        "form": 0
      },
      "stringLocationTypes": [
        "Land",
        "Underground"
      ],
      "condition": {
        "times": [
          "DAWN",
          "DAY",
          "DUSK",
          "NIGHT"
        ],
        "stringBiomes": [
          "minecraft:roofed_forest",
          "biomesoplenty:mystic_grove",
          "minecraft:mushroom_island",
          "biomesoplenty:cherry_blossom_grove",
          "biomesoplenty:origin_island",
          "minecraft:mutated_jungle_edge",
          "minecraft:mutated_roofed_forest",
          "biomesoplenty:mountain_foothills",
          "biomesoplenty:crag",
          "biomesoplenty:overgrown_cliffs",
          "minecraft:extreme_hills",
          "minecraft:sky",
          "minecraft:mutated_forest",
          "pixelmon:ultraforest"
        ]
      }
    }
  ]
}