{
  "id": "Centiskorch",
  "spawnInfos": [
    {
      "minLevel": 28,
      "maxLevel": 54,
      "typeID": "pokemon",
      "rarity": 10,
      "spec": {
        "name": "Centiskorch",
        "form": 0
      },
      "stringLocationTypes": [
        "Land"
      ],
      "condition": {
        "times": [
          "DAWN",
          "DAY"
        ],
        "stringBiomes": [
          "minecraft:desert",
          "minecraft:mesa",
          "minecraft:mesa_rock",
          "biomesoplenty:volcanic_island",
          "minecraft:mutated_mesa_rock",
          "biomesoplenty:outback",
          "biomesoplenty:phantasmagoric_inferno",
          "biomesoplenty:visceral_heap",
          "minecraft:hell",
          "minecraft:mesa_clear_rock"
        ]
      }
    }
  ]
}