{
  "id": "Charmeleon",
  "spawnInfos": [
    {
      "minLevel": 16,
      "maxLevel": 36,
      "typeID": "pokemon",
      "rarity": 10,
      "spec": {
        "name": "Charmeleon",
        "form": 0
      },
      "stringLocationTypes": [
        "Land"
      ],
      "condition": {
        "times": [
          "DAWN",
          "DAY",
          "DUSK"
        ],
        "stringBiomes": [
          "biomesoplenty:volcanic_island",
          "minecraft:desert_hills",
          "minecraft:mesa_clear_rock",
          "minecraft:mutated_mesa",
          "minecraft:mesa_rock",
          "minecraft:mesa"
        ]
      }
    }
  ]
}