{
  "id": "Cherrim",
  "spawnInfos": [
    {
      "minLevel": 28,
      "maxLevel": 35,
      "typeID": "pokemon",
      "rarity": 10,
      "spec": {
        "name": "Cherrim",
        "form": 0
      },
      "stringLocationTypes": [
        "Land"
      ],
      "condition": {
        "times": [
          "DAWN",
          "DAY",
          "DUSK",
          "NIGHT"
        ],
        "stringBiomes": [
          "minecraft:mutated_plains",
          "biomesoplenty:meadow",
          "biomesoplenty:mystic_grove",
          "biomesoplenty:origin_island",
          "biomesoplenty:lush_desert",
          "biomesoplenty:marsh",
          "minecraft:taiga_cold_hills",
          "minecraft:cold_beach"
        ]
      }
    },
    {
      "minLevel": 28,
      "maxLevel": 35,
      "typeID": "pokemon",
      "rarity": 10,
      "spec": {
        "name": "Cherrim",
        "form": 1
      },
      "stringLocationTypes": [
        "Land"
      ],
      "condition": {
        "times": [
          "DAWN",
          "DAY",
          "DUSK",
          "NIGHT"
        ],
        "stringBiomes": [
          "minecraft:mutated_plains",
          "biomesoplenty:flower_field",
          "biomesoplenty:lavender_fields",
          "biomesoplenty:meadow",
          "biomesoplenty:mystic_grove",
          "biomesoplenty:flower_island",
          "biomesoplenty:origin_island",
          "biomesoplenty:lush_desert"
        ]
      }
    }
  ]
}