{
  "id": "Clawitzer",
  "spawnInfos": [
    {
      "minLevel": 37,
      "maxLevel": 55,
      "typeID": "pokemon",
      "rarity": 25,
      "spec": {
        "name": "Clawitzer",
        "form": 0
      },
      "stringLocationTypes": [
        "Land",
        "Water"
      ],
      "condition": {
        "times": [
          "DAWN",
          "DAY",
          "DUSK",
          "NIGHT"
        ],
        "stringBiomes": [
          "minecraft:ocean",
          "minecraft:deep_ocean",
          "biomesoplenty:coral_reef",
          "biomesoplenty:kelp_forest",
          "minecraft:beaches",
          "minecraft:stone_beach",
          "minecraft:cold_beach",
          "biomesoplenty:gravel_beach",
          "biomesoplenty:origin_beach",
          "minecraft:mushroom_island_shore"
        ]
      }
    }
  ]
}