{
  "id": "Clobbopus",
  "spawnInfos": [
    {
      "minLevel": 5,
      "maxLevel": 40,
      "typeID": "pokemon",
      "rarity": 25,
      "spec": {
        "name": "Clobbopus",
        "form": 0
      },
      "stringLocationTypes": [
        "Land"
      ],
      "condition": {
        "times": [
          "DAWN",
          "DAY"
        ],
        "stringBiomes": [
          "minecraft:stone_beach",
          "minecraft:cold_beach",
          "biomesoplenty:gravel_beach",
          "minecraft:frozen_ocean"
        ]
      }
    }
  ]
}