{
  "id": "Cloyster",
  "spawnInfos": [
    {
      "minLevel": 35,
      "maxLevel": 50,
      "typeID": "pokemon",
      "rarity": 10,
      "spec": {
        "name": "Cloyster",
        "form": 0
      },
      "stringLocationTypes": [
        "Water",
        "Land"
      ],
      "condition": {
        "times": [
          "DAWN",
          "DAY",
          "DUSK",
          "NIGHT"
        ],
        "stringBiomes": [
          "minecraft:frozen_river",
          "minecraft:frozen_ocean",
          "minecraft:cold_beach",
          "biomesoplenty:origin_beach",
          "minecraft:ocean",
          "biomesoplenty:coral_reef",
          "biomesoplenty:glacier",
          "minecraft:taiga_cold",
          "pixelmon:ultradeepsea"
        ]
      }
    }
  ]
}