{
  "id": "Corsola",
  "spawnInfos": [
    {
      "minLevel": 5,
      "maxLevel": 50,
      "typeID": "pokemon",
      "rarity": 25,
      "spec": {
        "name": "Corsola",
        "form": 0
      },
      "stringLocationTypes": [
        "Water"
      ],
      "condition": {
        "times": [
          "DAY"
        ],
        "stringBiomes": [
          "biomesoplenty:white_beach",
          "biomesoplenty:origin_beach",
          "minecraft:beaches",
          "biomesoplenty:oasis",
          "biomesoplenty:snowy_tundra",
          "pixelmon:ultradeepsea",
          "pixelmon:ultraswamp",
          "biomesoplenty:coral_reef"
        ]
      }
    },
    {
      "minLevel": 5,
      "maxLevel": 50,
      "typeID": "pokemon",
      "rarity": 10,
      "spec": {
        "name": "Corsola",
        "form": 10
      },
      "stringLocationTypes": [
        "Water"
      ],
      "condition": {
        "times": [
          "NIGHT"
        ],
        "stringBiomes": [
          "biomesoplenty:white_beach",
          "minecraft:beaches",
          "biomesoplenty:oasis",
          "biomesoplenty:snowy_tundra",
          "pixelmon:ultradeepsea",
          "pixelmon:ultraswamp"
        ]
      }
    }
  ]
}