{
  "id": "Corvisquire",
  "spawnInfos": [
    {
      "minLevel": 18,
      "maxLevel": 34,
      "typeID": "pokemon",
      "rarity": 10,
      "spec": {
        "name": "Corvisquire",
        "form": 0
      },
      "stringLocationTypes": [
        "Land"
      ],
      "condition": {
        "times": [
          "DUSK",
          "NIGHT"
        ],
        "stringBiomes": [
          "biomesoplenty:quagmire",
          "minecraft:roofed_forest",
          "biomesoplenty:ominous_woods",
          "biomesoplenty:dead_forest",
          "biomesoplenty:dead_swamp",
          "biomesoplenty:fen",
          "biomesoplenty:wasteland",
          "biomesoplenty:bog",
          "biomesoplenty:steppe",
          "minecraft:mutated_roofed_forest",
          "pixelmon:ultradarkforest"
        ]
      }
    }
  ]
}