{
  "id": "Cottonee",
  "spawnInfos": [
    {
      "minLevel": 5,
      "maxLevel": 25,
      "typeID": "pokemon",
      "rarity": 100,
      "spec": {
        "name": "Cottonee",
        "form": 0
      },
      "stringLocationTypes": [
        "Land"
      ],
      "condition": {
        "times": [
          "DAWN",
          "DAY",
          "DUSK",
          "NIGHT"
        ],
        "stringBiomes": [
          "biomesoplenty:lavender_fields",
          "biomesoplenty:cherry_blossom_grove",
          "minecraft:mutated_plains",
          "minecraft:mutated_forest",
          "biomesoplenty:flower_island",
          "biomesoplenty:mystic_grove",
          "biomesoplenty:origin_island",
          "minecraft:roofed_forest",
          "minecraft:mushroom_island",
          "biomesoplenty:lush_swamp"
        ]
      }
    }
  ]
}