{
  "id": "Crabrawler",
  "spawnInfos": [
    {
      "minLevel": 10,
      "maxLevel": 29,
      "typeID": "pokemon",
      "rarity": 100,
      "spec": {
        "name": "Crabrawler",
        "form": 0
      },
      "stringLocationTypes": [
        "Land"
      ],
      "condition": {
        "times": [
          "DAWN",
          "DAY",
          "DUSK",
          "NIGHT"
        ],
        "stringBiomes": [
          "minecraft:beaches",
          "minecraft:cold_beach",
          "biomesoplenty:white_beach",
          "minecraft:frozen_river",
          "minecraft:frozen_ocean",
          "biomesoplenty:alps_foothills",
          "biomesoplenty:cold_desert",
          "pixelmon:ultrajungle"
        ]
      }
    }
  ]
}