{
  "id": "Cubone",
  "spawnInfos": [
    {
      "minLevel": 10,
      "maxLevel": 28,
      "typeID": "pokemon",
      "rarity": 25,
      "spec": {
        "name": "Cubone",
        "form": 0
      },
      "stringLocationTypes": [
        "Land",
        "Underground"
      ],
      "condition": {
        "times": [
          "DAWN",
          "DAY",
          "DUSK"
        ],
        "stringBiomes": [
          "biomesoplenty:mountain",
          "biomesoplenty:mountain_foothills",
          "biomesoplenty:overgrown_cliffs",
          "biomesoplenty:highland",
          "minecraft:mutated_taiga",
          "minecraft:mutated_savanna_rock",
          "minecraft:mutated_mesa",
          "minecraft:desert_hills",
          "minecraft:mesa",
          "minecraft:mutated_desert",
          "biomesoplenty:oasis",
          "biomesoplenty:lush_desert",
          "biomesoplenty:brushland",
          "biomesoplenty:xeric_shrubland"
        ]
      }
    }
  ]
}