{
  "id": "Cufant",
  "spawnInfos": [
    {
      "minLevel": 5,
      "maxLevel": 34,
      "typeID": "pokemon",
      "rarity": 50,
      "spec": {
        "name": "Cufant",
        "form": 0
      },
      "stringLocationTypes": [
        "Land"
      ],
      "condition": {
        "times": [
          "DAY"
        ],
        "stringBiomes": [
          "minecraft:mesa",
          "minecraft:mesa_rock",
          "biomesoplenty:volcanic_island",
          "minecraft:mutated_mesa_rock",
          "biomesoplenty:brushland",
          "biomesoplenty:outback",
          "minecraft:mutated_desert",
          "minecraft:savanna",
          "minecraft:savanna_rock",
          "biomesoplenty:xeric_shrubland",
          "minecraft:mesa_clear_rock"
        ]
      }
    }
  ]
}