{
  "id": "Cyndaquil",
  "spawnInfos": [
    {
      "minLevel": 9,
      "maxLevel": 14,
      "typeID": "pokemon",
      "rarity": 25,
      "spec": {
        "name": "Cyndaquil",
        "form": 0
      },
      "stringLocationTypes": [
        "Land"
      ],
      "condition": {
        "times": [
          "DAWN",
          "DAY",
          "DUSK"
        ],
        "stringBiomes": [
          "minecraft:plains",
          "biomesoplenty:grassland",
          "biomesoplenty:meadow",
          "minecraft:savanna",
          "biomesoplenty:lush_desert",
          "biomesoplenty:oasis"
        ]
      }
    }
  ]
}