{
  "id": "Decidueye",
  "spawnInfos": [
    {
      "minLevel": 35,
      "maxLevel": 60,
      "typeID": "pokemon",
      "rarity": 2,
      "spec": {
        "name": "Decidueye",
        "form": 0
      },
      "stringLocationTypes": [
        "Land"
      ],
      "condition": {
        "times": [
          "DAWN",
          "DAY",
          "DUSK",
          "NIGHT"
        ],
        "stringBiomes": [
          "minecraft:forest",
          "minecraft:birch_forest",
          "biomesoplenty:redwood_forest",
          "biomesoplenty:sacred_springs",
          "biomesoplenty:maple_woods",
          "biomesoplenty:boreal_forest"
        ]
      }
    }
  ]
}