{
  "id": "Deoxys",
  "spawnInfos": [
    {
      "minLevel": 70,
      "maxLevel": 70,
      "typeID": "pokemon",
      "rarity": 2,
      "interval": "legendary",
      "spec": {
        "name": "Deoxys",
        "form": 0
      },
      "stringLocationTypes": [
        "Land"
      ],
      "condition": {
        "times": [
          "DAWN",
          "DAY",
          "DUSK",
          "NIGHT"
        ],
        "stringBiomes": [
          "minecraft:mutated_jungle_edge",
          "minecraft:redwood_taiga",
          "minecraft:mutated_redwood_taiga",
          "minecraft:sky",
          "biomesoplenty:origin_island"
        ]
      }
    }
  ]
}