{
  "id": "Dhelmise",
  "spawnInfos": [
    {
      "minLevel": 16,
      "maxLevel": 34,
      "typeID": "pokemon",
      "rarity": 2,
      "spec": {
        "name": "Dhelmise",
        "form": 0
      },
      "stringLocationTypes": [
        "Water"
      ],
      "condition": {
        "times": [
          "DUSK"
        ],
        "stringBiomes": [
          "minecraft:deep_ocean"
        ]
      }
    }
  ]
}