{
  "id": "Dragonair",
  "spawnInfos": [
    {
      "minLevel": 30,
      "maxLevel": 55,
      "typeID": "pokemon",
      "rarity": 2,
      "spec": {
        "name": "Dragonair",
        "form": 0
      },
      "stringLocationTypes": [
        "Water"
      ],
      "condition": {
        "times": [
          "DAWN",
          "DAY",
          "DUSK",
          "NIGHT"
        ],
        "stringBiomes": [
          "minecraft:deep_ocean",
          "biomesoplenty:land_of_lakes",
          "biomesoplenty:origin_island",
          "biomesoplenty:sacred_springs"
        ]
      }
    }
  ]
}