{
  "id": "Dratini",
  "spawnInfos": [
    {
      "minLevel": 10,
      "maxLevel": 30,
      "typeID": "pokemon",
      "rarity": 2,
      "spec": {
        "name": "Dratini",
        "form": 0
      },
      "stringLocationTypes": [
        "Water"
      ],
      "condition": {
        "times": [
          "DAWN",
          "DAY",
          "DUSK",
          "NIGHT"
        ],
        "stringBiomes": [
          "minecraft:deep_ocean",
          "pixelmon:ultradeepsea",
          "biomesoplenty:coral_reef",
          "biomesoplenty:kelp_forest"
        ]
      }
    }
  ]
}