{
  "id": "Electabuzz",
  "spawnInfos": [
    {
      "minLevel": 25,
      "maxLevel": 34,
      "typeID": "pokemon",
      "rarity": 10,
      "spec": {
        "name": "Electabuzz",
        "form": 0
      },
      "stringLocationTypes": [
        "Land"
      ],
      "condition": {
        "times": [
          "DAWN",
          "DAY"
        ],
        "stringBiomes": [
          "minecraft:mutated_plains",
          "biomesoplenty:grassland",
          "biomesoplenty:origin_island",
          "minecraft:redwood_taiga",
          "biomesoplenty:coniferous_forest"
        ]
      }
    }
  ]
}