{
  "id": "Empoleon",
  "spawnInfos": [
    {
      "minLevel": 36,
      "maxLevel": 50,
      "typeID": "pokemon",
      "rarity": 2,
      "spec": {
        "name": "Empoleon",
        "form": 0
      },
      "stringLocationTypes": [
        "Land"
      ],
      "condition": {
        "times": [
          "DAWN",
          "DAY",
          "DUSK"
        ],
        "stringBiomes": [
          "minecraft:cold_beach",
          "minecraft:frozen_river",
          "biomesoplenty:cold_desert",
          "minecraft:ice_flats",
          "minecraft:mutated_ice_flats",
          "minecraft:frozen_ocean"
        ]
      }
    }
  ]
}