{
  "id": "Exeggcute",
  "spawnInfos": [
    {
      "minLevel": 15,
      "maxLevel": 20,
      "typeID": "pokemon",
      "rarity": 100,
      "spec": {
        "name": "Exeggcute",
        "form": 0
      },
      "stringLocationTypes": [
        "Land"
      ],
      "condition": {
        "times": [
          "DAWN",
          "DAY",
          "DUSK",
          "NIGHT"
        ],
        "stringBiomes": [
          "minecraft:forest",
          "biomesoplenty:grove",
          "biomesoplenty:maple_woods",
          "biomesoplenty:redwood_forest",
          "biomesoplenty:temperate_rainforest",
          "minecraft:forest_hills",
          "minecraft:birch_forest_hills",
          "minecraft:mutated_birch_forest_hills",
          "minecraft:jungle",
          "biomesoplenty:rainforest",
          "biomesoplenty:eucalyptus_forest",
          "biomesoplenty:bamboo_forest",
          "biomesoplenty:sacred_springs",
          "minecraft:mutated_jungle_edge",
          "minecraft:jungle_hills",
          "minecraft:mutated_forest"
        ]
      }
    }
  ]
}