{
  "id": "Farfetchd",
  "spawnInfos": [
    {
      "minLevel": 24,
      "maxLevel": 50,
      "typeID": "pokemon",
      "rarity": 50,
      "spec": {
        "name": "Farfetchd",
        "form": 0
      },
      "stringLocationTypes": [
        "Land"
      ],
      "condition": {
        "times": [
          "DAWN",
          "DAY"
        ],
        "stringBiomes": [
          "minecraft:plains",
          "minecraft:mutated_plains",
          "biomesoplenty:flower_field",
          "biomesoplenty:grassland",
          "biomesoplenty:prairie",
          "biomesoplenty:lavender_fields",
          "minecraft:savanna",
          "biomesoplenty:chaparral",
          "biomesoplenty:orchard",
          "biomesoplenty:shrubland",
          "minecraft:savanna_rock",
          "minecraft:mutated_forest",
          "biomesoplenty:marsh"
        ]
      }
    },
    {
      "minLevel": 24,
      "maxLevel": 50,
      "typeID": "pokemon",
      "rarity": 25,
      "spec": {
        "name": "Farfetchd",
        "form": 10
      },
      "stringLocationTypes": [
        "Land"
      ],
      "condition": {
        "times": [
          "DAWN",
          "DAY"
        ],
        "stringBiomes": [
          "minecraft:mutated_plains",
          "biomesoplenty:flower_field",
          "biomesoplenty:grassland",
          "biomesoplenty:prairie",
          "biomesoplenty:lavender_fields",
          "biomesoplenty:chaparral",
          "biomesoplenty:orchard",
          "biomesoplenty:shrubland",
          "minecraft:savanna_rock",
          "minecraft:mutated_forest",
          "biomesoplenty:marsh"
        ]
      }
    }
  ]
}