{
  "id": "Fearow",
  "spawnInfos": [
    {
      "minLevel": 20,
      "maxLevel": 50,
      "typeID": "pokemon",
      "rarity": 100,
      "spec": {
        "name": "Fearow",
        "form": 0
      },
      "stringLocationTypes": [
        "Air"
      ],
      "condition": {
        "times": [
          "DAWN",
          "DAY"
        ],
        "stringBiomes": [
          "biomesoplenty:quagmire",
          "minecraft:roofed_forest",
          "biomesoplenty:ominous_woods",
          "biomesoplenty:dead_forest",
          "biomesoplenty:dead_swamp",
          "biomesoplenty:fen",
          "biomesoplenty:wasteland",
          "biomesoplenty:bog",
          "biomesoplenty:steppe",
          "biomesoplenty:tundra",
          "minecraft:mutated_roofed_forest",
          "minecraft:mutated_plains",
          "biomesoplenty:flower_field",
          "biomesoplenty:prairie",
          "biomesoplenty:meadow",
          "minecraft:savanna",
          "biomesoplenty:brushland",
          "biomesoplenty:chaparral",
          "biomesoplenty:shrubland",
          "minecraft:savanna_rock",
          "biomesoplenty:wetland",
          "minecraft:taiga_hills",
          "minecraft:taiga",
          "minecraft:mushroom_island_shore",
          "minecraft:redwood_taiga_hills"
        ]
      }
    }
  ]
}