{
  "id": "Fletchinder",
  "spawnInfos": [
    {
      "minLevel": 25,
      "maxLevel": 40,
      "typeID": "pokemon",
      "rarity": 50,
      "spec": {
        "name": "Fletchinder",
        "form": 0
      },
      "stringLocationTypes": [
        "Land"
      ],
      "condition": {
        "times": [
          "DAWN",
          "DAY",
          "DUSK",
          "NIGHT"
        ],
        "stringBiomes": [
          "minecraft:forest",
          "minecraft:birch_forest",
          "biomesoplenty:woodland",
          "biomesoplenty:fen",
          "biomesoplenty:grove",
          "biomesoplenty:brushland",
          "biomesoplenty:outback",
          "biomesoplenty:volcanic_island",
          "biomesoplenty:undergarden",
          "biomesoplenty:fungi_forest",
          "pixelmon:ultraburst"
        ]
      }
    }
  ]
}