{
  "id": "Fraxure",
  "spawnInfos": [
    {
      "minLevel": 38,
      "maxLevel": 48,
      "typeID": "pokemon",
      "rarity": 10,
      "spec": {
        "name": "Fraxure",
        "form": 0
      },
      "stringLocationTypes": [
        "Land"
      ],
      "condition": {
        "times": [
          "DAWN",
          "DAY",
          "DUSK",
          "NIGHT"
        ],
        "stringBiomes": [
          "minecraft:roofed_forest",
          "biomesoplenty:ominous_woods",
          "biomesoplenty:mystic_grove",
          "biomesoplenty:origin_island",
          "biomesoplenty:flower_island"
        ]
      }
    }
  ]
}