{
  "id": "Froakie",
  "spawnInfos": [
    {
      "minLevel": 5,
      "maxLevel": 16,
      "typeID": "pokemon",
      "rarity": 25,
      "spec": {
        "name": "Froakie",
        "form": 0
      },
      "stringLocationTypes": [
        "Land"
      ],
      "condition": {
        "times": [
          "DAWN",
          "DAY",
          "DUSK",
          "NIGHT"
        ],
        "stringBiomes": [
          "minecraft:river",
          "biomesoplenty:marsh",
          "minecraft:swampland",
          "biomesoplenty:land_of_lakes",
          "minecraft:beaches",
          "biomesoplenty:lush_swamp"
        ]
      }
    }
  ]
}