{
  "id": "Girafarig",
  "spawnInfos": [
    {
      "minLevel": 25,
      "maxLevel": 50,
      "typeID": "pokemon",
      "rarity": 50,
      "spec": {
        "name": "Girafarig",
        "form": 0
      },
      "stringLocationTypes": [
        "Land"
      ],
      "condition": {
        "times": [
          "DAWN",
          "DAY"
        ],
        "stringBiomes": [
          "minecraft:savanna",
          "biomesoplenty:prairie",
          "biomesoplenty:pasture",
          "minecraft:plains",
          "biomesoplenty:lavender_fields",
          "biomesoplenty:chaparral",
          "biomesoplenty:coniferous_forest"
        ]
      }
    }
  ]
}