{
  "id": "Glalie",
  "spawnInfos": [
    {
      "minLevel": 40,
      "maxLevel": 60,
      "typeID": "pokemon",
      "rarity": 50,
      "spec": {
        "name": "Glalie",
        "form": 0
      },
      "stringLocationTypes": [
        "Land",
        "Underground"
      ],
      "condition": {
        "times": [
          "DAWN",
          "DAY",
          "DUSK",
          "NIGHT"
        ],
        "stringBiomes": [
          "biomesoplenty:alps_foothills",
          "minecraft:mutated_taiga_cold",
          "biomesoplenty:snowy_coniferous_forest",
          "biomesoplenty:glacier",
          "minecraft:taiga_cold",
          "minecraft:ice_mountains",
          "minecraft:mutated_ice_flats",
          "minecraft:ice_flats",
          "minecraft:taiga_cold_hills",
          "minecraft:frozen_river",
          "minecraft:mutated_redwood_taiga_hills"
        ]
      }
    }
  ]
}