{
  "id": "Golbat",
  "spawnInfos": [
    {
      "minLevel": 22,
      "maxLevel": 50,
      "typeID": "pokemon",
      "rarity": 100,
      "spec": {
        "name": "Golbat",
        "form": 0
      },
      "stringLocationTypes": [
        "Air",
        "Underground"
      ],
      "condition": {
        "times": [
          "DAWN",
          "DUSK",
          "NIGHT"
        ],
        "stringBiomes": [
          "biomesoplenty:mountain",
          "biomesoplenty:alps_foothills",
          "biomesoplenty:mountain_foothills",
          "biomesoplenty:crag",
          "biomesoplenty:overgrown_cliffs",
          "biomesoplenty:highland",
          "biomesoplenty:alps",
          "minecraft:extreme_hills_with_trees",
          "minecraft:mutated_taiga",
          "minecraft:mutated_savanna",
          "minecraft:mutated_savanna_rock",
          "minecraft:mutated_mesa",
          "biomesoplenty:sacred_springs",
          "biomesoplenty:tropical_island",
          "minecraft:jungle_edge",
          "minecraft:forest",
          "minecraft:birch_forest",
          "biomesoplenty:fen",
          "biomesoplenty:grove",
          "biomesoplenty:land_of_lakes",
          "biomesoplenty:boreal_forest",
          "biomesoplenty:maple_woods",
          "biomesoplenty:orchard",
          "biomesoplenty:redwood_forest",
          "biomesoplenty:seasonal_forest",
          "biomesoplenty:temperate_rainforest",
          "minecraft:forest_hills",
          "minecraft:birch_forest_hills",
          "minecraft:mutated_birch_forest",
          "minecraft:sky",
          "biomesoplenty:undergarden",
          "minecraft:hell"
        ]
      }
    }
  ]
}