{
  "id": "Golisopod",
  "spawnInfos": [
    {
      "minLevel": 7,
      "maxLevel": 60,
      "typeID": "pokemon",
      "rarity": 2,
      "spec": {
        "name": "Golisopod",
        "form": 0
      },
      "stringLocationTypes": [
        "Land"
      ],
      "condition": {
        "times": [
          "DAWN",
          "DAY",
          "DUSK",
          "NIGHT"
        ],
        "stringBiomes": [
          "minecraft:beaches",
          "minecraft:stone_beach",
          "biomesoplenty:gravel_beach",
          "biomesoplenty:white_beach",
          "biomesoplenty:origin_beach",
          "biomesoplenty:xeric_shrubland",
          "biomesoplenty:oasis",
          "biomesoplenty:cold_desert",
          "pixelmon:ultrajungle",
          "pixelmon:ultradesert"
        ]
      }
    }
  ]
}