{
  "id": "Gorebyss",
  "spawnInfos": [
    {
      "minLevel": 30,
      "maxLevel": 40,
      "typeID": "pokemon",
      "rarity": 25,
      "spec": {
        "name": "Gorebyss",
        "form": 0
      },
      "stringLocationTypes": [
        "Water"
      ],
      "condition": {
        "times": [
          "DAWN",
          "DAY"
        ],
        "stringBiomes": [
          "minecraft:deep_ocean",
          "biomesoplenty:kelp_forest",
          "pixelmon:ultradeepsea"
        ]
      }
    }
  ]
}