{
  "id": "Granbull",
  "spawnInfos": [
    {
      "minLevel": 23,
      "maxLevel": 60,
      "typeID": "pokemon",
      "rarity": 50,
      "spec": {
        "name": "Granbull",
        "form": 0
      },
      "stringLocationTypes": [
        "Land"
      ],
      "condition": {
        "times": [
          "DAWN",
          "DAY",
          "DUSK",
          "NIGHT"
        ],
        "stringBiomes": [
          "minecraft:roofed_forest",
          "biomesoplenty:ominous_woods",
          "biomesoplenty:mystic_grove",
          "minecraft:mushroom_island",
          "biomesoplenty:origin_island",
          "biomesoplenty:flower_island",
          "minecraft:mutated_jungle_edge",
          "minecraft:mutated_roofed_forest",
          "minecraft:jungle_edge",
          "pixelmon:ultradarkforest"
        ]
      }
    }
  ]
}