{
  "id": "Grubbin",
  "spawnInfos": [
    {
      "minLevel": 5,
      "maxLevel": 19,
      "typeID": "pokemon",
      "rarity": 100,
      "spec": {
        "name": "Grubbin",
        "form": 0
      },
      "stringLocationTypes": [
        "Land"
      ],
      "condition": {
        "times": [
          "DAWN",
          "DAY",
          "DUSK",
          "NIGHT"
        ],
        "stringBiomes": [
          "biomesoplenty:mountain",
          "biomesoplenty:mountain_foothills",
          "minecraft:extreme_hills",
          "biomesoplenty:highland",
          "minecraft:extreme_hills_with_trees",
          "minecraft:mutated_taiga",
          "minecraft:mutated_savanna",
          "minecraft:mutated_savanna_rock",
          "minecraft:taiga_hills",
          "minecraft:mutated_redwood_taiga_hills",
          "pixelmon:ultrajungle",
          "pixelmon:ultradesert"
        ]
      }
    }
  ]
}