{
  "id": "Gulpin",
  "spawnInfos": [
    {
      "minLevel": 5,
      "maxLevel": 15,
      "typeID": "pokemon",
      "rarity": 200,
      "spec": {
        "name": "Gulpin",
        "form": 0
      },
      "stringLocationTypes": [
        "Land"
      ],
      "condition": {
        "times": [
          "DAWN",
          "DAY",
          "DUSK",
          "NIGHT"
        ],
        "stringBiomes": [
          "biomesoplenty:grassland",
          "biomesoplenty:prairie",
          "biomesoplenty:meadow",
          "minecraft:savanna",
          "biomesoplenty:shrubland",
          "minecraft:savanna_rock",
          "biomesoplenty:mystic_grove",
          "biomesoplenty:cherry_blossom_grove",
          "biomesoplenty:bayou",
          "biomesoplenty:bog",
          "minecraft:mutated_swampland"
        ]
      }
    }
  ]
}