{
  "id": "Gumshoos",
  "spawnInfos": [
    {
      "minLevel": 20,
      "maxLevel": 46,
      "typeID": "pokemon",
      "rarity": 25,
      "spec": {
        "name": "Gumshoos",
        "form": 0
      },
      "stringLocationTypes": [
        "Land",
        "Underground"
      ],
      "condition": {
        "times": [
          "DAWN",
          "DAY"
        ],
        "stringBiomes": [
          "minecraft:savanna",
          "biomesoplenty:brushland",
          "biomesoplenty:chaparral",
          "biomesoplenty:orchard",
          "biomesoplenty:shrubland",
          "minecraft:savanna_rock",
          "minecraft:taiga_cold_hills",
          "minecraft:mutated_extreme_hills",
          "minecraft:mutated_extreme_hills_with_trees"
        ]
      }
    }
  ]
}