{
  "id": "Haunter",
  "spawnInfos": [
    {
      "minLevel": 25,
      "maxLevel": 50,
      "typeID": "pokemon",
      "rarity": 50,
      "spec": {
        "name": "Haunter",
        "form": 0
      },
      "stringLocationTypes": [
        "Land",
        "Underground"
      ],
      "condition": {
        "times": [
          "DUSK",
          "NIGHT"
        ],
        "stringBiomes": [
          "biomesoplenty:quagmire",
          "minecraft:roofed_forest",
          "biomesoplenty:ominous_woods",
          "biomesoplenty:dead_forest",
          "biomesoplenty:dead_swamp",
          "biomesoplenty:wasteland",
          "biomesoplenty:steppe",
          "minecraft:mutated_roofed_forest",
          "biomesoplenty:corrupted_sands",
          "pixelmon:ultraburst"
        ]
      }
    }
  ]
}