{
  "id": "Helioptile",
  "spawnInfos": [
    {
      "minLevel": 20,
      "maxLevel": 40,
      "typeID": "pokemon",
      "rarity": 50,
      "spec": {
        "name": "Helioptile",
        "form": 0
      },
      "stringLocationTypes": [
        "Land"
      ],
      "condition": {
        "times": [
          "DAWN",
          "DAY",
          "DUSK",
          "NIGHT"
        ],
        "stringBiomes": [
          "minecraft:savanna",
          "biomesoplenty:brushland",
          "biomesoplenty:shrubland",
          "minecraft:savanna_rock"
        ]
      }
    }
  ]
}