{
  "id": "Hippopotas",
  "spawnInfos": [
    {
      "minLevel": 35,
      "maxLevel": 38,
      "typeID": "pokemon",
      "rarity": 100,
      "spec": {
        "name": "Hippopotas",
        "form": 0
      },
      "stringLocationTypes": [
        "Land"
      ],
      "condition": {
        "times": [
          "DAWN",
          "DAY",
          "DUSK",
          "NIGHT"
        ],
        "stringBiomes": [
          "biomesoplenty:tropical_island",
          "minecraft:jungle_edge",
          "minecraft:mutated_jungle_edge",
          "minecraft:savanna",
          "minecraft:savanna_rock",
          "biomesoplenty:pasture",
          "biomesoplenty:meadow",
          "biomesoplenty:chaparral"
        ]
      }
    }
  ]
}