{
  "id": "Hitmonlee",
  "spawnInfos": [
    {
      "minLevel": 25,
      "maxLevel": 50,
      "typeID": "pokemon",
      "rarity": 25,
      "spec": {
        "name": "Hitmonlee",
        "form": 0
      },
      "stringLocationTypes": [
        "Land"
      ],
      "condition": {
        "times": [
          "DAWN",
          "DAY",
          "DUSK",
          "NIGHT"
        ],
        "stringBiomes": [
          "minecraft:plains",
          "biomesoplenty:prairie",
          "minecraft:savanna",
          "minecraft:savanna_rock",
          "minecraft:redwood_taiga",
          "minecraft:mutated_redwood_taiga",
          "biomesoplenty:alps",
          "biomesoplenty:alps_foothills",
          "biomesoplenty:coniferous_forest"
        ]
      }
    }
  ]
}