{
  "id": "Honedge",
  "spawnInfos": [
    {
      "minLevel": 15,
      "maxLevel": 35,
      "typeID": "pokemon",
      "rarity": 100,
      "spec": {
        "name": "Honedge",
        "form": 0
      },
      "stringLocationTypes": [
        "Land"
      ],
      "condition": {
        "times": [
          "DAWN",
          "DUSK",
          "NIGHT"
        ],
        "stringBiomes": [
          "minecraft:roofed_forest",
          "biomesoplenty:ominous_woods",
          "biomesoplenty:fen",
          "biomesoplenty:wasteland",
          "biomesoplenty:steppe",
          "biomesoplenty:tundra",
          "minecraft:mutated_roofed_forest",
          "minecraft:ice_mountains",
          "biomesoplenty:glacier",
          "biomesoplenty:alps",
          "biomesoplenty:phantasmagoric_inferno",
          "biomesoplenty:visceral_heap",
          "minecraft:mutated_extreme_hills",
          "minecraft:mutated_extreme_hills_with_trees"
        ]
      }
    }
  ]
}