{
  "id": "Houndoom",
  "spawnInfos": [
    {
      "minLevel": 24,
      "maxLevel": 50,
      "typeID": "pokemon",
      "rarity": 25,
      "spec": {
        "name": "Houndoom",
        "form": 0
      },
      "stringLocationTypes": [
        "Land"
      ],
      "condition": {
        "times": [
          "DUSK",
          "NIGHT"
        ],
        "stringBiomes": [
          "biomesoplenty:brushland",
          "biomesoplenty:volcanic_island",
          "biomesoplenty:dead_forest",
          "biomesoplenty:ominous_woods",
          "biomesoplenty:outback",
          "biomesoplenty:wasteland",
          "minecraft:desert",
          "minecraft:mesa",
          "minecraft:sky",
          "biomesoplenty:phantasmagoric_inferno",
          "biomesoplenty:corrupted_sands",
          "minecraft:hell",
          "pixelmon:ultraruin"
        ]
      }
    }
  ]
}