{
  "id": "Hypno",
  "spawnInfos": [
    {
      "minLevel": 26,
      "maxLevel": 50,
      "typeID": "pokemon",
      "rarity": 50,
      "spec": {
        "name": "Hypno",
        "form": 0
      },
      "stringLocationTypes": [
        "Land"
      ],
      "condition": {
        "times": [
          "DAWN",
          "DUSK",
          "NIGHT"
        ],
        "stringBiomes": [
          "minecraft:plains",
          "minecraft:mutated_plains",
          "biomesoplenty:flower_field",
          "biomesoplenty:prairie",
          "biomesoplenty:meadow",
          "biomesoplenty:orchard",
          "minecraft:savanna_rock",
          "biomesoplenty:mystic_grove",
          "biomesoplenty:cherry_blossom_grove",
          "biomesoplenty:flower_island",
          "minecraft:sky",
          "biomesoplenty:lush_swamp",
          "pixelmon:ultradarkforest"
        ]
      }
    }
  ]
}