{
  "id": "Jellicent",
  "spawnInfos": [
    {
      "minLevel": 40,
      "maxLevel": 60,
      "typeID": "pokemon",
      "rarity": 25,
      "spec": {
        "name": "Jellicent",
        "form": 0
      },
      "stringLocationTypes": [
        "Water"
      ],
      "condition": {
        "times": [
          "DUSK",
          "NIGHT"
        ],
        "stringBiomes": [
          "minecraft:ocean",
          "minecraft:deep_ocean",
          "biomesoplenty:kelp_forest",
          "minecraft:frozen_ocean",
          "pixelmon:ultradeepsea"
        ]
      }
    }
  ]
}