{
  "id": "Jirachi",
  "spawnInfos": [
    {
      "minLevel": 70,
      "maxLevel": 70,
      "typeID": "pokemon",
      "rarity": 2,
      "interval": "legendary",
      "spec": {
        "name": "Jirachi",
        "form": 0
      },
      "stringLocationTypes": [
        "Land"
      ],
      "condition": {
        "times": [
          "DAWN",
          "DAY",
          "DUSK",
          "NIGHT"
        ],
        "stringBiomes": [
          "biomesoplenty:crag",
          "minecraft:extreme_hills_with_trees",
          "biomesoplenty:mountain",
          "minecraft:mutated_redwood_taiga_hills",
          "biomesoplenty:origin_island"
        ]
      }
    }
  ]
}