{
  "id": "Kakuna",
  "spawnInfos": [
    {
      "minLevel": 7,
      "maxLevel": 10,
      "typeID": "pokemon",
      "rarity": 200,
      "spec": {
        "name": "Kakuna",
        "form": 0
      },
      "stringLocationTypes": [
        "Land"
      ],
      "condition": {
        "times": [
          "DAWN",
          "DAY"
        ],
        "stringBiomes": [
          "minecraft:forest",
          "minecraft:birch_forest",
          "biomesoplenty:woodland",
          "biomesoplenty:fen",
          "biomesoplenty:land_of_lakes",
          "biomesoplenty:boreal_forest",
          "biomesoplenty:redwood_forest",
          "biomesoplenty:temperate_rainforest",
          "minecraft:birch_forest_hills",
          "minecraft:mutated_birch_forest",
          "minecraft:mutated_birch_forest_hills",
          "biomesoplenty:ominous_woods",
          "biomesoplenty:mystic_grove",
          "minecraft:roofed_forest",
          "minecraft:mutated_roofed_forest",
          "biomesoplenty:bog",
          "minecraft:mutated_swampland"
        ]
      }
    }
  ]
}