{
  "id": "Keldeo",
  "spawnInfos": [
    {
      "minLevel": 50,
      "maxLevel": 50,
      "typeID": "pokemon",
      "rarity": 2,
      "interval": "legendary",
      "spec": {
        "name": "Keldeo",
        "form": 0
      },
      "stringLocationTypes": [
        "Land"
      ],
      "condition": {
        "times": [
          "DAWN",
          "DAY",
          "DUSK",
          "NIGHT"
        ],
        "stringBiomes": [
          "biomesoplenty:chaparral",
          "minecraft:mutated_desert",
          "minecraft:forest",
          "biomesoplenty:lush_desert",
          "biomesoplenty:lush_swamp",
          "biomesoplenty:origin_island"
        ]
      }
    }
  ]
}