{
  "id": "Klink",
  "spawnInfos": [
    {
      "minLevel": 5,
      "maxLevel": 38,
      "typeID": "pokemon",
      "rarity": 200,
      "spec": {
        "name": "Klink",
        "form": 0
      },
      "stringLocationTypes": [
        "Land",
        "Underground"
      ],
      "condition": {
        "times": [
          "DAWN",
          "DAY",
          "DUSK",
          "NIGHT"
        ],
        "stringBiomes": [
          "biomesoplenty:mountain",
          "biomesoplenty:mountain_foothills",
          "biomesoplenty:crag",
          "biomesoplenty:overgrown_cliffs",
          "minecraft:extreme_hills",
          "biomesoplenty:highland",
          "minecraft:extreme_hills_with_trees",
          "minecraft:mutated_taiga",
          "minecraft:mutated_savanna",
          "minecraft:mutated_savanna_rock",
          "minecraft:savanna",
          "biomesoplenty:volcanic_island",
          "minecraft:ice_mountains",
          "minecraft:ice_flats",
          "biomesoplenty:glacier",
          "biomesoplenty:alps_foothills",
          "biomesoplenty:alps",
          "biomesoplenty:cold_desert",
          "minecraft:taiga_cold",
          "minecraft:taiga_cold_hills",
          "biomesoplenty:snowy_tundra",
          "biomesoplenty:snowy_forest",
          "biomesoplenty:shield",
          "minecraft:mutated_extreme_hills",
          "minecraft:mutated_extreme_hills_with_trees"
        ]
      }
    }
  ]
}