{
  "id": "Krabby",
  "spawnInfos": [
    {
      "minLevel": 15,
      "maxLevel": 28,
      "typeID": "pokemon",
      "rarity": 200,
      "spec": {
        "name": "Krabby",
        "form": 0
      },
      "stringLocationTypes": [
        "Water",
        "Land"
      ],
      "condition": {
        "times": [
          "DAWN",
          "DAY",
          "DUSK",
          "NIGHT"
        ],
        "stringBiomes": [
          "minecraft:beaches",
          "minecraft:stone_beach",
          "biomesoplenty:gravel_beach",
          "biomesoplenty:white_beach",
          "biomesoplenty:origin_beach",
          "biomesoplenty:bayou",
          "biomesoplenty:cold_desert",
          "minecraft:cold_beach"
        ]
      }
    }
  ]
}