{
  "id": "Krokorok",
  "spawnInfos": [
    {
      "minLevel": 29,
      "maxLevel": 40,
      "typeID": "pokemon",
      "rarity": 50,
      "spec": {
        "name": "Krokorok",
        "form": 0
      },
      "stringLocationTypes": [
        "Land"
      ],
      "condition": {
        "times": [
          "DAWN",
          "DAY",
          "DUSK",
          "NIGHT"
        ],
        "stringBiomes": [
          "minecraft:desert",
          "minecraft:mesa",
          "biomesoplenty:brushland",
          "biomesoplenty:outback",
          "biomesoplenty:volcanic_island",
          "biomesoplenty:steppe",
          "minecraft:mesa_rock",
          "minecraft:mesa_clear_rock",
          "biomesoplenty:xeric_shrubland",
          "biomesoplenty:oasis",
          "minecraft:mutated_desert",
          "minecraft:mutated_mesa_clear_rock",
          "biomesoplenty:mangrove",
          "biomesoplenty:wetland",
          "biomesoplenty:visceral_heap",
          "minecraft:mutated_mesa_rock",
          "minecraft:mutated_extreme_hills",
          "minecraft:mutated_extreme_hills_with_trees"
        ]
      }
    }
  ]
}