{
  "id": "Litten",
  "spawnInfos": [
    {
      "minLevel": 5,
      "maxLevel": 15,
      "typeID": "pokemon",
      "rarity": 25,
      "spec": {
        "name": "Litten",
        "form": 0
      },
      "stringLocationTypes": [
        "Land"
      ],
      "condition": {
        "times": [
          "DAWN",
          "DAY",
          "DUSK",
          "NIGHT"
        ],
        "stringBiomes": [
          "minecraft:savanna",
          "biomesoplenty:brushland",
          "biomesoplenty:chaparral",
          "minecraft:desert",
          "biomesoplenty:shrubland",
          "biomesoplenty:volcanic_island"
        ]
      }
    }
  ]
}