{
  "id": "Lotad",
  "spawnInfos": [
    {
      "minLevel": 3,
      "maxLevel": 14,
      "typeID": "pokemon",
      "rarity": 200,
      "spec": {
        "name": "Lotad",
        "form": 0
      },
      "stringLocationTypes": [
        "Water"
      ],
      "condition": {
        "times": [
          "DAWN",
          "DAY",
          "DUSK",
          "NIGHT"
        ],
        "stringBiomes": [
          "minecraft:river",
          "minecraft:beaches",
          "biomesoplenty:eucalyptus_forest",
          "biomesoplenty:land_of_lakes",
          "biomesoplenty:lush_swamp",
          "biomesoplenty:lush_desert",
          "biomesoplenty:moor",
          "biomesoplenty:wetland",
          "biomesoplenty:oasis",
          "biomesoplenty:mangrove",
          "biomesoplenty:tropical_island"
        ]
      }
    }
  ]
}