{
  "id": "Lurantis",
  "spawnInfos": [
    {
      "minLevel": 35,
      "maxLevel": 50,
      "typeID": "pokemon",
      "rarity": 10,
      "spec": {
        "name": "Lurantis",
        "form": 0
      },
      "stringLocationTypes": [
        "Land"
      ],
      "condition": {
        "times": [
          "DAWN",
          "DAY",
          "DUSK",
          "NIGHT"
        ],
        "stringBiomes": [
          "biomesoplenty:flower_field",
          "minecraft:forest",
          "biomesoplenty:maple_woods",
          "biomesoplenty:tropical_island",
          "biomesoplenty:chaparral",
          "biomesoplenty:coniferous_forest"
        ]
      }
    }
  ]
}