{
  "id": "Luxray",
  "spawnInfos": [
    {
      "minLevel": 30,
      "maxLevel": 45,
      "typeID": "pokemon",
      "rarity": 10,
      "spec": {
        "name": "Luxray",
        "form": 0
      },
      "stringLocationTypes": [
        "Land"
      ],
      "condition": {
        "times": [
          "DAWN",
          "DAY",
          "DUSK",
          "NIGHT"
        ],
        "stringBiomes": [
          "minecraft:savanna",
          "biomesoplenty:brushland",
          "biomesoplenty:shrubland",
          "minecraft:savanna_rock",
          "minecraft:mesa",
          "minecraft:mutated_desert",
          "minecraft:mutated_mesa",
          "minecraft:mutated_mesa_clear_rock",
          "biomesoplenty:origin_island",
          "biomesoplenty:xeric_shrubland",
          "pixelmon:ultraplant"
        ]
      }
    }
  ]
}