{
  "id": "Magby",
  "spawnInfos": [
    {
      "minLevel": 5,
      "maxLevel": 29,
      "typeID": "pokemon",
      "rarity": 10,
      "spec": {
        "name": "Magby",
        "form": 0
      },
      "stringLocationTypes": [
        "Land"
      ],
      "condition": {
        "times": [
          "DAWN",
          "DAY"
        ],
        "stringBiomes": [
          "minecraft:desert",
          "biomesoplenty:outback",
          "biomesoplenty:volcanic_island",
          "biomesoplenty:phantasmagoric_inferno",
          "biomesoplenty:corrupted_sands",
          "biomesoplenty:visceral_heap",
          "minecraft:hell"
        ]
      }
    }
  ]
}