{
  "id": "Mamoswine",
  "spawnInfos": [
    {
      "minLevel": 40,
      "maxLevel": 50,
      "typeID": "pokemon",
      "rarity": 10,
      "spec": {
        "name": "Mamoswine",
        "form": 0
      },
      "stringLocationTypes": [
        "Land"
      ],
      "condition": {
        "times": [
          "DAWN",
          "DAY",
          "DUSK",
          "NIGHT"
        ],
        "stringBiomes": [
          "biomesoplenty:glacier",
          "biomesoplenty:snowy_forest",
          "biomesoplenty:cold_desert",
          "minecraft:ice_flats",
          "minecraft:mutated_ice_flats",
          "minecraft:mutated_taiga_cold",
          "biomesoplenty:snowy_coniferous_forest",
          "biomesoplenty:alps_foothills"
        ]
      }
    }
  ]
}