{
  "id": "Mareanie",
  "spawnInfos": [
    {
      "minLevel": 15,
      "maxLevel": 35,
      "typeID": "pokemon",
      "rarity": 25,
      "spec": {
        "name": "Mareanie",
        "form": 0
      },
      "stringLocationTypes": [
        "Land"
      ],
      "condition": {
        "times": [
          "DAWN",
          "DAY",
          "DUSK",
          "NIGHT"
        ],
        "stringBiomes": [
          "minecraft:ocean",
          "minecraft:deep_ocean",
          "biomesoplenty:coral_reef",
          "biomesoplenty:kelp_forest",
          "minecraft:beaches",
          "minecraft:stone_beach",
          "biomesoplenty:gravel_beach",
          "biomesoplenty:white_beach",
          "biomesoplenty:origin_beach"
        ]
      }
    }
  ]
}