{
  "id": "Marill",
  "spawnInfos": [
    {
      "minLevel": 5,
      "maxLevel": 17,
      "typeID": "pokemon",
      "rarity": 25,
      "spec": {
        "name": "Marill",
        "form": 0
      },
      "stringLocationTypes": [
        "Land"
      ],
      "condition": {
        "times": [
          "DAWN",
          "DAY",
          "DUSK"
        ],
        "stringBiomes": [
          "minecraft:beaches",
          "biomesoplenty:white_beach",
          "biomesoplenty:origin_beach",
          "biomesoplenty:land_of_lakes",
          "biomesoplenty:flower_island",
          "biomesoplenty:tropical_island",
          "biomesoplenty:cold_desert",
          "minecraft:taiga_cold_hills"
        ]
      }
    }
  ]
}