{
  "id": "Meloetta",
  "spawnInfos": [
    {
      "minLevel": 70,
      "maxLevel": 70,
      "typeID": "pokemon",
      "rarity": 0,
      "spec": {
        "name": "Meloetta",
        "form": 0
      },
      "stringLocationTypes": [
        "Land"
      ],
      "condition": {
        "times": [
          "DAWN"
        ],
        "stringBiomes": []
      }
    }
  ]
}