{
  "id": "Milotic",
  "spawnInfos": [
    {
      "minLevel": 30,
      "maxLevel": 50,
      "typeID": "pokemon",
      "rarity": 2,
      "spec": {
        "name": "Milotic",
        "form": 0
      },
      "stringLocationTypes": [
        "Water"
      ],
      "condition": {
        "times": [
          "DAWN",
          "DAY",
          "DUSK",
          "NIGHT"
        ],
        "stringBiomes": [
          "minecraft:ocean",
          "minecraft:deep_ocean",
          "biomesoplenty:coral_reef"
        ]
      }
    }
  ]
}