{
  "id": "MimeJr",
  "spawnInfos": [
    {
      "minLevel": 9,
      "maxLevel": 13,
      "typeID": "pokemon",
      "rarity": 100,
      "spec": {
        "name": "MimeJr",
        "form": 0
      },
      "stringLocationTypes": [
        "Land"
      ],
      "condition": {
        "times": [
          "DAWN",
          "DAY",
          "DUSK",
          "NIGHT"
        ],
        "stringBiomes": [
          "minecraft:plains",
          "biomesoplenty:flower_field",
          "biomesoplenty:grassland",
          "biomesoplenty:prairie",
          "biomesoplenty:meadow",
          "biomesoplenty:lavender_fields",
          "minecraft:savanna",
          "biomesoplenty:chaparral",
          "biomesoplenty:shrubland",
          "minecraft:savanna_rock",
          "biomesoplenty:mystic_grove",
          "biomesoplenty:cherry_blossom_grove",
          "biomesoplenty:flower_island",
          "biomesoplenty:origin_island",
          "minecraft:sky",
          "pixelmon:ultraswamp"
        ]
      }
    }
  ]
}