{
  "id": "Mimikyu",
  "spawnInfos": [
    {
      "minLevel": 20,
      "maxLevel": 40,
      "typeID": "pokemon",
      "rarity": 10,
      "spec": {
        "name": "Mimikyu",
        "form": 0
      },
      "stringLocationTypes": [
        "Land"
      ],
      "condition": {
        "times": [
          "DAWN",
          "DUSK",
          "NIGHT"
        ],
        "stringBiomes": [
          "biomesoplenty:quagmire",
          "minecraft:roofed_forest",
          "biomesoplenty:ominous_woods",
          "biomesoplenty:dead_forest",
          "biomesoplenty:wasteland",
          "biomesoplenty:steppe",
          "minecraft:mutated_roofed_forest",
          "biomesoplenty:fungi_forest",
          "pixelmon:ultraforest",
          "pixelmon:ultraburst"
        ]
      }
    }
  ]
}