{
  "id": "Minior",
  "spawnInfos": [
    {
      "minLevel": 10,
      "maxLevel": 35,
      "typeID": "pokemon",
      "rarity": 10,
      "spec": {
        "name": "Minior",
        "form": 0
      },
      "stringLocationTypes": [
        "Land"
      ],
      "condition": {
        "times": [
          "DUSK",
          "NIGHT"
        ],
        "stringBiomes": [
          "biomesoplenty:crag",
          "biomesoplenty:overgrown_cliffs",
          "biomesoplenty:highland",
          "biomesoplenty:alps",
          "minecraft:extreme_hills_with_trees",
          "minecraft:mutated_taiga",
          "minecraft:mutated_savanna",
          "minecraft:mutated_ice_flats",
          "minecraft:mutated_extreme_hills",
          "minecraft:mutated_extreme_hills_with_trees",
          "pixelmon:ultradarkforest"
        ]
      }
    },
    {
      "minLevel": 10,
      "maxLevel": 35,
      "typeID": "pokemon",
      "rarity": 10,
      "spec": {
        "name": "Minior",
        "form": 1
      },
      "stringLocationTypes": [
        "Land"
      ],
      "condition": {
        "times": [
          "DUSK",
          "NIGHT"
        ],
        "stringBiomes": [
          "biomesoplenty:crag",
          "biomesoplenty:overgrown_cliffs",
          "biomesoplenty:highland",
          "biomesoplenty:alps",
          "minecraft:extreme_hills_with_trees",
          "minecraft:mutated_taiga",
          "minecraft:mutated_savanna",
          "minecraft:mutated_ice_flats",
          "minecraft:mutated_extreme_hills",
          "minecraft:mutated_extreme_hills_with_trees"
        ]
      }
    },
    {
      "minLevel": 10,
      "maxLevel": 35,
      "typeID": "pokemon",
      "rarity": 10,
      "spec": {
        "name": "Minior",
        "form": 2
      },
      "stringLocationTypes": [
        "Land"
      ],
      "condition": {
        "times": [
          "DUSK",
          "NIGHT"
        ],
        "stringBiomes": [
          "biomesoplenty:crag",
          "biomesoplenty:overgrown_cliffs",
          "biomesoplenty:highland",
          "biomesoplenty:alps",
          "minecraft:extreme_hills_with_trees",
          "minecraft:mutated_taiga",
          "minecraft:mutated_savanna",
          "minecraft:mutated_ice_flats",
          "minecraft:mutated_extreme_hills",
          "minecraft:mutated_extreme_hills_with_trees"
        ]
      }
    },
    {
      "minLevel": 10,
      "maxLevel": 35,
      "typeID": "pokemon",
      "rarity": 10,
      "spec": {
        "name": "Minior",
        "form": 3
      },
      "stringLocationTypes": [
        "Land"
      ],
      "condition": {
        "times": [
          "DUSK",
          "NIGHT"
        ],
        "stringBiomes": [
          "biomesoplenty:crag",
          "biomesoplenty:overgrown_cliffs",
          "biomesoplenty:highland",
          "biomesoplenty:alps",
          "minecraft:extreme_hills_with_trees",
          "minecraft:mutated_taiga",
          "minecraft:mutated_savanna",
          "minecraft:mutated_ice_flats",
          "minecraft:mutated_extreme_hills",
          "minecraft:mutated_extreme_hills_with_trees"
        ]
      }
    },
    {
      "minLevel": 10,
      "maxLevel": 35,
      "typeID": "pokemon",
      "rarity": 10,
      "spec": {
        "name": "Minior",
        "form": 4
      },
      "stringLocationTypes": [
        "Land"
      ],
      "condition": {
        "times": [
          "DUSK",
          "NIGHT"
        ],
        "stringBiomes": [
          "biomesoplenty:crag",
          "biomesoplenty:overgrown_cliffs",
          "biomesoplenty:highland",
          "biomesoplenty:alps",
          "minecraft:extreme_hills_with_trees",
          "minecraft:mutated_taiga",
          "minecraft:mutated_savanna",
          "minecraft:mutated_ice_flats",
          "minecraft:mutated_extreme_hills",
          "minecraft:mutated_extreme_hills_with_trees"
        ]
      }
    },
    {
      "minLevel": 10,
      "maxLevel": 35,
      "typeID": "pokemon",
      "rarity": 10,
      "spec": {
        "name": "Minior",
        "form": 5
      },
      "stringLocationTypes": [
        "Land"
      ],
      "condition": {
        "times": [
          "DUSK",
          "NIGHT"
        ],
        "stringBiomes": [
          "biomesoplenty:crag",
          "biomesoplenty:overgrown_cliffs",
          "biomesoplenty:highland",
          "biomesoplenty:alps",
          "minecraft:extreme_hills_with_trees",
          "minecraft:mutated_taiga",
          "minecraft:mutated_savanna",
          "minecraft:mutated_ice_flats",
          "minecraft:mutated_extreme_hills",
          "minecraft:mutated_extreme_hills_with_trees"
        ]
      }
    },
    {
      "minLevel": 10,
      "maxLevel": 35,
      "typeID": "pokemon",
      "rarity": 10,
      "spec": {
        "name": "Minior",
        "form": 6
      },
      "stringLocationTypes": [
        "Land"
      ],
      "condition": {
        "times": [
          "DUSK",
          "NIGHT"
        ],
        "stringBiomes": [
          "biomesoplenty:crag",
          "biomesoplenty:overgrown_cliffs",
          "biomesoplenty:highland",
          "biomesoplenty:alps",
          "minecraft:extreme_hills_with_trees",
          "minecraft:mutated_taiga",
          "minecraft:mutated_savanna",
          "minecraft:mutated_ice_flats",
          "minecraft:mutated_extreme_hills",
          "minecraft:mutated_extreme_hills_with_trees"
        ]
      }
    }
  ]
}