{
  "id": "Monferno",
  "spawnInfos": [
    {
      "minLevel": 14,
      "maxLevel": 30,
      "typeID": "pokemon",
      "rarity": 10,
      "spec": {
        "name": "Monferno",
        "form": 0
      },
      "stringLocationTypes": [
        "Land"
      ],
      "condition": {
        "times": [
          "DAWN",
          "DAY",
          "DUSK"
        ],
        "stringBiomes": [
          "biomesoplenty:overgrown_cliffs",
          "minecraft:extreme_hills_with_trees",
          "minecraft:extreme_hills",
          "minecraft:desert_hills",
          "biomesoplenty:volcanic_island",
          "minecraft:mutated_mesa_rock"
        ]
      }
    }
  ]
}