{
  "id": "Morpeko",
  "spawnInfos": [
    {
      "minLevel": 12,
      "maxLevel": 38,
      "typeID": "pokemon",
      "rarity": 50,
      "spec": {
        "name": "Morpeko",
        "form": 0
      },
      "stringLocationTypes": [
        "Land"
      ],
      "condition": {
        "times": [
          "DAWN",
          "DAY"
        ],
        "stringBiomes": [
          "minecraft:savanna",
          "biomesoplenty:brushland",
          "biomesoplenty:shrubland",
          "minecraft:savanna_rock",
          "biomesoplenty:alps",
          "biomesoplenty:crag",
          "biomesoplenty:overgrown_cliffs",
          "minecraft:mutated_mesa",
          "biomesoplenty:highland",
          "minecraft:extreme_hills_with_trees",
          "minecraft:mutated_savanna_rock"
        ]
      }
    }
  ]
}