{
  "id": "MrMime",
  "spawnInfos": [
    {
      "minLevel": 20,
      "maxLevel": 50,
      "typeID": "pokemon",
      "rarity": 25,
      "spec": {
        "name": "MrMime",
        "form": 0
      },
      "stringLocationTypes": [
        "Land",
        "Underground"
      ],
      "condition": {
        "times": [
          "DAWN",
          "DAY",
          "DUSK",
          "NIGHT"
        ],
        "stringBiomes": [
          "minecraft:plains",
          "biomesoplenty:flower_field",
          "biomesoplenty:grassland",
          "biomesoplenty:prairie",
          "biomesoplenty:meadow",
          "biomesoplenty:lavender_fields",
          "minecraft:savanna",
          "biomesoplenty:chaparral",
          "biomesoplenty:shrubland",
          "minecraft:savanna_rock",
          "biomesoplenty:mystic_grove",
          "biomesoplenty:cherry_blossom_grove",
          "biomesoplenty:flower_island",
          "biomesoplenty:origin_island"
        ]
      }
    },
    {
      "minLevel": 20,
      "maxLevel": 50,
      "typeID": "pokemon",
      "rarity": 10,
      "spec": {
        "name": "MrMime",
        "form": 10
      },
      "stringLocationTypes": [
        "Land",
        "Underground"
      ],
      "condition": {
        "times": [
          "DAWN",
          "DAY",
          "DUSK",
          "NIGHT"
        ],
        "stringBiomes": [
          "biomesoplenty:snowy_tundra",
          "minecraft:mutated_taiga_cold",
          "biomesoplenty:snowy_coniferous_forest",
          "biomesoplenty:shield",
          "biomesoplenty:alps_foothills",
          "biomesoplenty:cold_desert",
          "minecraft:taiga_cold_hills",
          "minecraft:ice_flats"
        ]
      }
    }
  ]
}