{
  "id": "Nidoranmale",
  "spawnInfos": [
    {
      "minLevel": 3,
      "maxLevel": 16,
      "typeID": "pokemon",
      "rarity": 200,
      "spec": {
        "name": "Nidoranmale",
        "form": 0
      },
      "stringLocationTypes": [
        "Land"
      ],
      "condition": {
        "times": [
          "DAWN",
          "DAY"
        ],
        "stringBiomes": [
          "biomesoplenty:pasture",
          "biomesoplenty:meadow",
          "minecraft:savanna",
          "biomesoplenty:brushland",
          "biomesoplenty:chaparral",
          "biomesoplenty:shrubland",
          "minecraft:savanna_rock",
          "biomesoplenty:bog",
          "biomesoplenty:moor",
          "minecraft:mutated_swampland"
        ]
      }
    }
  ]
}