{
  "id": "Ninjask",
  "spawnInfos": [
    {
      "minLevel": 20,
      "maxLevel": 40,
      "typeID": "pokemon",
      "rarity": 25,
      "spec": {
        "name": "Ninjask",
        "form": 0
      },
      "stringLocationTypes": [
        "Land"
      ],
      "condition": {
        "times": [
          "DAWN",
          "DAY",
          "DUSK",
          "NIGHT"
        ],
        "stringBiomes": [
          "biomesoplenty:woodland",
          "biomesoplenty:grove",
          "biomesoplenty:land_of_lakes",
          "biomesoplenty:maple_woods",
          "biomesoplenty:seasonal_forest",
          "minecraft:forest_hills",
          "minecraft:jungle",
          "biomesoplenty:rainforest",
          "biomesoplenty:eucalyptus_forest",
          "biomesoplenty:sacred_springs",
          "biomesoplenty:tropical_rainforest",
          "minecraft:mutated_jungle_edge",
          "minecraft:jungle_hills",
          "minecraft:mutated_jungle",
          "pixelmon:ultrajungle",
          "pixelmon:ultradarkforest"
        ]
      }
    }
  ]
}