{
  "id": "Noctowl",
  "spawnInfos": [
    {
      "minLevel": 20,
      "maxLevel": 55,
      "typeID": "pokemon",
      "rarity": 100,
      "spec": {
        "name": "Noctowl",
        "form": 0
      },
      "stringLocationTypes": [
        "Air"
      ],
      "condition": {
        "times": [
          "DUSK",
          "NIGHT"
        ],
        "stringBiomes": [
          "minecraft:forest",
          "biomesoplenty:woodland",
          "biomesoplenty:fen",
          "biomesoplenty:grove",
          "biomesoplenty:land_of_lakes",
          "biomesoplenty:maple_woods",
          "biomesoplenty:redwood_forest",
          "biomesoplenty:seasonal_forest",
          "biomesoplenty:temperate_rainforest",
          "minecraft:forest_hills",
          "minecraft:mutated_birch_forest",
          "minecraft:mutated_birch_forest_hills",
          "biomesoplenty:coniferous_forest",
          "biomesoplenty:snowy_coniferous_forest",
          "biomesoplenty:alps_foothills",
          "biomesoplenty:alps",
          "minecraft:taiga_cold",
          "minecraft:sky",
          "pixelmon:ultradarkforest"
        ]
      }
    }
  ]
}