{
  "id": "Noivern",
  "spawnInfos": [
    {
      "minLevel": 50,
      "maxLevel": 60,
      "typeID": "pokemon",
      "rarity": 10,
      "spec": {
        "name": "Noivern",
        "form": 0
      },
      "stringLocationTypes": [
        "Land",
        "Underground"
      ],
      "condition": {
        "times": [
          "DAWN",
          "DAY",
          "DUSK",
          "NIGHT"
        ],
        "stringBiomes": [
          "biomesoplenty:mountain",
          "biomesoplenty:alps_foothills",
          "biomesoplenty:mountain_foothills",
          "biomesoplenty:crag",
          "biomesoplenty:overgrown_cliffs",
          "minecraft:extreme_hills",
          "biomesoplenty:highland",
          "biomesoplenty:alps",
          "minecraft:mutated_taiga",
          "minecraft:mutated_savanna",
          "minecraft:mutated_savanna_rock",
          "minecraft:mutated_mesa",
          "minecraft:mutated_taiga_cold",
          "minecraft:sky",
          "minecraft:redwood_taiga_hills",
          "minecraft:mutated_redwood_taiga"
        ]
      }
    }
  ]
}