{
  "id": "Orbeetle",
  "spawnInfos": [
    {
      "minLevel": 30,
      "maxLevel": 50,
      "typeID": "pokemon",
      "rarity": 10,
      "spec": {
        "name": "Orbeetle",
        "form": 0
      },
      "stringLocationTypes": [
        "Land"
      ],
      "condition": {
        "times": [
          "DAWN",
          "DAY",
          "DUSK",
          "NIGHT"
        ],
        "stringBiomes": [
          "minecraft:forest",
          "minecraft:birch_forest",
          "biomesoplenty:grove",
          "biomesoplenty:land_of_lakes",
          "biomesoplenty:boreal_forest",
          "biomesoplenty:maple_woods",
          "biomesoplenty:orchard",
          "biomesoplenty:redwood_forest",
          "biomesoplenty:seasonal_forest",
          "biomesoplenty:temperate_rainforest",
          "minecraft:forest_hills",
          "minecraft:birch_forest_hills",
          "minecraft:mutated_birch_forest",
          "minecraft:mutated_birch_forest_hills",
          "biomesoplenty:ominous_woods",
          "biomesoplenty:mystic_grove",
          "minecraft:roofed_forest",
          "minecraft:mutated_roofed_forest",
          "pixelmon:ultrajungle"
        ]
      }
    }
  ]
}