{
  "id": "Oricorio",
  "spawnInfos": [
    {
      "minLevel": 15,
      "maxLevel": 45,
      "typeID": "pokemon",
      "rarity": 50,
      "spec": {
        "name": "Oricorio",
        "form": 0
      },
      "stringLocationTypes": [
        "Land"
      ],
      "condition": {
        "times": [
          "DAY"
        ],
        "stringBiomes": [
          "biomesoplenty:lavender_fields",
          "biomesoplenty:cherry_blossom_grove",
          "minecraft:mutated_plains",
          "minecraft:mutated_forest",
          "biomesoplenty:flower_island",
          "biomesoplenty:lush_swamp",
          "biomesoplenty:coniferous_forest",
          "pixelmon:ultraburst"
        ]
      }
    },
    {
      "minLevel": 15,
      "maxLevel": 45,
      "typeID": "pokemon",
      "rarity": 50,
      "spec": {
        "name": "Oricorio",
        "form": 1
      },
      "stringLocationTypes": [
        "Land"
      ],
      "condition": {
        "times": [
          "DAWN",
          "DAY"
        ],
        "stringBiomes": [
          "biomesoplenty:lavender_fields",
          "biomesoplenty:cherry_blossom_grove",
          "minecraft:mutated_plains",
          "minecraft:mutated_forest",
          "biomesoplenty:flower_island",
          "biomesoplenty:lush_swamp",
          "biomesoplenty:chaparral"
        ]
      }
    },
    {
      "minLevel": 15,
      "maxLevel": 45,
      "typeID": "pokemon",
      "rarity": 50,
      "spec": {
        "name": "Oricorio",
        "form": 2
      },
      "stringLocationTypes": [
        "Land"
      ],
      "condition": {
        "times": [
          "DAWN",
          "DAY",
          "DUSK"
        ],
        "stringBiomes": [
          "biomesoplenty:lavender_fields",
          "biomesoplenty:cherry_blossom_grove",
          "minecraft:mutated_plains",
          "minecraft:mutated_forest",
          "biomesoplenty:flower_island",
          "biomesoplenty:lush_swamp",
          "biomesoplenty:coniferous_forest"
        ]
      }
    },
    {
      "minLevel": 15,
      "maxLevel": 45,
      "typeID": "pokemon",
      "rarity": 50,
      "spec": {
        "name": "Oricorio",
        "form": 3
      },
      "stringLocationTypes": [
        "Land"
      ],
      "condition": {
        "times": [
          "DUSK",
          "NIGHT"
        ],
        "stringBiomes": [
          "biomesoplenty:lavender_fields",
          "biomesoplenty:cherry_blossom_grove",
          "minecraft:mutated_plains",
          "minecraft:mutated_forest",
          "biomesoplenty:flower_island",
          "biomesoplenty:lush_swamp",
          "biomesoplenty:chaparral",
          "pixelmon:ultraburst"
        ]
      }
    }
  ]
}