{
  "id": "Patrat",
  "spawnInfos": [
    {
      "minLevel": 3,
      "maxLevel": 20,
      "typeID": "pokemon",
      "rarity": 200,
      "spec": {
        "name": "Patrat",
        "form": 0
      },
      "stringLocationTypes": [
        "Land"
      ],
      "condition": {
        "times": [
          "DAWN",
          "DAY",
          "DUSK",
          "NIGHT"
        ],
        "stringBiomes": [
          "biomesoplenty:mountain",
          "biomesoplenty:mountain_foothills",
          "biomesoplenty:highland",
          "minecraft:extreme_hills",
          "minecraft:extreme_hills_with_trees",
          "biomesoplenty:ominous_woods",
          "biomesoplenty:mystic_grove",
          "biomesoplenty:cherry_blossom_grove",
          "biomesoplenty:lavender_fields",
          "minecraft:mutated_plains",
          "minecraft:mutated_forest",
          "biomesoplenty:flower_island",
          "minecraft:plains",
          "minecraft:savanna",
          "minecraft:mutated_roofed_forest",
          "minecraft:roofed_forest",
          "biomesoplenty:lush_desert"
        ]
      }
    }
  ]
}