{
  "id": "Pelipper",
  "spawnInfos": [
    {
      "minLevel": 25,
      "maxLevel": 55,
      "typeID": "pokemon",
      "rarity": 100,
      "spec": {
        "name": "Pelipper",
        "form": 0
      },
      "stringLocationTypes": [
        "Land",
        "Air"
      ],
      "condition": {
        "times": [
          "DAWN",
          "DAY",
          "DUSK",
          "NIGHT"
        ],
        "stringBiomes": [
          "minecraft:beaches",
          "minecraft:stone_beach",
          "minecraft:cold_beach",
          "biomesoplenty:gravel_beach",
          "biomesoplenty:origin_island",
          "biomesoplenty:flower_island",
          "minecraft:mushroom_island_shore",
          "minecraft:frozen_river",
          "biomesoplenty:mangrove",
          "biomesoplenty:tropical_island"
        ]
      }
    }
  ]
}