{
  "id": "Pineco",
  "spawnInfos": [
    {
      "minLevel": 5,
      "maxLevel": 30,
      "typeID": "pokemon",
      "rarity": 100,
      "spec": {
        "name": "Pineco",
        "form": 0
      },
      "stringLocationTypes": [
        "Land"
      ],
      "condition": {
        "times": [
          "DAWN",
          "DAY",
          "DUSK",
          "NIGHT"
        ],
        "stringBiomes": [
          "minecraft:jungle",
          "biomesoplenty:eucalyptus_forest",
          "biomesoplenty:bamboo_forest",
          "minecraft:mutated_jungle_edge",
          "minecraft:jungle_hills",
          "minecraft:mutated_jungle",
          "minecraft:forest",
          "minecraft:birch_forest",
          "biomesoplenty:woodland",
          "biomesoplenty:boreal_forest",
          "biomesoplenty:maple_woods",
          "biomesoplenty:redwood_forest",
          "biomesoplenty:seasonal_forest",
          "biomesoplenty:temperate_rainforest"
        ]
      }
    }
  ]
}