{
  "id": "Piplup",
  "spawnInfos": [
    {
      "minLevel": 5,
      "maxLevel": 10,
      "typeID": "pokemon",
      "rarity": 25,
      "spec": {
        "name": "Piplup",
        "form": 0
      },
      "stringLocationTypes": [
        "Land"
      ],
      "condition": {
        "times": [
          "DAWN",
          "DAY",
          "DUSK"
        ],
        "stringBiomes": [
          "minecraft:forest",
          "minecraft:birch_forest",
          "biomesoplenty:woodland",
          "biomesoplenty:grove",
          "biomesoplenty:land_of_lakes",
          "biomesoplenty:boreal_forest",
          "minecraft:cold_beach",
          "minecraft:frozen_river",
          "biomesoplenty:cold_desert",
          "minecraft:ice_flats",
          "minecraft:mutated_ice_flats",
          "minecraft:frozen_ocean"
        ]
      }
    }
  ]
}