{
  "id": "Poliwhirl",
  "spawnInfos": [
    {
      "minLevel": 25,
      "maxLevel": 50,
      "typeID": "pokemon",
      "rarity": 25,
      "spec": {
        "name": "Poliwhirl",
        "form": 0
      },
      "stringLocationTypes": [
        "Land"
      ],
      "condition": {
        "times": [
          "DAWN",
          "DAY",
          "DUSK"
        ],
        "stringBiomes": [
          "biomesoplenty:grassland",
          "biomesoplenty:oasis",
          "biomesoplenty:lush_swamp",
          "biomesoplenty:land_of_lakes",
          "biomesoplenty:white_beach",
          "biomesoplenty:origin_beach",
          "minecraft:beaches",
          "minecraft:swampland",
          "biomesoplenty:tropical_island",
          "biomesoplenty:bayou",
          "biomesoplenty:dead_swamp",
          "biomesoplenty:bog",
          "biomesoplenty:ominous_woods",
          "biomesoplenty:wasteland",
          "biomesoplenty:gravel_beach"
        ]
      }
    }
  ]
}