{
  "id": "Porygon",
  "spawnInfos": [
    {
      "minLevel": 20,
      "maxLevel": 50,
      "typeID": "pokemon",
      "rarity": 2,
      "spec": {
        "name": "Porygon",
        "form": 0
      },
      "stringLocationTypes": [
        "Land"
      ],
      "condition": {
        "times": [
          "DAWN",
          "DAY",
          "DUSK",
          "NIGHT"
        ],
        "stringBiomes": [
          "biomesoplenty:crag",
          "biomesoplenty:overgrown_cliffs",
          "minecraft:extreme_hills_with_trees",
          "minecraft:mutated_taiga",
          "minecraft:mutated_savanna",
          "minecraft:mutated_savanna_rock",
          "minecraft:mutated_taiga_cold",
          "biomesoplenty:highland",
          "biomesoplenty:alps_foothills"
        ]
      }
    }
  ]
}