{
  "id": "Primeape",
  "spawnInfos": [
    {
      "minLevel": 28,
      "maxLevel": 50,
      "typeID": "pokemon",
      "rarity": 25,
      "spec": {
        "name": "Primeape",
        "form": 0
      },
      "stringLocationTypes": [
        "Land"
      ],
      "condition": {
        "times": [
          "DAWN",
          "DAY",
          "DUSK",
          "NIGHT"
        ],
        "stringBiomes": [
          "biomesoplenty:mountain",
          "biomesoplenty:crag",
          "biomesoplenty:overgrown_cliffs",
          "minecraft:extreme_hills",
          "biomesoplenty:highland",
          "minecraft:extreme_hills_with_trees",
          "minecraft:mutated_taiga",
          "minecraft:mutated_savanna",
          "minecraft:mutated_savanna_rock",
          "minecraft:mutated_mesa",
          "biomesoplenty:tropical_island"
        ]
      }
    }
  ]
}