{
  "id": "Pupitar",
  "spawnInfos": [
    {
      "minLevel": 30,
      "maxLevel": 54,
      "typeID": "pokemon",
      "rarity": 2,
      "spec": {
        "name": "Pupitar",
        "form": 0
      },
      "stringLocationTypes": [
        "Land",
        "Underground"
      ],
      "condition": {
        "times": [
          "DAWN",
          "DAY",
          "DUSK",
          "NIGHT"
        ],
        "stringBiomes": [
          "biomesoplenty:sacred_springs",
          "biomesoplenty:origin_island",
          "minecraft:extreme_hills",
          "minecraft:mutated_mesa"
        ]
      }
    }
  ]
}