{
  "id": "Raichu",
  "spawnInfos": [
    {
      "minLevel": 25,
      "maxLevel": 50,
      "typeID": "pokemon",
      "rarity": 25,
      "spec": {
        "name": "Raichu",
        "form": 0
      },
      "stringLocationTypes": [
        "Land"
      ],
      "condition": {
        "times": [
          "DAWN",
          "DAY",
          "DUSK",
          "NIGHT"
        ],
        "stringBiomes": [
          "minecraft:forest",
          "biomesoplenty:woodland",
          "biomesoplenty:grove",
          "biomesoplenty:land_of_lakes",
          "biomesoplenty:maple_woods",
          "biomesoplenty:orchard",
          "biomesoplenty:seasonal_forest",
          "biomesoplenty:temperate_rainforest",
          "minecraft:mutated_birch_forest",
          "minecraft:savanna"
        ]
      }
    },
    {
      "minLevel": 25,
      "maxLevel": 50,
      "typeID": "pokemon",
      "rarity": 25,
      "spec": {
        "name": "Raichu",
        "form": 3
      },
      "stringLocationTypes": [
        "Land"
      ],
      "condition": {
        "times": [
          "DAWN",
          "DAY",
          "DUSK",
          "NIGHT"
        ],
        "stringBiomes": [
          "minecraft:beaches",
          "minecraft:stone_beach",
          "biomesoplenty:gravel_beach",
          "biomesoplenty:white_beach",
          "biomesoplenty:origin_beach",
          "minecraft:cold_beach"
        ]
      }
    }
  ]
}