{
  "id": "Relicanth",
  "spawnInfos": [
    {
      "minLevel": 30,
      "maxLevel": 35,
      "typeID": "pokemon",
      "rarity": 10,
      "spec": {
        "name": "Relicanth",
        "form": 0
      },
      "stringLocationTypes": [
        "Water"
      ],
      "condition": {
        "times": [
          "DUSK",
          "NIGHT"
        ],
        "stringBiomes": [
          "minecraft:deep_ocean",
          "minecraft:frozen_ocean",
          "pixelmon:ultradeepsea"
        ]
      }
    }
  ]
}