{
  "id": "Roserade",
  "spawnInfos": [
    {
      "minLevel": 35,
      "maxLevel": 45,
      "typeID": "pokemon",
      "rarity": 10,
      "spec": {
        "name": "Roserade",
        "form": 0
      },
      "stringLocationTypes": [
        "Land"
      ],
      "condition": {
        "times": [
          "DAWN",
          "DAY",
          "DUSK",
          "NIGHT"
        ],
        "stringBiomes": [
          "minecraft:mutated_plains",
          "minecraft:mushroom_island",
          "biomesoplenty:mystic_grove",
          "biomesoplenty:origin_island",
          "biomesoplenty:flower_island",
          "biomesoplenty:cherry_blossom_grove",
          "biomesoplenty:chaparral",
          "pixelmon:ultraplant",
          "pixelmon:ultraplant"
        ]
      }
    }
  ]
}