{
  "id": "Salazzle",
  "spawnInfos": [
    {
      "minLevel": 16,
      "maxLevel": 44,
      "typeID": "pokemon",
      "rarity": 10,
      "spec": {
        "name": "Salazzle",
        "form": 0
      },
      "stringLocationTypes": [
        "Land",
        "Underground"
      ],
      "condition": {
        "times": [
          "DAWN",
          "DAY",
          "DUSK",
          "NIGHT"
        ],
        "stringBiomes": [
          "minecraft:desert",
          "minecraft:mesa",
          "biomesoplenty:brushland",
          "biomesoplenty:outback",
          "biomesoplenty:volcanic_island",
          "minecraft:desert_hills",
          "biomesoplenty:steppe",
          "minecraft:mesa_rock",
          "minecraft:mesa_clear_rock",
          "minecraft:mutated_mesa_rock",
          "minecraft:mutated_mesa",
          "minecraft:mutated_mesa_clear_rock",
          "biomesoplenty:volcanic_island",
          "biomesoplenty:corrupted_sands",
          "pixelmon:ultraplant"
        ]
      }
    }
  ]
}