{
  "id": "Salamence",
  "spawnInfos": [
    {
      "minLevel": 50,
      "maxLevel": 60,
      "typeID": "pokemon",
      "rarity": 2,
      "spec": {
        "name": "Salamence",
        "form": 0
      },
      "stringLocationTypes": [
        "Air"
      ],
      "condition": {
        "times": [
          "DAWN",
          "DAY",
          "DUSK",
          "NIGHT"
        ],
        "stringBiomes": [
          "biomesoplenty:overgrown_cliffs",
          "minecraft:extreme_hills_with_trees",
          "minecraft:extreme_hills",
          "biomesoplenty:origin_island",
          "pixelmon:ultradarkforest"
        ]
      }
    }
  ]
}