{
  "id": "Seadra",
  "spawnInfos": [
    {
      "minLevel": 32,
      "maxLevel": 40,
      "typeID": "pokemon",
      "rarity": 25,
      "spec": {
        "name": "Seadra",
        "form": 0
      },
      "stringLocationTypes": [
        "Water"
      ],
      "condition": {
        "times": [
          "DAWN",
          "DAY",
          "DUSK",
          "NIGHT"
        ],
        "stringBiomes": [
          "minecraft:deep_ocean",
          "biomesoplenty:coral_reef",
          "biomesoplenty:kelp_forest",
          "minecraft:frozen_ocean"
        ]
      }
    }
  ]
}