{
  "id": "Shaymin",
  "spawnInfos": [
    {
      "minLevel": 70,
      "maxLevel": 70,
      "typeID": "pokemon",
      "rarity": 2,
      "interval": "legendary",
      "spec": {
        "name": "Shaymin",
        "form": 0
      },
      "stringLocationTypes": [
        "Land"
      ],
      "condition": {
        "times": [
          "DAWN",
          "DAY",
          "DUSK",
          "NIGHT"
        ],
        "stringBiomes": [
          "minecraft:birch_forest",
          "biomesoplenty:boreal_forest",
          "biomesoplenty:lavender_fields",
          "biomesoplenty:prairie",
          "minecraft:mutated_plains",
          "biomesoplenty:origin_island"
        ]
      }
    }
  ]
}