{
  "id": "Skorupi",
  "spawnInfos": [
    {
      "minLevel": 5,
      "maxLevel": 25,
      "typeID": "pokemon",
      "rarity": 25,
      "spec": {
        "name": "Skorupi",
        "form": 0
      },
      "stringLocationTypes": [
        "Land",
        "Underground"
      ],
      "condition": {
        "times": [
          "DAWN",
          "DAY",
          "DUSK",
          "NIGHT"
        ],
        "stringBiomes": [
          "biomesoplenty:lush_desert",
          "minecraft:mesa",
          "biomesoplenty:outback",
          "minecraft:desert_hills",
          "biomesoplenty:steppe",
          "minecraft:mesa_rock",
          "biomesoplenty:xeric_shrubland",
          "biomesoplenty:oasis",
          "minecraft:mutated_desert",
          "minecraft:mutated_mesa",
          "minecraft:mutated_mesa_clear_rock",
          "biomesoplenty:moor",
          "biomesoplenty:wetland",
          "minecraft:river",
          "biomesoplenty:sacred_springs",
          "biomesoplenty:undergarden",
          "minecraft:mesa_clear_rock",
          "minecraft:mutated_mesa_rock"
        ]
      }
    }
  ]
}