{
  "id": "Slugma",
  "spawnInfos": [
    {
      "minLevel": 5,
      "maxLevel": 37,
      "typeID": "pokemon",
      "rarity": 100,
      "spec": {
        "name": "Slugma",
        "form": 0
      },
      "stringLocationTypes": [
        "Land",
        "Underground"
      ],
      "condition": {
        "times": [
          "DAWN",
          "DAY",
          "DUSK",
          "NIGHT"
        ],
        "stringBiomes": [
          "biomesoplenty:volcanic_island",
          "minecraft:desert",
          "minecraft:mutated_mesa_clear_rock",
          "minecraft:mesa_rock",
          "biomesoplenty:undergarden",
          "biomesoplenty:corrupted_sands",
          "biomesoplenty:fungi_forest",
          "minecraft:hell",
          "minecraft:mesa_clear_rock",
          "pixelmon:ultraburst"
        ]
      }
    }
  ]
}