{
  "id": "Sneasel",
  "spawnInfos": [
    {
      "minLevel": 5,
      "maxLevel": 35,
      "typeID": "pokemon",
      "rarity": 25,
      "spec": {
        "name": "Sneasel",
        "form": 0
      },
      "stringLocationTypes": [
        "Land",
        "Underground"
      ],
      "condition": {
        "times": [
          "DUSK",
          "NIGHT"
        ],
        "stringBiomes": [
          "biomesoplenty:coniferous_forest",
          "minecraft:taiga_cold_hills",
          "minecraft:mutated_taiga_cold",
          "minecraft:ice_mountains",
          "minecraft:mutated_ice_flats",
          "biomesoplenty:glacier",
          "biomesoplenty:alps",
          "biomesoplenty:alps_foothills",
          "biomesoplenty:snowy_tundra",
          "pixelmon:ultradarkforest"
        ]
      }
    }
  ]
}