{
  "id": "Snivy",
  "spawnInfos": [
    {
      "minLevel": 5,
      "maxLevel": 16,
      "typeID": "pokemon",
      "rarity": 25,
      "spec": {
        "name": "Snivy",
        "form": 0
      },
      "stringLocationTypes": [
        "Land"
      ],
      "condition": {
        "times": [
          "DAWN",
          "DAY",
          "DUSK",
          "NIGHT"
        ],
        "stringBiomes": [
          "biomesoplenty:seasonal_forest",
          "minecraft:forest",
          "minecraft:birch_forest",
          "biomesoplenty:grove",
          "minecraft:forest_hills",
          "biomesoplenty:boreal_forest"
        ]
      }
    }
  ]
}