{
  "id": "Spectrier",
  "spawnInfos": [
    {
      "minLevel": 70,
      "maxLevel": 70,
      "typeID": "pokemon",
      "interval": "legendary",
      "rarity": 1,
      "spec": {
        "name": "Spectrier",
        "form": 0
      },
      "stringLocationTypes": [
        "Land"
      ],
      "condition": {
        "times": [
          "DAWN",
          "DAY",
          "DUSK",
          "NIGHT"
        ],
        "stringBiomes": [
          "minecraft:roofed_forest",
          "biomesoplenty:dead_forest",
          "biomesoplenty:origin_island"
        ]
      }
    }
  ]
}