{
  "id": "Stufful",
  "spawnInfos": [
    {
      "minLevel": 10,
      "maxLevel": 27,
      "typeID": "pokemon",
      "rarity": 100,
      "spec": {
        "name": "Stufful",
        "form": 0
      },
      "stringLocationTypes": [
        "Land"
      ],
      "condition": {
        "times": [
          "DAWN",
          "DAY",
          "DUSK",
          "NIGHT"
        ],
        "stringBiomes": [
          "biomesoplenty:mountain",
          "biomesoplenty:mountain_foothills",
          "biomesoplenty:crag",
          "minecraft:extreme_hills",
          "minecraft:mutated_taiga",
          "minecraft:mutated_savanna",
          "minecraft:mutated_savanna_rock",
          "minecraft:taiga_hills",
          "minecraft:redwood_taiga_hills",
          "minecraft:redwood_taiga",
          "minecraft:mutated_redwood_taiga"
        ]
      }
    }
  ]
}