{
  "id": "Swirlix",
  "spawnInfos": [
    {
      "minLevel": 15,
      "maxLevel": 35,
      "typeID": "pokemon",
      "rarity": 200,
      "spec": {
        "name": "Swirlix",
        "form": 0
      },
      "stringLocationTypes": [
        "Land"
      ],
      "condition": {
        "times": [
          "DAWN",
          "DAY",
          "DUSK",
          "NIGHT"
        ],
        "stringBiomes": [
          "minecraft:roofed_forest",
          "biomesoplenty:mystic_grove",
          "minecraft:mushroom_island",
          "minecraft:mushroom_island_shore",
          "biomesoplenty:cherry_blossom_grove",
          "biomesoplenty:origin_island",
          "biomesoplenty:flower_island",
          "minecraft:mutated_jungle_edge",
          "minecraft:mutated_roofed_forest",
          "minecraft:sky"
        ]
      }
    }
  ]
}