{
  "id": "Tangrowth",
  "spawnInfos": [
    {
      "minLevel": 40,
      "maxLevel": 55,
      "typeID": "pokemon",
      "rarity": 25,
      "spec": {
        "name": "Tangrowth",
        "form": 0
      },
      "stringLocationTypes": [
        "Land"
      ],
      "condition": {
        "times": [
          "DAWN",
          "DAY",
          "DUSK",
          "NIGHT"
        ],
        "stringBiomes": [
          "biomesoplenty:maple_woods",
          "biomesoplenty:boreal_forest",
          "biomesoplenty:temperate_rainforest",
          "minecraft:plains",
          "biomesoplenty:prairie",
          "biomesoplenty:meadow",
          "biomesoplenty:lush_desert",
          "biomesoplenty:chaparral"
        ]
      }
    }
  ]
}