{
  "id": "Terrakion",
  "spawnInfos": [
    {
      "minLevel": 45,
      "maxLevel": 45,
      "typeID": "pokemon",
      "rarity": 2,
      "interval": "legendary",
      "spec": {
        "name": "Terrakion",
        "form": 0
      },
      "stringLocationTypes": [
        "Land"
      ],
      "condition": {
        "times": [
          "DAWN",
          "DAY",
          "DUSK",
          "NIGHT"
        ],
        "stringBiomes": [
          "minecraft:mutated_mesa_rock",
          "minecraft:mutated_mesa",
          "biomesoplenty:quagmire",
          "biomesoplenty:steppe",
          "biomesoplenty:tundra",
          "biomesoplenty:origin_island"
        ]
      }
    }
  ]
}