{
  "id": "Togetic",
  "spawnInfos": [
    {
      "minLevel": 15,
      "maxLevel": 50,
      "typeID": "pokemon",
      "rarity": 10,
      "spec": {
        "name": "Togetic",
        "form": 0
      },
      "stringLocationTypes": [
        "Land"
      ],
      "condition": {
        "times": [
          "DAWN",
          "DAY",
          "DUSK"
        ],
        "stringBiomes": [
          "biomesoplenty:mystic_grove",
          "biomesoplenty:cherry_blossom_grove",
          "minecraft:roofed_forest",
          "minecraft:mushroom_island"
        ]
      }
    }
  ]
}