{
  "id": "Toxapex",
  "spawnInfos": [
    {
      "minLevel": 38,
      "maxLevel": 60,
      "typeID": "pokemon",
      "rarity": 10,
      "spec": {
        "name": "Toxapex",
        "form": 0
      },
      "stringLocationTypes": [
        "Land"
      ],
      "condition": {
        "times": [
          "DAWN",
          "DAY",
          "DUSK",
          "NIGHT"
        ],
        "stringBiomes": [
          "minecraft:ocean",
          "minecraft:deep_ocean",
          "biomesoplenty:coral_reef",
          "biomesoplenty:kelp_forest",
          "minecraft:beaches",
          "minecraft:stone_beach",
          "biomesoplenty:gravel_beach",
          "biomesoplenty:white_beach",
          "biomesoplenty:origin_beach",
          "pixelmon:ultraplant",
          "pixelmon:ultraswamp"
        ]
      }
    }
  ]
}