{
  "id": "Tranquill",
  "spawnInfos": [
    {
      "minLevel": 21,
      "maxLevel": 32,
      "typeID": "pokemon",
      "rarity": 50,
      "spec": {
        "name": "Tranquill",
        "form": 0
      },
      "stringLocationTypes": [
        "Land"
      ],
      "condition": {
        "times": [
          "DAWN",
          "DAY",
          "DUSK",
          "NIGHT"
        ],
        "stringBiomes": [
          "minecraft:plains",
          "minecraft:mutated_plains",
          "biomesoplenty:prairie",
          "biomesoplenty:pasture",
          "minecraft:savanna",
          "biomesoplenty:shrubland",
          "biomesoplenty:tundra",
          "minecraft:savanna_rock",
          "minecraft:taiga_cold"
        ]
      }
    }
  ]
}