{
  "id": "Trapinch",
  "spawnInfos": [
    {
      "minLevel": 5,
      "maxLevel": 35,
      "typeID": "pokemon",
      "rarity": 200,
      "spec": {
        "name": "Trapinch",
        "form": 0
      },
      "stringLocationTypes": [
        "Land"
      ],
      "condition": {
        "times": [
          "DAWN",
          "DAY",
          "DUSK",
          "NIGHT"
        ],
        "stringBiomes": [
          "minecraft:desert",
          "biomesoplenty:lush_desert",
          "biomesoplenty:outback",
          "biomesoplenty:volcanic_island",
          "biomesoplenty:steppe",
          "biomesoplenty:oasis",
          "minecraft:mutated_desert",
          "minecraft:mutated_mesa",
          "minecraft:mutated_mesa_clear_rock",
          "biomesoplenty:xeric_shrubland",
          "minecraft:mutated_extreme_hills",
          "minecraft:mutated_extreme_hills_with_trees"
        ]
      }
    }
  ]
}