{
  "id": "Tropius",
  "spawnInfos": [
    {
      "minLevel": 15,
      "maxLevel": 30,
      "typeID": "pokemon",
      "rarity": 25,
      "spec": {
        "name": "Tropius",
        "form": 0
      },
      "stringLocationTypes": [
        "Air"
      ],
      "condition": {
        "times": [
          "DAWN",
          "DAY"
        ],
        "stringBiomes": [
          "minecraft:jungle",
          "biomesoplenty:rainforest",
          "biomesoplenty:eucalyptus_forest",
          "biomesoplenty:bamboo_forest",
          "biomesoplenty:sacred_springs",
          "biomesoplenty:tropical_rainforest",
          "minecraft:mutated_jungle_edge",
          "minecraft:jungle_hills",
          "minecraft:mutated_jungle",
          "biomesoplenty:tropical_island",
          "minecraft:jungle_edge",
          "pixelmon:ultraforest"
        ]
      }
    }
  ]
}