{
  "id": "Tsareena",
  "spawnInfos": [
    {
      "minLevel": 30,
      "maxLevel": 55,
      "typeID": "pokemon",
      "rarity": 10,
      "spec": {
        "name": "Tsareena",
        "form": 0
      },
      "stringLocationTypes": [
        "Land"
      ],
      "condition": {
        "times": [
          "DAWN",
          "DAY",
          "DUSK",
          "NIGHT"
        ],
        "stringBiomes": [
          "biomesoplenty:lavender_fields",
          "biomesoplenty:cherry_blossom_grove",
          "minecraft:mutated_plains",
          "minecraft:mutated_forest",
          "biomesoplenty:flower_island",
          "minecraft:mutated_desert"
        ]
      }
    }
  ]
}