{
  "id": "Tyranitar",
  "spawnInfos": [
    {
      "minLevel": 55,
      "maxLevel": 75,
      "typeID": "pokemon",
      "rarity": 2,
      "spec": {
        "name": "Tyranitar",
        "form": 0
      },
      "stringLocationTypes": [
        "Land"
      ],
      "condition": {
        "times": [
          "DUSK",
          "NIGHT"
        ],
        "stringBiomes": [
          "biomesoplenty:sacred_springs",
          "biomesoplenty:origin_island",
          "minecraft:extreme_hills",
          "minecraft:mutated_mesa"
        ]
      }
    }
  ]
}