{
  "id": "Vanillish",
  "spawnInfos": [
    {
      "minLevel": 5,
      "maxLevel": 35,
      "typeID": "pokemon",
      "rarity": 50,
      "spec": {
        "name": "Vanillish",
        "form": 0
      },
      "stringLocationTypes": [
        "Land",
        "Underground",
        "Water"
      ],
      "condition": {
        "times": [
          "DAWN",
          "DAY",
          "DUSK",
          "NIGHT"
        ],
        "stringBiomes": [
          "biomesoplenty:snowy_forest",
          "biomesoplenty:snowy_coniferous_forest",
          "biomesoplenty:cold_desert",
          "minecraft:taiga_cold",
          "minecraft:ice_flats",
          "minecraft:ice_mountains",
          "minecraft:mutated_ice_flats",
          "minecraft:mutated_taiga_cold",
          "minecraft:frozen_ocean",
          "minecraft:frozen_river",
          "biomesoplenty:snowy_tundra",
          "minecraft:taiga_hills",
          "minecraft:taiga",
          "minecraft:mutated_redwood_taiga_hills"
        ]
      }
    }
  ]
}