{
  "id": "Vaporeon",
  "spawnInfos": [
    {
      "minLevel": 35,
      "maxLevel": 50,
      "typeID": "pokemon",
      "rarity": 10,
      "spec": {
        "name": "Vaporeon",
        "form": 0
      },
      "stringLocationTypes": [
        "Land"
      ],
      "condition": {
        "times": [
          "DAWN",
          "DAY",
          "DUSK",
          "NIGHT"
        ],
        "stringBiomes": [
          "minecraft:beaches",
          "biomesoplenty:white_beach",
          "biomesoplenty:origin_beach",
          "minecraft:river",
          "biomesoplenty:sacred_springs",
          "biomesoplenty:cold_desert"
        ]
      }
    }
  ]
}