{
  "id": "Victreebel",
  "spawnInfos": [
    {
      "minLevel": 30,
      "maxLevel": 50,
      "typeID": "pokemon",
      "rarity": 10,
      "spec": {
        "name": "Victreebel",
        "form": 0
      },
      "stringLocationTypes": [
        "Land"
      ],
      "condition": {
        "times": [
          "DAWN",
          "DAY",
          "DUSK",
          "NIGHT"
        ],
        "stringBiomes": [
          "minecraft:forest",
          "minecraft:birch_forest",
          "biomesoplenty:woodland",
          "biomesoplenty:land_of_lakes",
          "biomesoplenty:boreal_forest",
          "biomesoplenty:maple_woods",
          "biomesoplenty:seasonal_forest",
          "biomesoplenty:temperate_rainforest",
          "minecraft:mutated_birch_forest_hills",
          "minecraft:jungle",
          "biomesoplenty:eucalyptus_forest",
          "biomesoplenty:sacred_springs",
          "biomesoplenty:tropical_rainforest",
          "minecraft:mutated_jungle",
          "minecraft:roofed_forest",
          "minecraft:mutated_roofed_forest",
          "minecraft:mutated_swampland",
          "biomesoplenty:tropical_island"
        ]
      }
    }
  ]
}