{
  "id": "Whirlipede",
  "spawnInfos": [
    {
      "minLevel": 22,
      "maxLevel": 29,
      "typeID": "pokemon",
      "rarity": 50,
      "spec": {
        "name": "Whirlipede",
        "form": 0
      },
      "stringLocationTypes": [
        "Land"
      ],
      "condition": {
        "times": [
          "DAWN",
          "DAY",
          "DUSK",
          "NIGHT"
        ],
        "stringBiomes": [
          "minecraft:forest",
          "biomesoplenty:woodland",
          "biomesoplenty:fen",
          "biomesoplenty:grove",
          "biomesoplenty:land_of_lakes",
          "biomesoplenty:boreal_forest",
          "biomesoplenty:redwood_forest",
          "biomesoplenty:seasonal_forest",
          "biomesoplenty:temperate_rainforest",
          "minecraft:birch_forest_hills",
          "minecraft:mutated_birch_forest",
          "minecraft:mutated_birch_forest_hills",
          "minecraft:jungle",
          "biomesoplenty:rainforest",
          "biomesoplenty:sacred_springs",
          "biomesoplenty:tropical_rainforest",
          "minecraft:mutated_jungle_edge",
          "minecraft:jungle_hills",
          "minecraft:mutated_jungle",
          "biomesoplenty:ominous_woods",
          "biomesoplenty:origin_island",
          "biomesoplenty:bayou"
        ]
      }
    }
  ]
}