{
  "id": "Wynaut",
  "spawnInfos": [
    {
      "minLevel": 5,
      "maxLevel": 15,
      "typeID": "pokemon",
      "rarity": 100,
      "spec": {
        "name": "Wynaut",
        "form": 0
      },
      "stringLocationTypes": [
        "Land"
      ],
      "condition": {
        "times": [
          "DAWN",
          "DAY",
          "DUSK",
          "NIGHT"
        ],
        "stringBiomes": [
          "minecraft:roofed_forest",
          "biomesoplenty:ominous_woods",
          "biomesoplenty:dead_forest",
          "biomesoplenty:dead_swamp",
          "biomesoplenty:wasteland",
          "biomesoplenty:steppe",
          "biomesoplenty:tundra",
          "minecraft:mutated_roofed_forest"
        ]
      }
    }
  ]
}