{
  "id": "Yamper",
  "spawnInfos": [
    {
      "minLevel": 5,
      "maxLevel": 24,
      "typeID": "pokemon",
      "rarity": 50,
      "spec": {
        "name": "Yamper",
        "form": 0
      },
      "stringLocationTypes": [
        "Land"
      ],
      "condition": {
        "times": [
          "DAWN",
          "DAY",
          "DUSK",
          "NIGHT"
        ],
        "stringBiomes": [
          "biomesoplenty:chaparral",
          "minecraft:taiga_cold",
          "biomesoplenty:meadow",
          "minecraft:plains",
          "biomesoplenty:brushland",
          "biomesoplenty:fen",
          "minecraft:mutated_mesa_rock",
          "minecraft:mesa_rock",
          "minecraft:mutated_mesa_clear_rock",
          "minecraft:mesa_clear_rock",
          "biomesoplenty:grassland",
          "biomesoplenty:prairie",
          "biomesoplenty:pasture"
        ]
      }
    }
  ]
}