{
  "id": "Zeraora",
  "spawnInfos": [
    {
      "minLevel": 70,
      "maxLevel": 70,
      "typeID": "pokemon",
      "rarity": 2,
      "interval": "legendary",
      "spec": {
        "name": "Zeraora",
        "form": 0
      },
      "stringLocationTypes": [
        "Land"
      ],
      "condition": {
        "times": [
          "DAWN",
          "DAY",
          "DUSK",
          "NIGHT"
        ],
        "stringBiomes": [
          "biomesoplenty:outback",
          "minecraft:savanna_rock",
          "biomesoplenty:shield",
          "biomesoplenty:shrubland",
          "biomesoplenty:origin_island"
        ]
      }
    }
  ]
}