{
  "id": "Zorua",
  "spawnInfos": [
    {
      "minLevel": 5,
      "maxLevel": 25,
      "typeID": "pokemon",
      "rarity": 25,
      "spec": {
        "name": "Zorua",
        "form": 0
      },
      "stringLocationTypes": [
        "Land"
      ],
      "condition": {
        "times": [
          "DUSK"
        ],
        "stringBiomes": [
          "biomesoplenty:quagmire",
          "minecraft:roofed_forest",
          "biomesoplenty:ominous_woods",
          "biomesoplenty:mystic_grove",
          "biomesoplenty:origin_island",
          "minecraft:mutated_roofed_forest",
          "minecraft:taiga",
          "minecraft:taiga_cold_hills",
          "pixelmon:ultraruin"
        ]
      }
    }
  ]
}