{
   "pools":[
      {
         "name":"abundant_shrine",
         "rolls":4,
         "entries":[
            {
               "type":"loot_table",
               "name":"pixelmon:lists/money",
               "weight":5
            },
            {
               "type":"loot_table",
               "name":"pixelmon:lists/pokeballs",
               "weight":5
            },
            {
               "type":"loot_table",
               "name":"pixelmon:lists/trs",
               "weight":5
            },
            {
               "type":"loot_table",
               "name":"pixelmon:lists/music_discs",
               "weight":5
            },
            {
               "type":"item",
               "name":"pixelmon:shattered_relic_song_1",
               "weight":4
            },
            {
               "type":"item",
               "name":"pixelmon:shattered_relic_song_2",
               "weight":4
            },
            {
               "type":"item",
               "name":"pixelmon:shattered_relic_song_3",
               "weight":4
            },
            {
               "type":"item",
               "name":"pixelmon:shattered_relic_song_4",
               "weight":4
            },
            {
               "type":"item",
               "name":"pixelmon:mirror",
               "weight":7
            },
            {
               "type":"item",
               "name":"pixelmon:lava_crystal",
               "weight":5
            },
            {
               "type":"item",
               "name":"pixelmon:tm95",
               "weight":1
            },
            {
               "type":"item",
               "name":"pixelmon:tm78",
               "weight":1
            },
            {
               "type":"item",
               "name":"pixelmon:tm52",
               "weight":1
            },
            {
               "type":"item",
               "name":"pixelmon:tm6",
               "weight":1
            }
         ]
      }
   ]
}