{
   "pools":[
      {
         "name":"inject",
         "rolls":4,
         "entries":[
            {
               "type":"loot_table",
               "name":"pixelmon:lists/money",
               "weight":4
            },
            {
               "type":"loot_table",
               "name":"pixelmon:lists/fossils",
               "weight":8
            },
            {
               "type":"loot_table",
               "name":"pixelmon:lists/pokeballs",
               "weight":8
            },
            {
               "type":"loot_table",
               "name":"pixelmon:lists/restoration",
               "weight":8
            },
            {
               "type":"loot_table",
               "name":"pixelmon:lists/music_discs",
               "weight":6
            },
            {
               "type":"item",
               "name":"pixelmon:rocky_helmet",
               "weight":8
            },
            {
               "type":"item",
               "name":"pixelmon:smooth_rock",
               "weight":6
            },
            {
               "type":"item",
               "name":"pixelmon:kings_rock",
               "weight":6
            },
            {
               "type":"item",
               "name":"pixelmon:rock_gem",
               "weight":5
            },
            {
               "type":"item",
               "name":"pixelmon:tm22",
               "weight":2
            },
            {
               "type":"item",
               "name":"pixelmon:tm32",
               "weight":2
            },
            {
               "type":"item",
               "name":"pixelmon:tm48",
               "weight":2
            },
            {
               "type":"item",
               "name":"pixelmon:tm54",
               "weight":2
            },
            {
               "type":"item",
               "name":"pixelmon:rock_incense",
               "weight":5
            },
            {
               "type":"item",
               "name":"pixelmon:heat_rock",
               "weight":4
            },
            {
               "type":"item",
               "name":"pixelmon:rockium_z",
               "weight":1
            },
            {
               "type":"item",
               "name":"pixelmon:stone_plate",
               "weight":1
            },
            {
               "type":"item",
               "name":"pixelmon:rock_memory_drive",
               "weight":1
            }
         ]
      }
   ]
}