{
   "pools":[
      {
         "name":"inject",
         "rolls":4,
         "entries":[
            {
               "type":"loot_table",
               "name":"pixelmon:lists/type_enhancements",
               "weight":8
            },
            {
               "type":"loot_table",
               "name":"pixelmon:lists/pokeballs",
               "weight":8
            },
            {
               "type":"loot_table",
               "name":"pixelmon:lists/music_discs",
               "weight":6
            },
            {
               "type":"loot_table",
               "name":"pixelmon:lists/restoration",
               "weight":8
            },
            {
               "type":"item",
               "name":"pixelmon:fairy_gem",
               "weight":4
            },
            {
               "type":"item",
               "name":"pixelmon:misty_seed",
               "weight":6
            },
            {
               "type":"item",
               "name":"pixelmon:psychic_seed",
               "weight":4
            },
            {
               "type":"item",
               "name":"pixelmon:fairy_memory_drive",
               "weight":1
            },
            {
               "type":"item",
               "name":"pixelmon:pixie_plate",
               "weight":1
            },
            {
               "type":"item",
               "name":"pixelmon:fairium_z",
               "weight":1
            },
            {
               "type":"item",
               "name":"pixelmon:tm29",
               "weight":2
            },
            {
               "type":"item",
               "name":"pixelmon:tm87",
               "weight":2
            },
            {
               "type":"item",
               "name":"pixelmon:tm89",
               "weight":2
            },
            {
               "type":"item",
               "name":"pixelmon:tr90",
               "weight":2
            },
            {
               "type":"item",
               "name":"pixelmon:tr92",
               "weight":2
            },
            {
               "type":"item",
               "name":"pixelmon:room_service",
               "weight":2
            }
         ]
      }
   ]
}