{
  "pools":[
    {
      "name":"inject",
      "rolls":6,
      "entries":[
        {
          "type":"loot_table",
          "name":"pixelmon:lists/money",
          "weight":5
        },
        {
          "type":"loot_table",
          "name":"pixelmon:lists/fossils",
          "weight":5
        },
        {
          "type":"loot_table",
          "name":"pixelmon:lists/pokeballs",
          "weight":5
        },
        {
          "type":"loot_table",
          "name":"pixelmon:lists/restoration",
          "weight":5
        },
        {
          "type":"item",
          "name":"pixelmon:magnet",
          "weight":8
        },
        {
          "type":"item",
          "name":"pixelmon:tr9",
          "weight":2
        },
        {
          "type":"item",
          "name":"pixelmon:tr8",
          "weight":2
        },
        {
          "type":"item",
          "name":"pixelmon:tm93",
          "weight":2
        },
        {
          "type":"item",
          "name":"pixelmon:tm66",
          "weight":2
        },
        {
          "type":"item",
          "name":"pixelmon:tm5",
          "weight":2
        },
        {
          "type":"item",
          "name":"pixelmon:tm14",
          "weight":2
        },
        {
          "type":"item",
          "name":"pixelmon:electric_gem",
          "weight":2
        },
        {
          "type":"item",
          "name":"pixelmon:electrium_z",
          "weight":2
        },
        {
          "type":"item",
          "name":"pixelmon:zap_plate",
          "weight":2
        },
        {
          "type":"item",
          "name":"pixelmon:electric_memory_drive",
          "weight":2
        },
        {
          "type":"item",
          "name":"pixelmon:pokedoll_registeel",
          "weight":10
        },
        {
          "type":"item",
          "name":"pixelmon:unown_block",
          "weight":5
        },
        {
          "type":"item",
          "name":"pixelmon:discharged_eleki_key_1",
          "weight":10
        },
        {
          "type":"item",
          "name":"pixelmon:discharged_eleki_key_2",
          "weight":10
        },
        {
          "type":"item",
          "name":"pixelmon:discharged_eleki_key_3",
          "weight":8
        },
        {
          "type":"item",
          "name":"pixelmon:discharged_eleki_key_4",
          "weight":5
        }
      ]
    }
  ]
}