{
   "pools":[
      {
         "name":"inject",
         "rolls":6,
         "entries":[
            {
               "type":"loot_table",
               "name":"pixelmon:lists/money",
               "weight":5
            },
            {
               "type":"loot_table",
               "name":"pixelmon:lists/fossils",
               "weight":5
            },
            {
               "type":"loot_table",
               "name":"pixelmon:lists/pokeballs",
               "weight":5
            },
            {
               "type":"loot_table",
               "name":"pixelmon:lists/restoration",
               "weight":5
            },
            {
               "type":"item",
               "name":"pixelmon:rocky_helmet",
               "weight":8
            },
            {
               "type":"item",
               "name":"pixelmon:smooth_rock",
               "weight":2
            },
            {
               "type":"item",
               "name":"pixelmon:kings_rock",
               "weight":2
            },
            {
               "type":"item",
               "name":"pixelmon:rock_gem",
               "weight":2
            },
            {
               "type":"item",
               "name":"pixelmon:tm22",
               "weight":2
            },
            {
               "type":"item",
               "name":"pixelmon:tm32",
               "weight":2
            },
            {
               "type":"item",
               "name":"pixelmon:tm48",
               "weight":2
            },
            {
               "type":"item",
               "name":"pixelmon:tm54",
               "weight":2
            },
            {
               "type":"item",
               "name":"pixelmon:rock_incense",
               "weight":2
            },
            {
               "type":"item",
               "name":"pixelmon:heat_rock",
               "weight":2
            },
            {
               "type":"item",
               "name":"pixelmon:rockium_z",
               "weight":2
            },
            {
               "type":"item",
               "name":"pixelmon:stone_plate",
               "weight":2
            },
            {
               "type":"item",
               "name":"pixelmon:rock_memory_drive",
               "weight":2
            },
            {
               "type":"item",
               "name":"pixelmon:pokedoll_regirock",
               "weight":10
            },
            {
               "type":"item",
               "name":"pixelmon:unown_block",
               "weight":5
            },
            {
               "type":"item",
               "name":"pixelmon:crumbled_rock_key_1",
               "weight":10
            },
            {
               "type":"item",
               "name":"pixelmon:crumbled_rock_key_2",
               "weight":10
            },
            {
               "type":"item",
               "name":"pixelmon:crumbled_rock_key_3",
               "weight":8
            },
            {
               "type":"item",
               "name":"pixelmon:crumbled_rock_key_4",
               "weight":5
            }
         ]
      }
   ]
}