{
   "pools":[
      {
         "name":"inject",
         "rolls":4,
         "entries":[
            {
               "type":"loot_table",
               "name":"pixelmon:lists/pokedolls",
               "weight":8
            },
            {
               "type":"loot_table",
               "name":"pixelmon:lists/trs",
               "weight":8
            },
            {
               "type":"loot_table",
               "name":"pixelmon:lists/gems",
               "weight":6
            },
            {
               "type":"loot_table",
               "name":"pixelmon:lists/fossils",
               "weight":8
            },
            {
               "type":"item",
               "name":"pixelmon:soft_sand",
               "weight":4
            },
            {
               "type":"item",
               "name":"pixelmon:hard_stone",
               "weight":6
            },
            {
               "type":"item",
               "name":"pixelmon:fresh_water",
               "weight":1
            },
            {
               "type":"item",
               "name":"pixelmon:mystic_water",
               "weight":1
            },
            {
               "type":"item",
               "name":"pixelmon:water_stone",
               "weight":1
            },
            {
               "type":"item",
               "name":"pixelmon:wailmer_pail",
               "weight":1
            },
            {
               "type":"item",
               "name":"pixelmon:sapphire",
               "weight":2
            },
            {
               "type":"item",
               "name":"pixelmon:orb",
               "weight":2
            },
            {
               "type":"item",
               "name":"pixelmon:prism_scale",
               "weight":2
            },
            {
               "type":"item",
               "name":"pixelmon:shell_bell",
               "weight":2
            },
            {
               "type":"item",
               "name":"pixelmon:smooth_rock",
               "weight":2
            },
            {
               "type":"item",
               "name":"pixelmon:amulet_coin",
               "weight":2
            }
         ]
      }
   ]
}