{
   "pools":[
      {
         "name":"inject",
         "rolls":4,
         "entries":[
            {
               "type":"loot_table",
               "name":"pixelmon:lists/money",
               "weight":8
            },
            {
               "type":"loot_table",
               "name":"pixelmon:lists/restoration",
               "weight":8
            },
            {
               "type":"loot_table",
               "name":"pixelmon:lists/mega_stones",
               "weight":6
            },
            {
               "type":"loot_table",
               "name":"pixelmon:lists/gems",
               "weight":8
            },
            {
               "type":"item",
               "name":"pixelmon:mirror",
               "weight":4
            },
            {
               "type":"item",
               "name":"pixelmon:hoopa_ring",
               "weight":6
            },
            {
               "type":"item",
               "name":"pixelmon:pp_up",
               "weight":1
            },
            {
               "type":"item",
               "name":"pixelmon:leftovers",
               "weight":1
            },
            {
               "type":"item",
               "name":"pixelmon:metronome",
               "weight":1
            },
            {
               "type":"item",
               "name":"pixelmon:wide_lens",
               "weight":1
            },
            {
               "type":"item",
               "name":"pixelmon:zoom_lens",
               "weight":2
            },
            {
               "type":"item",
               "name":"pixelmon:float_stone",
               "weight":2
            },
            {
               "type":"item",
               "name":"pixelmon:air_balloon",
               "weight":2
            },
            {
               "type":"item",
               "name":"pixelmon:ring_target",
               "weight":2
            },
            {
               "type":"item",
               "name":"pixelmon:wise_glasses",
               "weight":2
            },
            {
               "type":"item",
               "name":"pixelmon:oval_stone",
               "weight":2
            }
         ]
      }
   ]
}