{
   "pools":[
      {
         "name":"inject",
         "rolls":6,
         "entries":[
            {
               "type":"loot_table",
               "name":"pixelmon:lists/money",
               "weight":1
            },
            {
               "type":"loot_table",
               "name":"pixelmon:lists/fossils",
               "weight":2
            },
            {
               "type":"loot_table",
               "name":"pixelmon:lists/pokeballs",
               "weight":5
            },
            {
               "type":"loot_table",
               "name":"pixelmon:lists/restoration",
               "weight":5
            },
            {
               "type":"item",
               "name":"pixelmon:burn_drive",
               "weight":2
            },
            {
               "type":"item",
               "name":"pixelmon:shock_drive",
               "weight":2
            },
            {
               "type":"item",
               "name":"pixelmon:chill_drive",
               "weight":2
            },
            {
               "type":"item",
               "name":"pixelmon:draco_plate",
               "weight":4
            },
            {
               "type":"item",
               "name":"pixelmon:icicle_plate",
               "weight":2
            },
            {
               "type":"item",
               "name":"pixelmon:flame_plate",
               "weight":2
            },
            {
               "type":"item",
               "name":"pixelmon:zap_plate",
               "weight":2
            },
            {
               "type":"item",
               "name":"pixelmon:dragon_memory_drive",
               "weight":4
            },
            {
               "type":"item",
               "name":"pixelmon:ice_memory_drive",
               "weight":2
            },
            {
               "type":"item",
               "name":"pixelmon:fire_memory_drive",
               "weight":2
            },
            {
               "type":"item",
               "name":"pixelmon:electric_memory_drive",
               "weight":2
            },
            {
               "type":"item",
               "name":"pixelmon:dragonium_z",
               "weight":4
            },
            {
               "type":"item",
               "name":"pixelmon:dragon_scale",
               "weight":1
            },
            {
               "type":"item",
               "name":"pixelmon:dragon_gem",
               "weight":1
            },
            {
               "type":"item",
               "name":"pixelmon:dragon_fang",
               "weight":1
            },
            {
               "type":"item",
               "name":"pixelmon:tm24",
               "weight":1
            },
            {
               "type":"item",
               "name":"pixelmon:tm47",
               "weight":1
            },
            {
               "type":"item",
               "name":"pixelmon:tm51",
               "weight":1
            },
            {
               "type":"item",
               "name":"pixelmon:tm62",
               "weight":1
            },
            {
               "type":"item",
               "name":"pixelmon:orb",
               "weight":4
            },
            {
               "type":"item",
               "name":"pixelmon:dragon_soul",
               "weight":20
            }
         ]
      }
   ]
}