{
    "skins": [
        {
            "filename": "lass.png"
        }
    ],
    "names": [
        {
            "name": "Эми"
        },
        {
            "name": "Джейд"
        },
        {
            "name": "Гермиона"
        },
        {
            "name": "Коралин"
        },
        {
            "name": "Усаги"
        }
    ],
    "chat": [
        {
            "lines": [
                {
                    "text": "Я поймала пиджи. Теперь моя коллекция ещё больше."
                },
                {
                    "text": "Когда я соберу всех, я их выпущу."
                }
            ]
        },
        {
            "lines": [
                {
                    "text": "Я смотрела фильм про саванну, и теперь я хочу себе шинкса."
                },
                {
                    "text": "Но смотритель заповедника сказал мне, что это опасно."
                }
            ]
        },
        {
            "lines": [
                {
                    "text": "Моя мама взяла меня в цирк на прошлой неделе!"
                },
                {
                    "text": "Я видела двух сфиллов, которые жонглируют третьим. Лучшие минуты моей жизни!"
                }
            ]
        }
    ]
}
