{
  "type": "minecraft:crafting_shaped",
  "pattern": [
    "MM ",
    "MS ",
    " S "
  ],
  "key": {
    "M": {
      "type": "forge:ore_dict",
      "ore": "ingotAluminum"
    },
    "S": {
      "item": "minecraft:stick"
    }
  },
  "result": {
    "item": "pixelmon:aluminium_axe",
    "count": 1
  }
}