{
  "type": "minecraft:crafting_shaped",
  "pattern": [
    "MMM",
    "MSM",
    " S "
  ],
  "key": {
    "M": {
      "type": "forge:ore_dict",
      "ore": "gemCrystal"
    },
    "S": {
      "item": "minecraft:stick"
    }
  },
  "result": {
    "item": "pixelmon:crystal_hammer",
    "count": 1
  }
}