{
  "type": "minecraft:crafting_shaped",
  "pattern": [
    "MMM",
    " S ",
    " S "
  ],
  "key": {
    "M": {
      "item": "pixelmon:ice_stone"
    },
    "S": {
      "item": "minecraft:stick"
    }
  },
  "result": {
    "item": "pixelmon:ice_stone_pickaxe",
    "count": 1
  }
}