{
  "attackIndex": 757,
  "attackName": "Max Steelspike",
  "attackType": "Steel",
  "attackCategory": 0,
  "basePower": 100,
  "ppBase": 15,
  "ppMax": 24,
  "accuracy": -1,
  "makesContact": false,
  "effects": [
    {
      "effectID": "MaxSteelspike",
      "modifiers": [],
      "persists": false
    }
  ],
  "animations": [
    {
      "type": "LeapForward"
    }
  ],
  "targetingInfo": {
    "hitsAll": false,
    "hitsOppositeFoe": true,
    "hitsAdjacentFoe": true,
    "hitsExtendedFoe": false,
    "hitsSelf": false,
    "hitsAdjacentAlly": false,
    "hitsExtendedAlly": false
  },
  "tutorType": "None",
  "tmIndex": -1,
  "trIndex": -1
}