{
  "rewards": {
    "recipes": [
      "pixelmon:decoration/fossil_display"
    ]
  },
  "criteria": {
    "has_base_item": {
      "trigger": "minecraft:inventory_changed",
      "conditions": {
        "items": [
          {
            "item": "minecraft:stained_glass_pane",
            "data": 10
          }
        ]
      }
    }
  },
  "requirements": [
    [
      "has_base_item"
    ]
  ]
}