{
  "rewards": {
    "recipes": [
      "pixelmon:decoration/grey_vending_machine"
    ]
  },
  "criteria": {
    "has_base_item": {
      "trigger": "minecraft:inventory_changed",
      "conditions": {
        "items": [
          {
            "item": "pixelmon:soda_pop"
          }
        ]
      }
    }
  },
  "requirements": [
    [
      "has_base_item"
    ]
  ]
}