{
	"parent": "block/outer_stairs",
    "textures": {
        "bottom": "pixelmon:blocks/poke_brick_black",
        "top": "pixelmon:blocks/poke_brick_black",
        "side": "pixelmon:blocks/poke_brick_black"
    }
}