{
    "parent": "block/half_slab",
    "textures": {
        "bottom": "pixelmon:blocks/poke_brick_brown",
        "top": "pixelmon:blocks/poke_brick_brown",
        "side": "pixelmon:blocks/poke_brick_brown"
    }
}