{
    "parent": "block/half_slab",
    "textures": {
        "bottom": "pixelmon:blocks/marble_brown",
        "top": "pixelmon:blocks/marble_brown",
        "side": "pixelmon:blocks/marble_brown"
    }
}