{
	"parent": "block/outer_stairs",
    "textures": {
        "bottom": "pixelmon:blocks/marble_brown",
        "top": "pixelmon:blocks/marble_brown",
        "side": "pixelmon:blocks/marble_brown"
    }
}