{
    "parent": "block/upper_slab",
    "textures": {
        "bottom": "pixelmon:blocks/castlegrey2",
        "top": "pixelmon:blocks/castlegrey2",
        "side": "pixelmon:blocks/castlegrey2"
    }
}