{
	"parent": "block/outer_stairs",
    "textures": {
        "bottom": "pixelmon:blocks/CastleBrick",
        "top": "pixelmon:blocks/CastleBrick",
        "side": "pixelmon:blocks/CastleBrick"
    }
}