{
	"parent": "block/outer_stairs",
    "textures": {
        "bottom": "pixelmon:blocks/CastleGrey2",
        "top": "pixelmon:blocks/CastleGrey2",
        "side": "pixelmon:blocks/CastleGrey2"
    }
}