{
	"parent": "block/outer_stairs",
    "textures": {
        "bottom": "pixelmon:blocks/CastleWhite",
        "top": "pixelmon:blocks/CastleWhite",
        "side": "pixelmon:blocks/CastleWhite"
    }
}