{
	"parent": "block/stairs",
    "textures": {
        "bottom": "pixelmon:blocks/poke_brick_cyan",
        "top": "pixelmon:blocks/poke_brick_cyan",
        "side": "pixelmon:blocks/poke_brick_cyan"
    }
}