{
    "parent": "block/upper_slab",
    "textures": {
        "bottom": "pixelmon:blocks/ghost_plank",
        "top": "pixelmon:blocks/ghost_plank",
        "side": "pixelmon:blocks/ghost_plank"
    }
}