{
	"parent": "block/outer_stairs",
    "textures": {
        "bottom": "pixelmon:blocks/poke_brick_gray",
        "top": "pixelmon:blocks/poke_brick_gray",
        "side": "pixelmon:blocks/poke_brick_gray"
    }
}