{
    "parent": "block/upper_slab",
    "textures": {
        "bottom": "pixelmon:blocks/marble_green",
        "top": "pixelmon:blocks/marble_green",
        "side": "pixelmon:blocks/marble_green"
    }
}