{
	"parent": "block/inner_stairs",
    "textures": {
        "bottom": "pixelmon:blocks/marble_light_blue",
        "top": "pixelmon:blocks/marble_light_blue",
        "side": "pixelmon:blocks/marble_light_blue"
    }
}