{
	"parent": "block/stairs",
    "textures": {
        "bottom": "pixelmon:blocks/poke_brick_lime",
        "top": "pixelmon:blocks/poke_brick_lime",
        "side": "pixelmon:blocks/poke_brick_lime"
    }
}