{
	"parent": "block/stairs",
    "textures": {
        "bottom": "pixelmon:blocks/poke_brick_magenta",
        "top": "pixelmon:blocks/poke_brick_magenta",
        "side": "pixelmon:blocks/poke_brick_magenta"
    }
}