{
	"parent": "block/stairs",
    "textures": {
        "bottom": "pixelmon:blocks/marble_orange",
        "top": "pixelmon:blocks/marble_orange",
        "side": "pixelmon:blocks/marble_orange"
    }
}