{
    "parent": "block/half_slab",
    "textures": {
        "bottom": "pixelmon:blocks/marble_pink",
        "top": "pixelmon:blocks/marble_pink",
        "side": "pixelmon:blocks/marble_pink"
    }
}