{
	"parent": "block/inner_stairs",
    "textures": {
        "bottom": "pixelmon:blocks/marble_silver",
        "top": "pixelmon:blocks/marble_silver",
        "side": "pixelmon:blocks/marble_silver"
    }
}