{
    "parent": "block/upper_slab",
    "textures": {
        "bottom": "pixelmon:blocks/ultra_jungle_plank",
        "top": "pixelmon:blocks/ultra_jungle_plank",
        "side": "pixelmon:blocks/ultra_jungle_plank"
    }
}