{
    "parent": "block/upper_slab",
    "textures": {
        "bottom": "pixelmon:blocks/poke_brick_white",
        "top": "pixelmon:blocks/poke_brick_white",
        "side": "pixelmon:blocks/poke_brick_white"
    }
}