{
	"parent": "block/inner_stairs",
    "textures": {
        "bottom": "pixelmon:blocks/marble_yellow",
        "top": "pixelmon:blocks/marble_yellow",
        "side": "pixelmon:blocks/marble_yellow"
    }
}