{
    "display": {
        "icon": {
            "item": "pixelmon:dream_ball"
        },
        "title": {
            "translate": "advancements.dream_ball_capture.title"
        },
        "description": {
            "translate": "advancements.dream_ball_capture.description"
        },
        "hidden": true
    },
    "parent": "pixelmon:balls/ball_capture_trigger",
    "criteria": {
        "dream_ball_capture": {
            "trigger": "pixelmon:ball_capture_trigger",
            "conditions" : {
                "pokeball" : "dream_ball"
            }
        }
    }
}
