{
   "pools":[
      {
         "name":"inject",
         "rolls":2,
         "entries":[
            {
               "type":"loot_table",
               "name":"pixelmon:lists/money",
               "weight":1
            },
            {
               "type":"loot_table",
               "name":"pixelmon:lists/fossils",
               "weight":2
            },
            {
               "type":"loot_table",
               "name":"pixelmon:lists/pokeballs",
               "weight":5
            },
            {
               "type":"loot_table",
               "name":"pixelmon:lists/restoration",
               "weight":5
            },
            {
               "type":"loot_table",
               "name":"pixelmon:lists/trs",
               "weight":2
            },
            {
               "type":"item",
               "name":"pixelmon:rare_candy",
               "weight":2
            },
            {
               "type":"item",
               "name":"pixelmon:rock_incense",
               "weight":2
            },
            {
               "type":"item",
               "name":"pixelmon:lax_incense",
               "weight":2
            },
            {
               "type":"item",
               "name":"pixelmon:charcoal",
               "weight":1
            },
            {
               "type":"item",
               "name":"pixelmon:moon_stone_shard",
               "weight":1
            },
            {
               "type":"item",
               "name":"pixelmon:dusk_stone_shard",
               "weight":1
            },
            {
               "type":"item",
               "name":"pixelmon:hard_stone",
               "weight":1
            },
            {
               "type":"item",
               "name":"pixelmon:metal_powder",
               "weight":1
            },
            {
               "type":"item",
               "name":"pixelmon:quick_powder",
               "weight":1
            }
         ]
      }
   ]
}