{
   "pools":[
      {
         "name":"inject",
         "rolls":2,
         "entries":[
            {
               "type":"loot_table",
               "name":"pixelmon:lists/berries",
               "weight":2
            },
            {
               "type":"loot_table",
               "name":"pixelmon:lists/restoration",
               "weight":1
            },
            {
               "type":"loot_table",
               "name":"pixelmon:lists/tms",
               "weight":5
            },
            {
               "type":"loot_table",
               "name":"pixelmon:lists/money",
               "weight":1
            },
            {
               "type":"loot_table",
               "name":"pixelmon:lists/music_discs",
               "weight":2
            },
            {
               "type":"loot_table",
               "name":"pixelmon:lists/z_crystals",
               "weight":3
            },
            {
               "type":"loot_table",
               "name":"pixelmon:lists/candy",
               "weight":2
            },
            {
               "type":"item",
               "name":"pixelmon:rare_candy",
               "weight":1
            },
            {
               "type":"item",
               "name":"pixelmon:rocky_helmet",
               "weight":2
            },
            {
               "type":"item",
               "name":"pixelmon:leaf_stone",
               "weight":3
            },
            {
               "type":"item",
               "name":"pixelmon:sachet",
               "weight":1
            },
            {
               "type":"item",
               "name":"pixelmon:shattered_relic_song_1",
               "weight":1
            },
            {
               "type":"item",
               "name":"pixelmon:shattered_relic_song_2",
               "weight":1
            },
            {
               "type":"item",
               "name":"pixelmon:shattered_relic_song_3",
               "weight":1
            },
            {
               "type":"item",
               "name":"pixelmon:shattered_relic_song_4",
               "weight":1
            },
            {
               "type":"item",
               "name":"pixelmon:eviolite",
               "weight":1
            },
            {
               "type":"item",
               "name":"pixelmon:power_herb",
               "weight":2
            },
            {
               "type":"item",
               "name":"pixelmon:eject_button",
               "weight":2
            },
            {
               "type":"item",
               "name":"pixelmon:black_belt",
               "weight":2
            },
            {
               "type":"item",
               "name":"pixelmon:poison_barb",
               "weight":2
            }
         ]
      }
   ]
}