{
   "pools":[
      {
         "name":"inject",
         "rolls":1,
         "entries":[
            {
               "type":"loot_table",
               "name":"pixelmon:lists/arceus_plates",
               "weight":1
            },
            {
               "type":"loot_table",
               "name":"pixelmon:lists/restoration",
               "weight":1
            },
            {
               "type":"loot_table",
               "name":"pixelmon:lists/trs",
               "weight":5
            },
            {
               "type":"loot_table",
               "name":"pixelmon:lists/gems",
               "weight":1
            },
            {
               "type":"loot_table",
               "name":"pixelmon:lists/type_enhancements",
               "weight":3
            },
            {
               "type":"loot_table",
               "name":"pixelmon:lists/candy",
               "weight":2
            },
            {
               "type":"item",
               "name":"pixelmon:rocky_helmet",
               "weight":2
            },
            {
               "type":"item",
               "name":"pixelmon:fire_gem",
               "weight":2
            },
            {
               "type":"item",
               "name":"pixelmon:lava_crystal",
               "weight":1
            },
            {
               "type":"item",
               "name":"pixelmon:fire_stone",
               "weight":2
            },
            {
               "type":"item",
               "name":"pixelmon:magmarizer",
               "weight":2
            },
            {
               "type":"item",
               "name":"pixelmon:cell_battery",
               "weight":2
            },
            {
               "type":"item",
               "name":"pixelmon:smoke_ball",
               "weight":2
            },
            {
               "type":"item",
               "name":"pixelmon:heat_rock",
               "weight":2
            },
            {
               "type":"item",
               "name":"pixelmon:heavyduty_boots",
               "weight":2
            },
            {
               "type":"item",
               "name":"pixelmon:red_card",
               "weight":2
            }
         ]
      }
   ]
}