{
	"id": "Carvanha Fishing",
	"spawnInfos": [
		{
			"spec": {
				"name": "Carvanha"
			},
			"stringLocationTypes": [
				"Old Rod"
			],
			"minLevel": 3,
			"maxLevel": 25,
			"typeID": "pokemon",
			"condition": {
				"stringBiomes": [
					"oceans",
					"mesas",
					"savannas",
					"swamps",
					"dead",
					"jungles"
				]
			},
			"rarity": 50
		},
		{
			"spec": {
				"name": "Carvanha"
			},
			"stringLocationTypes": [
				"Good Rod"
			],
			"minLevel": 25,
			"maxLevel": 43,
			"typeID": "pokemon",
			"condition": {
				"stringBiomes": [
					"oceans",
					"mesas",
					"savannas",
					"swamps",
					"dead",
					"jungles"
				]
			},
			"rarity": 50
		}
	]
}