{
	"id": "Darumaka Fishing",
	"spawnInfos": [
		{
			"spec": {
				"name": "Darumaka"
			},
			"stringLocationTypes": [
				"Good Rod Lava"
			],
			"minLevel": 15,
			"maxLevel": 30,
			"typeID": "pokemon",
			"condition": {
				"stringBiomes": [
					"nether",
					"dry",
					"mesas"
				]
			},
			"rarity": 30
		},
		{
			"spec": {
				"name": "Darumaka"
			},
			"stringLocationTypes": [
				"Super Rod Lava"
			],
			"minLevel": 15,
			"maxLevel": 30,
			"typeID": "pokemon",
			"condition": {
				"stringBiomes": [
					"nether",
					"dry",
					"mesas"
				]
			},
			"rarity": 50
		}
	]
}