{
	"id": "Dewgong Fishing",
	"spawnInfos": [
		{
			"spec": {
				"name": "Dewgong"
			},
			"stringLocationTypes": [
				"Good Rod"
			],
			"minLevel": 34,
			"maxLevel": 47,
			"typeID": "pokemon",
			"condition": {
				"stringBiomes": [
					"cold"
				]
			},
			"rarity": 50
		},
		{
			"spec": {
				"name": "Dewgong"
			},
			"stringLocationTypes": [
				"Super Rod"
			],
			"minLevel": 39,
			"maxLevel": 52,
			"typeID": "pokemon",
			"condition": {
				"stringBiomes": [
					"cold"
				]
			},
			"rarity": 50
		}
	]
}