{
	"id": "Dratini Fishing",
	"spawnInfos": [
		{
			"spec": {
				"name": "Dratini"
			},
			"stringLocationTypes": [
				"Good Rod"
			],
			"minLevel": 6,
			"maxLevel": 28,
			"typeID": "pokemon",
			"condition": {
				"stringBiomes": [
					"oceans"
				]
			},
			"rarity": 2
		},
		{
			"spec": {
				"name": "Dratini"
			},
			"stringLocationTypes": [
				"Super Rod"
			],
			"minLevel": 30,
			"maxLevel": 49,
			"typeID": "pokemon",
			"condition": {
				"stringBiomes": [
					"oceans"
				]
			},
			"rarity": 5
		}
	]
}