{
	"id": "Fennekin Fishing",
	"spawnInfos": [
		{
			"spec": {
				"name": "Fennekin"
			},
			"stringLocationTypes": [
				"Good Rod Lava"
			],
			"minLevel": 30,
			"maxLevel": 45,
			"typeID": "pokemon",
			"condition": {
				"stringBiomes": [
					"nether",
					"dry"
				]
			},
			"rarity": 5
		},
		{
			"spec": {
				"name": "Fennekin"
			},
			"stringLocationTypes": [
				"Super Rod Lava"
			],
			"minLevel": 25,
			"maxLevel": 35,
			"typeID": "pokemon",
			"condition": {
				"stringBiomes": [
					"nether",
					"dry"
				]
			},
			"rarity": 5
		}
	]
}