{
	"id": "Kingler Fishing",
	"spawnInfos": [
		{
			"spec": {
				"name": "Kingler"
			},
			"stringLocationTypes": [
				"Good Rod"
			],
			"minLevel": 27,
			"maxLevel": 40,
			"typeID": "pokemon",
			"condition": {
				"stringBiomes": [
					"beaches",
					"swamps",
					"cold",
					"oceans"
				]
			},
			"rarity": 70
		},
		{
			"spec": {
				"name": "Kingler"
			},
			"stringLocationTypes": [
				"Super Rod"
			],
			"minLevel": 30,
			"maxLevel": 42,
			"typeID": "pokemon",
			"condition": {
				"stringBiomes": [
					"beaches",
					"swamps",
					"cold",
					"oceans"
				]
			},
			"rarity": 50
		}
	]
}