{
	"id": "Larvesta Fishing",
	"spawnInfos": [
		{
			"spec": {
				"name": "Larvesta"
			},
			"stringLocationTypes": [
				"Good Rod Lava"
			],
			"minLevel": 30,
			"maxLevel": 45,
			"typeID": "pokemon",
			"condition": {
				"stringBiomes": [
					"nether",
					"dry",
					"mesas"
				]
			},
			"rarity": 40
		},
		{
			"spec": {
				"name": "Larvesta"
			},
			"stringLocationTypes": [
				"Super Rod Lava"
			],
			"minLevel": 25,
			"maxLevel": 35,
			"typeID": "pokemon",
			"condition": {
				"stringBiomes": [
					"nether",
					"dry",
					"mesas"
				]
			},
			"rarity": 50
		}
	]
}