{
	"id": "Lumineon Fishing",
	"spawnInfos": [
		{
			"spec": {
				"name": "Lumineon"
			},
			"stringLocationTypes": [
				"Good Rod"
			],
			"minLevel": 32,
			"maxLevel": 45,
			"typeID": "pokemon",
			"condition": {
				"stringBiomes": [
					"oceans"
				]
			},
			"rarity": 20
		},
		{
			"spec": {
				"name": "Lumineon"
			},
			"stringLocationTypes": [
				"Super Rod"
			],
			"minLevel": 35,
			"maxLevel": 50,
			"typeID": "pokemon",
			"condition": {
				"stringBiomes": [
					"oceans"
				]
			},
			"rarity": 40
		}
	]
}