{
	"id": "Magcargo Fishing",
	"spawnInfos": [

		{
			"spec": {
				"name": "Magcargo"
			},
			"stringLocationTypes": [
				"Super Rod Lava",
				"Good Rod Lava"
			],
			"minLevel": 25,
			"maxLevel": 35,
			"typeID": "pokemon",
			"condition": {
				"stringBiomes": [
					"nether",
					"dry",
					"mesas"
				]
			},
			"rarity": 70
		}
	]
}