{
	"id": "Mareanie Fishing",
	"spawnInfos": [
		{
			"spec": {
				"name": "Mareanie"
			},
			"stringLocationTypes": [
				"Good Rod"
			],
			"minLevel": 5,
			"maxLevel": 25,
			"typeID": "pokemon",
			"condition": {
				"stringBiomes": [
					"oceans",
					"beaches",
					"mushroom",
					"mystical",
					"dead"
				]
			},
			"rarity": 50
		},
		{
			"spec": {
				"name": "Mareanie"
			},
			"stringLocationTypes": [
				"Super Rod"
			],
			"minLevel": 15,
			"maxLevel": 30,
			"typeID": "pokemon",
			"condition": {
				"stringBiomes": [
					"oceans",
					"beaches",
					"mushroom",
					"mystical",
					"dead"
				]
			},
			"rarity": 30
		}
	]
}