{
	"id": "Octillery Fishing",
	"spawnInfos": [
		{
			"spec": {
				"name": "Octillery"
			},
			"stringLocationTypes": [
				"Good Rod"
			],
			"minLevel": 25,
			"maxLevel": 37,
			"typeID": "pokemon",
			"condition": {
				"stringBiomes": [
					"oceans",
					"beaches"
				]
			},
			"rarity": 20
		},
		{
			"spec": {
				"name": "Octillery"
			},
			"stringLocationTypes": [
				"Super Rod"
			],
			"minLevel": 30,
			"maxLevel": 42,
			"typeID": "pokemon",
			"condition": {
				"stringBiomes": [
					"oceans",
					"beaches"
				]
			},
			"rarity": 40
		}
	]
}