{
	"id": "Poliwag Fishing",
	"spawnInfos": [
		{
			"spec": {
				"name": "Poliwag"
			},
			"stringLocationTypes": [
				"Old Rod"
			],
			"minLevel": 10,
			"maxLevel": 25,
			"typeID": "pokemon",
			"condition": {
				"stringBiomes": [
					"minecraft:river",
					"swamps"
				]
			},
			"rarity": 80
		},
		{
			"spec": {
				"name": "Poliwag"
			},
			"stringLocationTypes": [
				"Good Rod"
			],
			"minLevel": 10,
			"maxLevel": 25,
			"typeID": "pokemon",
			"condition": {
				"stringBiomes": [
					"minecraft:river",
					"swamps"
				]
			},
			"rarity": 75
		}
	]
}