{
	"id": "Politoed Fishing",
	"spawnInfos": [
		{
			"spec": {
				"name": "Politoed"
			},
			"stringLocationTypes": [
				"Super Rod"
			],
			"minLevel": 30,
			"maxLevel": 42,
			"typeID": "pokemon",
			"condition": {
				"stringBiomes": [
					"minecraft:river",
					"swamps"
				]
			},
			"rarity": 10
		}
	]
}