{
	"id": "Sealeo Fishing",
	"spawnInfos": [
		{
			"spec": {
				"name": "Sealeo"
			},
			"stringLocationTypes": [
				"Good Rod"
			],
			"minLevel": 32,
			"maxLevel": 40,
			"typeID": "pokemon",
			"condition": {
				"stringBiomes": [
					"cold"
				]
			},
			"rarity": 45
		},
		{
			"spec": {
				"name": "Sealeo"
			},
			"stringLocationTypes": [
				"Super Rod"
			],
			"minLevel": 35,
			"maxLevel": 43,
			"typeID": "pokemon",
			"condition": {
				"stringBiomes": [
					"cold"
				]
			},
			"rarity": 60
		}
	]
}