{
	"id": "Sharpedo Fishing",
	"spawnInfos": [
		{
			"spec": {
				"name": "Sharpedo"
			},
			"stringLocationTypes": [
				"Good Rod"
			],
			"minLevel": 30,
			"maxLevel": 43,
			"typeID": "pokemon",
			"condition": {
				"stringBiomes": [
					"oceans"
				]
			},
			"rarity": 20
		},
		{
			"spec": {
				"name": "Sharpedo"
			},
			"stringLocationTypes": [
				"Super Rod"
			],
			"minLevel": 35,
			"maxLevel": 47,
			"typeID": "pokemon",
			"condition": {
				"stringBiomes": [
					"oceans"
				]
			},
			"rarity": 40
		}
	]
}