{
	"id": "Turtonator Fishing",
	"spawnInfos": [
		{
			"spec": {
				"name": "Turtonator"
			},
			"stringLocationTypes": [
				"Good Rod Lava"
			],
			"minLevel": 20,
			"maxLevel": 55,
			"typeID": "pokemon",
			"condition": {
				"stringBiomes": [
					"nether",
					"dry",
					"mesas"
				]
			},
			"rarity": 10
		},
		{
			"spec": {
				"name": "Turtonator"
			},
			"stringLocationTypes": [
				"Super Rod Lava"
			],
			"minLevel": 20,
			"maxLevel": 55,
			"typeID": "pokemon",
			"condition": {
				"stringBiomes": [
					"nether",
					"dry",
					"mesas"
				]
			},
			"rarity": 20
		}
	]
}