{
  "type": "minecraft:crafting_shaped",
  "pattern": [
    "SSS",
    "C C"
  ],
  "key": {
    "C": {
      "type": "forge:ore_dict",
      "ore": "gemCrystal"
    },
	"S": {
      "type": "forge:ore_dict",
      "ore": "ingotAluminum"
    }
  },
  "result": {
    "item": "pixelmon:aether_helm",
    "count": 1
  }
}