{
  "type": "minecraft:crafting_shaped",
  "pattern": [
    "C C",
    "CCC",
    "CCC"
  ],
  "key": {
    "C": {
      "type": "forge:ore_dict",
      "ore": "gemCrystal"
    }
  },
  "result": {
    "item": "pixelmon:crystal_chestplate",
    "count": 1
  }
}