{
  "type": "minecraft:crafting_shaped",
  "pattern": [
    "AAA",
    "A A",
    "S S"
  ],
  "key": {
    "A": {
      "type": "forge:ore_dict",
      "ore": "gemAmethyst"
    },
    "S": {
      "item": "pixelmon:silicon"
    }
  },
  "result": {
    "item": "pixelmon:skull_legs",
    "count": 1
  }
}