{
  "variants": {
    "facing=east,half=bottom,shape=straight":  { "model": "pixelmon:ghostplankStairs" },
    "facing=west,half=bottom,shape=straight":  { "model": "pixelmon:ghostplankStairs", "y": 180, "uvlock": true },
    "facing=south,half=bottom,shape=straight": { "model": "pixelmon:ghostplankStairs", "y": 90, "uvlock": true },
    "facing=north,half=bottom,shape=straight": { "model": "pixelmon:ghostplankStairs", "y": 270, "uvlock": true },
    "facing=east,half=bottom,shape=outer_right":  { "model": "pixelmon:ghostplankOuterStairs" },
    "facing=west,half=bottom,shape=outer_right":  { "model": "pixelmon:ghostplankOuterStairs", "y": 180, "uvlock": true },
    "facing=south,half=bottom,shape=outer_right": { "model": "pixelmon:ghostplankOuterStairs", "y": 90, "uvlock": true },
    "facing=north,half=bottom,shape=outer_right": { "model": "pixelmon:ghostplankOuterStairs", "y": 270, "uvlock": true },
    "facing=east,half=bottom,shape=outer_left":  { "model": "pixelmon:ghostplankOuterStairs", "y": 270, "uvlock": true },
    "facing=west,half=bottom,shape=outer_left":  { "model": "pixelmon:ghostplankOuterStairs", "y": 90, "uvlock": true },
    "facing=south,half=bottom,shape=outer_left": { "model": "pixelmon:ghostplankOuterStairs" },
    "facing=north,half=bottom,shape=outer_left": { "model": "pixelmon:ghostplankOuterStairs", "y": 180, "uvlock": true },
    "facing=east,half=bottom,shape=inner_right":  { "model": "pixelmon:ghostplankInnerStairs" },
    "facing=west,half=bottom,shape=inner_right":  { "model": "pixelmon:ghostplankInnerStairs", "y": 180, "uvlock": true },
    "facing=south,half=bottom,shape=inner_right": { "model": "pixelmon:ghostplankInnerStairs", "y": 90, "uvlock": true },
    "facing=north,half=bottom,shape=inner_right": { "model": "pixelmon:ghostplankInnerStairs", "y": 270, "uvlock": true },
    "facing=east,half=bottom,shape=inner_left":  { "model": "pixelmon:ghostplankInnerStairs", "y": 270, "uvlock": true },
    "facing=west,half=bottom,shape=inner_left":  { "model": "pixelmon:ghostplankInnerStairs", "y": 90, "uvlock": true },
    "facing=south,half=bottom,shape=inner_left": { "model": "pixelmon:ghostplankInnerStairs" },
    "facing=north,half=bottom,shape=inner_left": { "model": "pixelmon:ghostplankInnerStairs", "y": 180, "uvlock": true },
    "facing=east,half=top,shape=straight":  { "model": "pixelmon:ghostplankStairs", "x": 180, "uvlock": true },
    "facing=west,half=top,shape=straight":  { "model": "pixelmon:ghostplankStairs", "x": 180, "y": 180, "uvlock": true },
    "facing=south,half=top,shape=straight": { "model": "pixelmon:ghostplankStairs", "x": 180, "y": 90, "uvlock": true },
    "facing=north,half=top,shape=straight": { "model": "pixelmon:ghostplankStairs", "x": 180, "y": 270, "uvlock": true },
    "facing=east,half=top,shape=outer_right":  { "model": "pixelmon:ghostplankOuterStairs", "x": 180, "y": 90, "uvlock": true },
    "facing=west,half=top,shape=outer_right":  { "model": "pixelmon:ghostplankOuterStairs", "x": 180, "y": 270, "uvlock": true },
    "facing=south,half=top,shape=outer_right": { "model": "pixelmon:ghostplankOuterStairs", "x": 180, "y": 180, "uvlock": true },
    "facing=north,half=top,shape=outer_right": { "model": "pixelmon:ghostplankOuterStairs", "x": 180, "uvlock": true },
    "facing=east,half=top,shape=outer_left":  { "model": "pixelmon:ghostplankOuterStairs", "x": 180, "uvlock": true },
    "facing=west,half=top,shape=outer_left":  { "model": "pixelmon:ghostplankOuterStairs", "x": 180, "y": 180, "uvlock": true },
    "facing=south,half=top,shape=outer_left": { "model": "pixelmon:ghostplankOuterStairs", "x": 180, "y": 90, "uvlock": true },
    "facing=north,half=top,shape=outer_left": { "model": "pixelmon:ghostplankOuterStairs", "x": 180, "y": 270, "uvlock": true },
    "facing=east,half=top,shape=inner_right":  { "model": "pixelmon:ghostplankInnerStairs", "x": 180, "y": 90, "uvlock": true },
    "facing=west,half=top,shape=inner_right":  { "model": "pixelmon:ghostplankInnerStairs", "x": 180, "y": 270, "uvlock": true },
    "facing=south,half=top,shape=inner_right": { "model": "pixelmon:ghostplankInnerStairs", "x": 180, "y": 180, "uvlock": true },
    "facing=north,half=top,shape=inner_right": { "model": "pixelmon:ghostplankInnerStairs", "x": 180, "uvlock": true },
    "facing=east,half=top,shape=inner_left":  { "model": "pixelmon:ghostplankInnerStairs", "x": 180, "uvlock": true },
    "facing=west,half=top,shape=inner_left":  { "model": "pixelmon:ghostplankInnerStairs", "x": 180, "y": 180, "uvlock": true },
    "facing=south,half=top,shape=inner_left": { "model": "pixelmon:ghostplankInnerStairs", "x": 180, "y": 90, "uvlock": true },
    "facing=north,half=top,shape=inner_left": { "model": "pixelmon:ghostplankInnerStairs", "x": 180, "y": 270, "uvlock": true }
  }
}