{
  "variants": {
    "facing=east,half=bottom,shape=straight":  { "model": "pixelmon:graymarbleStairs" },
    "facing=west,half=bottom,shape=straight":  { "model": "pixelmon:graymarbleStairs", "y": 180, "uvlock": true },
    "facing=south,half=bottom,shape=straight": { "model": "pixelmon:graymarbleStairs", "y": 90, "uvlock": true },
    "facing=north,half=bottom,shape=straight": { "model": "pixelmon:graymarbleStairs", "y": 270, "uvlock": true },
    "facing=east,half=bottom,shape=outer_right":  { "model": "pixelmon:graymarbleOuterStairs" },
    "facing=west,half=bottom,shape=outer_right":  { "model": "pixelmon:graymarbleOuterStairs", "y": 180, "uvlock": true },
    "facing=south,half=bottom,shape=outer_right": { "model": "pixelmon:graymarbleOuterStairs", "y": 90, "uvlock": true },
    "facing=north,half=bottom,shape=outer_right": { "model": "pixelmon:graymarbleOuterStairs", "y": 270, "uvlock": true },
    "facing=east,half=bottom,shape=outer_left":  { "model": "pixelmon:graymarbleOuterStairs", "y": 270, "uvlock": true },
    "facing=west,half=bottom,shape=outer_left":  { "model": "pixelmon:graymarbleOuterStairs", "y": 90, "uvlock": true },
    "facing=south,half=bottom,shape=outer_left": { "model": "pixelmon:graymarbleOuterStairs" },
    "facing=north,half=bottom,shape=outer_left": { "model": "pixelmon:graymarbleOuterStairs", "y": 180, "uvlock": true },
    "facing=east,half=bottom,shape=inner_right":  { "model": "pixelmon:graymarbleInnerStairs" },
    "facing=west,half=bottom,shape=inner_right":  { "model": "pixelmon:graymarbleInnerStairs", "y": 180, "uvlock": true },
    "facing=south,half=bottom,shape=inner_right": { "model": "pixelmon:graymarbleInnerStairs", "y": 90, "uvlock": true },
    "facing=north,half=bottom,shape=inner_right": { "model": "pixelmon:graymarbleInnerStairs", "y": 270, "uvlock": true },
    "facing=east,half=bottom,shape=inner_left":  { "model": "pixelmon:graymarbleInnerStairs", "y": 270, "uvlock": true },
    "facing=west,half=bottom,shape=inner_left":  { "model": "pixelmon:graymarbleInnerStairs", "y": 90, "uvlock": true },
    "facing=south,half=bottom,shape=inner_left": { "model": "pixelmon:graymarbleInnerStairs" },
    "facing=north,half=bottom,shape=inner_left": { "model": "pixelmon:graymarbleInnerStairs", "y": 180, "uvlock": true },
    "facing=east,half=top,shape=straight":  { "model": "pixelmon:graymarbleStairs", "x": 180, "uvlock": true },
    "facing=west,half=top,shape=straight":  { "model": "pixelmon:graymarbleStairs", "x": 180, "y": 180, "uvlock": true },
    "facing=south,half=top,shape=straight": { "model": "pixelmon:graymarbleStairs", "x": 180, "y": 90, "uvlock": true },
    "facing=north,half=top,shape=straight": { "model": "pixelmon:graymarbleStairs", "x": 180, "y": 270, "uvlock": true },
    "facing=east,half=top,shape=outer_right":  { "model": "pixelmon:graymarbleOuterStairs", "x": 180, "y": 90, "uvlock": true },
    "facing=west,half=top,shape=outer_right":  { "model": "pixelmon:graymarbleOuterStairs", "x": 180, "y": 270, "uvlock": true },
    "facing=south,half=top,shape=outer_right": { "model": "pixelmon:graymarbleOuterStairs", "x": 180, "y": 180, "uvlock": true },
    "facing=north,half=top,shape=outer_right": { "model": "pixelmon:graymarbleOuterStairs", "x": 180, "uvlock": true },
    "facing=east,half=top,shape=outer_left":  { "model": "pixelmon:graymarbleOuterStairs", "x": 180, "uvlock": true },
    "facing=west,half=top,shape=outer_left":  { "model": "pixelmon:graymarbleOuterStairs", "x": 180, "y": 180, "uvlock": true },
    "facing=south,half=top,shape=outer_left": { "model": "pixelmon:graymarbleOuterStairs", "x": 180, "y": 90, "uvlock": true },
    "facing=north,half=top,shape=outer_left": { "model": "pixelmon:graymarbleOuterStairs", "x": 180, "y": 270, "uvlock": true },
    "facing=east,half=top,shape=inner_right":  { "model": "pixelmon:graymarbleInnerStairs", "x": 180, "y": 90, "uvlock": true },
    "facing=west,half=top,shape=inner_right":  { "model": "pixelmon:graymarbleInnerStairs", "x": 180, "y": 270, "uvlock": true },
    "facing=south,half=top,shape=inner_right": { "model": "pixelmon:graymarbleInnerStairs", "x": 180, "y": 180, "uvlock": true },
    "facing=north,half=top,shape=inner_right": { "model": "pixelmon:graymarbleInnerStairs", "x": 180, "uvlock": true },
    "facing=east,half=top,shape=inner_left":  { "model": "pixelmon:graymarbleInnerStairs", "x": 180, "uvlock": true },
    "facing=west,half=top,shape=inner_left":  { "model": "pixelmon:graymarbleInnerStairs", "x": 180, "y": 180, "uvlock": true },
    "facing=south,half=top,shape=inner_left": { "model": "pixelmon:graymarbleInnerStairs", "x": 180, "y": 90, "uvlock": true },
    "facing=north,half=top,shape=inner_left": { "model": "pixelmon:graymarbleInnerStairs", "x": 180, "y": 270, "uvlock": true }
  }
}