{
  "forge_marker": 1,
  "defaults": {
    "textures": {
      "all": "blocks/dirt"
    },
    "model": "pixelmon:hauntedpillar",
    "uvlock": true
  },
  "variants": {
    "normal": [{}],
    "axis": {
      "x": { },
      "y": { },
      "z": { },
      "none": { }
    },
    "damaged": {
      "true": {
      },
      "false": {
      }
    }
  }
}
