{
  "variants": {
    "normal": { "model": "pixelmon:OrangeSwivelChair" },
	"facing=west": { "model": "pixelmon:OrangeSwivelChair" },
	"facing=east": { "model": "pixelmon:OrangeSwivelChair" },
	"facing=south": { "model": "pixelmon:OrangeSwivelChair" },
	"facing=north": { "model": "pixelmon:OrangeSwivelChair" }
  }
}
