{
  "variants": {
    "normal": { "model": "pixelmon:PurpleSwivelChair" },
    "facing=north": { "model": "pixelmon:PurpleSwivelChair" },
	"facing=south": { "model": "pixelmon:PurpleSwivelChair" }
  }
}
