{
    "forge_marker": 1,
    "defaults": {
      "model": "pixelmon:yellow_poke_brick_slab"
    },
    "variants": {
        "half=bottom,variant=default": [{ "model": "pixelmon:yellow_poke_brick_slab_bottom" }],
        "half=top,variant=default": [{ "model": "pixelmon:yellow_poke_brick_slab_top" }],
        "inventory": [{"model": "pixelmon:yellow_poke_brick_slab"}]
    }
}