{
  "variants": {
    "facing=east,half=bottom,shape=straight":  { "model": "pixelmon:yellowpokebrickStairs" },
    "facing=west,half=bottom,shape=straight":  { "model": "pixelmon:yellowpokebrickStairs", "y": 180, "uvlock": true },
    "facing=south,half=bottom,shape=straight": { "model": "pixelmon:yellowpokebrickStairs", "y": 90, "uvlock": true },
    "facing=north,half=bottom,shape=straight": { "model": "pixelmon:yellowpokebrickStairs", "y": 270, "uvlock": true },
    "facing=east,half=bottom,shape=outer_right":  { "model": "pixelmon:yellowpokebrickOuterStairs" },
    "facing=west,half=bottom,shape=outer_right":  { "model": "pixelmon:yellowpokebrickOuterStairs", "y": 180, "uvlock": true },
    "facing=south,half=bottom,shape=outer_right": { "model": "pixelmon:yellowpokebrickOuterStairs", "y": 90, "uvlock": true },
    "facing=north,half=bottom,shape=outer_right": { "model": "pixelmon:yellowpokebrickOuterStairs", "y": 270, "uvlock": true },
    "facing=east,half=bottom,shape=outer_left":  { "model": "pixelmon:yellowpokebrickOuterStairs", "y": 270, "uvlock": true },
    "facing=west,half=bottom,shape=outer_left":  { "model": "pixelmon:yellowpokebrickOuterStairs", "y": 90, "uvlock": true },
    "facing=south,half=bottom,shape=outer_left": { "model": "pixelmon:yellowpokebrickOuterStairs" },
    "facing=north,half=bottom,shape=outer_left": { "model": "pixelmon:yellowpokebrickOuterStairs", "y": 180, "uvlock": true },
    "facing=east,half=bottom,shape=inner_right":  { "model": "pixelmon:yellowpokebrickInnerStairs" },
    "facing=west,half=bottom,shape=inner_right":  { "model": "pixelmon:yellowpokebrickInnerStairs", "y": 180, "uvlock": true },
    "facing=south,half=bottom,shape=inner_right": { "model": "pixelmon:yellowpokebrickInnerStairs", "y": 90, "uvlock": true },
    "facing=north,half=bottom,shape=inner_right": { "model": "pixelmon:yellowpokebrickInnerStairs", "y": 270, "uvlock": true },
    "facing=east,half=bottom,shape=inner_left":  { "model": "pixelmon:yellowpokebrickInnerStairs", "y": 270, "uvlock": true },
    "facing=west,half=bottom,shape=inner_left":  { "model": "pixelmon:yellowpokebrickInnerStairs", "y": 90, "uvlock": true },
    "facing=south,half=bottom,shape=inner_left": { "model": "pixelmon:yellowpokebrickInnerStairs" },
    "facing=north,half=bottom,shape=inner_left": { "model": "pixelmon:yellowpokebrickInnerStairs", "y": 180, "uvlock": true },
    "facing=east,half=top,shape=straight":  { "model": "pixelmon:yellowpokebrickStairs", "x": 180, "uvlock": true },
    "facing=west,half=top,shape=straight":  { "model": "pixelmon:yellowpokebrickStairs", "x": 180, "y": 180, "uvlock": true },
    "facing=south,half=top,shape=straight": { "model": "pixelmon:yellowpokebrickStairs", "x": 180, "y": 90, "uvlock": true },
    "facing=north,half=top,shape=straight": { "model": "pixelmon:yellowpokebrickStairs", "x": 180, "y": 270, "uvlock": true },
    "facing=east,half=top,shape=outer_right":  { "model": "pixelmon:yellowpokebrickOuterStairs", "x": 180, "y": 90, "uvlock": true },
    "facing=west,half=top,shape=outer_right":  { "model": "pixelmon:yellowpokebrickOuterStairs", "x": 180, "y": 270, "uvlock": true },
    "facing=south,half=top,shape=outer_right": { "model": "pixelmon:yellowpokebrickOuterStairs", "x": 180, "y": 180, "uvlock": true },
    "facing=north,half=top,shape=outer_right": { "model": "pixelmon:yellowpokebrickOuterStairs", "x": 180, "uvlock": true },
    "facing=east,half=top,shape=outer_left":  { "model": "pixelmon:yellowpokebrickOuterStairs", "x": 180, "uvlock": true },
    "facing=west,half=top,shape=outer_left":  { "model": "pixelmon:yellowpokebrickOuterStairs", "x": 180, "y": 180, "uvlock": true },
    "facing=south,half=top,shape=outer_left": { "model": "pixelmon:yellowpokebrickOuterStairs", "x": 180, "y": 90, "uvlock": true },
    "facing=north,half=top,shape=outer_left": { "model": "pixelmon:yellowpokebrickOuterStairs", "x": 180, "y": 270, "uvlock": true },
    "facing=east,half=top,shape=inner_right":  { "model": "pixelmon:yellowpokebrickInnerStairs", "x": 180, "y": 90, "uvlock": true },
    "facing=west,half=top,shape=inner_right":  { "model": "pixelmon:yellowpokebrickInnerStairs", "x": 180, "y": 270, "uvlock": true },
    "facing=south,half=top,shape=inner_right": { "model": "pixelmon:yellowpokebrickInnerStairs", "x": 180, "y": 180, "uvlock": true },
    "facing=north,half=top,shape=inner_right": { "model": "pixelmon:yellowpokebrickInnerStairs", "x": 180, "uvlock": true },
    "facing=east,half=top,shape=inner_left":  { "model": "pixelmon:yellowpokebrickInnerStairs", "x": 180, "uvlock": true },
    "facing=west,half=top,shape=inner_left":  { "model": "pixelmon:yellowpokebrickInnerStairs", "x": 180, "y": 180, "uvlock": true },
    "facing=south,half=top,shape=inner_left": { "model": "pixelmon:yellowpokebrickInnerStairs", "x": 180, "y": 90, "uvlock": true },
    "facing=north,half=top,shape=inner_left": { "model": "pixelmon:yellowpokebrickInnerStairs", "x": 180, "y": 270, "uvlock": true }
  }
}