{
  "trades": [
    {
      "wants":"Abra",
      "gives":"MrMime"
    },
    {
      "wants":"Nidoranmale",
      "gives":"Nidoranfemale"
    },
    {
      "wants":"Nidorino",
      "gives":"Nidorina"
    },
    {
      "wants":"Slowbro",
      "gives":"Lickitung"
    },
    {
      "wants":"Poliwhirl",
      "gives":"Jynx"
    },
    {
      "wants":"Spearow",
      "gives":"Farfetchd"
    },
    {
      "wants":"Raichu",
      "gives":"Electrode"
    },
    {
      "wants":"Venonat",
      "gives":"Tangela"
    },
    {
      "wants":"Ponyta",
      "gives":"Seel"
    },
    {
      "wants":"Jigglypuff",
      "gives":"MrMime"
    },
    {
      "wants":"Rattata",
      "gives":"Poliwag"
    },
    {
      "wants":"Rhydon",
      "gives":"Kangaskhan"
    },
    {
      "wants":"Persian",
      "gives":"Tauros"
    },
    {
      "wants":"Machoke",
      "gives":"Haunter"
    },
    {
      "wants":"Pidgey",
      "gives":"Farfetchd"
    },
    {
      "wants":"Kadabra",
      "gives":"Graveler"
    },
    {
      "wants":"Graveler",
      "gives":"Kadabra"
    },
    {
      "wants":"Seel",
      "gives":"Slowpoke"
    },
    {
      "wants":"Growlithe",
      "gives":"Krabby"
    },
    {
      "wants":"Clefairy",
      "gives":"MrMime"
    },
    {
      "wants":"Cubone",
      "gives":"Machoke"
    },
    {
      "wants":"Lickitung",
      "gives":"Dugtrio"
    },
    {
      "wants":"Tangela",
      "gives":"Parasect"
    },
    {
      "wants":"Golduck",
      "gives":"Rhydon"
    },
    {
      "wants":"Rhydon",
      "gives":"Rhyperior"
    },
    {
      "wants":"Scyther",
      "gives":"Scizor"
    },
    {
      "wants":"Electabuzz",
      "gives":"Electivire"
    },
    {
      "wants":"Magmar",
      "gives":"Magmortar"
    },
    {
      "wants":"Porygon",
      "gives":"Porygon2"
    },
    {
      "wants":"Porygon2",
      "gives":"PorygonZ"
    },
    {
      "wants":"Clamperl",
      "gives":"Huntail"
    },
    {
      "wants":"Clamperl",
      "gives":"Gorebyss"
    },
    {
      "wants":"Feebas",
      "gives":"Milotic"
    },
    {
      "wants":"Dusclops",
      "gives":"Dusknoir"
    },
    {
      "wants":"Boldore",
      "gives":"Gigalith"
    },
    {
      "wants":"Karrablast",
      "gives":"Escavalier"
    },
    {
      "wants":"Shelmet",
      "gives":"Accelgor"
    },
    {
      "wants":"Spritzee",
      "gives":"Aromatisse"
    },
    {
      "wants":"Swirlix",
      "gives":"Trevenant"
    },
    {
      "wants":"Pumpkaboo",
      "gives":"Gourgeist"
    },
    {
      "wants":"Growlithe",
      "gives":"Dewgong"
    },
    {
      "wants":"Kangaskhan",
      "gives":"Muk"
    },
    {
      "wants":"Bellsprout",
      "gives":"Onix"
    },
    {
      "wants":"Drowzee",
      "gives":"Machop"
    },
    {
      "wants":"Krabby",
      "gives":"Voltorb"
    },
    {
      "wants":"Dragonair",
      "gives":"Rhydon"
    },
    {
      "wants":"Chansey",
      "gives":"Aerodactyl"
    },
    {
      "wants":"Gloom",
      "gives":"Rapidash"
    },
    {
      "wants":"Abra",
      "gives":"Machop"
    },
    {
      "wants":"Dragonair",
      "gives":"Dodrio"
    },
    {
      "wants":"Haunter",
      "gives":"Xatu"
    },
    {
      "wants":"Dugtrio",
      "gives":"Magneton"
    },
    {
      "wants":"Slakoth",
      "gives":"Makuhita"
    },
    {
      "wants":"Pikachu",
      "gives":"Skitty"
    },
    {
      "wants":"Bellossom",
      "gives":"Corsola"
    },
    {
      "wants":"Nidoranfemale",
      "gives":"Nidoranmale"
    },
    {
      "wants":"Nidorina",
      "gives":"Nidorino"
    },
    {
      "wants":"Golduck",
      "gives":"Lickitung"
    },
    {
      "wants":"Ralts",
      "gives":"Seedot"
    },
    {
      "wants":"Volbeat",
      "gives":"Plusle"
    },
    {
      "wants":"Bagon",
      "gives":"Horsea"
    },
    {
      "wants":"Skitty",
      "gives":"Meowth"
    },
    {
      "wants":"Togepi",
      "gives":"Elekid"
    },
    {
      "wants":"Togetic",
      "gives":"Elekid"
    },
    {
      "wants":"Trapinch",
      "gives":"Meditite"
    },
    {
      "wants":"Surskit",
      "gives":"Shuckle"
    },
    {
      "wants":"Wooper",
      "gives":"Larvitar"
    },
    {
      "wants":"Machop",
      "gives":"Abra"
    },
    {
      "wants":"Buizel",
      "gives":"Chatot"
    },
    {
      "wants":"Medicham",
      "gives":"Haunter"
    },
    {
      "wants":"Finneon",
      "gives":"Magikarp"
    },
    {
      "wants":"Pikachu",
      "gives":"Pikachu"
    },
    {
      "wants":"Forretress",
      "gives":"Beldum"
    },
    {
      "wants":"Bonsly",
      "gives":"Rhyhorn"
    },
    {
      "wants":"Kadabra",
      "gives":"Alakazam"
    },
    {
      "wants":"Machoke",
      "gives":"Machamp"
    },
    {
      "wants":"Graveler",
      "gives":"Golem"
    },
    {
      "wants":"Haunter",
      "gives":"Gengar"
    },
    {
      "wants":"Poliwhirl",
      "gives":"Politoed"
    },
    {
      "wants":"Slowpoke",
      "gives":"Slowking"
    },
    {
      "wants":"Onix",
      "gives":"Steelix"
    },
    {
      "wants":"Seadra",
      "gives":"Kingdra"
    },
    {
      "wants":"Cottonee",
      "gives":"Petilil"
    },
    {
      "wants":"Petilil",
      "gives":"Cottonee"
    },
    {
      "wants":"Minccino",
      "gives":"Basculin"
    },
    {
      "wants":"Boldore",
      "gives":"Emolga"
    },
    {
      "wants":"Ditto",
      "gives":"Rotom"
    },
    {
      "wants":"Cinccino",
      "gives":"Munchlax"
    },
    {
      "wants":"Emolga",
      "gives":"Gigalith"
    },
    {
      "wants":"Mantine",
      "gives":"Tangrowth"
    },
    {
      "wants":"Excadrill",
      "gives":"Ambipom"
    },
    {
      "wants":"Hippowdon",
      "gives":"Alakazam"
    },
    {
      "wants":"Luvdisc",
      "gives":"Steelix"
    },
    {
      "wants":"Jigglypuff",
      "gives":"Bisharp"
    },
    {
      "wants":"Gyarados",
      "gives":"Magikarp"
    },
    {
      "wants":"Butterfree",
      "gives":"Beedrill"
    },
    {
      "wants":"Beedrill",
      "gives":"Butterfree"
    },
    {
      "wants":"Fomantis",
      "gives":"Cacnea"
    },
    {
      "wants":"Yungoos",
      "gives":"Diglett"
    },
    {
      "wants":"Bunnelby",
      "gives":"Farfetchd"
    },
    {
      "wants":"Luvdisc",
      "gives":"Steelix"
    },
    {
      "wants":"Jigglypuff",
      "gives":"Bisharp"
    },
    {
      "wants":"Spearow",
      "gives":"Machop"
    },
    {
      "wants":"Lillipup",
      "gives":"Bounsweet"
    },
    {
      "wants":"Zubat",
      "gives":"Poliwhirl"
    },
    {
      "wants":"Pancham",
      "gives":"Happiny"
    },
    {
      "wants":"Granbull",
      "gives":"Steenee"
    },
    {
      "wants":"Bewear",
      "gives":"Talonflame"
    },
    {
      "wants":"Spearow",
      "gives":"Hawlucha"
    },
    {
      "wants":"Lillipup",
      "gives":"Noibat"
    },
    {
      "wants":"Tentacool",
      "gives":"Barboach"
    },
    {
      "wants":"Trumbeak",
      "gives":"Arbok"
    },
    {
      "wants":"Granbull",
      "gives":"Shellos"
    },
    {
      "wants":"Bewear",
      "gives":"Tauros"
    },
    {
      "wants":"Bunnelby",
      "gives":"Skwovet"
    },
    {
      "wants":"Minccino",
      "gives":"Cottonee"
    },
    {
      "wants":"Maractus",
      "gives":"Hatenna"
    },
    {
      "wants":"Vanillish",
      "gives":"Throh"
    },
    {
      "wants":"Vanillish",
      "gives":"Sawk"
    },
    {
      "wants":"Rockruff",
      "gives":"Lycanroc"
    },
    {
      "wants":"Mudbray",
      "gives":"Morelull"
    }
  ]
}