{
	"usecustom": false,
	"pokemon": [
        "Aerodactyl",
        "Arctovish",
        "Arctozolt",
        "Aurorus",
        "Barbaracle",
        "Barraskewda",
        "Bewear",
        "Celebi",
        "Chandelure",
        "Cloyster",
        "Cobalion",
        "Cresselia",
        "Crobat",
        "Darmanitan",
        "Darmanitan-Zen",
        "Dhelmise",
        "Diancie",
        "Ditto",
        "Doublade",
        "Dragalge",
        "Drapion",
        "Durant",
        "Entei",
        "Flygon",
        "Gardevoir",
        "Gastrodon",
        "Glastrier",
        "Golisopod",
        "Golurk",
        "Heliolisk",
        "Heracross",
        "Incineroar",
        "Indeedee",
        "Kabutops",
        "Kingdra",
        "Klefki",
        "Linoone",
        "Lucario",
        "Magnezone",
        "Marowak-Alolan",
        "Metagross",
        "Mienshao",
        "Milotic",
        "Mimikyu",
        "Mudsdale",
        "Necrozma",
        "Ninetales",
        "Ninjask",
        "Noivern",
        "Obstagoon",
        "Omastar",
        "Pangoro",
        "Politoed",
        "Polteageist",
        "Porygon-Z",
        "Porygon2",
        "Pyukumuku",
        "Raikou",
        "Regidrago",
        "Registeel",
        "Reuniclus",
        "Rhyperior",
        "Roserade",
        "Salazzle",
        "Seismitoad",
        "Sharpedo",
        "Shiftry",
        "Sigilyph",
        "Slurpuff",
        "Snorlax",
        "Stakataka",
        "Starmie",
        "Steelix",
        "Suicune",
        "Sylveon",
        "Talonflame",
        "Tangela",
        "Togekiss",
        "Torkoal",
        "Tornadus",
        "Toxicroak",
        "Toxtricity",
        "Toxtricity-Amped",
        "Toxtricity-Lowkey",
        "Tyrantrum",
        "Umbreon",
        "Vanilluxe",
        "Vileplume",
        "Volcanion",
        "Weezing-Galarian",
        "Xatu",
        "Xurkitree",
        "Zarude",
        "Zoroark"
	]
}