{
    "type": "minecraft:crafting_shaped",
    "pattern": [
      "###"
    ],
    "key": {
      "#": {
        "item": "pixelmon:marble_block",
        "data": 15
      }
    },
    "result": {
      "item": "pixelmon:black_marble_slab",
      "data": 0,
      "count": 6
    }
}