{
    "type": "minecraft:crafting_shaped",
    "pattern": [
      "###"
    ],
    "key": {
      "#": {
        "item": "pixelmon:poke_brick",
        "data": 1
      }
    },
    "result": {
      "item": "pixelmon:orange_poke_brick_slab",
      "data": 0,
      "count": 6
    }
}