{
  "type": "minecraft:crafting_shapeless",
  "ingredients": [
    {
      "item": "pixelmon:dino_fossil"
    },
    {
      "item": "pixelmon:bird_fossil"
    }
  ],
  "result": {
    "item": "pixelmon:arctozolt_fossil",
    "count": 1
  }
}