{
  "type": "minecraft:crafting_shaped",
  "pattern": [
    "DDD",
    "GOG",
    "DDD"
  ],
  "key": {
    "D": {
      "item": "pixelmon:dragon_soul"
    },
    "G": {
      "item": "pixelmon:ice_gem"
    },
    "O": {
      "item": "pixelmon:orb"
    }
  },
  "result": {
    "item": "pixelmon:dragon_stone",
    "count": 1
  }
}