{
  "type": "minecraft:crafting_shaped",
  "pattern": [
    "ABA",
    "CDC",
    "EFE"
  ],
  "key": {
    "A": {
      "item": "pixelmon:aluminium_plate"
    },
    "B": {
      "item": "minecraft:diamond_helmet"
    },
    "C": {
      "item": "minecraft:iron_ingot"
    },
    "D": {
      "item": "pixelmon:aluminium_chestplate"
    },
    "E": {
      "item": "minecraft:iron_block"
    },
    "F": {
      "item": "pixelmon:metal_coat"
    }
  },
  "result": {
    "item": "pixelmon:mewtwo_armor",
    "count": 1
  }
}