{
  "type": "minecraft:crafting_shapeless",
  "ingredients": [
    {
      "item": "pixelmon:crumbled_rock_key_1"
    },
    {
      "item": "pixelmon:crumbled_rock_key_2"
    },
    {
      "item": "pixelmon:crumbled_rock_key_3"
    },
    {
      "item": "pixelmon:crumbled_rock_key_4"
    }
  ],
  "result": {
    "item": "pixelmon:rock_peak_key",
    "count": 1
  }
}