{
  "type": "minecraft:crafting_shaped",
  "pattern": [
    "SSS",
    "SOS",
    "SSS"
  ],
  "key": {
    "S": {
      "item": "pixelmon:sparkling_shard"
    },
    "O": {
      "item": "pixelmon:orb"
    }
  },
  "result": {
    "item": "pixelmon:sparkling_stone",
    "count": 1
  }
}