{
  "type": "minecraft:crafting_shaped",
  "pattern": [
    "DDD",
    "PPP",
    "RRR"
  ],
  "key": {
    "D": {
      "item": "minecraft:paper"
    },
    "P": {
      "item": "pixelmon:cooked_pink_apricorn"
    },
    "R": {
      "item": "minecraft:rotten_flesh"
    }
  },
  "result": {
    "item": "pixelmon:surprise_mulch",
    "count": 1
  }
}