{
    "data": {
        "trainerType": "groomer",
        "minLevel": 70,
        "maxLevel": 90,
        "minPartyPokemon": 3,
        "maxPartyPokemon": 6,
        "winnings": 25
    },
    "pokemon": [
        {
            "name": "Arcanine"
        },
        {
            "name": "Growlithe"
        },
        {
            "name": "Ninetales"
        },
        {
            "name": "Vulpix"
        },
        {
            "name": "Granbull"
        },
        {
            "name": "Houndoom"
        },
        {
            "name": "Houndour"
        },
        {
            "name": "Smeargle"
        },
        {
            "name": "Snubbull"
        },
        {
            "name": "Electrike"
        },
        {
            "name": "Manectric"
        },
        {
            "name": "Mightyena"
        },
        {
            "name": "Nickit"
        },
        {
            "name": "Poochyena"
        },
        {
            "name": "Thievul"
        },
        {
            "name": "Herdier"
        },
        {
            "name": "Lillipup"
        },
        {
            "name": "Stoutland"
        },
        {
            "name": "Zorua"
        },
        {
            "name": "Zoroark"
        },
        {
            "name": "Braixen"
        },
        {
            "name": "Delphox"
        },
        {
            "name": "Fennekin"
        },
        {
            "name": "Furfrou"
        },
        {
            "name": "Rockruff"
        },
        {
            "name": "Yamper"
        }
    ],
    "names": [
        {
            "name": "Groomer"
        }
    ],
	"chat": [
        {
            "opening": "The groomer is closed for business today. Let's have a battle instead!",
            "win": "Maybe I should be a Pokemon Trainer instead! I'm pretty good.",
            "lose": "I should stick to my day job..."
        }
    ]
}
