{
    "data": {
        "trainerType": "MiscJobs",
        "minLevel": 30,
        "maxLevel": 60,
        "minPartyPokemon": 1,
        "maxPartyPokemon": 6,
        "winnings": 20
    },
    "pokemon": [
        {
            "name": "Clefable"
        },
        {
            "name": "Gengar"
        },
        {
            "name": "Steelix"
        },
        {
            "name": "Medicham"
        },
        {
            "name": "Walrein"
        },
        {
            "name": "Magnezone"
        },
        {
            "name": "Probopass"
        },
        {
            "name": "Dubwool"
        },
        {
            "name": "Heatmor"
        },
        {
            "name": "Vivillon"
        },
        {
            "name": "Furfrou"
        },
        {
            "name": "Bewear"
        },
        {
            "name": "Mudsdale"
        },
        {
            "name": "Yungoos"
        },
        {
            "name": "Corviknight"
        },
        {
            "name": "Hatterene"
        },
        {
            "name": "Toxicroak"
        },
        {
            "name": "Hippowdon"
        }
    ],
    "names": [
        {
            "name": "Avery"
        },
        {
            "name": "Jordan"
        },
        {
            "name": "Alex"
        },
        {
            "name": "Payton"
        },
        {
            "name": "Drew"
        },
        {
            "name": "Jessie"
        },
        {
            "name": "Charley"
        },
        {
            "name": "Skyler"
        },
        {
            "name": "Blake"
        }
    ],
	"chat": [
        {
            "opening": "Can't you see I'm working!? Well.. Just don't tell the boss.",
            "win": "Yeah! Great battle, kid. Back to work.",
            "lose": "Gah! Can this day get any worse???"
        },
        {
            "opening": "I'm busy. Just kidding, slow day. Let's do this!",
            "win": "Phew! That really passed time! Now I can go home.",
            "lose": "Nice one, let's battle again sometime."
        },
        {
            "opening": "I'll bet my bonus check that I'll win.",
            "win": "That was close...",
            "lose": "My bonus check! Double or nothing???"
        }
    ]
}
