{
    "data": {
        "trainerType": "Ranger",
        "minLevel": 30,
        "maxLevel": 50,
        "minPartyPokemon": 3,
        "maxPartyPokemon": 6,
        "winnings": 15
    },
    "pokemon": [
        {
            "name": "Minun"
        },
        {
            "name": "Plusle"
        },
        {
            "name": "Celebi"
        },
        {
            "name": "Magneton"
        },
        {
            "name": "Hitmonlee"
        },
        {
            "name": "Electabuzz"
        },
        {
            "name": "Dragonite"
        },
        {
            "name": "Pichu"
        },
        {
            "name": "Ampharos"
        },
        {
            "name": "Miltank"
        },
        {
            "name": "Espeon"
        },
        {
            "name": "Gligar"
        },
        {
            "name": "Sableye"
        },
        {
            "name": "Aggron"
        },
        {
            "name": "Roselia"
        },
        {
            "name": "Flygon"
        }
    ],
    "names": [
        {
            "name": "Solana"
        },
        {
            "name": "Summer"
        },
        {
            "name": "Rythmi"
        },
        {
            "name": "Kasa"
        },
        {
            "name": "Erma"
        },
        {
            "name": "Arley"
        }
    ],
	"chat": [
        {
            "opening": "Sure, I'll help you train, kiddo",
            "win": "Great work! Keep training hard!",
            "lose": "Maybe next time! Keep at it."
        },
        {
            "opening": "Battling isn't the only way to train, but I'll take you on.",
            "win": "Let your Pokemon roam free and they'll like you more.",
            "lose": "Battling may be more effective than I thought..."
        }
    ]
}
