{
  "type": "minecraft:crafting_shaped",
  "pattern": [
    "FFF",
    "MOZ",
    "FFF"
  ],
  "key": {
    "F": {
      "item": "pixelmon:fire_gem"
    },
    "M": {
      "item": "pixelmon:fire_memory_drive"
    },
    "O": {
      "item": "pixelmon:orb"
    },
    "Z": {
      "item": "pixelmon:firium_z"
    }
  },
  "result": {
    "item": "pixelmon:faded_red_orb",
    "count": 1
  }
}