{
  "type": "minecraft:crafting_shapeless",
  "ingredients": [
    {
      "item": "pixelmon:fire_stone"
    },
    {
      "item": "pixelmon:water_stone"
    },
    {
      "item": "pixelmon:moon_stone"
    },
    {
      "item": "pixelmon:thunder_stone"
    },
    {
      "item": "pixelmon:sun_stone"
    },
    {
      "item": "pixelmon:leaf_stone"
    },
    {
      "item": "pixelmon:dawn_stone"
    },
    {
      "item": "pixelmon:dusk_stone"
    },
    {
      "item": "pixelmon:orb"
    }
  ],
  "result": {
    "item": "pixelmon:generations_orb"
  }
}
