{
  "type": "minecraft:crafting_shapeless",
  "ingredients": [
    {
      "item": "pixelmon:orb"
    },
    {
      "item": "pixelmon:psychic_gem"
    }
  ],
  "result": {
    "item": "pixelmon:mystical_orb"
  }
}