{
  "type": "minecraft:crafting_shaped",
  "pattern": [
    "AAA",
    " I ",
    " I "
  ],
  "key": {
    "I": {
      "item": "minecraft:iron_ingot"
    },
    "A": {
      "item": "minecraft:wool",
      "data": 15
    }
  },
  "result": {
    "item": "pixelmon:black_cushion_chair",
    "count": 1
  }
}