{
  "type": "minecraft:crafting_shapeless",
  "ingredients": [
    {
      "item": "minecraft:fence"
    },
    {
      "item": "minecraft:dye",
      "data": 4
    }
  ],
  "result": {
    "item": "pixelmon:bluepicketfence",
    "count": 1
  }
}