{
  "type": "minecraft:crafting_shaped",
  "pattern": [
    "SSS",
    "SSS",
    "SSS"
  ],
  "key": {
    "S": {
      "item": "minecraft:stone",
      "data": 0
    }
  },
  "result": {
    "item": "pixelmon:bolder",
    "count": 1
  }
}