{
  "type": "minecraft:crafting_shaped",
  "pattern": [
    "R",
    "B"
  ],
  "key": {
    "R": {
      "item": "minecraft:prismarine",
      "data": 1
    },
    "B": {
      "item": "minecraft:prismarine",
      "data": 2
    }
  },
  "result": {
    "item": "pixelmon:prismarinepillar",
    "data": 1,
    "count": 1
  }
}