{
  "type": "minecraft:crafting_shaped",
  "pattern": [
    "B",
    "R",
    "B"
  ],
  "key": {
    "R": {
      "item": "pixelmon:castlebrick"
    },
    "B": {
      "item": "pixelmon:castleblock"
    }
  },
  "result": {
    "item": "pixelmon:castlepillar",
    "data": 0,
    "count": 1
  }
}