{
  "type": "minecraft:crafting_shaped",
  "pattern": [
    "   ",
    " DD",
    " CC"
  ],
  "key": {
    "D": {
      "item": "minecraft:dirt",
      "data": 0
    },
    "C": {
      "item": "pixelmon:castlewall",
      "data": 0
    }
  },
  "result": {
    "item": "pixelmon:castlewall2",
    "count": 4
  }
}