{
  "type": "minecraft:crafting_shaped",
  "pattern": [
    "   ",
    " BS",
    " SB"
  ],
  "key": {
    "S": {
      "item": "minecraft:brick_block",
      "data": 0
    },
    "B": {
      "item": "pixelmon:temple_block",
      "data": 0
    }
  },
  "result": {
    "item": "pixelmon:castleblock",
    "count": 4
  }
}