{
  "type": "minecraft:crafting_shaped",
  "pattern": [
    "   ",
    " SB",
    " SB"
  ],
  "key": {
    "S": {
      "item": "minecraft:stone",
      "data": 0
    },
    "B": {
      "item": "minecraft:stonebrick",
      "data": 0
    }
  },
  "result": {
    "item": "pixelmon:castlegrey",
    "count": 4
  }
}