{
  "type": "minecraft:crafting_shaped",
  "pattern": [
    "   ",
    " SD",
    " ##"
  ],
  "key": {
    "D": {
      "item": "minecraft:dirt",
      "data": 0
    },
    "S": {
      "item": "minecraft:sand",
      "data": 0
    },
    "#": {
      "item": "minecraft:stonebrick",
      "data": 0
    }
  },
  "result": {
    "item": "pixelmon:castlewall",
    "count": 4
  }
}