{
  "type": "minecraft:crafting_shaped",
  "pattern": [
    " XX",
    "XXX",
    "Y Y"
  ],
  "key": {
    "X": {
      "item": "minecraft:wool",
      "data": 14
    },
    "Y": {
      "item": "minecraft:wooden_slab",
      "data": 0
    }
  },
  "result": {
    "item": "pixelmon:couch_corner_right",
    "count": 1
  }
}