{
  "type": "minecraft:crafting_shaped",
  "pattern": [
    "   ",
    "QQQ",
    "Q Q"
  ],
  "key": {
    "Q": {
      "item": "minecraft:quartz_block",
      "data": 0
    }
  },
  "result": {
    "item": "pixelmon:desk",
    "count": 1
  }
}