{
  "type": "minecraft:crafting_shaped",
  "pattern": [
    " G ",
    "GBG",
    "XXX"
  ],
  "key": {
    "B": {
      "item": "pixelmon:dive_ball",
      "data": 0
    },
    "G": {
      "item": "minecraft:glowstone_dust",
      "data": 0
    },
    "X": {
      "item": "pixelmon:aluminium_plate",
      "data": 0
    }
  },
  "result": {
    "item": "pixelmon:displayball_diveball",
    "count": 1
  }
}