{
  "type": "minecraft:crafting_shaped",
  "pattern": [
    "GGG",
    "LGL",
    " S "
  ],
  "key": {
    "G": {
      "item": "minecraft:stained_glass",
      "data": 0
    },
    "L": {
      "item": "minecraft:redstone_lamp"
    },
    "S": {
      "item": "minecraft:stick"
    }
  },
  "result": {
    "item": "pixelmon:double_street_lamp",
    "count": 1
  }
}