{
  "type": "minecraft:crafting_shaped",
  "pattern": [
    "WCW",
    "W W",
    "W W"
  ],
  "key": {
    "W": {
      "item": "minecraft:planks",
	  "data": 4
    },
    "C": {
      "item": "minecraft:crafting_table"
    }
  },
  "result": {
    "item": "pixelmon:end_table_acacia",
    "count": 1
  }
}