{
  "type": "minecraft:crafting_shaped",
  "pattern": [
    "X  ",
    "XX ",
    "XXX"
  ],
  "key": {
    "X": {
      "item": "pixelmon:ghost_plank"
    }
  },
  "result": {
    "item": "pixelmon:ghost_plank_stairs",
    "count": 4
  }
}