{
  "type": "minecraft:crafting_shaped",
  "pattern": [
    " SB",
    " BS",
    " SB"
  ],
  "key": {
    "S": {
      "item": "pixelmon:ghost_brick",
      "data": 0
    },
    "B": {
      "item": "pixelmon:ghost_plank",
      "data": 0
    }
  },
  "result": {
    "item": "pixelmon:ghost_pillar_side",
    "count": 2
  }
}