{
  "type": "minecraft:crafting_shapeless",
  "ingredients": [
    {
      "item": "pixelmon:ghost_gem"
    },
    {
      "item": "minecraft:planks",
      "data": 0
    }
  ],
  "result": {
    "item": "pixelmon:ghost_plank",
    "count": 32
  }
}