{
  "type": "minecraft:crafting_shapeless",
  "ingredients": [
    {
      "item": "minecraft:glass"
    },
    {
      "item": "minecraft:ice"
    }
  ],
  "result": {
    "item": "pixelmon:glass_mirror_block",
    "count": 1
  }
}