{
  "type": "minecraft:crafting_shaped",
  "pattern": [
    "  A",
    "AAA",
    "IPI"
  ],
  "key": {
    "P": {
      "item": "minecraft:piston"
    },
    "I": {
      "item": "minecraft:iron_ingot"
    },
    "A": {
      "item": "minecraft:wool",
      "data": 7
    }
  },
  "result": {
    "item": "pixelmon:grey_swivel_chair",
    "count": 1
  }
}