{
  "type": "minecraft:crafting_shaped",
  "pattern": [
    "SS ",
    "SS "
  ],
  "key": {
    "S": {
      "item": "pixelmon:ocean_block"
    }
  },
  "result": {
    "item": "pixelmon:house_floor_4",
    "count": 1
  }
}