{
  "type": "minecraft:crafting_shaped",
  "pattern": [
    "SSS"
  ],
  "key": {
    "S": {
      "item": "pixelmon:burst_turf"
    }
  },
  "result": {
    "item": "pixelmon:inside_wall_top",
    "count": 1
  }
}