{
  "type": "forge:ore_shaped",
  "pattern": [
    "GGG",
    "GWG",
    "PPP"
  ],
  "key": {
    "G": {
      "item": "minecraft:stained_glass_pane",
      "data": 8
    },
    "W": {
      "item": "minecraft:wool",
      "data": 8
    },
    "P": {
      "type": "forge:ore_dict",
      "ore": "plankWood"
    }
  },
  "result": {
    "item": "pixelmon:lightgrey_fossil_display",
    "count": 1
  }
}