{
  "type": "minecraft:crafting_shaped",
  "pattern": [
    "X  ",
    "XX ",
    "XXX"
  ],
  "key": {
    "X": {
      "item": "pixelmon:poke_brick",
      "data": 5
    }
  },
  "result": {
    "item": "pixelmon:lime_poke_brick_stairs",
    "count": 4
  }
}