{
  "type": "minecraft:crafting_shaped",
  "pattern": [
    "WAW",
    " S ",
    " S "
  ],
  "key": {
    "W": {
      "item": "minecraft:wool",
      "data": 0
    },
    "A": {
      "item": "minecraft:wool",
      "data": 2
    },
    "S": {
      "item": "minecraft:stick"
    }
  },
  "result": {
    "item": "pixelmon:magenta_umbrella",
    "count": 1
  }
}