{
  "type": "minecraft:crafting_shaped",
  "pattern": [
    "SSS",
    "SSS"
  ],
  "key": {
    "S": {
      "item": "minecraft:sandstone",
      "data": 0
    }
  },
  "result": {
    "item": "pixelmon:normal_sandstone",
    "count": 4
  }
}