{
  "type": "minecraft:crafting_shaped",
  "pattern": [
    "X  ",
    "XX ",
    "XXX"
  ],
  "key": {
    "X": {
      "item": "pixelmon:marble_block",
      "data": 6
    }
  },
  "result": {
    "item": "pixelmon:pink_marble_stairs",
    "count": 4
  }
}