{
  "type": "minecraft:crafting_shaped",
  "pattern": [
    " C ",
    "CCC",
    "CCC"
  ],
  "key": {
    "C": {
      "item": "minecraft:cobblestone"
    }
  },
  "result": {
    "item": "pixelmon:pokeball_pillar",
    "count": 1
  }
}