{
  "type": "minecraft:crafting_shaped",
  "pattern": [
    "GGG",
    "GGG",
    "BBB"
  ],
  "key": {
    "G": {
      "item": "minecraft:glass"
    },
    "B": {
      "item": "minecraft:quartz_block",
      "data": 1
    }
  },
  "result": {
    "item": "pixelmon:shopfront_case_2",
    "count": 1
  }
}