{
  "type": "minecraft:crafting_shaped",
  "pattern": [
    " X ",
    "XOX",
    "OXO"
  ],
  "key": {
    "X": {
      "item": "minecraft:wool",
	  "data": 13
    },
    "O": {
      "item": "minecraft:wool",
	  "data": 0
    }
  },
  "result": {
    "item": "pixelmon:bean_bag",
    "count": 1
  }
}