{
  "type": "minecraft:crafting_shaped",
  "pattern": [
    "PXP",
    "JOJ",
    " R "
  ],
  "key": {
    "P": {
      "item": "minecraft:stone_button"
    },
    "X": {
      "item": "minecraft:glass_pane"
    },
    "J": {
      "item": "pixelmon:aluminium_plate"
    },
    "R": {
      "item": "minecraft:redstone"
    },
	"O": {
	 "item": "minecraft:redstone_lamp"
	 }
  },
  "result": {
    "item": "pixelmon:switch",
    "count": 1
  }
}