{
  "tier1": [
    "pixelmon:poke_ball",
    "pixelmon:great_ball",
    "pixelmon:ultra_ball",
    "pixelmon:level_ball",
    "pixelmon:moon_ball",
    "pixelmon:friend_ball",
    "pixelmon:love_ball",
    "pixelmon:heavy_ball",
    "pixelmon:fast_ball",
    "pixelmon:repeat_ball",
    "pixelmon:timer_ball",
    "pixelmon:nest_ball",
    "pixelmon:net_ball",
    "pixelmon:dive_ball",
    "pixelmon:luxury_ball",
    "pixelmon:heal_ball",
    "pixelmon:dusk_ball",
    "pixelmon:quick_ball",
    "pixelmon:lure_ball",
    "pixelmon:sport_ball",
    "pixelmon:premier_ball",
    "pixelmon:safari_ball",
    "pixelmon:rare_candy",
    "pixelmon:potion",
    "pixelmon:hard_stone",
    "pixelmon:super_potion",
    "pixelmon:hyper_potion",
    "pixelmon:max_potion",
    "pixelmon:full_restore",
    "pixelmon:fresh_water",
    "pixelmon:soda_pop",
    "pixelmon:lemonade",
    "pixelmon:moomoo_milk",
    "pixelmon:revive",
    "pixelmon:max_revive",
    "pixelmon:ether",
    "pixelmon:max_ether",
    "pixelmon:elixir",
    "pixelmon:max_elixir",
    "pixelmon:antidote",
    "pixelmon:paralyze_heal",
    "pixelmon:awakening",
    "pixelmon:burn_heal",
    "pixelmon:ice_heal",
    "pixelmon:full_heal",
    "pixelmon:hp_up",
    "pixelmon:protein",
    "pixelmon:iron",
    "pixelmon:calcium",
    "pixelmon:zinc",
    "pixelmon:carbos",
    "pixelmon:heal_powder",
    "pixelmon:energy_powder",
    "pixelmon:energy_root",
    "pixelmon:revival_herb",
    "pixelmon:x_attack",
    "pixelmon:x_defence",
    "pixelmon:x_special_attack",
    "pixelmon:x_special_defence",
    "pixelmon:x_speed",
    "pixelmon:x_accuracy",
    "pixelmon:guard_spec",
    "pixelmon:dire_hit",
    "pixelmon:pomeg_berry",
    "pixelmon:kelpsy_berry",
    "pixelmon:qualot_berry",
    "pixelmon:hondew_berry",
    "pixelmon:grepa_berry",
    "pixelmon:tamato_berry",
    "pixelmon:oran_berry",
    "pixelmon:rawst_berry",
    "pixelmon:leppa_berry",
    "pixelmon:cheri_berry",
    "pixelmon:chesto_berry",
    "pixelmon:pecha_berry",
    "pixelmon:aspear_berry",
    "pixelmon:persim_berry",
    "pixelmon:berry_juice",
    "pixelmon:pumkin_berry",
    "pixelmon:drash_berry",
    "pixelmon:eggant_berry",
    "pixelmon:yago_berry",
    "pixelmon:touga_berry",
    "pixelmon:apicot_berry",
    "pixelmon:ganlon_berry",
    "pixelmon:lansat_berry",
    "pixelmon:starf_berry",
    "pixelmon:aguav_berry",
    "pixelmon:figy_berry",
    "pixelmon:iapapa_berry",
    "pixelmon:mago_berry",
    "pixelmon:wiki_berry",
    "pixelmon:jaboca_berry",
    "pixelmon:rowap_berry",
    "pixelmon:enigma_berry",
    "pixelmon:micle_berry",
    "pixelmon:lucky_punch",
    "pixelmon:metal_powder",
    "pixelmon:quick_powder",
    "pixelmon:leek",
    "pixelmon:ever_stone",
    "pixelmon:absorb_bulb",
    "pixelmon:cell_battery",
    "pixelmon:shed_shell",
    "pixelmon:sticky_barb",
    "pixelmon:big_root",
    "pixelmon:binding_band",
    "pixelmon:grip_claw",
    "pixelmon:float_stone",
    "pixelmon:ring_target",
    "pixelmon:pure_incense",
    "pixelmon:luminous_moss",
    "pixelmon:snowball",
    "pixelmon:pokemail_air",
    "pixelmon:pokemail_bloom",
    "pixelmon:pokemail_brick",
    "pixelmon:pokemail_bridged",
    "pixelmon:pokemail_bridgem",
    "pixelmon:pokemail_bridges",
    "pixelmon:pokemail_bridgev",
    "pixelmon:pokemail_bubble",
    "pixelmon:pokemail_dream",
    "pixelmon:pokemail_fab",
    "pixelmon:pokemail_favored",
    "pixelmon:pokemail_flame",
    "pixelmon:pokemail_glitter",
    "pixelmon:pokemail_grass",
    "pixelmon:pokemail_greet",
    "pixelmon:pokemail_heart",
    "pixelmon:pokemail_inquiry",
    "pixelmon:pokemail_like",
    "pixelmon:pokemail_mech",
    "pixelmon:pokemail_mosaic",
    "pixelmon:pokemail_orange",
    "pixelmon:pokemail_reply",
    "pixelmon:pokemail_retro",
    "pixelmon:pokemail_rsvp",
    "pixelmon:pokemail_snow",
    "pixelmon:pokemail_space",
    "pixelmon:pokemail_steel",
    "pixelmon:pokemail_thanks",
    "pixelmon:pokemail_wave",
    "pixelmon:pokemail_wood",
    "pixelmon:hourglass_silver",
    "pixelmon:film",
    "pixelmon:blue_shard",
    "pixelmon:green_shard",
    "pixelmon:red_shard",
    "pixelmon:yellow_shard",
    "pixelmon:xs_candy",
    "pixelmon:s_candy",
    "pixelmon:tm0",
    "pixelmon:tm13",
    "pixelmon:tm17",
    "pixelmon:tm18",
    "pixelmon:tm19",
    "pixelmon:tm23",
    "pixelmon:tm25",
    "pixelmon:tm28",
    "pixelmon:tm32",
    "pixelmon:tm33",
    "pixelmon:tm34",
    "pixelmon:tm35",
    "pixelmon:tm41",
    "pixelmon:tm50",
    "pixelmon:tm55",
    "pixelmon:tm76",
    "pixelmon:tm94",
    "pixelmon:tr0",
    "pixelmon:tr1",
    "pixelmon:tr7",
    "pixelmon:tr12",
    "pixelmon:tr13",
    "pixelmon:tr14",
    "pixelmon:tr16",
    "pixelmon:tr17",
    "pixelmon:tr18",
    "pixelmon:tr19",
    "pixelmon:tr20",
    "pixelmon:tr21",
    "pixelmon:tr23",
    "pixelmon:tr25",
    "pixelmon:tr26",
    "pixelmon:tr27",
    "pixelmon:tr29",
    "pixelmon:tr30",
    "pixelmon:tr32",
    "pixelmon:tr33",
    "pixelmon:tr34",
    "pixelmon:tr35",
    "pixelmon:tr37",
    "pixelmon:tr38",
    "pixelmon:tr40",
    "pixelmon:tr41",
    "pixelmon:tr44",
    "pixelmon:tr46",
    "pixelmon:tr47",
    "pixelmon:tr48",
    "pixelmon:tr49",
    "pixelmon:tr51",
    "pixelmon:tr52",
    "pixelmon:tr54",
    "pixelmon:tr56",
    "pixelmon:tr57",
    "pixelmon:tr58",
    "pixelmon:tr59",
    "pixelmon:tr60",
    "pixelmon:tr62",
    "pixelmon:tr63",
    "pixelmon:tr68",
    "pixelmon:tr69",
    "pixelmon:tr76",
    "pixelmon:tr77",
    "pixelmon:tr79",
    "pixelmon:tr80",
    "pixelmon:tr81",
    "pixelmon:tr82",
    "pixelmon:tr83",
    "pixelmon:tr84",
    "pixelmon:tr85",
    "pixelmon:tr87",
    "pixelmon:tr88",
    "pixelmon:tr91",
    "pixelmon:tr92",
    "pixelmon:tr95",
    "pixelmon:tr98",
    "pixelmon:tr99",
    "pixelmon:full_incense",
    "pixelmon:lax_incense",
    "pixelmon:luck_incense",
    "pixelmon:odd_incense",
    "pixelmon:rock_incense",
    "pixelmon:rose_incense",
    "pixelmon:sea_incense",
    "pixelmon:wave_incense",
    "pixelmon:pearl",
    "pixelmon:strawberry_sweet",
    "pixelmon:love_sweet",
    "pixelmon:berry_sweet",
    "pixelmon:clover_sweet",
    "pixelmon:flower_sweet",
    "pixelmon:star_sweet",
    "pixelmon:ribbon_sweet",
    "pixelmon:throat_spray",
    "pixelmon:galarica_cuff",
    "pixelmon:galarica_wreath",
    "pixelmon:sausages",
    "pixelmon:bobs_food_tin",
    "pixelmon:bachs_food_tin",
    "pixelmon:tin_of_beans",
    "pixelmon:bread",
    "pixelmon:pasta",
    "pixelmon:rotom_catalog",
    "pixelmon:mixed_mushrooms",
    "pixelmon:smoked_poke_tail",
    "pixelmon:large_leek",
    "pixelmon:fancy_apple",
    "pixelmon:brittle_bones",
    "pixelmon:pack_of_potatoes",
    "pixelmon:pungent_root",
    "pixelmon:salad_mix",
    "pixelmon:fried_food",
    "pixelmon:boiled_egg",
    "pixelmon:fruit_bunch",
    "pixelmon:moomoo_cheese",
    "pixelmon:spice_mix",
    "pixelmon:fresh_cream",
    "pixelmon:packaged_curry",
    "pixelmon:coconut_milk",
    "pixelmon:instant_noodles",
    "pixelmon:precooked_burger",
    "pixelmon:poke_doll",
    "pixelmon:poke_toy",
    "pixelmon:sweet_heart"
  ],
  "tier2": [
    "pixelmon:cherish_ball",
    "pixelmon:lum_berry",
    "pixelmon:sitrus_berry",
    "pixelmon:liechi_berry",
    "pixelmon:salac_berry",
    "pixelmon:petaya_berry",
    "pixelmon:custap_berry",
    "pixelmon:occa_berry",
    "pixelmon:passho_berry",
    "pixelmon:wacan_berry",
    "pixelmon:rindo_berry",
    "pixelmon:yache_berry",
    "pixelmon:chople_berry",
    "pixelmon:kebia_berry",
    "pixelmon:shuca_berry",
    "pixelmon:coba_berry",
    "pixelmon:payapa_berry",
    "pixelmon:tanga_berry",
    "pixelmon:charti_berry",
    "pixelmon:kasib_berry",
    "pixelmon:haban_berry",
    "pixelmon:colbur_berry",
    "pixelmon:babiri_berry",
    "pixelmon:chilan_berry",
    "pixelmon:roseli_berry",
    "pixelmon:ginema_berry",
    "pixelmon:kee_berry",
    "pixelmon:maranga_berry",
    "pixelmon:sun_stone",
    "pixelmon:fire_stone",
    "pixelmon:water_stone",
    "pixelmon:moon_stone",
    "pixelmon:thunder_stone",
    "pixelmon:leaf_stone",
    "pixelmon:dawn_stone",
    "pixelmon:dusk_stone",
    "pixelmon:ice_stone",
    "pixelmon:shiny_stone",
    "pixelmon:dubious_disc",
    "pixelmon:electirizer",
    "pixelmon:magmarizer",
    "pixelmon:kings_rock",
    "pixelmon:protector",
    "pixelmon:up-grade",
    "pixelmon:razor_fang",
    "pixelmon:dragon_scale",
    "pixelmon:razor_claw",
    "pixelmon:deep_sea_tooth",
    "pixelmon:deep_sea_scale",
    "pixelmon:oval_stone",
    "pixelmon:reaper_cloth",
    "pixelmon:light_ball",
    "pixelmon:thick_club",
    "pixelmon:power_herb",
    "pixelmon:mental_herb",
    "pixelmon:white_herb",
    "pixelmon:bug_gem",
    "pixelmon:dark_gem",
    "pixelmon:dragon_gem",
    "pixelmon:electric_gem",
    "pixelmon:fairy_gem",
    "pixelmon:fighting_gem",
    "pixelmon:fire_gem",
    "pixelmon:flying_gem",
    "pixelmon:ghost_gem",
    "pixelmon:grass_gem",
    "pixelmon:ground_gem",
    "pixelmon:ice_gem",
    "pixelmon:normal_gem",
    "pixelmon:poison_gem",
    "pixelmon:psychic_gem",
    "pixelmon:rock_gem",
    "pixelmon:steel_gem",
    "pixelmon:water_gem",
    "pixelmon:macho_brace",
    "pixelmon:soothe_bell",
    "pixelmon:smoke_ball",
    "pixelmon:wide_lens",
    "pixelmon:shell_bell",
    "pixelmon:metronome",
    "pixelmon:focus_band",
    "pixelmon:toxic_orb",
    "pixelmon:flame_orb",
    "pixelmon:black_sludge",
    "pixelmon:scope_lens",
    "pixelmon:air_balloon",
    "pixelmon:damp_rock",
    "pixelmon:heat_rock",
    "pixelmon:icy_rock",
    "pixelmon:smooth_rock",
    "pixelmon:red_card",
    "pixelmon:light_clay",
    "pixelmon:quick_claw",
    "pixelmon:zoom_lens",
    "pixelmon:bright_powder",
    "pixelmon:lagging_tail",
    "pixelmon:eject_button",
    "pixelmon:iron_ball",
    "pixelmon:black_belt",
    "pixelmon:black_glasses",
    "pixelmon:charcoal",
    "pixelmon:dragon_fang",
    "pixelmon:hard_stone",
    "pixelmon:magnet",
    "pixelmon:metal_coat",
    "pixelmon:miracle_seed",
    "pixelmon:mystic_water",
    "pixelmon:never_melt_ice",
    "pixelmon:poison_barb",
    "pixelmon:prism_scale",
    "pixelmon:sharp_beak",
    "pixelmon:silk_scarf",
    "pixelmon:silver_powder",
    "pixelmon:heavyduty_boots",
    "pixelmon:soft_sand",
    "pixelmon:spell_tag",
    "pixelmon:twisted_spoon",
    "pixelmon:amulet_coin",
    "pixelmon:safety_goggles",
    "pixelmon:ranch_upgrade",
    "pixelmon:hourglass_gold",
    "pixelmon:big_mushroom",
    "pixelmon:gold_leaf",
    "pixelmon:small_bouquet",
    "pixelmon:big_pearl",
    "pixelmon:nugget",
    "pixelmon:star_piece",
    "pixelmon:m_candy",
    "pixelmon:rockstar_costume",
    "pixelmon:belle_costume",
    "pixelmon:popstar_costume",
    "pixelmon:phd_costume",
    "pixelmon:libre_costume",
    "pixelmon:pp_up",
    "pixelmon:tm1",
    "pixelmon:tm3",
    "pixelmon:tm4",
    "pixelmon:tm5",
    "pixelmon:tm8",
    "pixelmon:tm9",
    "pixelmon:tm12",
    "pixelmon:tm46",
    "pixelmon:tm60",
    "pixelmon:tm61",
    "pixelmon:tm62",
    "pixelmon:tm63",
    "pixelmon:tm66",
    "pixelmon:tm67",
    "pixelmon:tm68",
    "pixelmon:tr2",
    "pixelmon:tr4",
    "pixelmon:tr5",
    "pixelmon:tr8",
    "pixelmon:tr11",
    "pixelmon:tr22",
    "pixelmon:tr31",
    "pixelmon:tr36",
    "pixelmon:tr42",
    "pixelmon:tr45",
    "pixelmon:tr50",
    "pixelmon:tr61",
    "pixelmon:tr65",
    "pixelmon:tr67",
    "pixelmon:tr70",
    "pixelmon:tr74",
    "pixelmon:tr78",
    "pixelmon:tr86",
    "pixelmon:tr90",
    "pixelmon:tr93",
    "pixelmon:tr94",
    "pixelmon:tr96",
    "pixelmon:tr97",
    "pixelmon:cracked_pot",
    "pixelmon:terrain_extender",
    "pixelmon:grassy_seed",
    "pixelmon:electric_seed",
    "pixelmon:misty_seed",
    "pixelmon:psychic_seed",
    "pixelmon:protective_pads",
    "pixelmon:blunder_policy",
    "pixelmon:eject_pack",
    "pixelmon:reins_of_unity",
    "pixelmon:heart_scale",
    "pixelmon:gigantamix",
    "pixelmon:black_flute",
    "pixelmon:blue_flute",
    "pixelmon:red_flute",
    "pixelmon:white_flute",
    "pixelmon:yellow_flute",
    "pixelmon:whipped_dream",
    "pixelmon:super_repel"
  ],
  "tier3": [
    "pixelmon:master_ball",
    "pixelmon:lucky_egg",
    "pixelmon:exp_all",
    "pixelmon:choice_band",
    "pixelmon:choice_scarf",
    "pixelmon:choice_specs",
    "pixelmon:power_weight",
    "pixelmon:power_bracer",
    "pixelmon:power_belt",
    "pixelmon:power_lens",
    "pixelmon:power_band",
    "pixelmon:power_anklet",
    "pixelmon:muscle_band",
    "pixelmon:leftovers",
    "pixelmon:life_orb",
    "pixelmon:focus_sash",
    "pixelmon:rocky_helmet",
    "pixelmon:eviolite",
    "pixelmon:expert_belt",
    "pixelmon:wise_glasses",
    "pixelmon:destiny_knot",
    "pixelmon:assault_vest",
    "pixelmon:weakness_policy",
    "pixelmon:ability_capsule",
    "pixelmon:soul_dew",
    "pixelmon:rainbow_wing",
    "pixelmon:hoopa_ring",
    "pixelmon:meteorite",
    "pixelmon:melody_flute",
    "pixelmon:dragon_soul",
    "pixelmon:dark_soul",
    "pixelmon:mirror",
    "pixelmon:chipped_pot",
    "pixelmon:tm2",
    "pixelmon:tm6",
    "pixelmon:tm7",
    "pixelmon:tm10",
    "pixelmon:tm11",
    "pixelmon:tm14",
    "pixelmon:tm15",
    "pixelmon:tm21",
    "pixelmon:tm22",
    "pixelmon:tm24",
    "pixelmon:tm26",
    "pixelmon:tm29",
    "pixelmon:tm30",
    "pixelmon:tm31",
    "pixelmon:tm36",
    "pixelmon:tm37",
    "pixelmon:tm38",
    "pixelmon:tm39",
    "pixelmon:tm40",
    "pixelmon:tm42",
    "pixelmon:tm43",
    "pixelmon:tm45",
    "pixelmon:tm47",
    "pixelmon:tm48",
    "pixelmon:tm49",
    "pixelmon:tm51",
    "pixelmon:tm53",
    "pixelmon:tm54",
    "pixelmon:tm56",
    "pixelmon:tm57",
    "pixelmon:tm58",
    "pixelmon:tm64",
    "pixelmon:tm65",
    "pixelmon:tm69",
    "pixelmon:tm73",
    "pixelmon:tm74",
    "pixelmon:tm75",
    "pixelmon:tm77",
    "pixelmon:tm78",
    "pixelmon:tm79",
    "pixelmon:tm80",
    "pixelmon:tm81",
    "pixelmon:tm82",
    "pixelmon:tm84",
    "pixelmon:tm85",
    "pixelmon:tm86",
    "pixelmon:tm87",
    "pixelmon:tm93",
    "pixelmon:tm95",
    "pixelmon:tm96",
    "pixelmon:tm97",
    "pixelmon:tm98",
    "pixelmon:tm99",
    "pixelmon:rusty_iron_key_1",
    "pixelmon:rusty_iron_key_2",
    "pixelmon:rusty_iron_key_3",
    "pixelmon:rusty_iron_key_4",
    "pixelmon:discharged_eleki_key_1",
    "pixelmon:discharged_eleki_key_2",
    "pixelmon:discharged_eleki_key_3",
    "pixelmon:discharged_eleki_key_4",
    "pixelmon:fragmented_drago_key_1",
    "pixelmon:fragmented_drago_key_2",
    "pixelmon:fragmented_drago_key_3",
    "pixelmon:fragmented_drago_key_4",
    "pixelmon:crumbled_rock_key_1",
    "pixelmon:crumbled_rock_key_2",
    "pixelmon:crumbled_rock_key_3",
    "pixelmon:crumbled_rock_key_4",
    "pixelmon:shattered_ice_key_1",
    "pixelmon:shattered_ice_key_2",
    "pixelmon:shattered_ice_key_3",
    "pixelmon:shattered_ice_key_4",
    "pixelmon:shattered_relic_song_1",
    "pixelmon:shattered_relic_song_2",
    "pixelmon:shattered_relic_song_3",
    "pixelmon:shattered_relic_song_4",
    "pixelmon:sparkling_shard",
    "pixelmon:lava_crystal",
    "pixelmon:dream_ball",
    "pixelmon:l_candy",
    "pixelmon:xl_candy",
    "pixelmon:balm_mushroom",
    "pixelmon:big_nugget",
    "pixelmon:comet_shard",
    "pixelmon:pearl_string",
    "pixelmon:ability_patch",
    "pixelmon:pp_max",
    "pixelmon:orb",
    "pixelmon:health_feather",
    "pixelmon:muscle_feather",
    "pixelmon:resist_feather",
    "pixelmon:genius_feather",
    "pixelmon:clever_feather",
    "pixelmon:swift_feather",
    "pixelmon:pretty_feather",
    "pixelmon:gold_bottle_cap",
    "pixelmon:bottle_cap",
    "pixelmon:super_repel",
    "pixelmon:lure_module"
  ],
  "tier4": [
    "pixelmon:beast_ball",
    "pixelmon:lucky_egg",
    "pixelmon:exp_all",
    "pixelmon:leftovers",
    "pixelmon:ability_capsule",
    "pixelmon:soul_dew",
    "pixelmon:ultranecrozium_z",
    "pixelmon:tapunium_z",
    "pixelmon:solganium_z",
    "pixelmon:snorlium_z",
    "pixelmon:primarium_z",
    "pixelmon:pikashunium_z",
    "pixelmon:pikanium_z",
    "pixelmon:mimikium_z",
    "pixelmon:mewnium_z",
    "pixelmon:marshadium_z",
    "pixelmon:lycanium_z",
    "pixelmon:lunalium_z",
    "pixelmon:kommonium_z",
    "pixelmon:incinium_z",
    "pixelmon:eevium_z",
    "pixelmon:aloraichium_z",
    "pixelmon:decidium_z",
    "pixelmon:melody_flute",
    "pixelmon:dragon_soul",
    "pixelmon:dark_soul",
    "pixelmon:lava_crystal",
    "pixelmon:hoopa_ring",
    "pixelmon:burn_drive",
    "pixelmon:chill_drive",
    "pixelmon:douse_drive",
    "pixelmon:shock_drive",
    "pixelmon:rusty_iron_key_1",
    "pixelmon:rusty_iron_key_2",
    "pixelmon:rusty_iron_key_3",
    "pixelmon:rusty_iron_key_4",
    "pixelmon:discharged_eleki_key_1",
    "pixelmon:discharged_eleki_key_2",
    "pixelmon:discharged_eleki_key_3",
    "pixelmon:discharged_eleki_key_4",
    "pixelmon:fragmented_drago_key_1",
    "pixelmon:fragmented_drago_key_2",
    "pixelmon:fragmented_drago_key_3",
    "pixelmon:fragmented_drago_key_4",
    "pixelmon:crumbled_rock_key_1",
    "pixelmon:crumbled_rock_key_2",
    "pixelmon:crumbled_rock_key_3",
    "pixelmon:crumbled_rock_key_4",
    "pixelmon:shattered_ice_key_1",
    "pixelmon:shattered_ice_key_2",
    "pixelmon:shattered_ice_key_3",
    "pixelmon:shattered_ice_key_4",
    "pixelmon:shattered_relic_song_1",
    "pixelmon:shattered_relic_song_2",
    "pixelmon:shattered_relic_song_3",
    "pixelmon:shattered_relic_song_4",
    "pixelmon:scroll_page",
    "pixelmon:tm20",
    "pixelmon:tm44",
    "pixelmon:tm52",
    "pixelmon:tm59",
    "pixelmon:tm70",
    "pixelmon:tm71",
    "pixelmon:tm72",
    "pixelmon:tm83",
    "pixelmon:tm92",
    "pixelmon:tr3",
    "pixelmon:tr6",
    "pixelmon:tr9",
    "pixelmon:tr10",
    "pixelmon:tr15",
    "pixelmon:tr24",
    "pixelmon:tr28",
    "pixelmon:tr39",
    "pixelmon:tr43",
    "pixelmon:tr53",
    "pixelmon:tr55",
    "pixelmon:tr64",
    "pixelmon:tr66",
    "pixelmon:tr71",
    "pixelmon:tr72",
    "pixelmon:tr73",
    "pixelmon:tr75",
    "pixelmon:tr89",
    "pixelmon:record_record_1",
    "pixelmon:record_record_2",
    "pixelmon:record_record_3",
    "pixelmon:record_record_4",
    "pixelmon:record_record_5",
    "pixelmon:record_record_6",
    "pixelmon:record_record_7",
    "pixelmon:record_record_8",
    "pixelmon:record_record_9",
    "pixelmon:record_record_10",
    "pixelmon:record_record_11",
    "pixelmon:record_record_12",
    "pixelmon:record_record_13",
    "pixelmon:record_record_14",
    "pixelmon:record_record_15",
    "pixelmon:record_record_16",
    "pixelmon:record_record_17",
    "pixelmon:record_record_18",
    "pixelmon:record_record_19",
    "pixelmon:record_record_20",
    "pixelmon:meteorite",
    "pixelmon:rainbow_wing",
    "pixelmon:mirror",
    "pixelmon:sparkling_shard",
    "pixelmon:l_candy",
    "pixelmon:xl_candy",
    "pixelmon:pp_up",
    "pixelmon:pp_max",
    "pixelmon:adamant_mint",
    "pixelmon:bold_mint",
    "pixelmon:brave_mint",
    "pixelmon:calm_mint",
    "pixelmon:careful_mint",
    "pixelmon:gentle_mint",
    "pixelmon:hasty_mint",
    "pixelmon:impish_mint",
    "pixelmon:jolly_mint",
    "pixelmon:lax_mint",
    "pixelmon:lonely_mint",
    "pixelmon:mild_mint",
    "pixelmon:modest_mint",
    "pixelmon:naive_mint",
    "pixelmon:naughty_mint",
    "pixelmon:quiet_mint",
    "pixelmon:rash_mint",
    "pixelmon:relaxed_mint",
    "pixelmon:sassy_mint",
    "pixelmon:serious_mint",
    "pixelmon:timid_mint",
    "pixelmon:full_incense",
    "pixelmon:lax_incense",
    "pixelmon:luck_incense",
    "pixelmon:odd_incense",
    "pixelmon:rock_incense",
    "pixelmon:rose_incense",
    "pixelmon:sea_incense",
    "pixelmon:wave_incense",
    "pixelmon:pomeg_berry",
    "pixelmon:kelpsy_berry",
    "pixelmon:qualot_berry",
    "pixelmon:hondew_berry",
    "pixelmon:grepa_berry",
    "pixelmon:tamato_berry",
    "pixelmon:oran_berry",
    "pixelmon:rawst_berry",
    "pixelmon:leppa_berry",
    "pixelmon:cheri_berry",
    "pixelmon:chesto_berry",
    "pixelmon:pecha_berry",
    "pixelmon:aspear_berry",
    "pixelmon:persim_berry",
    "pixelmon:berry_juice",
    "pixelmon:pumkin_berry",
    "pixelmon:drash_berry",
    "pixelmon:eggant_berry",
    "pixelmon:yago_berry",
    "pixelmon:touga_berry",
    "pixelmon:apicot_berry",
    "pixelmon:ganlon_berry",
    "pixelmon:lansat_berry",
    "pixelmon:starf_berry",
    "pixelmon:aguav_berry",
    "pixelmon:figy_berry",
    "pixelmon:iapapa_berry",
    "pixelmon:mago_berry",
    "pixelmon:wiki_berry",
    "pixelmon:jaboca_berry",
    "pixelmon:rowap_berry",
    "pixelmon:enigma_berry",
    "pixelmon:micle_berry",
    "pixelmon:potion",
    "pixelmon:hard_stone",
    "pixelmon:super_potion",
    "pixelmon:hyper_potion",
    "pixelmon:max_potion",
    "pixelmon:full_restore",
    "pixelmon:fresh_water",
    "pixelmon:soda_pop",
    "pixelmon:lemonade",
    "pixelmon:moomoo_milk",
    "pixelmon:revive",
    "pixelmon:max_revive",
    "pixelmon:ether",
    "pixelmon:max_ether",
    "pixelmon:elixir",
    "pixelmon:max_elixir",
    "pixelmon:antidote",
    "pixelmon:paralyze_heal",
    "pixelmon:awakening",
    "pixelmon:burn_heal",
    "pixelmon:ice_heal",
    "pixelmon:full_heal",
    "pixelmon:hp_up",
    "pixelmon:protein",
    "pixelmon:iron",
    "pixelmon:calcium",
    "pixelmon:zinc",
    "pixelmon:carbos",
    "pixelmon:heal_powder",
    "pixelmon:energy_powder",
    "pixelmon:energy_root",
    "pixelmon:revival_herb",
    "pixelmon:x_attack",
    "pixelmon:x_defence",
    "pixelmon:x_special_attack",
    "pixelmon:x_special_defence",
    "pixelmon:x_speed",
    "pixelmon:x_accuracy",
    "pixelmon:guard_spec",
    "pixelmon:dire_hit",
    "pixelmon:poke_ball",
    "pixelmon:great_ball",
    "pixelmon:ultra_ball",
    "pixelmon:level_ball",
    "pixelmon:moon_ball",
    "pixelmon:friend_ball",
    "pixelmon:love_ball",
    "pixelmon:heavy_ball",
    "pixelmon:fast_ball",
    "pixelmon:repeat_ball",
    "pixelmon:timer_ball",
    "pixelmon:nest_ball",
    "pixelmon:net_ball",
    "pixelmon:dive_ball",
    "pixelmon:luxury_ball",
    "pixelmon:heal_ball",
    "pixelmon:dusk_ball",
    "pixelmon:quick_ball",
    "pixelmon:lure_ball",
    "pixelmon:sport_ball",
    "pixelmon:premier_ball",
    "pixelmon:safari_ball",
    "pixelmon:choice_band",
    "pixelmon:choice_scarf",
    "pixelmon:choice_specs",
    "pixelmon:power_weight",
    "pixelmon:power_bracer",
    "pixelmon:power_belt",
    "pixelmon:power_lens",
    "pixelmon:power_band",
    "pixelmon:power_anklet",
    "pixelmon:muscle_band",
    "pixelmon:leftovers",
    "pixelmon:life_orb",
    "pixelmon:focus_sash",
    "pixelmon:rocky_helmet",
    "pixelmon:eviolite",
    "pixelmon:expert_belt",
    "pixelmon:wise_glasses",
    "pixelmon:destiny_knot",
    "pixelmon:assault_vest",
    "pixelmon:weakness_policy",
    "pixelmon:film",
    "pixelmon:blue_shard",
    "pixelmon:green_shard",
    "pixelmon:red_shard",
    "pixelmon:yellow_shard",
    "pixelmon:power_herb",
    "pixelmon:mental_herb",
    "pixelmon:white_herb",
    "pixelmon:bug_gem",
    "pixelmon:dark_gem",
    "pixelmon:dragon_gem",
    "pixelmon:electric_gem",
    "pixelmon:fairy_gem",
    "pixelmon:fighting_gem",
    "pixelmon:fire_gem",
    "pixelmon:flying_gem",
    "pixelmon:ghost_gem",
    "pixelmon:grass_gem",
    "pixelmon:ground_gem",
    "pixelmon:ice_gem",
    "pixelmon:normal_gem",
    "pixelmon:poison_gem",
    "pixelmon:psychic_gem",
    "pixelmon:rock_gem",
    "pixelmon:steel_gem",
    "pixelmon:water_gem",
    "pixelmon:macho_brace",
    "pixelmon:soothe_bell",
    "pixelmon:smoke_ball",
    "pixelmon:wide_lens",
    "pixelmon:shell_bell",
    "pixelmon:metronome",
    "pixelmon:focus_band"
  ],
  "pokeStopDrops": [
    "pixelmon:poke_ball",
    "pixelmon:great_ball",
    "pixelmon:ultra_ball",
    "pixelmon:rare_candy",
    "pixelmon:xs_candy",
    "pixelmon:s_candy",
    "pixelmon:potion",
    "pixelmon:super_potion",
    "pixelmon:hyper_potion",
    "pixelmon:max_potion",
    "pixelmon:full_restore",
    "pixelmon:fresh_water",
    "pixelmon:soda_pop",
    "pixelmon:lemonade",
    "pixelmon:moomoo_milk",
    "pixelmon:revive",
    "pixelmon:max_revive",
    "pixelmon:ether",
    "pixelmon:max_ether",
    "pixelmon:elixir",
    "pixelmon:max_elixir",
    "pixelmon:antidote",
    "pixelmon:paralyze_heal",
    "pixelmon:awakening",
    "pixelmon:burn_heal",
    "pixelmon:ice_heal",
    "pixelmon:full_heal",
    "pixelmon:hp_up",
    "pixelmon:protein",
    "pixelmon:iron",
    "pixelmon:calcium",
    "pixelmon:zinc",
    "pixelmon:carbos",
    "pixelmon:heal_powder",
    "pixelmon:energy_powder",
    "pixelmon:energy_root",
    "pixelmon:revival_herb",
    "pixelmon:pomeg_berry",
    "pixelmon:kelpsy_berry",
    "pixelmon:qualot_berry",
    "pixelmon:hondew_berry",
    "pixelmon:grepa_berry",
    "pixelmon:tamato_berry",
    "pixelmon:oran_berry",
    "pixelmon:rawst_berry",
    "pixelmon:leppa_berry",
    "pixelmon:cheri_berry",
    "pixelmon:chesto_berry",
    "pixelmon:pecha_berry",
    "pixelmon:aspear_berry",
    "pixelmon:persim_berry",
    "pixelmon:berry_juice",
    "pixelmon:pumkin_berry",
    "pixelmon:drash_berry",
    "pixelmon:eggant_berry",
    "pixelmon:yago_berry",
    "pixelmon:touga_berry",
    "pixelmon:apicot_berry",
    "pixelmon:ganlon_berry",
    "pixelmon:lansat_berry",
    "pixelmon:starf_berry",
    "pixelmon:aguav_berry",
    "pixelmon:figy_berry",
    "pixelmon:iapapa_berry",
    "pixelmon:mago_berry",
    "pixelmon:wiki_berry",
    "pixelmon:jaboca_berry",
    "pixelmon:rowap_berry",
    "pixelmon:enigma_berry",
    "pixelmon:micle_berry",
    "pixelmon:hourglass_silver",
    "pixelmon:lucky_egg",
    "pixelmon:exp_all",
    "pixelmon:hourglass_gold",
    "pixelmon:pp_up",
    "pixelmon:basic_sweet_poke_puff",
    "pixelmon:basic_citrus_poke_puff",
    "pixelmon:basic_mint_poke_puff",
    "pixelmon:basic_mocha_poke_puff",
    "pixelmon:basic_spice_poke_puff",
    "pixelmon:health_feather",
    "pixelmon:muscle_feather",
    "pixelmon:resist_feather",
    "pixelmon:genius_feather",
    "pixelmon:clever_feather",
    "pixelmon:swift_feather",
    "pixelmon:pretty_feather"
  ],
  "rocketDrops": [
    "pixelmon:s_candy",
    "pixelmon:m_candy",
    "pixelmon:l_candy",
    "pixelmon:iron",
    "pixelmon:calcium",
    "pixelmon:zinc",
    "pixelmon:carbos",
    "pixelmon:heal_powder",
    "pixelmon:energy_powder",
    "pixelmon:energy_root",
    "pixelmon:revival_herb",
    "pixelmon:x_attack",
    "pixelmon:x_defence",
    "pixelmon:x_special_attack",
    "pixelmon:x_special_defence",
    "pixelmon:x_speed",
    "pixelmon:x_accuracy",
    "pixelmon:guard_spec",
    "pixelmon:dire_hit",
    "pixelmon:great_ball",
    "pixelmon:ultra_ball",
    "pixelmon:level_ball",
    "pixelmon:moon_ball",
    "pixelmon:friend_ball",
    "pixelmon:love_ball",
    "pixelmon:heavy_ball",
    "pixelmon:basic_sweet_poke_puff",
    "pixelmon:basic_citrus_poke_puff",
    "pixelmon:basic_mint_poke_puff",
    "pixelmon:basic_mocha_poke_puff",
    "pixelmon:basic_spice_poke_puff",
    "pixelmon:black_flute",
    "pixelmon:blue_flute",
    "pixelmon:red_flute",
    "pixelmon:white_flute",
    "pixelmon:yellow_flute",
    "pixelmon:poke_toy",
    "pixelmon:poke_doll"
  ]
}