{
    "totemPokes": [
        {
			"pokemon": "Decidueye",
			"spawnLocation": "Land"
        },
        {
			"pokemon": "Eevee",
			"spawnLocation": "Land"
        },
        {
			"pokemon": "Incineroar",
			"spawnLocation": "Land"
        },
        {
			"pokemon": "Kommoo",
			"spawnLocation": "Land"
        },
        {
			"pokemon": "Lunala",
			"spawnLocation": "Land"
        },
        {
            "pokemon": "Lycanroc",
            "spawnLocation": "Land"
        },
        {
			"pokemon": "Marshadow",
			"spawnLocation": "Land"
        },
        {
			"pokemon": "Mew",
			"spawnLocation": "Land"
        },
        {
			"pokemon": "Mimikyu",
			"spawnLocation": "Land"
        },
        {
			"pokemon": "Pikachu",
			"spawnLocation": "Land"
        },
        {
			"pokemon": "Raichu",
			"spawnLocation": "Land"
        },
        {
			"pokemon": "Primarina",
			"spawnLocation": "Land"
        },
        {
			"pokemon": "Snorlax",
			"spawnLocation": "Land"
        },
        {
			"pokemon": "Solgaleo",
			"spawnLocation": "Land"
        },
        {
			"pokemon": "TapuKoko",
			"spawnLocation": "Land"
        },
        {
			"pokemon": "Necrozma",
			"spawnLocation": "Land"
        },
        {
			"pokemon": "Crustle",
			"spawnLocation": "Land"
        },
        {
			"pokemon": "Scizor",
			"spawnLocation": "Land"
        },
        {
			"pokemon": "Weavile",
			"spawnLocation": "Land"
        },
        {
			"pokemon": "Hydreigon",
			"spawnLocation": "Land"
        },
        {
			"pokemon": "Dragonite",
			"spawnLocation": "Land"
        },
        {
			"pokemon": "Goodra",
			"spawnLocation": "Land"
        },
        {
			"pokemon": "Magnezone",
			"spawnLocation": "Land"
        },
        {
			"pokemon": "Electivire",
			"spawnLocation": "Land"
        },
        {
			"pokemon": "Sylveon",
			"spawnLocation": "Land"
        },
        {
			"pokemon": "Togekiss",
			"spawnLocation": "Land"
        },
        {
			"pokemon": "Lucario",
			"spawnLocation": "Land"
        },
        {
			"pokemon": "Throh",
			"spawnLocation": "Land"
        },
        {
			"pokemon": "Magmortar",
			"spawnLocation": "Land"
        },
        {
			"pokemon": "Camerupt",
			"spawnLocation": "Land"
        },
        {
			"pokemon": "Corviknight",
			"spawnLocation": "Land"
        },
        {
			"pokemon": "Noivern",
			"spawnLocation": "Land"
        },
        {
			"pokemon": "Dusknoir",
			"spawnLocation": "Land"
        },
        {
			"pokemon": "Cofagrigus",
			"spawnLocation": "Land"
        },
        {
			"pokemon": "Roserade",
			"spawnLocation": "Land"
        },
        {
			"pokemon": "Leafeon",
			"spawnLocation": "Land"
        },
        {
			"pokemon": "Krookodile",
			"spawnLocation": "Land"
        },
        {
			"pokemon": "Hippowdon",
			"spawnLocation": "Land"
        },
        {
			"pokemon": "Glaceon",
			"spawnLocation": "Land"
        },
        {
			"pokemon": "Avalugg",
			"spawnLocation": "Land"
        },
        {
			"pokemon": "Gumshoos",
			"spawnLocation": "Land"
        },
        {
			"pokemon": "Dubwool",
			"spawnLocation": "Land"
        },
        {
			"pokemon": "Garbodor",
			"spawnLocation": "Land"
        },
        {
			"pokemon": "Toxicroak",
			"spawnLocation": "Land"
        },
        {
			"pokemon": "Espeon",
			"spawnLocation": "Land"
        },
        {
			"pokemon": "Musharna",
			"spawnLocation": "Land"
        },
        {
			"pokemon": "Tyranitar",
			"spawnLocation": "Land"
        },
        {
			"pokemon": "Gigalith",
			"spawnLocation": "Land"
        },
        {
			"pokemon": "Skarmory",
			"spawnLocation": "Land"
        },
        {
			"pokemon": "Metagross",
			"spawnLocation": "Land"
        },
        {
			"pokemon": "Pyukumuku",
			"spawnLocation": "Land"
        },
        {
			"pokemon": "Drednaw",
			"spawnLocation": "Land"
        }
    ],
    "anyDropPool": [
        "pixelmon:rare_candy",
        "pixelmon:eviolite",
        "pixelmon:exp_share",
		"pixelmon:red_card",
        "pixelmon:rocky_helmet",
        "pixelmon:weakness_policy",
        "pixelmon:room_service",
		"pixelmon:big_pearl",
        "pixelmon:xs_candy",
        "pixelmon:s_candy",
        "pixelmon:psychic_seed",
		"pixelmon:misty_seed",
        "pixelmon:electric_seed",
        "pixelmon:grassy_seed",
        "pixelmon:terrain_extender",
		"pixelmon:ultra_ball",
        "pixelmon:luxury_ball",
        "pixelmon:max_potion",
		"pixelmon:magmarizer",
        "pixelmon:protector",
        "pixelmon:up-grade",
        "pixelmon:black_sludge",
		"pixelmon:bright_powder",
        "pixelmon:damp_rock",
        "pixelmon:grip_claw",
        "pixelmon:heat_rock",
		"pixelmon:icy_rock",
        "pixelmon:kings_rock",
        "pixelmon:lagging_tail",
        "pixelmon:leftovers",
		"pixelmon:light_clay",
        "pixelmon:metronome",
        "pixelmon:scope_lens",
        "pixelmon:shell_bell",
		"pixelmon:smooth_rock",
        "pixelmon:full_heal",
        "pixelmon:full_restore",
        "pixelmon:max_elixir",
        "pixelmon:max_ether",
        "pixelmon:max_revive",
        "pixelmon:dubious_disc",
		"pixelmon:electirizer",
        "pixelmon:hp_up",
        "pixelmon:protein",
        "pixelmon:iron",
        "pixelmon:calcium",
        "pixelmon:zinc",
        "pixelmon:carbos",
        "pixelmon:heal_powder",
        "pixelmon:energy_powder",
        "pixelmon:energy_root",
        "pixelmon:revival_herb",
        "pixelmon:x_attack",
        "pixelmon:x_defence",
        "pixelmon:x_special_attack",
        "pixelmon:x_special_defence",
        "pixelmon:x_speed",
        "pixelmon:x_accuracy",
        "pixelmon:dire_hit",
        "pixelmon:lucky_punch",
        "pixelmon:metal_powder",
        "pixelmon:quick_powder",
        "pixelmon:leek",
        "pixelmon:ever_stone",
        "pixelmon:absorb_bulb",
        "pixelmon:cell_battery",
        "pixelmon:shed_shell",
        "pixelmon:sticky_barb",
        "pixelmon:big_root",
        "pixelmon:binding_band",
        "pixelmon:grip_claw",
        "pixelmon:float_stone",
        "pixelmon:ring_target",
        "pixelmon:pure_incense",
        "pixelmon:luminous_moss",
        "pixelmon:snowball",
        "pixelmon:sun_stone",
        "pixelmon:fire_stone",
        "pixelmon:water_stone",
        "pixelmon:moon_stone",
        "pixelmon:thunder_stone",
        "pixelmon:leaf_stone",
        "pixelmon:dawn_stone",
        "pixelmon:dusk_stone",
        "pixelmon:ice_stone",
        "pixelmon:oval_stone",
        "pixelmon:reaper_cloth",
        "pixelmon:light_ball",
        "pixelmon:thick_club",
        "pixelmon:power_herb",
        "pixelmon:mental_herb",
        "pixelmon:white_herb",
        "pixelmon:full_incense",
        "pixelmon:lax_incense",
        "pixelmon:luck_incense",
        "pixelmon:odd_incense",
        "pixelmon:rock_incense",
        "pixelmon:rose_incense",
        "pixelmon:sea_incense",
        "pixelmon:wave_incense",
        "pixelmon:protective_pads",
        "pixelmon:throat_spray",
        "pixelmon:whipped_dream",
        "pixelmon:max_repel"
    ],
    "typeDropPool": {
        "Bug": [
            "pixelmon:buginium_z",
            "pixelmon:insect_plate",
            "pixelmon:bug_memory_drive",
            "pixelmon:silver_powder"
        ],
        "Dark": [
            "pixelmon:darkinium_z",
            "pixelmon:dread_plate",
            "pixelmon:dark_memory_drive",
            "pixelmon:black_glasses"
        ],
        "Dragon": [
            "pixelmon:dragonium_z",
            "pixelmon:draco_plate",
            "pixelmon:dragon_memory_drive",
            "pixelmon:dragon_fang"
        ],
        "Electric": [
            "pixelmon:electrium_z",
            "pixelmon:zap_plate",
            "pixelmon:electric_memory_drive",
            "pixelmon:magnet"
        ],
        "Fairy": [
            "pixelmon:fairium_z",
            "pixelmon:pixie_plate",
            "pixelmon:fairy_memory_drive",
            "pixelmon:fairy_gem"
        ],
        "Fighting": [
            "pixelmon:fightinium_z",
            "pixelmon:fist_plate",
            "pixelmon:fighting_memory_drive",
            "pixelmon:black_belt"
        ],
        "Fire": [
            "pixelmon:firium_z",
            "pixelmon:flame_plate",
            "pixelmon:fire_memory_drive",
            "pixelmon:charcoal"
        ],
        "Flying": [
            "pixelmon:flyinium_z",
            "pixelmon:sky_plate",
            "pixelmon:flying_memory_drive",
            "pixelmon:sharp_beak"
        ],
        "Ghost": [
            "pixelmon:ghostium_z",
            "pixelmon:spooky_plate",
            "pixelmon:ghost_memory_drive",
            "pixelmon:spell_tag"
        ],
        "Grass": [
            "pixelmon:grassium_z",
            "pixelmon:meadow_plate",
            "pixelmon:grass_memory_drive",
            "pixelmon:miracle_seed"
        ],
        "Ground": [
            "pixelmon:groundium_z",
            "pixelmon:earth_plate",
            "pixelmon:ground_memory_drive",
            "pixelmon:soft_sand"
        ],
        "Ice": [
            "pixelmon:icium_z",
            "pixelmon:icicle_plate",
            "pixelmon:ice_memory_drive",
            "pixelmon:never_melt_ice"
        ],
        "Normal": [
            "pixelmon:normalium_z",
            "pixelmon:silk_scarf",
            "pixelmon:normal_gem",
            "pixelmon:orb"
        ],
        "Poison": [
            "pixelmon:poisonium_z",
            "pixelmon:toxic_plate",
            "pixelmon:poison_memory_drive",
            "pixelmon:poison_barb"
        ],
        "Psychic": [
            "pixelmon:psychium_z",
            "pixelmon:mind_plate",
            "pixelmon:psychic_memory_drive",
            "pixelmon:twisted_spoon"
        ],
        "Rock": [
            "pixelmon:rockium_z",
            "pixelmon:stone_plate",
            "pixelmon:rock_memory_drive",
            "pixelmon:hard_stone"
        ],
        "Steel": [
            "pixelmon:steelium_z",
            "pixelmon:iron_plate",
            "pixelmon:steel_memory_drive",
            "pixelmon:metal_coat"
        ],
        "Water": [
            "pixelmon:waterium_z",
            "pixelmon:splash_plate",
            "pixelmon:water_memory_drive",
            "pixelmon:mystic_water"
        ]
    },
    "pokeDropPool": {
        "Raichu": [
            "pixelmon:aloraichium_z",
            "pixelmon:m_candy"
        ],
        "Decidueye": [
            "pixelmon:decidium_z",
            "pixelmon:m_candy"
        ],
        "Eevee": [
            "pixelmon:eevium_z",
            "pixelmon:m_candy"
        ],
        "Incineroar": [
            "pixelmon:incinium_z",
            "pixelmon:m_candy"
        ],
        "Kommo-o": [
            "pixelmon:kommonium_z",
            "pixelmon:m_candy"
        ],
        "Lunala": [
            "pixelmon:lunalium_z",
            "pixelmon:m_candy"
        ],
        "Lycanroc": [
            "pixelmon:lycanium_z",
            "pixelmon:m_candy"
        ],
        "Marshadow": [
            "pixelmon:marshadium_z",
            "pixelmon:m_candy"
        ],
        "Mew": [
            "pixelmon:mewnium_z",
            "pixelmon:m_candy"
        ],
        "Mimikyu": [
            "pixelmon:mimikium_z",
            "pixelmon:m_candy"
        ],
        "Pikachu": [
            "pixelmon:pikashunium_z",
            "pixelmon:pikanium_z",
            "pixelmon:m_candy"
        ],
        "Primarina": [
            "pixelmon:primarium_z",
            "pixelmon:m_candy"
        ],
        "Snorlax": [
            "pixelmon:snorlium_z",
            "pixelmon:m_candy"
        ],
        "Solgaleo": [
            "pixelmon:solganium_z",
            "pixelmon:m_candy"
        ],
        "TapuKoko": [
            "pixelmon:tapunium_z",
            "pixelmon:m_candy"
        ],
        "Necrozma": [
            "pixelmon:ultranecrozium_z",
            "pixelmon:m_candy"
        ]
    }
}
