{
    "display" : {
        "icon" : {
            "item" : "pixelmon:pixelmon_sprite",
            "nbt" : "{\"SpriteName\":\"pixelmon:sprites/pokemon/720-confined\"}"
        },
        "title" : {
            "translate" : "advancements.hoopa_capture.title"
        },
        "description" : {
            "translate" : "advancements.hoopa_capture.description"
        },
        "hidden": true
    },
    "parent" : "pixelmon:legendaries/legendary_capture_trigger",
    "criteria" : {
        "hoopa_capture" : {
            "trigger" : "pixelmon:legendary_capture_trigger",
            "conditions" : {
                "pokemon" : "hoopa"
            }
        }
    }
}