{
  "rewards": {
    "recipes": [
      "pixelmon:combat/flare_legs"
    ]
  },
  "criteria": {
    "has_base_item": {
      "trigger": "minecraft:inventory_changed",
      "conditions": {
        "items": [
          {
            "type": "forge:ore_dict",
            "ore": "gemRuby"
          }
        ]
      }
    }
  },
  "requirements": [
    [
      "has_base_item"
    ]
  ]
}