# Blender v2.79 (sub 0) OBJ File: ''
# www.blender.org
mtllib duosionbody.mtl
o polySurface1.001
v 0.000000 3.296690 -2.599155
v 1.826247 3.296690 -1.844709
v 0.000000 2.700749 -2.064073
v 1.459676 2.700749 -1.461467
v 2.580693 3.296690 -0.023313
v 2.062283 2.700749 -0.006646
v 0.000000 4.014702 -2.800842
v 1.976315 4.014702 -1.984235
v 2.792922 4.014702 -0.012771
v 0.000000 4.887737 -2.588613
v 1.826247 4.887737 -1.834166
v 2.580693 4.887737 -0.012771
v 0.000000 5.615293 -1.984234
v 1.398887 5.615292 -1.406806
v 1.976315 5.615292 -0.012771
v 0.000000 6.101429 -1.079719
v 0.759298 6.101429 -0.767217
v 1.071800 6.101429 -0.012771
v 1.398887 5.615292 1.243564
v 0.759298 6.101429 0.603975
v 0.000000 5.615292 1.820993
v 0.000000 6.101429 0.916477
v 0.000000 6.272138 -0.012771
v 1.826247 4.887736 1.670924
v 1.826247 3.296690 1.739170
v 1.976315 4.014701 1.820993
v 0.000000 4.887736 2.425371
v 0.730854 4.004539 2.363779
v 0.000000 4.722204 2.508190
v 0.000000 3.296690 2.493617
v 0.000000 3.421113 2.508189
v 0.412492 4.009525 2.288722
v 0.000000 4.412477 2.294553
v 0.000000 3.681945 2.307285
v 0.000000 4.018381 2.218516
v 0.185358 0.544818 -0.177471
v 0.000000 0.384681 0.003029
v 0.000000 0.544818 -0.252236
v 1.459676 2.700749 1.448175
v 0.000000 2.700749 2.050782
v 0.842674 2.275430 -0.845095
v 0.000000 2.275430 -1.192128
v 0.501723 1.167314 -0.491606
v 0.000000 1.167314 -0.697412
v 1.189706 2.275430 -0.007284
v 0.260123 0.544818 0.003029
v 0.185358 0.544818 0.183528
v 0.000000 0.544818 0.258294
v 0.707528 1.167314 0.005253
v 0.883798 2.287633 0.873993
v 0.886680 1.872265 0.822887
v 0.376685 2.287633 1.084046
v 0.000000 2.275430 1.177561
v 0.703992 2.180925 1.155006
v 0.361723 2.169272 1.274796
v 0.770207 2.002436 1.240252
v 0.431884 2.170246 1.638746
v 0.482067 2.127232 1.694942
v 0.553658 2.174392 1.596126
v 0.445795 2.060965 1.667870
v 0.415370 2.110468 1.664918
v 0.577216 2.110888 1.626456
v 0.523320 2.042585 1.652944
v 0.623995 2.214272 1.471359
v 0.380447 2.205981 1.556597
v 0.671111 2.087264 1.532017
v 0.408269 1.987418 1.614846
v 0.563319 1.950657 1.584994
v 0.347419 2.086425 1.608941
v 0.239918 1.927606 1.038625
v 0.315307 2.001256 1.348356
v 0.618722 1.810455 1.314703
v 0.501723 1.167314 0.502112
v 0.000000 1.167314 0.707917
v 0.000000 1.752373 1.014362
v 0.328897 1.707112 0.957005
v 0.635522 1.614319 0.869998
v 0.400823 1.862118 1.356656
v -1.459676 2.700749 -1.461467
v -1.826247 3.296690 -1.844709
v -2.062283 2.700749 -0.006646
v -2.580693 3.296690 -0.023313
v -1.976315 4.014702 -1.984235
v -2.792922 4.014702 -0.012771
v -1.826247 4.887737 -1.834166
v -2.580693 4.887737 -0.012771
v -1.398887 5.615292 -1.406806
v -1.976315 5.615292 -0.012771
v -0.759298 6.101429 -0.767217
v -1.071800 6.101429 -0.012771
v -1.398887 5.615292 1.243564
v -0.759298 6.101429 0.603975
v -1.826247 4.887736 1.670924
v -1.826247 3.296690 1.739170
v -1.976315 4.014701 1.820993
v -0.730854 4.004539 2.363779
v -0.412492 4.009525 2.288722
v -0.185358 0.544818 -0.177471
v -1.459676 2.700749 1.448175
v -0.842673 2.275430 -0.845095
v -0.501723 1.167314 -0.491606
v -1.189706 2.275430 -0.007284
v -0.260123 0.544818 0.003029
v -0.185358 0.544818 0.183528
v -0.707528 1.167314 0.005253
v -0.883798 2.287633 0.873993
v -0.886680 1.872265 0.822887
v -0.376684 2.287633 1.084046
v -0.361723 2.169272 1.274796
v -0.703992 2.180925 1.155006
v -0.770207 2.002436 1.240252
v -0.431883 2.170246 1.638746
v -0.553658 2.174392 1.596126
v -0.482067 2.127232 1.694942
v -0.445795 2.060965 1.667870
v -0.415369 2.110468 1.664918
v -0.577216 2.110888 1.626456
v -0.523320 2.042585 1.652944
v -0.380447 2.205981 1.556597
v -0.623995 2.214272 1.471359
v -0.671111 2.087264 1.532017
v -0.408269 1.987418 1.614846
v -0.563319 1.950657 1.584994
v -0.347419 2.086425 1.608941
v -0.239918 1.927606 1.038625
v -0.315307 2.001256 1.348356
v -0.618722 1.810455 1.314703
v -0.501723 1.167314 0.502112
v -0.328897 1.707112 0.957005
v -0.635522 1.614319 0.869998
v -0.400822 1.862118 1.356656
v 0.191333 6.695034 -0.194449
v 0.000000 6.695034 -0.273702
v 0.353537 6.735797 -0.356653
v 0.000000 6.735797 -0.503093
v 0.000000 6.695034 0.267470
v 0.191333 6.695034 0.188217
v 0.000000 6.735797 0.496861
v 0.353537 6.735797 0.350422
v 0.270586 6.695034 -0.003116
v 0.499977 6.735797 -0.003116
v 0.461919 6.796802 -0.465035
v 0.000000 6.832782 -0.683279
v 0.461919 6.796802 0.458803
v 0.000000 6.832782 0.677048
v 0.653252 6.796802 -0.003116
v 0.499977 6.868763 -0.503093
v 0.499977 6.868763 0.496862
v 0.707075 6.868763 -0.003116
v 0.000000 7.086260 -0.656368
v 0.461919 7.086260 -0.465035
v 0.000000 7.086260 0.650136
v 0.461919 7.086260 0.458803
v 0.653252 7.086260 -0.003116
v 0.353537 7.250938 -0.356653
v 0.000000 7.250938 -0.503093
v 0.000000 7.250938 0.496861
v 0.353537 7.250938 0.350422
v 0.499977 7.250938 -0.003116
v 0.191333 7.360971 -0.194449
v 0.000000 7.360971 -0.273702
v 0.000000 7.360971 0.267470
v 0.191333 7.360971 0.188217
v 0.270586 7.360971 -0.003116
v 0.000000 6.694185 -0.003116
v 0.000000 7.399611 -0.003116
v -0.191333 6.695034 -0.194449
v -0.353537 6.735797 -0.356653
v -0.191333 6.695034 0.188217
v -0.353537 6.735797 0.350422
v -0.270586 6.695034 -0.003116
v -0.499977 6.735797 -0.003116
v -0.461919 6.796802 -0.465035
v -0.461919 6.796802 0.458803
v -0.653252 6.796802 -0.003116
v -0.499977 6.868763 -0.503093
v -0.499977 6.868763 0.496862
v -0.707075 6.868763 -0.003116
v -0.461919 7.086260 -0.465035
v -0.461919 7.086260 0.458803
v -0.653252 7.086260 -0.003116
v -0.353537 7.250938 -0.356653
v -0.353537 7.250938 0.350422
v -0.499977 7.250938 -0.003116
v -0.191333 7.360971 -0.194449
v -0.191333 7.360971 0.188217
v -0.270586 7.360971 -0.003116
vt 0.316442 0.692525
vt 0.474345 0.692525
vt 0.316442 0.640863
vt 0.442568 0.640863
vt 0.539747 0.692525
vt 0.494807 0.640863
vt 0.316442 0.754768
vt 0.487354 0.754768
vt 0.558145 0.754768
vt 0.316442 0.830451
vt 0.474345 0.830451
vt 0.539747 0.830451
vt 0.316442 0.893521
vt 0.437298 0.893521
vt 0.487354 0.893521
vt 0.316442 0.935664
vt 0.381853 0.935664
vt 0.408943 0.935664
vt 0.213427 0.893521
vt 0.135016 0.935664
vt 0.163371 0.893521
vt 0.107925 0.935664
vt 0.042515 0.893521
vt 0.042515 0.935664
vt 0.316442 0.950463
vt 0.042515 0.950462
vt 0.200418 0.830451
vt 0.265820 0.830451
vt 0.200418 0.692525
vt 0.265820 0.692525
vt 0.213427 0.754768
vt 0.284218 0.754768
vt 0.042515 0.830451
vt 0.105460 0.753887
vt 0.042515 0.816101
vt 0.042515 0.692525
vt 0.042515 0.703311
vt 0.639688 0.604095
vt 0.681273 0.603444
vt 0.585809 0.656729
vt 0.585809 0.697185
vt 0.585809 0.561307
vt 0.585809 0.527237
vt 0.585809 0.605252
vt 0.739860 0.632999
vt 0.725029 0.619841
vt 0.746003 0.632999
vt 0.220880 0.640863
vt 0.168640 0.640863
vt 0.042515 0.640863
vt 0.389081 0.603993
vt 0.316442 0.603993
vt 0.765671 0.684147
vt 0.782581 0.684147
vt 0.794716 0.775196
vt 0.823230 0.775196
vt 0.419164 0.603993
vt 0.725029 0.632999
vt 0.710198 0.632999
vt 0.704055 0.632999
vt 0.724846 0.684147
vt 0.725876 0.775196
vt 0.145237 0.603993
vt 0.118718 0.605051
vt 0.653465 0.776199
vt 0.657664 0.742070
vt 0.074757 0.605051
vt 0.042515 0.603993
vt 0.636206 0.776199
vt 0.630376 0.767431
vt 0.620533 0.766474
vt 0.623371 0.752765
vt 0.590629 0.766554
vt 0.586011 0.763019
vt 0.594131 0.766894
vt 0.588236 0.757574
vt 0.588478 0.761642
vt 0.591639 0.761676
vt 0.589462 0.756064
vt 0.604382 0.770171
vt 0.597379 0.769490
vt 0.599398 0.759735
vt 0.592593 0.751531
vt 0.595045 0.748511
vt 0.593078 0.759666
vt 0.639938 0.746617
vt 0.628523 0.775196
vt 0.614489 0.752669
vt 0.617254 0.736991
vt 0.684021 0.684147
vt 0.667111 0.684147
vt 0.641932 0.732219
vt 0.646645 0.728500
vt 0.653794 0.720876
vt 0.613807 0.741236
vt 0.442568 0.640863
vt 0.474345 0.692525
vt 0.494807 0.640863
vt 0.539747 0.692525
vt 0.487354 0.754768
vt 0.558145 0.754768
vt 0.474345 0.830451
vt 0.539747 0.830451
vt 0.437298 0.893521
vt 0.487354 0.893521
vt 0.381853 0.935664
vt 0.408943 0.935664
vt 0.213427 0.893521
vt 0.163371 0.893521
vt 0.135016 0.935664
vt 0.107925 0.935664
vt 0.200418 0.830451
vt 0.265820 0.830451
vt 0.200418 0.692525
vt 0.213427 0.754768
vt 0.265820 0.692525
vt 0.284218 0.754768
vt 0.105460 0.753887
vt 0.531929 0.604095
vt 0.490345 0.603444
vt 0.739860 0.632999
vt 0.220880 0.640863
vt 0.168640 0.640863
vt 0.389081 0.603993
vt 0.765671 0.684147
vt 0.794716 0.775196
vt 0.419164 0.603993
vt 0.725029 0.632999
vt 0.710198 0.632999
vt 0.724846 0.684147
vt 0.725876 0.775196
vt 0.118718 0.605051
vt 0.145237 0.603993
vt 0.657664 0.742070
vt 0.653465 0.776199
vt 0.074757 0.605051
vt 0.620533 0.766474
vt 0.636206 0.776199
vt 0.630376 0.767431
vt 0.623371 0.752765
vt 0.590629 0.766554
vt 0.594131 0.766894
vt 0.586011 0.763019
vt 0.588236 0.757574
vt 0.588478 0.761642
vt 0.591639 0.761676
vt 0.589462 0.756064
vt 0.597379 0.769490
vt 0.604382 0.770171
vt 0.599398 0.759735
vt 0.592593 0.751531
vt 0.595045 0.748511
vt 0.593078 0.759666
vt 0.639938 0.746617
vt 0.614489 0.752669
vt 0.617254 0.736991
vt 0.684021 0.684147
vt 0.646645 0.728500
vt 0.653794 0.720876
vt 0.613807 0.741236
vt 0.690766 0.838784
vt 0.701433 0.838784
vt 0.712596 0.844270
vt 0.732304 0.844270
vt 0.628600 0.838784
vt 0.639266 0.838784
vt 0.597729 0.844270
vt 0.617437 0.844270
vt 0.665016 0.838784
vt 0.665016 0.844270
vt 0.727183 0.852480
vt 0.756554 0.857322
vt 0.602851 0.852480
vt 0.573479 0.857322
vt 0.665016 0.852480
vt 0.732304 0.862164
vt 0.597729 0.862164
vt 0.665016 0.862164
vt 0.752932 0.891436
vt 0.727183 0.891436
vt 0.577101 0.891436
vt 0.602851 0.891436
vt 0.665016 0.891436
vt 0.712596 0.913598
vt 0.732304 0.913598
vt 0.597729 0.913598
vt 0.617437 0.913598
vt 0.665016 0.913598
vt 0.690766 0.928407
vt 0.701433 0.928407
vt 0.628600 0.928407
vt 0.639266 0.928407
vt 0.665016 0.928407
vt 0.665016 0.838669
vt 0.665016 0.933607
vt 0.690766 0.838784
vt 0.712596 0.844270
vt 0.639266 0.838784
vt 0.617437 0.844270
vt 0.665016 0.838784
vt 0.665016 0.844270
vt 0.727183 0.852480
vt 0.602851 0.852480
vt 0.665016 0.852480
vt 0.732304 0.862164
vt 0.597729 0.862164
vt 0.665016 0.862164
vt 0.727183 0.891436
vt 0.602851 0.891436
vt 0.665016 0.891436
vt 0.712596 0.913598
vt 0.617437 0.913598
vt 0.665016 0.913598
vt 0.690766 0.928407
vt 0.639266 0.928407
vt 0.665016 0.928407
vn 0.0000 -0.4598 -0.8880
vn 0.6258 -0.4599 -0.6299
vn 0.0000 -0.7758 -0.6309
vn 0.4488 -0.7742 -0.4463
vn 0.8889 -0.4580 0.0050
vn 0.6402 -0.7682 0.0046
vn 0.0000 -0.0167 -0.9998
vn 0.7074 -0.0185 -0.7065
vn 0.9996 -0.0231 0.0139
vn 0.0000 0.4284 -0.9036
vn 0.6386 0.4284 -0.6392
vn 0.9037 0.4280 0.0122
vn 0.0000 0.7515 -0.6597
vn 0.4662 0.7515 -0.4667
vn 0.6599 0.7513 0.0118
vn 0.0000 0.9344 -0.3562
vn 0.2517 0.9344 -0.2521
vn 0.3565 0.9342 0.0119
vn 0.4557 0.7514 0.4771
vn 0.2426 0.9334 0.2644
vn 0.0000 0.7515 0.6597
vn 0.0000 0.9312 0.3644
vn 0.0000 0.9999 0.0125
vn 0.6318 0.4306 0.6445
vn 0.6402 -0.4139 0.6471
vn 0.7109 0.0041 0.7032
vn 0.0000 0.5343 0.8453
vn 0.2413 0.0032 0.9704
vn 0.0000 0.1110 0.9938
vn 0.0000 -0.3489 0.9372
vn 0.0000 0.0620 0.9980
vn -0.2269 0.1049 0.9682
vn 0.0000 -0.4404 0.8978
vn 0.0000 0.5055 0.8628
vn 0.0000 0.0300 0.9995
vn 0.4980 -0.7072 -0.5018
vn 0.0000 -1.0000 0.0000
vn 0.0000 -0.7056 -0.7086
vn 0.4635 -0.7456 0.4788
vn -0.0015 -0.7401 0.6724
vn 0.4753 -0.7391 -0.4772
vn 0.0000 -0.7394 -0.6732
vn 0.6178 -0.4858 -0.6183
vn 0.0000 -0.4862 -0.8738
vn 0.6980 -0.7149 -0.0427
vn 0.7058 -0.7084 -0.0004
vn 0.4975 -0.7085 0.5004
vn 0.0000 -0.7074 0.7067
vn 0.8591 -0.5106 -0.0347
vn 0.7326 -0.4983 0.4637
vn 0.8809 -0.3494 0.3191
vn 0.0295 -0.2805 0.9594
vn -0.0104 -0.6548 0.7557
vn 0.4684 0.7819 0.4113
vn -0.6565 0.7396 0.1483
vn 0.9235 -0.1061 0.3686
vn -0.2713 0.7515 0.6013
vn 0.0959 0.2785 0.9556
vn 0.3946 0.7598 0.5166
vn -0.2333 -0.3975 0.8874
vn -0.5645 0.1160 0.8172
vn 0.6718 0.1663 0.7218
vn 0.3488 -0.3919 0.8513
vn 0.4706 0.8607 0.1941
vn -0.5489 0.8042 0.2280
vn 0.8662 0.0544 0.4966
vn -0.4540 -0.6441 0.6156
vn 0.3704 -0.6735 0.6397
vn -0.8777 -0.0113 0.4790
vn -0.4099 -0.3090 0.8582
vn -0.9712 -0.1163 0.2079
vn 0.3984 -0.8105 0.4294
vn 0.5764 -0.6130 0.5403
vn 0.0000 -0.5791 0.8152
vn 0.0000 -0.3736 0.9275
vn -0.1127 -0.6279 0.7700
vn 0.4489 -0.6932 0.5638
vn -0.5075 -0.7684 0.3898
vn -0.4488 -0.7742 -0.4463
vn -0.6258 -0.4599 -0.6299
vn -0.6402 -0.7682 0.0046
vn -0.8889 -0.4580 0.0050
vn -0.7074 -0.0185 -0.7065
vn -0.9996 -0.0231 0.0139
vn -0.6386 0.4284 -0.6392
vn -0.9037 0.4280 0.0122
vn -0.4662 0.7515 -0.4667
vn -0.6599 0.7513 0.0118
vn -0.2517 0.9344 -0.2521
vn -0.3565 0.9342 0.0119
vn -0.4557 0.7514 0.4771
vn -0.2426 0.9334 0.2644
vn -0.6318 0.4306 0.6445
vn -0.6402 -0.4139 0.6471
vn -0.7109 0.0041 0.7032
vn -0.2413 0.0032 0.9704
vn 0.2269 0.1049 0.9682
vn -0.4980 -0.7072 -0.5018
vn -0.4622 -0.7462 0.4790
vn -0.4753 -0.7391 -0.4772
vn -0.6178 -0.4858 -0.6183
vn -0.6980 -0.7149 -0.0427
vn -0.7058 -0.7084 -0.0004
vn -0.4975 -0.7085 0.5004
vn -0.8591 -0.5106 -0.0347
vn -0.7327 -0.4984 0.4635
vn -0.8809 -0.3494 0.3191
vn -0.0211 -0.2504 0.9679
vn 0.6565 0.7396 0.1483
vn -0.4684 0.7819 0.4113
vn -0.9235 -0.1061 0.3686
vn 0.2713 0.7515 0.6013
vn -0.3946 0.7598 0.5166
vn -0.0959 0.2785 0.9556
vn 0.2333 -0.3975 0.8874
vn 0.5645 0.1160 0.8172
vn -0.6718 0.1663 0.7218
vn -0.3488 -0.3919 0.8513
vn 0.5489 0.8042 0.2280
vn -0.4706 0.8607 0.1941
vn -0.8662 0.0544 0.4966
vn 0.4540 -0.6441 0.6156
vn -0.3704 -0.6735 0.6397
vn 0.8777 -0.0113 0.4790
vn 0.4099 -0.3090 0.8582
vn 0.9712 -0.1163 0.2079
vn -0.3984 -0.8105 0.4294
vn -0.5764 -0.6130 0.5403
vn 0.1127 -0.6279 0.7700
vn -0.4489 -0.6932 0.5638
vn 0.5075 -0.7684 0.3898
vn 0.0782 -0.9938 -0.0782
vn 0.0000 -0.9938 -0.1107
vn 0.2099 -0.9549 -0.2099
vn 0.0000 -0.9361 -0.3517
vn 0.0000 -0.9938 0.1107
vn 0.0782 -0.9938 0.0782
vn 0.0000 -0.9361 0.3517
vn 0.2099 -0.9549 0.2099
vn 0.1107 -0.9938 0.0000
vn 0.2968 -0.9549 0.0000
vn 0.4553 -0.7630 -0.4588
vn 0.0000 -0.4215 -0.9068
vn 0.4553 -0.7630 0.4588
vn 0.0000 -0.4215 0.9068
vn 0.6472 -0.7623 0.0000
vn 0.6921 -0.1806 -0.6988
vn 0.6921 -0.1806 0.6988
vn 0.9835 -0.1808 0.0000
vn 0.0000 0.4028 -0.9153
vn 0.6307 0.4520 -0.6307
vn 0.0000 0.4028 0.9153
vn 0.6307 0.4520 0.6307
vn 0.8920 0.4520 0.0000
vn 0.4390 0.7839 -0.4390
vn 0.0000 0.7839 -0.6208
vn 0.0000 0.7839 0.6208
vn 0.4390 0.7839 0.4390
vn 0.6208 0.7839 0.0000
vn 0.2293 0.9460 -0.2293
vn 0.0000 0.9460 -0.3242
vn 0.0000 0.9460 0.3242
vn 0.2293 0.9460 0.2293
vn 0.3242 0.9460 0.0000
vn 0.0000 1.0000 0.0000
vn -0.0782 -0.9938 -0.0782
vn -0.2099 -0.9549 -0.2099
vn -0.0782 -0.9938 0.0782
vn -0.2099 -0.9549 0.2099
vn -0.1107 -0.9938 0.0000
vn -0.2968 -0.9549 0.0000
vn -0.4553 -0.7630 -0.4588
vn -0.4553 -0.7630 0.4588
vn -0.6472 -0.7623 0.0000
vn -0.6921 -0.1806 -0.6988
vn -0.6921 -0.1806 0.6988
vn -0.9835 -0.1808 0.0000
vn -0.6307 0.4520 -0.6307
vn -0.6307 0.4520 0.6307
vn -0.8920 0.4520 0.0000
vn -0.4390 0.7839 -0.4390
vn -0.4390 0.7839 0.4390
vn -0.6208 0.7839 0.0000
vn -0.2293 0.9460 -0.2293
vn -0.2293 0.9460 0.2293
vn -0.3242 0.9460 0.0000
usemtl None.002
s 1
f 1/1/1 2/2/2 3/3/3
f 3/3/3 2/2/2 4/4/4
f 2/2/2 5/5/5 4/4/4
f 4/4/4 5/5/5 6/6/6
f 1/1/1 7/7/7 2/2/2
f 2/2/2 7/7/7 8/8/8
f 2/2/2 8/8/8 5/5/5
f 5/5/5 8/8/8 9/9/9
f 7/7/7 10/10/10 8/8/8
f 8/8/8 10/10/10 11/11/11
f 8/8/8 11/11/11 9/9/9
f 9/9/9 11/11/11 12/12/12
f 13/13/13 14/14/14 10/10/10
f 10/10/10 14/14/14 11/11/11
f 11/11/11 14/14/14 12/12/12
f 12/12/12 14/14/14 15/15/15
f 16/16/16 17/17/17 13/13/13
f 13/13/13 17/17/17 14/14/14
f 14/14/14 17/17/17 15/15/15
f 15/15/15 17/17/17 18/18/18
f 15/19/15 18/20/18 19/21/19
f 19/21/19 18/20/18 20/22/20
f 19/21/19 20/22/20 21/23/21
f 21/23/21 20/22/20 22/24/22
f 16/16/16 23/25/23 17/17/17
f 17/17/17 23/25/23 18/18/18
f 18/20/18 23/26/23 20/22/20
f 20/22/20 23/26/23 22/24/22
f 19/21/19 24/27/24 15/19/15
f 15/19/15 24/27/24 12/28/12
f 25/29/25 5/30/5 26/31/26
f 26/31/26 5/30/5 9/32/9
f 9/32/9 12/28/12 26/31/26
f 26/31/26 12/28/12 24/27/24
f 24/27/24 19/21/19 27/33/27
f 27/33/27 19/21/19 21/23/21
f 26/31/26 24/27/24 28/34/28
f 27/33/27 29/35/29 24/27/24
f 24/27/24 29/35/29 28/34/28
f 26/31/26 28/34/28 25/29/25
f 30/36/30 25/29/25 31/37/31
f 28/34/28 31/37/31 25/29/25
f 32/38/32 28/39/28 33/40/33
f 33/40/33 28/39/28 29/41/29
f 34/42/34 31/43/31 32/38/32
f 32/38/32 31/43/31 28/39/28
f 33/40/33 35/44/35 32/38/32
f 32/38/32 35/44/35 34/42/34
f 36/45/36 37/46/37 38/47/38
f 5/30/5 25/29/25 6/48/6
f 6/48/6 25/29/25 39/49/39
f 40/50/40 39/49/39 30/36/30
f 30/36/30 39/49/39 25/29/25
f 4/4/4 41/51/41 3/3/3
f 3/3/3 41/51/41 42/52/42
f 43/53/43 44/54/44 41/55/41
f 41/55/41 44/54/44 42/56/42
f 38/47/38 44/54/44 36/45/36
f 36/45/36 44/54/44 43/53/43
f 41/51/41 4/4/4 45/57/45
f 45/57/45 4/4/4 6/6/6
f 46/58/46 37/46/37 36/45/36
f 47/59/47 37/46/37 46/58/46
f 48/60/48 37/46/37 47/59/47
f 49/61/49 46/58/46 43/53/43
f 43/53/43 46/58/46 36/45/36
f 49/61/49 43/53/43 45/62/45
f 45/62/45 43/53/43 41/55/41
f 45/63/45 6/48/6 50/64/50
f 50/64/50 6/48/6 39/49/39
f 45/62/45 50/65/50 51/66/51
f 49/61/49 45/62/45 51/66/51
f 39/49/39 40/50/40 50/64/50
f 50/64/50 40/50/40 52/67/52
f 53/68/53 52/67/52 40/50/40
f 50/65/50 52/69/52 54/70/54
f 54/70/54 52/69/52 55/71/55
f 51/66/51 50/65/50 56/72/56
f 56/72/56 50/65/50 54/70/54
f 57/73/57 58/74/58 59/75/59
f 60/76/60 58/74/58 61/77/61
f 61/77/61 58/74/58 57/73/57
f 59/75/59 58/74/58 62/78/62
f 63/79/63 58/74/58 60/76/60
f 62/78/62 58/74/58 63/79/63
f 54/70/54 55/71/55 64/80/64
f 64/80/64 55/71/55 65/81/65
f 54/70/54 64/80/64 56/72/56
f 56/72/56 64/80/64 66/82/66
f 60/76/60 67/83/67 63/79/63
f 63/79/63 67/83/67 68/84/68
f 61/77/61 69/85/69 60/76/60
f 60/76/60 69/85/69 67/83/67
f 65/81/65 69/85/69 57/73/57
f 57/73/57 69/85/69 61/77/61
f 64/80/64 65/81/65 59/75/59
f 59/75/59 65/81/65 57/73/57
f 62/78/62 66/82/66 59/75/59
f 59/75/59 66/82/66 64/80/64
f 63/79/63 68/84/68 62/78/62
f 62/78/62 68/84/68 66/82/66
f 70/86/70 52/69/52 53/87/53
f 52/69/52 70/86/70 55/71/55
f 55/71/55 70/86/70 71/88/71
f 55/71/55 71/88/71 65/81/65
f 65/81/65 71/88/71 69/85/69
f 56/72/56 66/82/66 72/89/72
f 72/89/72 66/82/66 68/84/68
f 73/90/73 74/91/74 47/59/47
f 47/59/47 74/91/74 48/60/48
f 73/90/73 47/59/47 49/61/49
f 49/61/49 47/59/47 46/58/46
f 75/92/75 76/93/76 70/86/70
f 74/91/74 76/93/76 75/92/75
f 51/66/51 77/94/77 73/90/73
f 73/90/73 49/61/49 51/66/51
f 53/87/53 75/92/75 70/86/70
f 51/66/51 56/72/56 77/94/77
f 77/94/77 56/72/56 72/89/72
f 77/94/77 72/89/72 76/93/76
f 76/93/76 72/89/72 78/95/78
f 76/93/76 78/95/78 70/86/70
f 70/86/70 78/95/78 71/88/71
f 72/89/72 68/84/68 78/95/78
f 78/95/78 68/84/68 67/83/67
f 78/95/78 67/83/67 71/88/71
f 71/88/71 67/83/67 69/85/69
f 77/94/77 74/91/74 73/90/73
f 74/91/74 77/94/77 76/93/76
f 79/96/79 80/97/80 3/3/3
f 3/3/3 80/97/80 1/1/1
f 81/98/81 82/99/82 79/96/79
f 79/96/79 82/99/82 80/97/80
f 1/1/1 80/97/80 7/7/7
f 7/7/7 80/97/80 83/100/83
f 80/97/80 82/99/82 83/100/83
f 83/100/83 82/99/82 84/101/84
f 7/7/7 83/100/83 10/10/10
f 10/10/10 83/100/83 85/102/85
f 83/100/83 84/101/84 85/102/85
f 85/102/85 84/101/84 86/103/86
f 85/102/85 87/104/87 10/10/10
f 10/10/10 87/104/87 13/13/13
f 85/102/85 86/103/86 87/104/87
f 87/104/87 86/103/86 88/105/88
f 87/104/87 89/106/89 13/13/13
f 13/13/13 89/106/89 16/16/16
f 87/104/87 88/105/88 89/106/89
f 89/106/89 88/105/88 90/107/90
f 88/108/88 91/109/91 90/110/90
f 90/110/90 91/109/91 92/111/92
f 91/109/91 21/23/21 92/111/92
f 92/111/92 21/23/21 22/24/22
f 16/16/16 89/106/89 23/25/23
f 89/106/89 90/107/90 23/25/23
f 90/110/90 92/111/92 23/26/23
f 92/111/92 22/24/22 23/26/23
f 91/109/91 88/108/88 93/112/93
f 93/112/93 88/108/88 86/113/86
f 94/114/94 95/115/95 82/116/82
f 82/116/82 95/115/95 84/117/84
f 93/112/93 86/113/86 95/115/95
f 95/115/95 86/113/86 84/117/84
f 21/23/21 91/109/91 27/33/27
f 27/33/27 91/109/91 93/112/93
f 95/115/95 96/118/96 93/112/93
f 27/33/27 93/112/93 29/35/29
f 96/118/96 29/35/29 93/112/93
f 95/115/95 94/114/94 96/118/96
f 30/36/30 31/37/31 94/114/94
f 94/114/94 31/37/31 96/118/96
f 97/119/97 33/40/33 96/120/96
f 96/120/96 33/40/33 29/41/29
f 96/120/96 31/43/31 97/119/97
f 97/119/97 31/43/31 34/42/34
f 33/40/33 97/119/97 35/44/35
f 97/119/97 34/42/34 35/44/35
f 98/121/98 38/47/38 37/46/37
f 82/116/82 81/122/81 94/114/94
f 94/114/94 81/122/81 99/123/99
f 94/114/94 99/123/99 30/36/30
f 30/36/30 99/123/99 40/50/40
f 42/52/42 100/124/100 3/3/3
f 3/3/3 100/124/100 79/96/79
f 101/125/101 100/126/100 44/54/44
f 44/54/44 100/126/100 42/56/42
f 101/125/101 44/54/44 98/121/98
f 98/121/98 44/54/44 38/47/38
f 100/124/100 102/127/102 79/96/79
f 79/96/79 102/127/102 81/98/81
f 103/128/103 98/121/98 37/46/37
f 104/129/104 103/128/103 37/46/37
f 48/60/48 104/129/104 37/46/37
f 105/130/105 101/125/101 103/128/103
f 103/128/103 101/125/101 98/121/98
f 105/130/105 102/131/102 101/125/101
f 101/125/101 102/131/102 100/126/100
f 99/123/99 81/122/81 106/132/106
f 106/132/106 81/122/81 102/133/102
f 102/131/102 107/134/107 106/135/106
f 105/130/105 107/134/107 102/131/102
f 40/50/40 99/123/99 53/68/53
f 53/68/53 99/123/99 108/136/108
f 99/123/99 106/132/106 108/136/108
f 109/137/109 108/138/108 110/139/110
f 110/139/110 108/138/108 106/135/106
f 107/134/107 111/140/111 106/135/106
f 106/135/106 111/140/111 110/139/110
f 112/141/112 113/142/113 114/143/114
f 115/144/115 116/145/116 114/143/114
f 116/145/116 112/141/112 114/143/114
f 113/142/113 117/146/117 114/143/114
f 118/147/118 115/144/115 114/143/114
f 117/146/117 118/147/118 114/143/114
f 119/148/119 109/137/109 120/149/120
f 120/149/120 109/137/109 110/139/110
f 121/150/121 120/149/120 111/140/111
f 111/140/111 120/149/120 110/139/110
f 115/144/115 118/147/118 122/151/122
f 122/151/122 118/147/118 123/152/123
f 116/145/116 115/144/115 124/153/124
f 124/153/124 115/144/115 122/151/122
f 116/145/116 124/153/124 112/141/112
f 112/141/112 124/153/124 119/148/119
f 112/141/112 119/148/119 113/142/113
f 113/142/113 119/148/119 120/149/120
f 117/146/117 113/142/113 121/150/121
f 121/150/121 113/142/113 120/149/120
f 118/147/118 117/146/117 123/152/123
f 123/152/123 117/146/117 121/150/121
f 125/154/125 53/87/53 108/138/108
f 108/138/108 109/137/109 125/154/125
f 125/154/125 109/137/109 126/155/126
f 124/153/124 126/155/126 119/148/119
f 119/148/119 126/155/126 109/137/109
f 123/152/123 121/150/121 127/156/127
f 127/156/127 121/150/121 111/140/111
f 128/157/128 104/129/104 74/91/74
f 74/91/74 104/129/104 48/60/48
f 103/128/103 104/129/104 105/130/105
f 105/130/105 104/129/104 128/157/128
f 75/92/75 125/154/125 129/158/129
f 74/91/74 75/92/75 129/158/129
f 107/134/107 128/157/128 130/159/130
f 128/157/128 107/134/107 105/130/105
f 53/87/53 125/154/125 75/92/75
f 127/156/127 111/140/111 130/159/130
f 130/159/130 111/140/111 107/134/107
f 131/160/131 127/156/127 129/158/129
f 129/158/129 127/156/127 130/159/130
f 126/155/126 131/160/131 125/154/125
f 125/154/125 131/160/131 129/158/129
f 122/151/122 123/152/123 131/160/131
f 131/160/131 123/152/123 127/156/127
f 124/153/124 122/151/122 126/155/126
f 126/155/126 122/151/122 131/160/131
f 130/159/130 128/157/128 74/91/74
f 74/91/74 129/158/129 130/159/130
f 132/161/132 133/162/133 134/163/134
f 134/163/134 133/162/133 135/164/135
f 136/165/136 137/166/137 138/167/138
f 138/167/138 137/166/137 139/168/139
f 137/166/137 140/169/140 139/168/139
f 139/168/139 140/169/140 141/170/141
f 140/169/140 132/161/132 141/170/141
f 141/170/141 132/161/132 134/163/134
f 134/163/134 135/164/135 142/171/142
f 142/171/142 135/164/135 143/172/143
f 139/168/139 144/173/144 138/167/138
f 138/167/138 144/173/144 145/174/145
f 139/168/139 141/170/141 144/173/144
f 144/173/144 141/170/141 146/175/146
f 141/170/141 134/163/134 146/175/146
f 146/175/146 134/163/134 142/171/142
f 142/171/142 143/172/143 147/176/147
f 145/174/145 144/173/144 148/177/148
f 144/173/144 146/175/146 148/177/148
f 148/177/148 146/175/146 149/178/149
f 146/175/146 142/171/142 149/178/149
f 149/178/149 142/171/142 147/176/147
f 143/172/143 150/179/150 147/176/147
f 147/176/147 150/179/150 151/180/151
f 145/174/145 148/177/148 152/181/152
f 152/181/152 148/177/148 153/182/153
f 148/177/148 149/178/149 153/182/153
f 153/182/153 149/178/149 154/183/154
f 149/178/149 147/176/147 154/183/154
f 154/183/154 147/176/147 151/180/151
f 151/180/151 150/179/150 155/184/155
f 155/184/155 150/179/150 156/185/156
f 152/181/152 153/182/153 157/186/157
f 157/186/157 153/182/153 158/187/158
f 153/182/153 154/183/154 158/187/158
f 158/187/158 154/183/154 159/188/159
f 154/183/154 151/180/151 159/188/159
f 159/188/159 151/180/151 155/184/155
f 155/184/155 156/185/156 160/189/160
f 160/189/160 156/185/156 161/190/161
f 157/186/157 158/187/158 162/191/162
f 162/191/162 158/187/158 163/192/163
f 158/187/158 159/188/159 163/192/163
f 163/192/163 159/188/159 164/193/164
f 159/188/159 155/184/155 164/193/164
f 164/193/164 155/184/155 160/189/160
f 133/162/133 132/161/132 165/194/37
f 137/166/137 136/165/136 165/194/37
f 140/169/140 137/166/137 165/194/37
f 132/161/132 140/169/140 165/194/37
f 160/189/160 161/190/161 166/195/165
f 162/191/162 163/192/163 166/195/165
f 163/192/163 164/193/164 166/195/165
f 164/193/164 160/189/160 166/195/165
f 167/196/166 168/197/167 133/162/133
f 133/162/133 168/197/167 135/164/135
f 136/165/136 138/167/138 169/198/168
f 169/198/168 138/167/138 170/199/169
f 169/198/168 170/199/169 171/200/170
f 171/200/170 170/199/169 172/201/171
f 171/200/170 172/201/171 167/196/166
f 167/196/166 172/201/171 168/197/167
f 168/197/167 173/202/172 135/164/135
f 135/164/135 173/202/172 143/172/143
f 145/174/145 174/203/173 138/167/138
f 138/167/138 174/203/173 170/199/169
f 170/199/169 174/203/173 172/201/171
f 172/201/171 174/203/173 175/204/174
f 172/201/171 175/204/174 168/197/167
f 168/197/167 175/204/174 173/202/172
f 173/202/172 176/205/175 143/172/143
f 145/174/145 177/206/176 174/203/173
f 174/203/173 177/206/176 175/204/174
f 175/204/174 177/206/176 178/207/177
f 175/204/174 178/207/177 173/202/172
f 173/202/172 178/207/177 176/205/175
f 179/208/178 150/179/150 176/205/175
f 176/205/175 150/179/150 143/172/143
f 145/174/145 152/181/152 177/206/176
f 177/206/176 152/181/152 180/209/179
f 177/206/176 180/209/179 178/207/177
f 178/207/177 180/209/179 181/210/180
f 178/207/177 181/210/180 176/205/175
f 176/205/175 181/210/180 179/208/178
f 179/208/178 182/211/181 150/179/150
f 150/179/150 182/211/181 156/185/156
f 152/181/152 157/186/157 180/209/179
f 180/209/179 157/186/157 183/212/182
f 180/209/179 183/212/182 181/210/180
f 181/210/180 183/212/182 184/213/183
f 181/210/180 184/213/183 179/208/178
f 179/208/178 184/213/183 182/211/181
f 182/211/181 185/214/184 156/185/156
f 156/185/156 185/214/184 161/190/161
f 157/186/157 162/191/162 183/212/182
f 183/212/182 162/191/162 186/215/185
f 183/212/182 186/215/185 184/213/183
f 184/213/183 186/215/185 187/216/186
f 184/213/183 187/216/186 182/211/181
f 182/211/181 187/216/186 185/214/184
f 133/162/133 165/194/37 167/196/166
f 169/198/168 165/194/37 136/165/136
f 171/200/170 165/194/37 169/198/168
f 167/196/166 165/194/37 171/200/170
f 185/214/184 166/195/165 161/190/161
f 162/191/162 166/195/165 186/215/185
f 186/215/185 166/195/165 187/216/186
f 187/216/186 166/195/165 185/214/184
