{
    "type": "minecraft:crafting_shapeless",
    "ingredients": [
      {
        "item": "pixelmon:max_powder"
      },
      {
        "item": "pixelmon:xl_candy"
      }
    ],
    "result": {
      "item": "pixelmon:dynamax_candy",
      "count": 1
    }
  }