{
  "type": "minecraft:crafting_shaped",
  "pattern": [
    "GB "
  ],
  "key": {
    "G": {
      "item": "minecraft:potion"
    },
    "B": {
      "item": "pixelmon:aspear_berry"
    }
  },
  "result": {
    "item": "pixelmon:ice_heal",
    "count": 2
  }
}