{
  "type": "minecraft:crafting_shaped",
  "pattern": [
    "PPP"
  ],
  "key": {
    "P": {
      "item": "pixelmon:potion"
    }
  },
  "result": {
    "item": "pixelmon:super_potion",
    "count": 1
  }
}