{
  "type": "minecraft:crafting_shaped",
  "pattern": [
    "  C",
    " C ",
    "C  "
  ],
  "key": {
    "C": {
      "item": "minecraft:coal",
      "data": 1
    }
  },
  "result": {
    "item": "pixelmon:charcoal",
    "count": 1
  }
}