{
  "type": "minecraft:crafting_shaped",
  "pattern": [
    "GGG",
    "LAL",
    "A A"
  ],
  "key": {
    "A": {
      "type": "forge:ore_dict",
      "ore": "ingotAluminum"
    },
    "G": {
      "item": "minecraft:glowstone"
    },
    "L": {
      "item": "minecraft:dye",
	  "data": 4
    }
  },
  "result": {
    "item": "pixelmon:exp_share",
    "count": 1
  }
}