{
  "type": "minecraft:crafting_shaped",
  "pattern": [
    "  B",
    " B ",
    "B  "
  ],
  "key": {
    "B": {
      "item": "pixelmon:black_belt"
    }
  },
  "result": {
    "item": "pixelmon:expert_belt",
    "count": 1
  }
}