{
  "type": "minecraft:crafting_shapeless",
  "ingredients": [
    {
      "item": "minecraft:diamond"
    },
    {
      "item": "minecraft:brick"
    }
  ],
  "result": {
    "item": "pixelmon:fighting_gem"
  }
}