{
  "type": "minecraft:crafting_shaped",
  "pattern": [
    "SSS",
    "SIS"
  ],
  "key": {
   "I": {
      "item": "minecraft:iron_helmet"
    },
   "S": {
      "item": "pixelmon:hard_stone"
    }
  },
  "result": {
    "item": "pixelmon:rocky_helmet",
    "count": 1
  }
}