{
  "type": "minecraft:crafting_shaped",
  "pattern": [
    "DSD",
    "A A",
    "GGG"
  ],
  "key": {
    "A": {
      "type": "forge:ore_dict",
      "ore": "ingotAluminum"
    },
    "D": {
      "item": "minecraft:dye",
      "data": 10
    },
    "S": {
      "item": "minecraft:string"
    },
    "G": {
      "item": "minecraft:stained_glass_pane",
      "data": 14
    }
  },
  "result": {
    "item": "pixelmon:safety_goggles",
    "count": 1
  }
}