# Blender v2.79 (sub 0) OBJ File: ''
# www.blender.org
mtllib reuniclusbody.mtl
o polySurface1.002
v 0.000000 4.931090 -2.716968
v 2.005327 4.931090 -1.886335
v 0.000000 4.153714 -2.033223
v 1.534810 4.153713 -1.397484
v 0.000000 5.919703 -2.992485
v 2.170550 5.919703 -2.093414
v 0.000000 7.037574 -2.928985
v 2.005327 7.037574 -2.098352
v 0.000000 7.956944 -2.171606
v 1.534810 7.956944 -1.535866
v 2.835960 7.037574 -0.001056
v 2.170550 7.956943 -0.001056
v 0.000000 8.571245 -1.175749
v 0.830634 8.571245 -0.831690
v 1.174693 8.571245 -0.001056
v 1.534810 7.956943 1.533754
v 0.830634 8.571245 0.829577
v 0.000000 7.956943 2.169494
v 0.000000 8.571245 1.173637
v 0.000000 8.786961 -0.001056
v 2.835960 4.931090 -0.001056
v 2.170550 4.153713 -0.001056
v 3.069621 5.919702 -0.001056
v 2.005327 7.037573 2.004271
v 0.000000 7.037573 2.834904
v 1.534810 4.153713 1.533754
v 2.005327 4.931089 2.004271
v 2.170550 5.919702 2.169494
v 0.000000 5.919702 3.068565
v 0.881410 4.931089 2.469812
v 0.000000 4.153713 2.169494
v 0.000000 4.696764 2.634330
v 1.447065 5.411783 2.352340
v 0.715479 5.558413 2.691011
v 0.000000 5.605052 2.332589
v 0.804669 5.366888 2.295946
v 0.000000 4.968171 2.299424
v 0.000000 5.339398 2.090936
v 0.830634 3.646402 -0.756320
v 0.000000 3.646402 -1.100380
v 1.174693 3.646402 -0.001056
v 0.000000 3.539238 -0.682354
v 0.530369 3.539238 -0.492565
v 0.738430 3.555480 -0.054013
v 0.530369 3.545572 0.394986
v 0.830634 3.646402 0.829577
v 0.000000 3.554168 0.567034
v 0.000000 3.646402 1.173637
v 0.873250 2.214293 -0.792289
v 0.000000 2.214293 -1.120501
v 0.839387 2.538394 -0.766075
v 0.000000 2.538394 -1.083429
v 0.858050 1.879665 -0.752150
v 0.000000 1.879665 -1.063736
v 0.000000 1.583212 -0.900618
v 0.726483 1.583212 -0.636808
v 0.363242 1.472393 -0.543538
v 0.000000 1.399350 -0.450267
v 0.565770 1.446623 -0.225091
v 0.609125 1.424899 0.000084
v 0.000000 1.343543 0.000084
v 1.189000 2.213163 -0.000020
v 1.146491 2.537709 0.000021
v 0.000000 1.422624 0.574037
v 0.565770 1.446623 0.225260
v 0.363242 1.494806 0.644297
v 0.000000 1.643837 0.926426
v 0.314460 1.641998 0.834683
v 0.387843 2.285714 0.889803
v 0.000000 2.290292 1.008092
v 0.296513 1.948730 0.943861
v 0.000000 1.952602 1.030462
v 0.490594 1.748182 1.294330
v 0.489929 2.027630 1.324966
v 0.786020 2.397825 1.311606
v 0.861740 2.569705 1.522537
v 0.898293 2.397825 1.270142
v 0.997735 2.569705 1.470483
v 1.030282 2.550258 1.561608
v 0.894288 2.550258 1.613662
v 0.725746 2.569705 1.574592
v 0.673746 2.397825 1.353069
v 0.758293 2.550258 1.665716
v 0.559719 2.279102 1.366701
v 0.725392 1.582048 1.191228
v 0.902498 1.616064 1.312091
v 0.816937 1.559835 1.425934
v 0.683289 1.607469 1.389319
v 1.004897 2.250848 1.237779
v 1.102437 2.229614 1.364110
v 0.555972 2.229614 1.546916
v 0.988113 1.759400 1.116261
v 1.034504 1.694075 1.374309
v 1.128239 1.927216 1.389577
v 1.099060 1.945935 1.308194
v 0.851034 2.034292 1.517717
v 1.135600 2.212208 1.445238
v 1.012748 2.084821 1.148798
v 0.618040 1.694075 1.528112
v 0.589135 2.212208 1.644298
v 0.526007 1.945935 1.519827
v 0.556729 1.927216 1.600641
v 0.734013 2.249135 1.184642
v 1.180040 1.879571 0.000075
v 1.027402 1.583212 0.000084
v 0.873250 2.262365 0.737517
v 0.839387 2.581863 0.704628
v 0.000000 2.608867 0.893840
v 0.726483 1.621389 0.708943
v 0.910572 1.923462 0.742746
v 1.626621 3.312780 0.029388
v 1.373037 3.218871 0.225444
v 1.387377 3.154905 0.020357
v 1.599832 3.391960 -0.085468
v 1.643544 3.444063 0.032025
v 1.576627 3.514931 -0.075077
v 1.568197 3.568799 0.029612
v 1.597659 3.390671 0.134287
v 1.571389 3.504140 0.125335
v 1.373257 3.207900 -0.224190
v 1.323505 3.414022 -0.218772
v 1.323670 3.423481 0.234340
v 1.284782 3.582641 0.151227
v 0.780270 2.842028 -0.706896
v 0.000000 2.842028 -0.999737
v 0.780270 2.878088 0.567184
v 0.000000 2.903007 0.768021
v 1.077808 2.842576 0.000134
v 0.896649 3.094378 -0.300379
v 1.018284 3.023279 0.005821
v 0.899302 3.109300 0.241140
v 0.787377 3.356806 0.249579
v 1.283598 3.581049 -0.138870
v 1.280535 3.597446 0.027045
v 0.757256 3.476604 -0.254816
v 0.778206 3.337272 -0.302636
v 0.759103 3.482625 0.185024
v 0.690202 3.139211 -0.610800
v 0.000000 3.139211 -0.863836
v 0.690202 3.206995 0.463063
v 0.000000 3.228527 0.647257
v -1.534810 4.153713 -1.397484
v -2.005327 4.931090 -1.886335
v -2.170550 5.919703 -2.093414
v -2.005327 7.037574 -2.098352
v -1.534810 7.956944 -1.535866
v -2.835960 7.037574 -0.001056
v -2.170550 7.956943 -0.001056
v -0.830634 8.571245 -0.831690
v -1.174693 8.571245 -0.001056
v -1.534810 7.956943 1.533754
v -0.830634 8.571245 0.829577
v -2.170550 4.153713 -0.001056
v -2.835960 4.931090 -0.001056
v -3.069621 5.919702 -0.001056
v -2.005327 7.037573 2.004271
v -1.534810 4.153713 1.533754
v -2.005327 4.931089 2.004271
v -2.170550 5.919702 2.169494
v -0.881410 4.931089 2.469812
v -1.447065 5.411783 2.352340
v -0.715479 5.558413 2.691011
v -0.804669 5.366888 2.295946
v -0.830634 3.646402 -0.756320
v -1.174693 3.646402 -0.001056
v -0.530369 3.539238 -0.492565
v -0.738430 3.555480 -0.054013
v -0.530369 3.545572 0.394986
v -0.830634 3.646402 0.829577
v -0.873250 2.214293 -0.792289
v -0.839387 2.538394 -0.766075
v -0.858050 1.879665 -0.752150
v -0.726483 1.583212 -0.636808
v -0.363242 1.472393 -0.543538
v -0.565770 1.446623 -0.225091
v -0.609125 1.424899 0.000084
v -1.146491 2.537709 0.000021
v -1.189000 2.213163 -0.000020
v -0.565770 1.446623 0.225260
v -0.363242 1.494806 0.644297
v -0.314460 1.641998 0.834683
v -0.296513 1.948730 0.943861
v -0.387843 2.285714 0.889803
v -0.490594 1.748182 1.294330
v -0.489929 2.027630 1.324966
v -0.997735 2.569705 1.470483
v -0.861740 2.569705 1.522537
v -0.898293 2.397825 1.270142
v -0.786020 2.397825 1.311606
v -0.894288 2.550258 1.613662
v -1.030282 2.550258 1.561608
v -0.673746 2.397825 1.353069
v -0.725746 2.569705 1.574592
v -0.758293 2.550258 1.665716
v -0.559719 2.279102 1.366701
v -0.725392 1.582048 1.191228
v -0.816937 1.559835 1.425934
v -0.902498 1.616064 1.312091
v -0.683289 1.607469 1.389319
v -1.004897 2.250848 1.237779
v -1.102437 2.229614 1.364110
v -0.555972 2.229614 1.546916
v -0.988113 1.759400 1.116261
v -1.034504 1.694075 1.374309
v -1.128239 1.927216 1.389577
v -1.099060 1.945935 1.308194
v -0.851034 2.034292 1.517717
v -1.135600 2.212208 1.445238
v -1.012748 2.084821 1.148798
v -0.618040 1.694075 1.528112
v -0.589135 2.212208 1.644298
v -0.526007 1.945935 1.519827
v -0.556729 1.927216 1.600641
v -0.734013 2.249135 1.184642
v -1.180040 1.879571 0.000075
v -1.027402 1.583212 0.000084
v -0.873250 2.262365 0.737517
v -0.839387 2.581863 0.704628
v -0.726483 1.621389 0.708943
v -0.910572 1.923462 0.742746
v -1.626621 3.312780 0.029388
v -1.387377 3.154905 0.020357
v -1.373037 3.218871 0.225444
v -1.643544 3.444063 0.032025
v -1.599832 3.391960 -0.085468
v -1.576627 3.514931 -0.075077
v -1.568197 3.568799 0.029612
v -1.597659 3.390671 0.134287
v -1.571389 3.504140 0.125335
v -1.373257 3.207900 -0.224190
v -1.323505 3.414022 -0.218772
v -1.323670 3.423481 0.234340
v -1.284782 3.582641 0.151227
v -0.780270 2.842028 -0.706896
v -0.780270 2.878088 0.567184
v -1.077808 2.842576 0.000134
v -1.018284 3.023279 0.005821
v -0.896649 3.094378 -0.300379
v -0.899302 3.109300 0.241140
v -0.787377 3.356806 0.249579
v -1.280535 3.597446 0.027045
v -1.283598 3.581049 -0.138870
v -0.757256 3.476604 -0.254816
v -0.778206 3.337272 -0.302636
v -0.759103 3.482625 0.185024
v -0.690202 3.139211 -0.610800
v -0.690202 3.206995 0.463063
v 2.094963 8.691664 -0.164318
v 2.093436 8.887142 -0.303621
v 2.211154 8.575474 -0.232381
v 2.308129 8.672447 -0.429385
v 2.327344 8.459282 -0.164318
v 2.522822 8.457756 -0.303621
v 2.375472 8.411154 0.000001
v 2.611750 8.368828 0.000001
v 2.327344 8.459282 0.164319
v 2.522822 8.457756 0.303622
v 2.211154 8.575474 0.232383
v 2.308129 8.672447 0.429386
v 2.094963 8.691664 0.164319
v 2.093436 8.887142 0.303622
v 2.046835 8.739792 0.000001
v 2.004507 8.976070 0.000001
v 2.172753 9.098091 -0.396700
v 2.453263 8.817581 -0.561019
v 2.733772 8.537071 -0.396700
v 2.849963 8.420881 0.000001
v 2.733772 8.537071 0.396701
v 2.453263 8.817581 0.561020
v 2.172753 9.098091 0.396701
v 2.056562 9.214283 0.000002
v 2.328198 9.299759 -0.429384
v 2.631819 8.996140 -0.607242
v 2.935441 8.692516 -0.429385
v 3.061205 8.566753 0.000001
v 2.935441 8.692516 0.429386
v 2.631819 8.996140 0.607244
v 2.328198 9.299759 0.429387
v 2.202434 9.425526 0.000002
v 2.806485 9.699871 -0.374105
v 3.071019 9.435337 -0.529065
v 3.335552 9.170805 -0.374106
v 3.445126 9.061232 0.000001
v 3.335552 9.170805 0.374107
v 3.071019 9.435337 0.529069
v 2.806485 9.699871 0.374108
v 2.696912 9.809444 0.000002
v 3.222006 9.975445 -0.275148
v 3.416566 9.780886 -0.389118
v 3.611126 9.586327 -0.275148
v 3.691716 9.505737 0.000002
v 3.611126 9.586327 0.275151
v 3.416566 9.780886 0.389122
v 3.222006 9.975445 0.275151
v 3.141417 10.056034 0.000002
v 3.551119 10.108107 -0.136236
v 3.647453 10.011772 -0.192667
v 3.743788 9.915440 -0.136236
v 3.783690 9.875536 0.000002
v 3.743788 9.915440 0.136239
v 3.647453 10.011772 0.192670
v 3.551119 10.108107 0.136239
v 3.511216 10.148010 0.000002
v 2.177100 8.541420 0.000001
v 3.728530 10.092850 0.000002
v -2.094963 8.691664 -0.164318
v -2.211154 8.575474 -0.232381
v -2.093436 8.887142 -0.303621
v -2.308129 8.672447 -0.429385
v -2.327344 8.459282 -0.164318
v -2.522822 8.457756 -0.303621
v -2.375472 8.411154 0.000001
v -2.611750 8.368828 0.000001
v -2.327344 8.459282 0.164319
v -2.522822 8.457756 0.303622
v -2.211154 8.575474 0.232383
v -2.308129 8.672447 0.429386
v -2.094963 8.691664 0.164319
v -2.093436 8.887142 0.303622
v -2.046835 8.739792 0.000001
v -2.004507 8.976070 0.000001
v -2.172753 9.098091 -0.396700
v -2.453263 8.817581 -0.561019
v -2.733772 8.537071 -0.396700
v -2.849963 8.420881 0.000001
v -2.733772 8.537071 0.396701
v -2.453263 8.817581 0.561020
v -2.172753 9.098091 0.396701
v -2.056562 9.214283 0.000002
v -2.328198 9.299759 -0.429384
v -2.631819 8.996140 -0.607242
v -2.935441 8.692516 -0.429385
v -3.061205 8.566753 0.000001
v -2.935441 8.692516 0.429386
v -2.631819 8.996140 0.607244
v -2.328198 9.299759 0.429387
v -2.202434 9.425526 0.000002
v -2.806485 9.699871 -0.374105
v -3.071019 9.435337 -0.529065
v -3.335552 9.170805 -0.374106
v -3.445126 9.061232 0.000001
v -3.335552 9.170805 0.374107
v -3.071019 9.435337 0.529069
v -2.806485 9.699871 0.374108
v -2.696912 9.809444 0.000002
v -3.222006 9.975445 -0.275148
v -3.416566 9.780886 -0.389118
v -3.611126 9.586327 -0.275148
v -3.691716 9.505737 0.000002
v -3.611126 9.586327 0.275151
v -3.416566 9.780886 0.389122
v -3.222006 9.975445 0.275151
v -3.141417 10.056034 0.000002
v -3.551119 10.108107 -0.136236
v -3.647453 10.011772 -0.192667
v -3.743788 9.915440 -0.136236
v -3.783690 9.875536 0.000002
v -3.743788 9.915440 0.136239
v -3.647453 10.011772 0.192670
v -3.551119 10.108107 0.136239
v -3.511216 10.148010 0.000002
v -2.177100 8.541420 0.000001
v -3.728530 10.092850 0.000002
v 2.395717 3.488476 -0.141875
v 2.634108 3.530511 -0.200643
v 2.515773 3.447187 -0.076782
v 2.644789 3.469936 -0.108587
v 2.773805 3.492685 -0.076782
v 2.872499 3.572546 -0.141875
v 2.827245 3.502107 0.000001
v 2.971244 3.589958 0.000001
v 2.872499 3.572546 0.141877
v 2.773805 3.492685 0.076784
v 2.634108 3.530511 0.200645
v 2.644789 3.469936 0.108589
v 2.515773 3.447187 0.076784
v 2.395717 3.488476 0.141877
v 2.462332 3.437764 0.000001
v 2.296972 3.471065 0.000001
v 2.306650 3.566247 -0.185370
v 2.618123 3.621169 -0.262153
v 2.929595 3.676090 -0.185370
v 3.058612 3.698839 0.000001
v 2.929595 3.676090 0.185372
v 2.618123 3.621169 0.262155
v 2.306650 3.566247 0.185372
v 2.177634 3.543499 0.000001
v 2.262131 3.668661 -0.200643
v 2.599267 3.728107 -0.283752
v 2.936402 3.787552 -0.200643
v 3.076048 3.812176 0.000001
v 2.936402 3.787552 0.200645
v 2.599267 3.728107 0.283754
v 2.262131 3.668661 0.200645
v 2.122484 3.644037 0.000001
v 2.268938 3.780123 -0.185370
v 2.580410 3.835044 -0.262153
v 2.891883 3.889966 -0.185370
v 3.020900 3.912714 0.000001
v 2.891883 3.889966 0.185372
v 2.580410 3.835044 0.262155
v 2.268938 3.780123 0.185372
v 2.139921 3.757374 0.000001
v 2.326034 3.883667 -0.141875
v 2.564425 3.925702 -0.200643
v 2.802816 3.967737 -0.141875
v 2.901561 3.985148 0.000001
v 2.802816 3.967737 0.141877
v 2.564425 3.925702 0.200645
v 2.326034 3.883667 0.141877
v 2.227289 3.866256 0.000001
v 2.424728 3.963528 -0.076782
v 2.553744 3.986277 -0.108587
v 2.682760 4.009027 -0.076782
v 2.736201 4.018449 0.000001
v 2.682760 4.009027 0.076784
v 2.553744 3.986277 0.108589
v 2.424728 3.963528 0.076784
v 2.371288 3.954105 0.000001
v 2.648540 3.448664 0.000001
v 2.549993 4.007549 0.000001
v -2.644789 3.469936 -0.108587
v -2.634108 3.530511 -0.200643
v -2.515773 3.447187 -0.076782
v -2.395717 3.488476 -0.141875
v -2.773805 3.492685 -0.076782
v -2.872499 3.572546 -0.141875
v -2.827245 3.502107 0.000001
v -2.971244 3.589958 0.000001
v -2.773805 3.492685 0.076784
v -2.872499 3.572546 0.141877
v -2.644789 3.469936 0.108589
v -2.634108 3.530511 0.200645
v -2.515773 3.447187 0.076784
v -2.395717 3.488476 0.141877
v -2.462332 3.437764 0.000001
v -2.296972 3.471065 0.000001
v -2.618123 3.621169 -0.262153
v -2.306650 3.566247 -0.185370
v -2.929595 3.676090 -0.185370
v -3.058612 3.698839 0.000001
v -2.929595 3.676090 0.185372
v -2.618123 3.621169 0.262155
v -2.306650 3.566247 0.185372
v -2.177634 3.543499 0.000001
v -2.599267 3.728107 -0.283752
v -2.262131 3.668661 -0.200643
v -2.936402 3.787552 -0.200643
v -3.076048 3.812176 0.000001
v -2.936402 3.787552 0.200645
v -2.599267 3.728107 0.283754
v -2.262131 3.668661 0.200645
v -2.122484 3.644037 0.000001
v -2.268938 3.780123 -0.185370
v -2.580410 3.835044 -0.262153
v -2.891883 3.889966 -0.185370
v -3.020900 3.912714 0.000001
v -2.891883 3.889966 0.185372
v -2.580410 3.835044 0.262155
v -2.268938 3.780123 0.185372
v -2.139921 3.757374 0.000001
v -2.326034 3.883667 -0.141875
v -2.564425 3.925702 -0.200643
v -2.802816 3.967737 -0.141875
v -2.901561 3.985148 0.000001
v -2.802816 3.967737 0.141877
v -2.564425 3.925702 0.200645
v -2.326034 3.883667 0.141877
v -2.227289 3.866256 0.000001
v -2.424728 3.963528 -0.076782
v -2.553744 3.986277 -0.108587
v -2.682760 4.009027 -0.076782
v -2.736201 4.018449 0.000001
v -2.682760 4.009027 0.076784
v -2.553744 3.986277 0.108589
v -2.424728 3.963528 0.076784
v -2.371288 3.954105 0.000001
v -2.648540 3.448664 0.000001
v -2.549993 4.007549 0.000001
vt 0.162774 0.623805
vt 0.247679 0.623805
vt 0.162774 0.590891
vt 0.227757 0.590891
vt 0.162774 0.665663
vt 0.254674 0.665663
vt 0.162774 0.712994
vt 0.247679 0.712994
vt 0.162774 0.751919
vt 0.227757 0.751919
vt 0.282848 0.712994
vt 0.254674 0.751919
vt 0.162774 0.777929
vt 0.197943 0.777929
vt 0.212510 0.777929
vt 0.109971 0.751877
vt 0.067756 0.777918
vt 0.083022 0.751877
vt 0.053171 0.777918
vt 0.017960 0.751877
vt 0.017960 0.777918
vt 0.162774 0.787062
vt 0.017960 0.787062
vt 0.282848 0.623805
vt 0.254674 0.590891
vt 0.292741 0.665663
vt 0.102967 0.712904
vt 0.138179 0.712904
vt 0.017960 0.712904
vt 0.083022 0.590654
vt 0.109971 0.590654
vt 0.102967 0.623608
vt 0.138179 0.623608
vt 0.148084 0.665516
vt 0.109971 0.665516
vt 0.017960 0.665516
vt 0.055323 0.623608
vt 0.017960 0.590654
vt 0.017960 0.613675
vt 0.079302 0.643985
vt 0.048289 0.650201
vt 0.423940 0.579648
vt 0.374623 0.604552
vt 0.374623 0.582863
vt 0.474368 0.569541
vt 0.430088 0.566446
vt 0.374623 0.538963
vt 0.374623 0.520255
vt 0.435378 0.536407
vt 0.374623 0.564551
vt 0.197943 0.569412
vt 0.162774 0.569412
vt 0.212510 0.569412
vt 0.162774 0.564874
vt 0.185229 0.564874
vt 0.194039 0.565562
vt 0.049262 0.565294
vt 0.067756 0.569149
vt 0.040442 0.564874
vt 0.053171 0.569149
vt 0.017960 0.565239
vt 0.017960 0.569149
vt 0.274718 0.213464
vt 0.305277 0.213464
vt 0.272278 0.243640
vt 0.301826 0.243640
vt 0.270981 0.182307
vt 0.299992 0.182307
vt 0.284805 0.154706
vt 0.260242 0.154706
vt 0.251558 0.144388
vt 0.242874 0.137587
vt 0.221908 0.141988
vt 0.200943 0.139965
vt 0.200943 0.132391
vt 0.200952 0.213359
vt 0.200949 0.243576
vt 0.147503 0.139754
vt 0.179977 0.141988
vt 0.140962 0.146474
vt 0.114693 0.160350
vt 0.123235 0.160179
vt 0.118103 0.220113
vt 0.107090 0.220540
vt 0.113070 0.188738
vt 0.105007 0.189098
vt 0.080439 0.170066
vt 0.077586 0.196084
vt 0.078830 0.230552
vt 0.059191 0.246555
vt 0.082691 0.230552
vt 0.064038 0.246555
vt 0.055553 0.244745
vt 0.050707 0.244745
vt 0.054345 0.246555
vt 0.074970 0.230552
vt 0.045860 0.244745
vt 0.073700 0.219498
vt 0.090038 0.154597
vt 0.078785 0.157764
vt 0.068186 0.152529
vt 0.071595 0.156964
vt 0.085704 0.216867
vt 0.073942 0.214890
vt 0.056921 0.214890
vt 0.097018 0.171110
vt 0.072992 0.165028
vt 0.071571 0.186735
vt 0.079148 0.188478
vt 0.059640 0.196704
vt 0.066388 0.213270
vt 0.093989 0.201409
vt 0.058672 0.165028
vt 0.047854 0.213270
vt 0.059443 0.188478
vt 0.051919 0.186735
vt 0.090652 0.216708
vt 0.200943 0.182299
vt 0.200943 0.154706
vt 0.132282 0.217940
vt 0.135344 0.247687
vt 0.117727 0.250202
vt 0.134943 0.158260
vt 0.131795 0.186385
vt 0.198214 0.315741
vt 0.179960 0.306997
vt 0.199055 0.301042
vt 0.208908 0.323113
vt 0.197969 0.327964
vt 0.207941 0.334563
vt 0.198193 0.339578
vt 0.188447 0.322993
vt 0.189281 0.333558
vt 0.221824 0.305976
vt 0.221320 0.325167
vt 0.179132 0.326048
vt 0.186870 0.340867
vt 0.266768 0.271911
vt 0.294033 0.271911
vt 0.148141 0.275268
vt 0.129442 0.277588
vt 0.200938 0.271961
vt 0.228918 0.295406
vt 0.200408 0.288786
vt 0.178499 0.296796
vt 0.177713 0.319840
vt 0.213880 0.340719
vt 0.198432 0.342245
vt 0.224676 0.330994
vt 0.229128 0.318021
vt 0.246812 0.336826
vt 0.164174 0.337416
vt 0.183723 0.331555
vt 0.205980 0.338338
vt 0.257820 0.299580
vt 0.281380 0.299580
vt 0.264483 0.336826
vt 0.157836 0.305892
vt 0.140686 0.307896
vt 0.148155 0.338216
vt 0.227757 0.590891
vt 0.247679 0.623805
vt 0.254674 0.665663
vt 0.247679 0.712994
vt 0.227757 0.751919
vt 0.282848 0.712994
vt 0.254674 0.751919
vt 0.197943 0.777929
vt 0.212510 0.777929
vt 0.109971 0.751877
vt 0.083022 0.751877
vt 0.067756 0.777918
vt 0.053171 0.777918
vt 0.254674 0.590891
vt 0.282848 0.623805
vt 0.292741 0.665663
vt 0.102967 0.712904
vt 0.138179 0.712904
vt 0.083022 0.590654
vt 0.102967 0.623608
vt 0.109971 0.590654
vt 0.138179 0.623608
vt 0.148084 0.665516
vt 0.109971 0.665516
vt 0.055323 0.623608
vt 0.079302 0.643985
vt 0.048289 0.650201
vt 0.325305 0.579648
vt 0.274877 0.569541
vt 0.319157 0.566446
vt 0.313867 0.536407
vt 0.197943 0.569412
vt 0.212510 0.569412
vt 0.185229 0.564874
vt 0.194039 0.565562
vt 0.049262 0.565294
vt 0.040442 0.564874
vt 0.067756 0.569149
vt 0.053171 0.569149
vt 0.274718 0.213464
vt 0.272278 0.243640
vt 0.270981 0.182307
vt 0.260242 0.154706
vt 0.251558 0.144388
vt 0.221908 0.141988
vt 0.200943 0.139965
vt 0.200949 0.243576
vt 0.200952 0.213359
vt 0.179977 0.141988
vt 0.140962 0.146474
vt 0.123235 0.160179
vt 0.113070 0.188738
vt 0.118103 0.220113
vt 0.080439 0.170066
vt 0.077586 0.196084
vt 0.064038 0.246555
vt 0.059191 0.246555
vt 0.082691 0.230552
vt 0.078830 0.230552
vt 0.050707 0.244745
vt 0.055553 0.244745
vt 0.074970 0.230552
vt 0.054345 0.246555
vt 0.045860 0.244745
vt 0.073700 0.219498
vt 0.090038 0.154597
vt 0.068186 0.152529
vt 0.078785 0.157764
vt 0.071595 0.156964
vt 0.085704 0.216867
vt 0.073942 0.214890
vt 0.056921 0.214890
vt 0.097018 0.171110
vt 0.072992 0.165028
vt 0.071571 0.186735
vt 0.079148 0.188478
vt 0.059640 0.196704
vt 0.066388 0.213270
vt 0.093989 0.201409
vt 0.058672 0.165028
vt 0.047854 0.213270
vt 0.059443 0.188478
vt 0.051919 0.186735
vt 0.090652 0.216708
vt 0.200943 0.182299
vt 0.200943 0.154706
vt 0.132282 0.217940
vt 0.135344 0.247687
vt 0.134943 0.158260
vt 0.131795 0.186385
vt 0.198214 0.315741
vt 0.199055 0.301042
vt 0.179960 0.306997
vt 0.197969 0.327964
vt 0.208908 0.323113
vt 0.207941 0.334563
vt 0.198193 0.339578
vt 0.188447 0.322993
vt 0.189281 0.333558
vt 0.221824 0.305976
vt 0.221320 0.325167
vt 0.179132 0.326048
vt 0.186870 0.340867
vt 0.266768 0.271911
vt 0.148141 0.275268
vt 0.200938 0.271961
vt 0.200408 0.288786
vt 0.228918 0.295406
vt 0.178499 0.296796
vt 0.177713 0.319840
vt 0.198432 0.342245
vt 0.213880 0.340719
vt 0.224676 0.330994
vt 0.229128 0.318021
vt 0.246812 0.336826
vt 0.164174 0.337416
vt 0.205980 0.338338
vt 0.183723 0.331555
vt 0.257820 0.299580
vt 0.157836 0.305892
vt 0.037955 0.330424
vt 0.037851 0.343699
vt 0.045846 0.322533
vt 0.052431 0.329119
vt 0.053736 0.314642
vt 0.067011 0.314539
vt 0.057005 0.311374
vt 0.073051 0.308500
vt 0.053736 0.314642
vt 0.067011 0.314539
vt 0.045846 0.322533
vt 0.052431 0.329119
vt 0.037955 0.330424
vt 0.037851 0.343699
vt 0.034686 0.333692
vt 0.031812 0.349739
vt 0.043238 0.358025
vt 0.062288 0.338975
vt 0.081337 0.319925
vt 0.089228 0.312035
vt 0.081337 0.319925
vt 0.062288 0.338975
vt 0.043238 0.358025
vt 0.035347 0.365916
vt 0.053794 0.371721
vt 0.074414 0.351101
vt 0.095033 0.330482
vt 0.103574 0.321941
vt 0.095033 0.330482
vt 0.074414 0.351101
vt 0.053794 0.371721
vt 0.045253 0.380262
vt 0.086276 0.398893
vt 0.104240 0.380928
vt 0.122205 0.362963
vt 0.129647 0.355522
vt 0.122205 0.362963
vt 0.104240 0.380928
vt 0.086276 0.398893
vt 0.078834 0.406334
vt 0.114494 0.417608
vt 0.127707 0.404395
vt 0.140920 0.391182
vt 0.146393 0.385709
vt 0.140920 0.391182
vt 0.127707 0.404395
vt 0.114494 0.417608
vt 0.109021 0.423081
vt 0.136845 0.426617
vt 0.143387 0.420075
vt 0.149929 0.413533
vt 0.152639 0.410823
vt 0.149929 0.413533
vt 0.143387 0.420075
vt 0.136845 0.426617
vt 0.134135 0.429327
vt 0.043533 0.320221
vt 0.148893 0.425581
vt 0.037955 0.330424
vt 0.045846 0.322533
vt 0.037851 0.343699
vt 0.052431 0.329119
vt 0.053736 0.314642
vt 0.067011 0.314539
vt 0.057005 0.311374
vt 0.073051 0.308500
vt 0.053736 0.314642
vt 0.067011 0.314539
vt 0.045846 0.322533
vt 0.052431 0.329119
vt 0.037955 0.330424
vt 0.037851 0.343699
vt 0.034686 0.333692
vt 0.031812 0.349739
vt 0.043238 0.358025
vt 0.062288 0.338975
vt 0.081337 0.319925
vt 0.089228 0.312035
vt 0.081337 0.319925
vt 0.062288 0.338975
vt 0.043238 0.358025
vt 0.035347 0.365916
vt 0.053794 0.371721
vt 0.074414 0.351101
vt 0.095033 0.330482
vt 0.103574 0.321941
vt 0.095033 0.330482
vt 0.074414 0.351101
vt 0.053794 0.371721
vt 0.045253 0.380262
vt 0.086276 0.398893
vt 0.104240 0.380928
vt 0.122205 0.362963
vt 0.129647 0.355522
vt 0.122205 0.362963
vt 0.104240 0.380928
vt 0.086276 0.398893
vt 0.078834 0.406334
vt 0.114494 0.417608
vt 0.127707 0.404395
vt 0.140920 0.391182
vt 0.146393 0.385709
vt 0.140920 0.391182
vt 0.127707 0.404395
vt 0.114494 0.417608
vt 0.109021 0.423081
vt 0.136845 0.426617
vt 0.143387 0.420075
vt 0.149929 0.413533
vt 0.152639 0.410823
vt 0.149929 0.413533
vt 0.143387 0.420075
vt 0.136845 0.426617
vt 0.134135 0.429327
vt 0.043533 0.320221
vt 0.148893 0.425581
vt 0.217157 0.368287
vt 0.235235 0.371475
vt 0.226261 0.365156
vt 0.236045 0.366881
vt 0.245829 0.368606
vt 0.253313 0.374663
vt 0.249881 0.369321
vt 0.260801 0.375983
vt 0.253313 0.374663
vt 0.245829 0.368606
vt 0.235235 0.371475
vt 0.236045 0.366881
vt 0.226261 0.365156
vt 0.217157 0.368287
vt 0.222209 0.364442
vt 0.209669 0.366967
vt 0.210403 0.374185
vt 0.234023 0.378350
vt 0.257643 0.382515
vt 0.267427 0.384240
vt 0.257643 0.382515
vt 0.234023 0.378350
vt 0.210403 0.374185
vt 0.200619 0.372460
vt 0.207027 0.381951
vt 0.232593 0.386459
vt 0.258159 0.390967
vt 0.268749 0.392835
vt 0.258159 0.390967
vt 0.232593 0.386459
vt 0.207027 0.381951
vt 0.196437 0.380084
vt 0.207543 0.390404
vt 0.231163 0.394569
vt 0.254783 0.398734
vt 0.264567 0.400459
vt 0.254783 0.398734
vt 0.231163 0.394569
vt 0.207543 0.390404
vt 0.197759 0.388679
vt 0.211873 0.398256
vt 0.229951 0.401444
vt 0.248029 0.404631
vt 0.255517 0.405952
vt 0.248029 0.404631
vt 0.229951 0.401444
vt 0.211873 0.398256
vt 0.204385 0.396936
vt 0.219357 0.404312
vt 0.229141 0.406037
vt 0.238925 0.407763
vt 0.242977 0.408477
vt 0.238925 0.407763
vt 0.229141 0.406037
vt 0.219357 0.404312
vt 0.215304 0.403598
vt 0.236329 0.365268
vt 0.228856 0.407650
vt 0.236045 0.366881
vt 0.235235 0.371475
vt 0.226261 0.365156
vt 0.217157 0.368287
vt 0.245829 0.368606
vt 0.253313 0.374663
vt 0.249881 0.369321
vt 0.260801 0.375983
vt 0.245829 0.368606
vt 0.253313 0.374663
vt 0.236045 0.366881
vt 0.235235 0.371475
vt 0.226261 0.365156
vt 0.217157 0.368287
vt 0.222209 0.364442
vt 0.209669 0.366967
vt 0.234023 0.378350
vt 0.210403 0.374185
vt 0.257643 0.382515
vt 0.267427 0.384240
vt 0.257643 0.382515
vt 0.234023 0.378350
vt 0.210403 0.374185
vt 0.200619 0.372460
vt 0.232593 0.386459
vt 0.207027 0.381951
vt 0.258159 0.390967
vt 0.268749 0.392835
vt 0.258159 0.390967
vt 0.232593 0.386459
vt 0.207027 0.381951
vt 0.196437 0.380084
vt 0.207543 0.390404
vt 0.231163 0.394569
vt 0.254783 0.398734
vt 0.264567 0.400459
vt 0.254783 0.398734
vt 0.231163 0.394569
vt 0.207543 0.390404
vt 0.197759 0.388679
vt 0.211873 0.398256
vt 0.229951 0.401444
vt 0.248029 0.404631
vt 0.255517 0.405952
vt 0.248029 0.404631
vt 0.229951 0.401444
vt 0.211873 0.398256
vt 0.204385 0.396936
vt 0.219357 0.404312
vt 0.229141 0.406037
vt 0.238925 0.407763
vt 0.242977 0.408477
vt 0.238925 0.407763
vt 0.229141 0.406037
vt 0.219357 0.404312
vt 0.215304 0.403598
vt 0.236329 0.365268
vt 0.228856 0.407650
vn 0.0000 -0.4549 -0.8905
vn 0.6287 -0.4463 -0.6367
vn 0.0000 -0.7608 -0.6489
vn 0.4512 -0.7624 -0.4639
vn 0.0000 -0.1033 -0.9946
vn 0.7114 -0.0705 -0.6992
vn 0.0000 0.3409 -0.9401
vn 0.6525 0.3533 -0.6703
vn 0.0000 0.7340 -0.6791
vn 0.4949 0.7252 -0.4786
vn 0.9231 0.3844 -0.0003
vn 0.7047 0.7095 0.0000
vn 0.0000 0.9175 -0.3977
vn 0.2812 0.9175 -0.2812
vn 0.3977 0.9175 0.0000
vn 0.4983 0.7095 0.4983
vn 0.2812 0.9175 0.2812
vn 0.0000 0.7095 0.7047
vn 0.0000 0.9175 0.3977
vn 0.0000 1.0000 0.0000
vn 0.9025 -0.4305 -0.0099
vn 0.6466 -0.7628 -0.0097
vn 0.9998 -0.0137 -0.0077
vn 0.6521 0.3866 0.6521
vn 0.0000 0.3866 0.9222
vn 0.4572 -0.7628 0.4572
vn 0.6384 -0.4317 0.6373
vn 0.7075 -0.0117 0.7066
vn 0.0000 -0.3067 0.9518
vn 0.1366 -0.1151 0.9839
vn 0.0000 -0.7628 0.6466
vn 0.0000 -0.0200 0.9998
vn 0.3117 -0.2309 0.9217
vn 0.0989 -0.6645 0.7407
vn 0.0000 -0.8301 0.5575
vn -0.1416 -0.4039 0.9037
vn 0.0000 0.6106 0.7920
vn 0.0000 -0.0931 0.9956
vn 0.2680 -0.9217 -0.2802
vn 0.0000 -0.9189 -0.3944
vn 0.3629 -0.9318 -0.0067
vn 0.0000 -0.5123 -0.8588
vn 0.5463 -0.4792 -0.6869
vn 0.9773 -0.0358 -0.2089
vn 0.4577 -0.5379 0.7078
vn 0.2456 -0.9360 0.2519
vn 0.0000 -0.6320 0.7749
vn 0.0000 -0.9400 0.3411
vn 0.6953 0.0039 -0.7186
vn 0.0000 -0.0256 -0.9997
vn 0.6848 0.1944 -0.7022
vn 0.0000 0.1863 -0.9825
vn 0.6651 -0.2953 -0.6859
vn 0.0000 -0.3152 -0.9490
vn 0.0000 -0.7044 -0.7098
vn 0.4640 -0.7211 -0.5145
vn 0.1602 -0.9383 -0.3064
vn 0.0000 -0.9708 -0.2400
vn 0.2398 -0.9575 -0.1600
vn 0.2559 -0.9667 0.0000
vn 0.0000 -1.0000 0.0051
vn 0.9985 0.0543 -0.0053
vn 0.9823 0.1867 0.0161
vn 0.0000 -0.9462 0.3236
vn 0.2484 -0.9531 0.1728
vn 0.1753 -0.8938 0.4127
vn 0.0000 -0.5745 0.8185
vn -0.0649 -0.7620 0.6443
vn 0.0161 0.4787 0.8778
vn 0.0000 0.2026 0.9792
vn -0.4009 -0.0547 0.9145
vn 0.0000 -0.1234 0.9923
vn -0.8134 -0.4791 0.3299
vn -0.9443 0.2337 0.2315
vn -0.2336 0.7384 -0.6326
vn -0.0798 0.9741 -0.2114
vn 0.1141 0.6248 -0.7724
vn 0.4023 0.8487 -0.3432
vn 0.6736 0.5281 0.5170
vn 0.2979 0.5528 0.7782
vn -0.5083 0.8612 0.0002
vn -0.4869 0.6813 -0.5466
vn -0.1605 0.5317 0.8316
vn -0.8455 0.4265 -0.3211
vn -0.0070 -0.9990 -0.0436
vn 0.4732 -0.8518 -0.2245
vn 0.1896 -0.8539 0.4847
vn -0.4872 -0.8602 0.1505
vn 0.5269 0.4224 -0.7375
vn 0.8715 0.2588 -0.4165
vn -0.9348 0.2696 0.2311
vn 0.8212 -0.4819 -0.3056
vn 0.7451 -0.5630 0.3574
vn 0.9084 -0.2111 0.3608
vn 0.9166 -0.0391 -0.3979
vn 0.3384 -0.1972 0.9201
vn 0.9275 0.0299 0.3724
vn 0.8571 0.3022 -0.4170
vn -0.3362 -0.5554 0.7605
vn -0.4675 0.0435 0.8829
vn -0.9587 -0.0387 0.2817
vn -0.4582 -0.2079 0.8642
vn -0.1469 0.9234 -0.3546
vn 0.9705 -0.2404 -0.0205
vn 0.7039 -0.7103 -0.0039
vn 0.8222 0.3855 0.4186
vn 0.6171 0.2964 0.7289
vn 0.0000 0.3557 0.9346
vn 0.4840 -0.8642 0.1376
vn 0.9787 -0.2040 0.0234
vn 0.8528 -0.5209 0.0373
vn 0.3551 -0.5131 0.7814
vn 0.4410 -0.8965 0.0427
vn 0.7603 -0.0790 -0.6447
vn 0.9807 0.1900 0.0445
vn 0.6109 0.5213 -0.5958
vn 0.5336 0.8436 0.0591
vn 0.7014 -0.0946 0.7064
vn 0.5535 0.4880 0.6749
vn 0.4432 -0.4919 -0.7494
vn 0.2515 0.2642 -0.9311
vn 0.1475 0.2378 0.9600
vn 0.0244 0.8303 0.5567
vn 0.6494 0.3121 -0.6935
vn 0.0000 0.3343 -0.9424
vn 0.5968 0.3764 0.7086
vn 0.0000 0.3738 0.9275
vn 0.9700 0.2406 0.0338
vn 0.7350 0.0613 -0.6753
vn 0.8962 -0.4375 0.0730
vn 0.6554 0.0086 0.7552
vn 0.4276 0.3694 0.8250
vn 0.1139 0.8258 -0.5523
vn -0.0115 0.9995 0.0287
vn 0.3831 0.6934 -0.6103
vn 0.5221 0.3386 -0.7827
vn 0.2939 0.7885 0.5402
vn 0.5824 0.4132 -0.7000
vn 0.0000 0.4129 -0.9107
vn 0.5253 0.3743 0.7641
vn 0.0000 0.3090 0.9510
vn -0.4512 -0.7624 -0.4639
vn -0.6287 -0.4463 -0.6367
vn -0.7114 -0.0705 -0.6992
vn -0.6525 0.3533 -0.6703
vn -0.4949 0.7252 -0.4786
vn -0.9231 0.3844 -0.0003
vn -0.7047 0.7095 0.0000
vn -0.2812 0.9175 -0.2812
vn -0.3977 0.9175 0.0000
vn -0.4983 0.7095 0.4983
vn -0.2812 0.9175 0.2812
vn -0.6466 -0.7628 -0.0097
vn -0.9025 -0.4305 -0.0099
vn -0.9998 -0.0137 -0.0077
vn -0.6521 0.3866 0.6521
vn -0.4572 -0.7628 0.4572
vn -0.6384 -0.4317 0.6373
vn -0.7075 -0.0117 0.7066
vn -0.1366 -0.1151 0.9839
vn -0.3117 -0.2309 0.9217
vn -0.0989 -0.6645 0.7407
vn 0.1416 -0.4039 0.9037
vn -0.2680 -0.9217 -0.2802
vn -0.3629 -0.9318 -0.0067
vn -0.5463 -0.4792 -0.6869
vn -0.9773 -0.0358 -0.2089
vn -0.4577 -0.5379 0.7078
vn -0.2456 -0.9360 0.2519
vn -0.6953 0.0039 -0.7186
vn -0.6848 0.1944 -0.7022
vn -0.6651 -0.2953 -0.6859
vn -0.4640 -0.7211 -0.5145
vn -0.1602 -0.9383 -0.3064
vn -0.2398 -0.9575 -0.1600
vn -0.2559 -0.9667 0.0000
vn -0.9823 0.1867 0.0161
vn -0.9985 0.0543 -0.0053
vn -0.2484 -0.9531 0.1728
vn -0.1753 -0.8938 0.4127
vn 0.0649 -0.7620 0.6443
vn 0.4009 -0.0547 0.9145
vn -0.0161 0.4787 0.8778
vn 0.8134 -0.4791 0.3299
vn 0.9443 0.2337 0.2315
vn -0.4023 0.8487 -0.3432
vn 0.0798 0.9741 -0.2114
vn -0.1141 0.6248 -0.7724
vn 0.2336 0.7384 -0.6326
vn -0.2979 0.5528 0.7782
vn -0.6736 0.5281 0.5170
vn 0.4869 0.6813 -0.5466
vn 0.5083 0.8612 0.0002
vn 0.1605 0.5317 0.8316
vn 0.8455 0.4265 -0.3211
vn 0.0070 -0.9990 -0.0436
vn -0.1896 -0.8539 0.4847
vn -0.4732 -0.8518 -0.2245
vn 0.4872 -0.8602 0.1505
vn -0.5269 0.4224 -0.7375
vn -0.8715 0.2588 -0.4165
vn 0.9348 0.2696 0.2311
vn -0.8212 -0.4819 -0.3056
vn -0.7451 -0.5630 0.3574
vn -0.9084 -0.2111 0.3608
vn -0.9166 -0.0391 -0.3979
vn -0.3384 -0.1972 0.9201
vn -0.9275 0.0299 0.3724
vn -0.8571 0.3022 -0.4170
vn 0.3362 -0.5554 0.7605
vn 0.4675 0.0435 0.8829
vn 0.9587 -0.0387 0.2817
vn 0.4582 -0.2079 0.8642
vn 0.1469 0.9234 -0.3546
vn -0.9705 -0.2404 -0.0205
vn -0.7039 -0.7103 -0.0039
vn -0.8222 0.3855 0.4186
vn -0.6171 0.2964 0.7289
vn -0.4840 -0.8642 0.1376
vn -0.9787 -0.2040 0.0234
vn -0.8528 -0.5209 0.0373
vn -0.4410 -0.8965 0.0427
vn -0.3551 -0.5131 0.7814
vn -0.9807 0.1900 0.0445
vn -0.7603 -0.0790 -0.6447
vn -0.6109 0.5213 -0.5958
vn -0.5336 0.8436 0.0591
vn -0.7014 -0.0946 0.7064
vn -0.5535 0.4880 0.6749
vn -0.4432 -0.4919 -0.7494
vn -0.2515 0.2642 -0.9311
vn -0.1475 0.2378 0.9600
vn -0.0244 0.8303 0.5567
vn -0.6494 0.3121 -0.6935
vn -0.5968 0.3764 0.7086
vn -0.9700 0.2406 0.0338
vn -0.8962 -0.4375 0.0730
vn -0.7350 0.0613 -0.6753
vn -0.6554 0.0086 0.7552
vn -0.4276 0.3694 0.8250
vn 0.0115 0.9995 0.0287
vn -0.1139 0.8258 -0.5523
vn -0.3831 0.6934 -0.6103
vn -0.5221 0.3386 -0.7827
vn -0.2939 0.7885 0.5402
vn -0.5824 0.4132 -0.7000
vn -0.5253 0.3743 0.7641
vn -0.8543 -0.4187 -0.3080
vn -0.8450 -0.1031 -0.5246
vn -0.6365 -0.6365 -0.4356
vn -0.4740 -0.4740 -0.7420
vn -0.4187 -0.8543 -0.3080
vn -0.1031 -0.8450 -0.5246
vn -0.3285 -0.9445 0.0000
vn 0.0506 -0.9987 0.0000
vn -0.4187 -0.8543 0.3080
vn -0.1031 -0.8450 0.5246
vn -0.6365 -0.6365 0.4356
vn -0.4740 -0.4740 0.7420
vn -0.8543 -0.4187 0.3080
vn -0.8450 -0.1031 0.5246
vn -0.9445 -0.3285 0.0000
vn -0.9987 0.0506 0.0000
vn -0.7167 0.2194 -0.6619
vn -0.2487 -0.2487 -0.9361
vn 0.2194 -0.7167 -0.6619
vn 0.4133 -0.9106 0.0000
vn 0.2194 -0.7167 0.6619
vn -0.2487 -0.2487 0.9361
vn -0.7167 0.2194 0.6619
vn -0.9106 0.4133 0.0000
vn -0.5188 0.4808 -0.7068
vn -0.0190 -0.0190 -0.9996
vn 0.4808 -0.5188 -0.7068
vn 0.6878 -0.7259 0.0000
vn 0.4808 -0.5188 0.7068
vn -0.0190 -0.0190 0.9996
vn -0.5188 0.4808 0.7068
vn -0.7259 0.6878 0.0000
vn -0.3508 0.6295 -0.6932
vn 0.1393 0.1393 -0.9804
vn 0.6295 -0.3508 -0.6932
vn 0.8326 -0.5538 0.0000
vn 0.6295 -0.3508 0.6932
vn 0.1393 0.1393 0.9804
vn -0.3508 0.6295 0.6932
vn -0.5538 0.8326 0.0000
vn -0.1868 0.7350 -0.6518
vn 0.2741 0.2741 -0.9218
vn 0.7350 -0.1868 -0.6518
vn 0.9259 -0.3777 0.0000
vn 0.7350 -0.1868 0.6518
vn 0.2741 0.2741 0.9218
vn -0.1868 0.7350 0.6518
vn -0.3778 0.9259 0.0000
vn 0.1142 0.8474 -0.5184
vn 0.4808 0.4808 -0.7332
vn 0.8474 0.1142 -0.5184
vn 0.9993 -0.0376 0.0000
vn 0.8474 0.1142 0.5184
vn 0.4808 0.4808 0.7332
vn 0.1142 0.8474 0.5184
vn -0.0376 0.9993 0.0000
vn -0.7071 -0.7071 0.0000
vn 0.7071 0.7071 0.0000
vn 0.8543 -0.4187 -0.3080
vn 0.6365 -0.6365 -0.4356
vn 0.8450 -0.1031 -0.5246
vn 0.4740 -0.4740 -0.7420
vn 0.4187 -0.8543 -0.3080
vn 0.1031 -0.8450 -0.5246
vn 0.3285 -0.9445 0.0000
vn -0.0506 -0.9987 0.0000
vn 0.4187 -0.8543 0.3080
vn 0.1031 -0.8450 0.5246
vn 0.6365 -0.6365 0.4356
vn 0.4740 -0.4740 0.7420
vn 0.8543 -0.4187 0.3080
vn 0.8450 -0.1031 0.5246
vn 0.9445 -0.3285 0.0000
vn 0.9987 0.0506 0.0000
vn 0.7167 0.2194 -0.6619
vn 0.2487 -0.2487 -0.9361
vn -0.2194 -0.7167 -0.6619
vn -0.4133 -0.9106 0.0000
vn -0.2194 -0.7167 0.6619
vn 0.2487 -0.2487 0.9361
vn 0.7167 0.2194 0.6619
vn 0.9106 0.4133 0.0000
vn 0.5188 0.4808 -0.7068
vn 0.0190 -0.0190 -0.9996
vn -0.4808 -0.5188 -0.7068
vn -0.6878 -0.7259 0.0000
vn -0.4808 -0.5188 0.7068
vn 0.0190 -0.0190 0.9996
vn 0.5188 0.4808 0.7068
vn 0.7259 0.6878 0.0000
vn 0.3508 0.6295 -0.6932
vn -0.1393 0.1393 -0.9804
vn -0.6295 -0.3508 -0.6932
vn -0.8326 -0.5538 0.0000
vn -0.6295 -0.3508 0.6932
vn -0.1393 0.1393 0.9804
vn 0.3508 0.6295 0.6932
vn 0.5538 0.8326 0.0000
vn 0.1868 0.7350 -0.6518
vn -0.2741 0.2741 -0.9218
vn -0.7350 -0.1868 -0.6518
vn -0.9259 -0.3777 0.0000
vn -0.7350 -0.1868 0.6518
vn -0.2741 0.2741 0.9218
vn 0.1868 0.7350 0.6518
vn 0.3778 0.9259 0.0000
vn -0.1142 0.8474 -0.5184
vn -0.4808 0.4808 -0.7332
vn -0.8474 0.1142 -0.5184
vn -0.9993 -0.0376 0.0000
vn -0.8474 0.1142 0.5184
vn -0.4808 0.4808 0.7332
vn -0.1142 0.8474 0.5184
vn 0.0376 0.9993 0.0000
vn 0.7071 -0.7071 0.0000
vn -0.7071 0.7071 0.0000
vn -0.2117 -0.8029 -0.5571
vn 0.1203 -0.6821 -0.7212
vn -0.0111 -0.9483 -0.3170
vn 0.1586 -0.8994 -0.4073
vn 0.3348 -0.8874 -0.3170
vn 0.4736 -0.6821 -0.5571
vn 0.4499 -0.8930 0.0000
vn 0.6996 -0.7145 0.0000
vn 0.4736 -0.6821 0.5571
vn 0.3348 -0.8874 0.3170
vn 0.1203 -0.6821 0.7212
vn 0.1586 -0.8994 0.4073
vn -0.0111 -0.9483 0.3170
vn -0.2117 -0.8029 0.5571
vn -0.1174 -0.9931 0.0000
vn -0.4130 -0.9107 0.0000
vn -0.4239 -0.5217 -0.7403
vn 0.0647 -0.3670 -0.9279
vn 0.5767 -0.3452 -0.7403
vn 0.9336 -0.3583 0.0000
vn 0.5767 -0.3452 0.7403
vn 0.0647 -0.3670 0.9279
vn -0.4239 -0.5217 0.7403
vn -0.7547 -0.6560 0.0000
vn -0.5728 -0.1010 -0.8134
vn 0.0000 0.0000 -1.0000
vn 0.5728 0.1010 -0.8134
vn 0.9848 0.1736 0.0000
vn 0.5728 0.1010 0.8134
vn 0.0000 0.0000 1.0000
vn -0.5728 -0.1010 0.8134
vn -0.9848 -0.1737 0.0000
vn -0.5767 0.3452 -0.7403
vn -0.0647 0.3670 -0.9279
vn 0.4239 0.5217 -0.7403
vn 0.7547 0.6560 0.0000
vn 0.4239 0.5217 0.7403
vn -0.0647 0.3670 0.9279
vn -0.5767 0.3452 0.7403
vn -0.9336 0.3583 0.0000
vn -0.4736 0.6821 -0.5571
vn -0.1203 0.6821 -0.7212
vn 0.2117 0.8029 -0.5571
vn 0.4130 0.9107 0.0000
vn 0.2117 0.8029 0.5571
vn -0.1203 0.6821 0.7212
vn -0.4736 0.6821 0.5571
vn -0.6996 0.7145 0.0000
vn -0.3348 0.8874 -0.3170
vn -0.1586 0.8994 -0.4073
vn 0.0111 0.9483 -0.3170
vn 0.1174 0.9931 0.0000
vn 0.0111 0.9483 0.3170
vn -0.1586 0.8994 0.4073
vn -0.3348 0.8874 0.3170
vn -0.4499 0.8930 0.0000
vn 0.1736 -0.9848 0.0000
vn -0.1737 0.9848 0.0000
vn -0.1586 -0.8994 -0.4073
vn -0.1203 -0.6821 -0.7212
vn 0.0111 -0.9483 -0.3170
vn 0.2117 -0.8029 -0.5571
vn -0.3348 -0.8874 -0.3170
vn -0.4736 -0.6821 -0.5571
vn -0.4499 -0.8930 0.0000
vn -0.6996 -0.7145 0.0000
vn -0.3348 -0.8874 0.3170
vn -0.4736 -0.6821 0.5571
vn -0.1586 -0.8994 0.4073
vn -0.1203 -0.6821 0.7212
vn 0.0111 -0.9483 0.3170
vn 0.2117 -0.8029 0.5571
vn 0.1174 -0.9931 0.0000
vn 0.4130 -0.9107 0.0000
vn -0.0647 -0.3670 -0.9279
vn 0.4239 -0.5217 -0.7403
vn -0.5767 -0.3452 -0.7403
vn -0.9336 -0.3583 0.0000
vn -0.5767 -0.3452 0.7403
vn -0.0647 -0.3670 0.9279
vn 0.4239 -0.5217 0.7403
vn 0.7547 -0.6560 0.0000
vn 0.5728 -0.1010 -0.8134
vn -0.5728 0.1010 -0.8134
vn -0.9848 0.1736 0.0000
vn -0.5728 0.1010 0.8134
vn 0.5728 -0.1010 0.8134
vn 0.9848 -0.1737 0.0000
vn 0.5767 0.3452 -0.7403
vn 0.0647 0.3670 -0.9279
vn -0.4239 0.5217 -0.7403
vn -0.7547 0.6560 0.0000
vn -0.4239 0.5217 0.7403
vn 0.0647 0.3670 0.9279
vn 0.5767 0.3452 0.7403
vn 0.9336 0.3583 0.0000
vn 0.4736 0.6821 -0.5571
vn 0.1203 0.6821 -0.7212
vn -0.2117 0.8029 -0.5571
vn -0.4130 0.9107 0.0000
vn -0.2117 0.8029 0.5571
vn 0.1203 0.6821 0.7212
vn 0.4736 0.6821 0.5571
vn 0.6996 0.7145 0.0000
vn 0.3348 0.8874 -0.3170
vn 0.1586 0.8994 -0.4073
vn -0.0111 0.9483 -0.3170
vn -0.1174 0.9931 0.0000
vn -0.0111 0.9483 0.3170
vn 0.1586 0.8994 0.4073
vn 0.3348 0.8874 0.3170
vn 0.4499 0.8930 0.0000
vn -0.1736 -0.9848 0.0000
vn 0.1737 0.9848 0.0000
usemtl None.004
s 1
f 1/1/1 2/2/2 3/3/3
f 3/3/3 2/2/2 4/4/4
f 5/5/5 6/6/6 1/1/1
f 1/1/1 6/6/6 2/2/2
f 7/7/7 8/8/8 5/5/5
f 5/5/5 8/8/8 6/6/6
f 7/7/7 9/9/9 8/8/8
f 8/8/8 9/9/9 10/10/10
f 8/8/8 10/10/10 11/11/11
f 11/11/11 10/10/10 12/12/12
f 9/9/9 13/13/13 10/10/10
f 10/10/10 13/13/13 14/14/14
f 10/10/10 14/14/14 12/12/12
f 12/12/12 14/14/14 15/15/15
f 12/16/12 15/17/15 16/18/16
f 16/18/16 15/17/15 17/19/17
f 16/18/16 17/19/17 18/20/18
f 18/20/18 17/19/17 19/21/19
f 13/13/13 20/22/20 14/14/14
f 14/14/14 20/22/20 15/15/15
f 15/17/15 20/23/20 17/19/17
f 17/19/17 20/23/20 19/21/19
f 21/24/21 22/25/22 2/2/2
f 2/2/2 22/25/22 4/4/4
f 6/6/6 23/26/23 2/2/2
f 2/2/2 23/26/23 21/24/21
f 8/8/8 11/11/11 6/6/6
f 6/6/6 11/11/11 23/26/23
f 16/18/16 24/27/24 12/16/12
f 12/16/12 24/27/24 11/28/11
f 18/20/18 25/29/25 16/18/16
f 16/18/16 25/29/25 24/27/24
f 26/30/26 22/31/22 27/32/27
f 27/32/27 22/31/22 21/33/21
f 21/33/21 23/34/23 27/32/27
f 27/32/27 23/34/23 28/35/28
f 23/34/23 11/28/11 28/35/28
f 28/35/28 11/28/11 24/27/24
f 28/35/28 24/27/24 29/36/29
f 29/36/29 24/27/24 25/29/25
f 27/32/27 30/37/30 26/30/26
f 26/30/26 30/37/30 31/38/31
f 30/37/30 32/39/32 31/38/31
f 27/32/27 28/35/28 33/40/33
f 29/36/29 34/41/34 28/35/28
f 28/35/28 34/41/34 33/40/33
f 34/42/34 29/43/29 35/44/35
f 33/40/33 30/37/30 27/32/27
f 33/45/33 36/46/36 37/47/37
f 36/46/36 33/45/33 34/42/34
f 36/46/36 34/42/34 35/44/35
f 37/47/37 32/48/32 30/49/30
f 36/46/36 38/50/38 37/47/37
f 35/44/35 38/50/38 36/46/36
f 37/47/37 30/49/30 33/45/33
f 4/4/4 39/51/39 3/3/3
f 3/3/3 39/51/39 40/52/40
f 22/25/22 41/53/41 4/4/4
f 4/4/4 41/53/41 39/51/39
f 42/54/42 40/52/40 43/55/43
f 43/55/43 40/52/40 39/51/39
f 43/55/43 39/51/39 44/56/44
f 44/56/44 39/51/39 41/53/41
f 44/57/44 41/58/41 45/59/45
f 45/59/45 41/58/41 46/60/46
f 45/59/45 46/60/46 47/61/47
f 47/61/47 46/60/46 48/62/48
f 26/30/26 46/60/46 22/31/22
f 22/31/22 46/60/46 41/58/41
f 31/38/31 48/62/48 26/30/26
f 26/30/26 48/62/48 46/60/46
f 49/63/49 50/64/50 51/65/51
f 51/65/51 50/64/50 52/66/52
f 53/67/53 54/68/54 49/63/49
f 49/63/49 54/68/54 50/64/50
f 55/69/55 54/68/54 56/70/56
f 56/70/56 54/68/54 53/67/53
f 55/69/55 57/71/57 58/72/58
f 57/71/57 59/73/59 58/72/58
f 60/74/60 61/75/61 59/73/59
f 59/73/59 61/75/61 58/72/58
f 57/71/57 55/69/55 56/70/56
f 62/76/62 49/63/49 63/77/63
f 63/77/63 49/63/49 51/65/51
f 64/78/64 61/75/61 65/79/65
f 65/79/65 61/75/61 60/74/60
f 66/80/66 64/78/64 65/79/65
f 67/81/67 64/78/64 66/80/66
f 66/80/66 68/82/68 67/81/67
f 69/83/69 70/84/70 71/85/71
f 71/85/71 70/84/70 72/86/72
f 68/82/68 71/85/71 67/81/67
f 67/81/67 71/85/71 72/86/72
f 73/87/73 74/88/74 71/85/71
f 71/85/71 74/88/74 69/83/69
f 68/82/68 73/87/73 71/85/71
f 75/89/75 76/90/76 77/91/77
f 77/91/77 76/90/76 78/92/78
f 78/92/78 76/90/76 79/93/79
f 79/93/79 76/90/76 80/94/80
f 81/95/81 76/90/76 82/96/82
f 82/96/82 76/90/76 75/89/75
f 83/97/83 80/94/80 81/95/81
f 81/95/81 80/94/80 76/90/76
f 84/98/84 81/95/81 82/96/82
f 85/99/85 86/100/86 87/101/87
f 85/99/85 87/101/87 88/102/88
f 89/103/89 78/92/78 90/104/90
f 78/92/78 89/103/89 77/91/77
f 81/95/81 84/98/84 91/105/91
f 86/100/86 85/99/85 92/106/92
f 93/107/93 86/100/86 92/106/92
f 86/100/86 93/107/93 87/101/87
f 94/108/94 92/106/92 95/109/95
f 93/107/93 96/110/96 87/101/87
f 97/111/97 90/104/90 79/93/79
f 79/93/79 90/104/90 78/92/78
f 79/93/79 96/110/96 97/111/97
f 92/106/92 94/108/94 93/107/93
f 98/112/98 95/109/95 92/106/92
f 95/109/95 98/112/98 90/104/90
f 90/104/90 98/112/98 89/103/89
f 90/104/90 97/111/97 95/109/95
f 95/109/95 97/111/97 94/108/94
f 94/108/94 97/111/97 96/110/96
f 94/108/94 96/110/96 93/107/93
f 88/102/88 73/87/73 85/99/85
f 99/113/99 73/87/73 88/102/88
f 99/113/99 87/101/87 96/110/96
f 88/102/88 87/101/87 99/113/99
f 96/110/96 80/94/80 83/97/83
f 91/105/91 100/114/100 81/95/81
f 81/95/81 100/114/100 83/97/83
f 83/97/83 100/114/100 96/110/96
f 84/98/84 74/88/74 91/105/91
f 91/105/91 74/88/74 101/115/101
f 102/116/102 100/114/100 101/115/101
f 101/115/101 100/114/100 91/105/91
f 73/87/73 101/115/101 74/88/74
f 96/110/96 100/114/100 102/116/102
f 102/116/102 73/87/73 99/113/99
f 96/110/96 102/116/102 99/113/99
f 96/110/96 79/93/79 80/94/80
f 73/87/73 102/116/102 101/115/101
f 74/88/74 103/117/103 69/83/69
f 103/117/103 75/89/75 77/91/77
f 75/89/75 103/117/103 82/96/82
f 103/117/103 84/98/84 82/96/82
f 103/117/103 77/91/77 89/103/89
f 103/117/103 74/88/74 84/98/84
f 103/117/103 89/103/89 98/112/98
f 49/63/49 62/76/62 53/67/53
f 53/67/53 62/76/62 104/118/104
f 56/70/56 53/67/53 105/119/105
f 105/119/105 53/67/53 104/118/104
f 57/71/57 56/70/56 59/73/59
f 59/73/59 56/70/56 105/119/105
f 60/74/60 59/73/59 105/119/105
f 60/74/60 105/119/105 65/79/65
f 85/99/85 73/87/73 68/82/68
f 106/120/106 107/121/107 69/83/69
f 107/121/107 108/122/108 69/83/69
f 108/122/108 70/84/70 69/83/69
f 62/76/62 63/77/63 106/120/106
f 106/120/106 63/77/63 107/121/107
f 98/112/98 106/120/106 103/117/103
f 69/83/69 103/117/103 106/120/106
f 68/82/68 66/80/66 109/123/109
f 105/119/105 109/123/109 65/79/65
f 65/79/65 109/123/109 66/80/66
f 106/120/106 110/124/110 62/76/62
f 62/76/62 110/124/110 104/118/104
f 104/118/104 110/124/110 105/119/105
f 105/119/105 110/124/110 109/123/109
f 92/106/92 85/99/85 109/123/109
f 109/123/109 85/99/85 68/82/68
f 110/124/110 92/106/92 109/123/109
f 110/124/110 98/112/98 92/106/92
f 98/112/98 110/124/110 106/120/106
f 111/125/111 112/126/112 113/127/113
f 111/125/111 114/128/114 115/129/115
f 114/128/114 116/130/116 115/129/115
f 116/130/116 117/131/117 115/129/115
f 111/125/111 115/129/115 118/132/118
f 119/133/119 118/132/118 115/129/115
f 117/131/117 119/133/119 115/129/115
f 112/126/112 111/125/111 118/132/118
f 111/125/111 120/134/120 114/128/114
f 114/128/114 121/135/121 116/130/116
f 120/134/120 121/135/121 114/128/114
f 113/127/113 120/134/120 111/125/111
f 119/133/119 122/136/122 118/132/118
f 117/131/117 123/137/123 119/133/119
f 118/132/118 122/136/122 112/126/112
f 123/137/123 122/136/122 119/133/119
f 51/65/51 52/66/52 124/138/124
f 124/138/124 52/66/52 125/139/125
f 107/121/107 126/140/126 108/122/108
f 108/122/108 126/140/126 127/141/127
f 128/142/128 63/77/63 124/138/124
f 124/138/124 63/77/63 51/65/51
f 107/121/107 63/77/63 126/140/126
f 126/140/126 63/77/63 128/142/128
f 129/143/129 120/134/120 130/144/130
f 130/144/130 120/134/120 113/127/113
f 113/127/113 112/126/112 130/144/130
f 130/144/130 112/126/112 131/145/131
f 112/126/112 122/136/122 131/145/131
f 131/145/131 122/136/122 132/146/132
f 128/142/128 129/143/129 130/144/130
f 131/145/131 128/142/128 130/144/130
f 124/138/124 129/143/129 128/142/128
f 131/145/131 126/140/126 128/142/128
f 117/131/117 133/147/133 134/148/134
f 133/147/133 117/131/117 116/130/116
f 116/130/116 121/135/121 133/147/133
f 133/147/133 121/135/121 135/149/135
f 135/149/135 121/135/121 136/150/136
f 136/150/136 43/151/43 135/149/135
f 45/152/45 137/153/137 44/154/44
f 44/154/44 137/153/137 134/148/134
f 134/148/134 137/153/137 123/137/123
f 134/148/134 123/137/123 117/131/117
f 44/154/44 135/149/135 43/151/43
f 134/148/134 133/147/133 44/154/44
f 44/154/44 133/147/133 135/149/135
f 124/138/124 125/139/125 138/155/138
f 138/155/138 125/139/125 139/156/139
f 138/155/138 139/156/139 43/151/43
f 43/151/43 139/156/139 42/157/42
f 129/143/129 124/138/124 138/155/138
f 138/155/138 136/150/136 129/143/129
f 136/150/136 121/135/121 129/143/129
f 129/143/129 121/135/121 120/134/120
f 43/151/43 136/150/136 138/155/138
f 122/136/122 123/137/123 132/146/132
f 132/146/132 123/137/123 137/153/137
f 45/152/45 132/146/132 137/153/137
f 132/146/132 140/158/140 131/145/131
f 126/140/126 131/145/131 140/158/140
f 132/146/132 45/152/45 140/158/140
f 126/140/126 140/158/140 127/141/127
f 127/141/127 140/158/140 141/159/141
f 140/158/140 45/152/45 141/159/141
f 141/159/141 45/152/45 47/160/47
f 142/161/142 143/162/143 3/3/3
f 3/3/3 143/162/143 1/1/1
f 143/162/143 144/163/144 1/1/1
f 1/1/1 144/163/144 5/5/5
f 144/163/144 145/164/145 5/5/5
f 5/5/5 145/164/145 7/7/7
f 7/7/7 145/164/145 9/9/9
f 9/9/9 145/164/145 146/165/146
f 145/164/145 147/166/147 146/165/146
f 146/165/146 147/166/147 148/167/148
f 9/9/9 146/165/146 13/13/13
f 13/13/13 146/165/146 149/168/149
f 146/165/146 148/167/148 149/168/149
f 149/168/149 148/167/148 150/169/150
f 148/170/148 151/171/151 150/172/150
f 150/172/150 151/171/151 152/173/152
f 151/171/151 18/20/18 152/173/152
f 152/173/152 18/20/18 19/21/19
f 13/13/13 149/168/149 20/22/20
f 149/168/149 150/169/150 20/22/20
f 150/172/150 152/173/152 20/23/20
f 152/173/152 19/21/19 20/23/20
f 142/161/142 153/174/153 143/162/143
f 143/162/143 153/174/153 154/175/154
f 144/163/144 143/162/143 155/176/155
f 155/176/155 143/162/143 154/175/154
f 145/164/145 144/163/144 147/166/147
f 147/166/147 144/163/144 155/176/155
f 151/171/151 148/170/148 156/177/156
f 156/177/156 148/170/148 147/178/147
f 18/20/18 151/171/151 25/29/25
f 25/29/25 151/171/151 156/177/156
f 157/179/157 158/180/158 153/181/153
f 153/181/153 158/180/158 154/182/154
f 154/182/154 158/180/158 155/183/155
f 155/183/155 158/180/158 159/184/159
f 155/183/155 159/184/159 147/178/147
f 147/178/147 159/184/159 156/177/156
f 159/184/159 29/36/29 156/177/156
f 156/177/156 29/36/29 25/29/25
f 158/180/158 157/179/157 160/185/160
f 157/179/157 31/38/31 160/185/160
f 160/185/160 31/38/31 32/39/32
f 158/180/158 161/186/161 159/184/159
f 161/186/161 162/187/162 159/184/159
f 159/184/159 162/187/162 29/36/29
f 162/188/162 35/44/35 29/43/29
f 161/186/161 158/180/158 160/185/160
f 161/189/161 37/47/37 163/190/163
f 163/190/163 162/188/162 161/189/161
f 163/190/163 35/44/35 162/188/162
f 37/47/37 160/191/160 32/48/32
f 163/190/163 37/47/37 38/50/38
f 35/44/35 163/190/163 38/50/38
f 37/47/37 161/189/161 160/191/160
f 40/52/40 164/192/164 3/3/3
f 3/3/3 164/192/164 142/161/142
f 164/192/164 165/193/165 142/161/142
f 142/161/142 165/193/165 153/174/153
f 42/54/42 166/194/166 40/52/40
f 40/52/40 166/194/166 164/192/164
f 166/194/166 167/195/167 164/192/164
f 164/192/164 167/195/167 165/193/165
f 167/196/167 168/197/168 165/198/165
f 165/198/165 168/197/168 169/199/169
f 168/197/168 47/61/47 169/199/169
f 169/199/169 47/61/47 48/62/48
f 157/179/157 153/181/153 169/199/169
f 169/199/169 153/181/153 165/198/165
f 31/38/31 157/179/157 48/62/48
f 48/62/48 157/179/157 169/199/169
f 170/200/170 171/201/171 50/64/50
f 50/64/50 171/201/171 52/66/52
f 50/64/50 54/68/54 170/200/170
f 170/200/170 54/68/54 172/202/172
f 55/69/55 173/203/173 54/68/54
f 54/68/54 173/203/173 172/202/172
f 55/69/55 58/72/58 174/204/174
f 174/204/174 58/72/58 175/205/175
f 58/72/58 61/75/61 175/205/175
f 175/205/175 61/75/61 176/206/176
f 174/204/174 173/203/173 55/69/55
f 171/201/171 170/200/170 177/207/177
f 177/207/177 170/200/170 178/208/178
f 176/206/176 61/75/61 179/209/179
f 179/209/179 61/75/61 64/78/64
f 180/210/180 179/209/179 64/78/64
f 67/81/67 180/210/180 64/78/64
f 180/210/180 67/81/67 181/211/181
f 72/86/72 70/84/70 182/212/182
f 182/212/182 70/84/70 183/213/183
f 72/86/72 182/212/182 67/81/67
f 67/81/67 182/212/182 181/211/181
f 184/214/184 182/212/182 185/215/185
f 182/212/182 183/213/183 185/215/185
f 181/211/181 182/212/182 184/214/184
f 186/216/186 187/217/187 188/218/188
f 188/218/188 187/217/187 189/219/189
f 190/220/190 187/217/187 191/221/191
f 191/221/191 187/217/187 186/216/186
f 189/219/189 187/217/187 192/222/192
f 192/222/192 187/217/187 193/223/193
f 194/224/194 193/223/193 190/220/190
f 190/220/190 193/223/193 187/217/187
f 195/225/195 192/222/192 193/223/193
f 196/226/196 197/227/197 198/228/198
f 196/226/196 199/229/199 197/227/197
f 200/230/200 201/231/201 186/216/186
f 186/216/186 188/218/188 200/230/200
f 193/223/193 202/232/202 195/225/195
f 198/228/198 203/233/203 196/226/196
f 204/234/204 203/233/203 198/228/198
f 198/228/198 197/227/197 204/234/204
f 205/235/205 206/236/206 203/233/203
f 204/234/204 197/227/197 207/237/207
f 208/238/208 191/221/191 201/231/201
f 201/231/201 191/221/191 186/216/186
f 191/221/191 208/238/208 207/237/207
f 203/233/203 204/234/204 205/235/205
f 209/239/209 203/233/203 206/236/206
f 206/236/206 201/231/201 209/239/209
f 209/239/209 201/231/201 200/230/200
f 201/231/201 206/236/206 208/238/208
f 208/238/208 206/236/206 205/235/205
f 205/235/205 207/237/207 208/238/208
f 205/235/205 204/234/204 207/237/207
f 199/229/199 196/226/196 184/214/184
f 210/240/210 199/229/199 184/214/184
f 210/240/210 207/237/207 197/227/197
f 199/229/199 210/240/210 197/227/197
f 207/237/207 194/224/194 190/220/190
f 194/224/194 211/241/211 193/223/193
f 193/223/193 211/241/211 202/232/202
f 194/224/194 207/237/207 211/241/211
f 195/225/195 202/232/202 185/215/185
f 185/215/185 202/232/202 212/242/212
f 202/232/202 211/241/211 212/242/212
f 212/242/212 211/241/211 213/243/213
f 184/214/184 185/215/185 212/242/212
f 207/237/207 213/243/213 211/241/211
f 213/243/213 210/240/210 184/214/184
f 207/237/207 210/240/210 213/243/213
f 207/237/207 190/220/190 191/221/191
f 184/214/184 212/242/212 213/243/213
f 185/215/185 183/213/183 214/244/214
f 214/244/214 188/218/188 189/219/189
f 189/219/189 192/222/192 214/244/214
f 214/244/214 192/222/192 195/225/195
f 214/244/214 200/230/200 188/218/188
f 214/244/214 195/225/195 185/215/185
f 214/244/214 209/239/209 200/230/200
f 215/245/215 178/208/178 172/202/172
f 172/202/172 178/208/178 170/200/170
f 215/245/215 172/202/172 216/246/216
f 216/246/216 172/202/172 173/203/173
f 216/246/216 173/203/173 175/205/175
f 175/205/175 173/203/173 174/204/174
f 176/206/176 216/246/216 175/205/175
f 176/206/176 179/209/179 216/246/216
f 196/226/196 181/211/181 184/214/184
f 217/247/217 183/213/183 218/248/218
f 218/248/218 183/213/183 108/122/108
f 183/213/183 70/84/70 108/122/108
f 218/248/218 177/207/177 217/247/217
f 217/247/217 177/207/177 178/208/178
f 209/239/209 214/244/214 217/247/217
f 183/213/183 217/247/217 214/244/214
f 181/211/181 219/249/219 180/210/180
f 180/210/180 219/249/219 179/209/179
f 179/209/179 219/249/219 216/246/216
f 215/245/215 220/250/220 178/208/178
f 178/208/178 220/250/220 217/247/217
f 219/249/219 220/250/220 216/246/216
f 216/246/216 220/250/220 215/245/215
f 203/233/203 219/249/219 196/226/196
f 219/249/219 181/211/181 196/226/196
f 220/250/220 219/249/219 203/233/203
f 220/250/220 203/233/203 209/239/209
f 209/239/209 217/247/217 220/250/220
f 221/251/221 222/252/222 223/253/223
f 221/251/221 224/254/224 225/255/225
f 225/255/225 224/254/224 226/256/226
f 226/256/226 224/254/224 227/257/227
f 221/251/221 228/258/228 224/254/224
f 229/259/229 224/254/224 228/258/228
f 227/257/227 224/254/224 229/259/229
f 223/253/223 228/258/228 221/251/221
f 221/251/221 225/255/225 230/260/230
f 225/255/225 226/256/226 231/261/231
f 230/260/230 225/255/225 231/261/231
f 222/252/222 221/251/221 230/260/230
f 229/259/229 228/258/228 232/262/232
f 227/257/227 229/259/229 233/263/233
f 228/258/228 223/253/223 232/262/232
f 233/263/233 229/259/229 232/262/232
f 125/139/125 52/66/52 234/264/234
f 234/264/234 52/66/52 171/201/171
f 127/141/127 235/265/235 108/122/108
f 108/122/108 235/265/235 218/248/218
f 236/266/236 234/264/234 177/207/177
f 177/207/177 234/264/234 171/201/171
f 218/248/218 235/265/235 177/207/177
f 177/207/177 235/265/235 236/266/236
f 222/252/222 230/260/230 237/267/237
f 237/267/237 230/260/230 238/268/238
f 239/269/239 223/253/223 237/267/237
f 237/267/237 223/253/223 222/252/222
f 240/270/240 232/262/232 239/269/239
f 239/269/239 232/262/232 223/253/223
f 236/266/236 237/267/237 238/268/238
f 239/269/239 237/267/237 236/266/236
f 234/264/234 236/266/236 238/268/238
f 239/269/239 236/266/236 235/265/235
f 227/257/227 241/271/241 242/272/242
f 242/272/242 226/256/226 227/257/227
f 226/256/226 242/272/242 231/261/231
f 242/272/242 243/273/243 231/261/231
f 231/261/231 243/273/243 244/274/244
f 244/274/244 243/273/243 166/275/166
f 168/276/168 167/277/167 245/278/245
f 167/277/167 241/271/241 245/278/245
f 245/278/245 241/271/241 233/263/233
f 241/271/241 227/257/227 233/263/233
f 167/277/167 166/275/166 243/273/243
f 243/273/243 242/272/242 167/277/167
f 167/277/167 242/272/242 241/271/241
f 139/156/139 125/139/125 246/279/246
f 246/279/246 125/139/125 234/264/234
f 42/157/42 139/156/139 166/275/166
f 166/275/166 139/156/139 246/279/246
f 238/268/238 246/279/246 234/264/234
f 246/279/246 238/268/238 244/274/244
f 230/260/230 231/261/231 238/268/238
f 238/268/238 231/261/231 244/274/244
f 166/275/166 246/279/246 244/274/244
f 245/278/245 233/263/233 240/270/240
f 240/270/240 233/263/233 232/262/232
f 168/276/168 245/278/245 240/270/240
f 240/270/240 239/269/239 247/280/247
f 235/265/235 247/280/247 239/269/239
f 240/270/240 247/280/247 168/276/168
f 141/159/141 247/280/247 127/141/127
f 127/141/127 247/280/247 235/265/235
f 47/160/47 168/276/168 141/159/141
f 141/159/141 168/276/168 247/280/247
f 248/281/248 249/282/249 250/283/250
f 250/283/250 249/282/249 251/284/251
f 250/283/250 251/284/251 252/285/252
f 252/285/252 251/284/251 253/286/253
f 252/285/252 253/286/253 254/287/254
f 254/287/254 253/286/253 255/288/255
f 254/287/254 255/288/255 256/289/256
f 256/289/256 255/288/255 257/290/257
f 256/289/256 257/290/257 258/291/258
f 258/291/258 257/290/257 259/292/259
f 258/291/258 259/292/259 260/293/260
f 260/293/260 259/292/259 261/294/261
f 260/293/260 261/294/261 262/295/262
f 262/295/262 261/294/261 263/296/263
f 262/295/262 263/296/263 248/281/248
f 248/281/248 263/296/263 249/282/249
f 249/282/249 264/297/264 251/284/251
f 251/284/251 264/297/264 265/298/265
f 251/284/251 265/298/265 253/286/253
f 253/286/253 265/298/265 266/299/266
f 253/286/253 266/299/266 255/288/255
f 255/288/255 266/299/266 267/300/267
f 255/288/255 267/300/267 257/290/257
f 257/290/257 267/300/267 268/301/268
f 257/290/257 268/301/268 259/292/259
f 259/292/259 268/301/268 269/302/269
f 259/292/259 269/302/269 261/294/261
f 261/294/261 269/302/269 270/303/270
f 261/294/261 270/303/270 263/296/263
f 263/296/263 270/303/270 271/304/271
f 263/296/263 271/304/271 249/282/249
f 249/282/249 271/304/271 264/297/264
f 264/297/264 272/305/272 265/298/265
f 265/298/265 272/305/272 273/306/273
f 265/298/265 273/306/273 266/299/266
f 266/299/266 273/306/273 274/307/274
f 266/299/266 274/307/274 267/300/267
f 267/300/267 274/307/274 275/308/275
f 267/300/267 275/308/275 268/301/268
f 268/301/268 275/308/275 276/309/276
f 268/301/268 276/309/276 269/302/269
f 269/302/269 276/309/276 277/310/277
f 269/302/269 277/310/277 270/303/270
f 270/303/270 277/310/277 278/311/278
f 270/303/270 278/311/278 271/304/271
f 271/304/271 278/311/278 279/312/279
f 271/304/271 279/312/279 264/297/264
f 264/297/264 279/312/279 272/305/272
f 272/305/272 280/313/280 273/306/273
f 273/306/273 280/313/280 281/314/281
f 273/306/273 281/314/281 274/307/274
f 274/307/274 281/314/281 282/315/282
f 274/307/274 282/315/282 275/308/275
f 275/308/275 282/315/282 283/316/283
f 275/308/275 283/316/283 276/309/276
f 276/309/276 283/316/283 284/317/284
f 276/309/276 284/317/284 277/310/277
f 277/310/277 284/317/284 285/318/285
f 277/310/277 285/318/285 278/311/278
f 278/311/278 285/318/285 286/319/286
f 278/311/278 286/319/286 279/312/279
f 279/312/279 286/319/286 287/320/287
f 279/312/279 287/320/287 272/305/272
f 272/305/272 287/320/287 280/313/280
f 280/313/280 288/321/288 281/314/281
f 281/314/281 288/321/288 289/322/289
f 281/314/281 289/322/289 282/315/282
f 282/315/282 289/322/289 290/323/290
f 282/315/282 290/323/290 283/316/283
f 283/316/283 290/323/290 291/324/291
f 283/316/283 291/324/291 284/317/284
f 284/317/284 291/324/291 292/325/292
f 284/317/284 292/325/292 285/318/285
f 285/318/285 292/325/292 293/326/293
f 285/318/285 293/326/293 286/319/286
f 286/319/286 293/326/293 294/327/294
f 286/319/286 294/327/294 287/320/287
f 287/320/287 294/327/294 295/328/295
f 287/320/287 295/328/295 280/313/280
f 280/313/280 295/328/295 288/321/288
f 288/321/288 296/329/296 289/322/289
f 289/322/289 296/329/296 297/330/297
f 289/322/289 297/330/297 290/323/290
f 290/323/290 297/330/297 298/331/298
f 290/323/290 298/331/298 291/324/291
f 291/324/291 298/331/298 299/332/299
f 291/324/291 299/332/299 292/325/292
f 292/325/292 299/332/299 300/333/300
f 292/325/292 300/333/300 293/326/293
f 293/326/293 300/333/300 301/334/301
f 293/326/293 301/334/301 294/327/294
f 294/327/294 301/334/301 302/335/302
f 294/327/294 302/335/302 295/328/295
f 295/328/295 302/335/302 303/336/303
f 295/328/295 303/336/303 288/321/288
f 288/321/288 303/336/303 296/329/296
f 250/283/250 304/337/304 248/281/248
f 252/285/252 304/337/304 250/283/250
f 254/287/254 304/337/304 252/285/252
f 256/289/256 304/337/304 254/287/254
f 258/291/258 304/337/304 256/289/256
f 260/293/260 304/337/304 258/291/258
f 262/295/262 304/337/304 260/293/260
f 248/281/248 304/337/304 262/295/262
f 296/329/296 305/338/305 297/330/297
f 297/330/297 305/338/305 298/331/298
f 298/331/298 305/338/305 299/332/299
f 299/332/299 305/338/305 300/333/300
f 300/333/300 305/338/305 301/334/301
f 301/334/301 305/338/305 302/335/302
f 302/335/302 305/338/305 303/336/303
f 303/336/303 305/338/305 296/329/296
f 306/339/306 307/340/307 308/341/308
f 308/341/308 307/340/307 309/342/309
f 307/340/307 310/343/310 309/342/309
f 309/342/309 310/343/310 311/344/311
f 310/343/310 312/345/312 311/344/311
f 311/344/311 312/345/312 313/346/313
f 312/345/312 314/347/314 313/346/313
f 313/346/313 314/347/314 315/348/315
f 314/347/314 316/349/316 315/348/315
f 315/348/315 316/349/316 317/350/317
f 316/349/316 318/351/318 317/350/317
f 317/350/317 318/351/318 319/352/319
f 318/351/318 320/353/320 319/352/319
f 319/352/319 320/353/320 321/354/321
f 320/353/320 306/339/306 321/354/321
f 321/354/321 306/339/306 308/341/308
f 308/341/308 309/342/309 322/355/322
f 322/355/322 309/342/309 323/356/323
f 309/342/309 311/344/311 323/356/323
f 323/356/323 311/344/311 324/357/324
f 311/344/311 313/346/313 324/357/324
f 324/357/324 313/346/313 325/358/325
f 313/346/313 315/348/315 325/358/325
f 325/358/325 315/348/315 326/359/326
f 315/348/315 317/350/317 326/359/326
f 326/359/326 317/350/317 327/360/327
f 317/350/317 319/352/319 327/360/327
f 327/360/327 319/352/319 328/361/328
f 319/352/319 321/354/321 328/361/328
f 328/361/328 321/354/321 329/362/329
f 321/354/321 308/341/308 329/362/329
f 329/362/329 308/341/308 322/355/322
f 322/355/322 323/356/323 330/363/330
f 330/363/330 323/356/323 331/364/331
f 323/356/323 324/357/324 331/364/331
f 331/364/331 324/357/324 332/365/332
f 324/357/324 325/358/325 332/365/332
f 332/365/332 325/358/325 333/366/333
f 325/358/325 326/359/326 333/366/333
f 333/366/333 326/359/326 334/367/334
f 326/359/326 327/360/327 334/367/334
f 334/367/334 327/360/327 335/368/335
f 327/360/327 328/361/328 335/368/335
f 335/368/335 328/361/328 336/369/336
f 328/361/328 329/362/329 336/369/336
f 336/369/336 329/362/329 337/370/337
f 329/362/329 322/355/322 337/370/337
f 337/370/337 322/355/322 330/363/330
f 330/363/330 331/364/331 338/371/338
f 338/371/338 331/364/331 339/372/339
f 331/364/331 332/365/332 339/372/339
f 339/372/339 332/365/332 340/373/340
f 332/365/332 333/366/333 340/373/340
f 340/373/340 333/366/333 341/374/341
f 333/366/333 334/367/334 341/374/341
f 341/374/341 334/367/334 342/375/342
f 334/367/334 335/368/335 342/375/342
f 342/375/342 335/368/335 343/376/343
f 335/368/335 336/369/336 343/376/343
f 343/376/343 336/369/336 344/377/344
f 336/369/336 337/370/337 344/377/344
f 344/377/344 337/370/337 345/378/345
f 337/370/337 330/363/330 345/378/345
f 345/378/345 330/363/330 338/371/338
f 338/371/338 339/372/339 346/379/346
f 346/379/346 339/372/339 347/380/347
f 339/372/339 340/373/340 347/380/347
f 347/380/347 340/373/340 348/381/348
f 340/373/340 341/374/341 348/381/348
f 348/381/348 341/374/341 349/382/349
f 341/374/341 342/375/342 349/382/349
f 349/382/349 342/375/342 350/383/350
f 342/375/342 343/376/343 350/383/350
f 350/383/350 343/376/343 351/384/351
f 343/376/343 344/377/344 351/384/351
f 351/384/351 344/377/344 352/385/352
f 344/377/344 345/378/345 352/385/352
f 352/385/352 345/378/345 353/386/353
f 345/378/345 338/371/338 353/386/353
f 353/386/353 338/371/338 346/379/346
f 346/379/346 347/380/347 354/387/354
f 354/387/354 347/380/347 355/388/355
f 347/380/347 348/381/348 355/388/355
f 355/388/355 348/381/348 356/389/356
f 348/381/348 349/382/349 356/389/356
f 356/389/356 349/382/349 357/390/357
f 349/382/349 350/383/350 357/390/357
f 357/390/357 350/383/350 358/391/358
f 350/383/350 351/384/351 358/391/358
f 358/391/358 351/384/351 359/392/359
f 351/384/351 352/385/352 359/392/359
f 359/392/359 352/385/352 360/393/360
f 352/385/352 353/386/353 360/393/360
f 360/393/360 353/386/353 361/394/361
f 353/386/353 346/379/346 361/394/361
f 361/394/361 346/379/346 354/387/354
f 307/340/307 306/339/306 362/395/362
f 310/343/310 307/340/307 362/395/362
f 312/345/312 310/343/310 362/395/362
f 314/347/314 312/345/312 362/395/362
f 316/349/316 314/347/314 362/395/362
f 318/351/318 316/349/316 362/395/362
f 320/353/320 318/351/318 362/395/362
f 306/339/306 320/353/320 362/395/362
f 354/387/354 355/388/355 363/396/363
f 355/388/355 356/389/356 363/396/363
f 356/389/356 357/390/357 363/396/363
f 357/390/357 358/391/358 363/396/363
f 358/391/358 359/392/359 363/396/363
f 359/392/359 360/393/360 363/396/363
f 360/393/360 361/394/361 363/396/363
f 361/394/361 354/387/354 363/396/363
f 364/397/364 365/398/365 366/399/366
f 366/399/366 365/398/365 367/400/367
f 367/400/367 365/398/365 368/401/368
f 368/401/368 365/398/365 369/402/369
f 368/401/368 369/402/369 370/403/370
f 370/403/370 369/402/369 371/404/371
f 371/404/371 372/405/372 370/403/370
f 370/403/370 372/405/372 373/406/373
f 372/405/372 374/407/374 373/406/373
f 373/406/373 374/407/374 375/408/375
f 375/408/375 374/407/374 376/409/376
f 376/409/376 374/407/374 377/410/377
f 376/409/376 377/410/377 378/411/378
f 378/411/378 377/410/377 379/412/379
f 379/412/379 364/397/364 378/411/378
f 378/411/378 364/397/364 366/399/366
f 380/413/380 381/414/381 364/397/364
f 364/397/364 381/414/381 365/398/365
f 365/398/365 381/414/381 369/402/369
f 369/402/369 381/414/381 382/415/382
f 369/402/369 382/415/382 371/404/371
f 371/404/371 382/415/382 383/416/383
f 383/416/383 384/417/384 371/404/371
f 371/404/371 384/417/384 372/405/372
f 384/417/384 385/418/385 372/405/372
f 372/405/372 385/418/385 374/407/374
f 374/407/374 385/418/385 377/410/377
f 377/410/377 385/418/385 386/419/386
f 377/410/377 386/419/386 379/412/379
f 379/412/379 386/419/386 387/420/387
f 387/420/387 380/413/380 379/412/379
f 379/412/379 380/413/380 364/397/364
f 388/421/388 389/422/389 380/413/380
f 380/413/380 389/422/389 381/414/381
f 381/414/381 389/422/389 382/415/382
f 382/415/382 389/422/389 390/423/390
f 382/415/382 390/423/390 383/416/383
f 383/416/383 390/423/390 391/424/391
f 391/424/391 392/425/392 383/416/383
f 383/416/383 392/425/392 384/417/384
f 392/425/392 393/426/393 384/417/384
f 384/417/384 393/426/393 385/418/385
f 385/418/385 393/426/393 386/419/386
f 386/419/386 393/426/393 394/427/394
f 386/419/386 394/427/394 387/420/387
f 387/420/387 394/427/394 395/428/395
f 395/428/395 388/421/388 387/420/387
f 387/420/387 388/421/388 380/413/380
f 388/421/388 396/429/396 389/422/389
f 389/422/389 396/429/396 397/430/397
f 397/430/397 398/431/398 389/422/389
f 389/422/389 398/431/398 390/423/390
f 398/431/398 399/432/399 390/423/390
f 390/423/390 399/432/399 391/424/391
f 391/424/391 399/432/399 392/425/392
f 392/425/392 399/432/399 400/433/400
f 392/425/392 400/433/400 393/426/393
f 393/426/393 400/433/400 401/434/401
f 401/434/401 402/435/402 393/426/393
f 393/426/393 402/435/402 394/427/394
f 402/435/402 403/436/403 394/427/394
f 394/427/394 403/436/403 395/428/395
f 395/428/395 403/436/403 388/421/388
f 388/421/388 403/436/403 396/429/396
f 396/429/396 404/437/404 397/430/397
f 397/430/397 404/437/404 405/438/405
f 405/438/405 406/439/406 397/430/397
f 397/430/397 406/439/406 398/431/398
f 406/439/406 407/440/407 398/431/398
f 398/431/398 407/440/407 399/432/399
f 399/432/399 407/440/407 400/433/400
f 400/433/400 407/440/407 408/441/408
f 400/433/400 408/441/408 401/434/401
f 401/434/401 408/441/408 409/442/409
f 409/442/409 410/443/410 401/434/401
f 401/434/401 410/443/410 402/435/402
f 410/443/410 411/444/411 402/435/402
f 402/435/402 411/444/411 403/436/403
f 403/436/403 411/444/411 396/429/396
f 396/429/396 411/444/411 404/437/404
f 404/437/404 412/445/412 405/438/405
f 405/438/405 412/445/412 413/446/413
f 413/446/413 414/447/414 405/438/405
f 405/438/405 414/447/414 406/439/406
f 414/447/414 415/448/415 406/439/406
f 406/439/406 415/448/415 407/440/407
f 407/440/407 415/448/415 408/441/408
f 408/441/408 415/448/415 416/449/416
f 408/441/408 416/449/416 409/442/409
f 409/442/409 416/449/416 417/450/417
f 417/450/417 418/451/418 409/442/409
f 409/442/409 418/451/418 410/443/410
f 418/451/418 419/452/419 410/443/410
f 410/443/410 419/452/419 411/444/411
f 411/444/411 419/452/419 404/437/404
f 404/437/404 419/452/419 412/445/412
f 367/400/367 420/453/420 366/399/366
f 368/401/368 420/453/420 367/400/367
f 370/403/370 420/453/420 368/401/368
f 373/406/373 420/453/420 370/403/370
f 375/408/375 420/453/420 373/406/373
f 376/409/376 420/453/420 375/408/375
f 378/411/378 420/453/420 376/409/376
f 366/399/366 420/453/420 378/411/378
f 412/445/412 421/454/421 413/446/413
f 413/446/413 421/454/421 414/447/414
f 414/447/414 421/454/421 415/448/415
f 415/448/415 421/454/421 416/449/416
f 416/449/416 421/454/421 417/450/417
f 417/450/417 421/454/421 418/451/418
f 418/451/418 421/454/421 419/452/419
f 419/452/419 421/454/421 412/445/412
f 422/455/422 423/456/423 424/457/424
f 424/457/424 423/456/423 425/458/425
f 422/455/422 426/459/426 423/456/423
f 423/456/423 426/459/426 427/460/427
f 426/459/426 428/461/428 427/460/427
f 427/460/427 428/461/428 429/462/429
f 430/463/430 431/464/431 428/461/428
f 428/461/428 431/464/431 429/462/429
f 432/465/432 433/466/433 430/463/430
f 430/463/430 433/466/433 431/464/431
f 432/465/432 434/467/434 433/466/433
f 433/466/433 434/467/434 435/468/435
f 434/467/434 436/469/436 435/468/435
f 435/468/435 436/469/436 437/470/437
f 424/457/424 425/458/425 436/469/436
f 436/469/436 425/458/425 437/470/437
f 423/456/423 438/471/438 425/458/425
f 425/458/425 438/471/438 439/472/439
f 423/456/423 427/460/427 438/471/438
f 438/471/438 427/460/427 440/473/440
f 427/460/427 429/462/429 440/473/440
f 440/473/440 429/462/429 441/474/441
f 431/464/431 442/475/442 429/462/429
f 429/462/429 442/475/442 441/474/441
f 433/466/433 443/476/443 431/464/431
f 431/464/431 443/476/443 442/475/442
f 433/466/433 435/468/435 443/476/443
f 443/476/443 435/468/435 444/477/444
f 435/468/435 437/470/437 444/477/444
f 444/477/444 437/470/437 445/478/445
f 425/458/425 439/472/439 437/470/437
f 437/470/437 439/472/439 445/478/445
f 438/471/438 446/479/389 439/472/439
f 439/472/439 446/479/389 447/480/446
f 438/471/438 440/473/440 446/479/389
f 446/479/389 440/473/440 448/481/447
f 440/473/440 441/474/441 448/481/447
f 448/481/447 441/474/441 449/482/448
f 442/475/442 450/483/449 441/474/441
f 441/474/441 450/483/449 449/482/448
f 443/476/443 451/484/393 442/475/442
f 442/475/442 451/484/393 450/483/449
f 443/476/443 444/477/444 451/484/393
f 451/484/393 444/477/444 452/485/450
f 444/477/444 445/478/445 452/485/450
f 452/485/450 445/478/445 453/486/451
f 439/472/439 447/480/446 445/478/445
f 445/478/445 447/480/446 453/486/451
f 447/480/446 446/479/389 454/487/452
f 454/487/452 446/479/389 455/488/453
f 448/481/447 456/489/454 446/479/389
f 446/479/389 456/489/454 455/488/453
f 449/482/448 457/490/455 448/481/447
f 448/481/447 457/490/455 456/489/454
f 449/482/448 450/483/449 457/490/455
f 457/490/455 450/483/449 458/491/456
f 450/483/449 451/484/393 458/491/456
f 458/491/456 451/484/393 459/492/457
f 452/485/450 460/493/458 451/484/393
f 451/484/393 460/493/458 459/492/457
f 453/486/451 461/494/459 452/485/450
f 452/485/450 461/494/459 460/493/458
f 453/486/451 447/480/446 461/494/459
f 461/494/459 447/480/446 454/487/452
f 454/487/452 455/488/453 462/495/460
f 462/495/460 455/488/453 463/496/461
f 456/489/454 464/497/462 455/488/453
f 455/488/453 464/497/462 463/496/461
f 457/490/455 465/498/463 456/489/454
f 456/489/454 465/498/463 464/497/462
f 457/490/455 458/491/456 465/498/463
f 465/498/463 458/491/456 466/499/464
f 458/491/456 459/492/457 466/499/464
f 466/499/464 459/492/457 467/500/465
f 460/493/458 468/501/466 459/492/457
f 459/492/457 468/501/466 467/500/465
f 461/494/459 469/502/467 460/493/458
f 460/493/458 469/502/467 468/501/466
f 461/494/459 454/487/452 469/502/467
f 469/502/467 454/487/452 462/495/460
f 462/495/460 463/496/461 470/503/468
f 470/503/468 463/496/461 471/504/469
f 464/497/462 472/505/470 463/496/461
f 463/496/461 472/505/470 471/504/469
f 465/498/463 473/506/471 464/497/462
f 464/497/462 473/506/471 472/505/470
f 465/498/463 466/499/464 473/506/471
f 473/506/471 466/499/464 474/507/472
f 466/499/464 467/500/465 474/507/472
f 474/507/472 467/500/465 475/508/473
f 468/501/466 476/509/474 467/500/465
f 467/500/465 476/509/474 475/508/473
f 469/502/467 477/510/475 468/501/466
f 468/501/466 477/510/475 476/509/474
f 469/502/467 462/495/460 477/510/475
f 477/510/475 462/495/460 470/503/468
f 422/455/422 424/457/424 478/511/476
f 426/459/426 422/455/422 478/511/476
f 428/461/428 426/459/426 478/511/476
f 430/463/430 428/461/428 478/511/476
f 432/465/432 430/463/430 478/511/476
f 434/467/434 432/465/432 478/511/476
f 436/469/436 434/467/434 478/511/476
f 424/457/424 436/469/436 478/511/476
f 470/503/468 471/504/469 479/512/477
f 471/504/469 472/505/470 479/512/477
f 472/505/470 473/506/471 479/512/477
f 473/506/471 474/507/472 479/512/477
f 474/507/472 475/508/473 479/512/477
f 475/508/473 476/509/474 479/512/477
f 476/509/474 477/510/475 479/512/477
f 477/510/475 470/503/468 479/512/477
