# Blender v2.79 (sub 0) OBJ File: ''
# www.blender.org
mtllib reunicluscover.mtl
o polySurface2.002
v 2.840879 10.157722 -0.897896
v 2.474689 10.679813 0.001788
v 3.870032 10.830229 -0.620334
v 3.612553 11.201238 0.000597
v 3.944776 9.050739 0.789732
v 4.393188 8.860935 0.001811
v 4.626558 10.077572 0.544088
v 4.935853 9.946651 0.000614
v 3.244888 9.730444 -1.225976
v 4.148701 10.535510 -0.846630
v 3.942008 9.049131 -0.786157
v 4.624649 10.076462 -0.542894
v 1.976666 9.334152 0.787005
v 2.332016 8.950562 1.081737
v 2.840879 10.158808 0.897264
v 3.384494 9.671446 1.248966
v 3.870032 10.830978 0.617892
v 4.244994 10.494814 0.860482
v 2.144516 8.519520 2.144517
v 0.000000 8.519519 3.032804
v 2.801945 6.700281 2.801946
v 0.000000 6.700281 3.962549
v 1.160604 9.735096 1.160606
v 0.000000 9.735096 1.641343
v 2.975083 8.289532 0.693054
v 3.369494 8.122584 0.000023
v 3.962548 6.700281 0.000001
v 0.000000 9.735096 -1.641339
v 0.000000 10.161950 0.000002
v 1.160604 9.735096 -1.160602
v 2.144516 8.519520 -2.144515
v 2.801945 6.700282 -2.801944
v 0.000000 8.519521 -3.032802
v 0.000000 6.700282 -3.962547
v 2.972648 8.288115 -0.693052
v 1.976666 9.333198 -0.791966
v 2.332016 8.957373 -1.080537
v 1.661691 9.728758 0.000002
v 1.641341 0.765142 0.000000
v 3.032803 1.655088 0.000000
v 1.160604 0.765142 1.160604
v 2.144516 1.655088 2.144516
v 1.264282 0.608888 0.000000
v 1.160604 0.765142 -1.160604
v 0.580302 0.235097 -1.578480
v 0.632141 -0.033080 -0.000000
v 0.000000 -0.298625 -0.000000
v 0.000000 0.045788 -1.808915
v 1.072258 1.655087 2.588659
v 0.580302 0.235097 1.578480
v 0.536129 1.221290 3.138723
v 0.000000 0.045788 1.808915
v 0.000000 1.026593 3.342440
v 2.144516 1.655088 -2.144516
v 1.072258 1.655088 -2.588659
v 0.536129 1.221290 -3.138723
v 0.000000 1.026595 -3.342440
v 3.032803 4.554343 3.032804
v 2.801945 2.986987 2.801945
v 4.289031 4.554343 0.000001
v 3.962548 2.986987 0.000000
v 0.347123 1.554264 3.482195
v 0.954157 2.321037 3.245833
v 0.000000 4.554343 4.289032
v 0.000000 3.770664 4.125791
v 0.000000 2.986986 4.193254
v 0.688553 2.986986 3.688956
v 0.000000 1.887238 3.825667
v 3.032803 4.554344 -3.032802
v 2.801945 2.986988 -2.801944
v 0.954157 2.321038 -3.245832
v 0.347123 1.554266 -3.482195
v 0.000000 4.554344 -4.289030
v 0.000000 3.770667 -4.125790
v 0.688553 2.986988 -3.688956
v 0.000000 2.986988 -4.193254
v 0.000000 1.887240 -3.825667
v 4.989752 11.162045 -0.123400
v 5.011353 11.392532 0.012690
v 5.067554 11.129594 0.012477
v 4.990229 11.162322 0.148346
v 4.736729 11.443240 0.012473
v 4.801099 11.350489 -0.142760
v 4.801100 11.350677 0.166796
v 4.870766 11.276808 -0.199334
v 4.894839 11.266634 0.227444
v 4.905297 10.866907 0.284504
v 5.059947 10.801451 0.012767
v 4.714518 11.075531 0.442701
v 4.527040 11.243616 0.321405
v 4.398297 11.428743 0.012758
v 4.527037 11.243238 -0.297707
v 4.666371 11.095880 -0.410855
v 4.904342 10.866352 -0.258988
v -3.612553 11.201238 0.000597
v -2.474689 10.679813 0.001788
v -3.870032 10.830229 -0.620334
v -2.840879 10.157722 -0.897896
v -4.935853 9.946651 0.000614
v -4.393188 8.860935 0.001811
v -4.626558 10.077572 0.544088
v -3.944776 9.050739 0.789732
v -4.148701 10.535510 -0.846630
v -3.244888 9.730444 -1.225976
v -4.624649 10.076462 -0.542894
v -3.942008 9.049131 -0.786157
v -3.384494 9.671446 1.248966
v -2.332016 8.950562 1.081737
v -2.840879 10.158808 0.897264
v -1.976666 9.334152 0.787005
v -4.244994 10.494814 0.860482
v -3.870032 10.830978 0.617892
v -2.144516 8.519520 2.144517
v -2.801945 6.700281 2.801946
v -1.160604 9.735096 1.160606
v -2.975083 8.289532 0.693054
v -3.369494 8.122584 0.000023
v -3.962548 6.700281 0.000001
v -1.160604 9.735096 -1.160602
v -2.144516 8.519520 -2.144515
v -2.801945 6.700282 -2.801944
v -2.972648 8.288115 -0.693052
v -2.332016 8.957373 -1.080537
v -1.976666 9.333198 -0.791966
v -1.661691 9.728758 0.000002
v -1.641341 0.765142 0.000000
v -1.160604 0.765142 1.160604
v -3.032803 1.655088 0.000000
v -2.144516 1.655088 2.144516
v -1.264282 0.608888 0.000000
v -1.160604 0.765142 -1.160604
v -0.580302 0.235097 -1.578480
v -0.632141 -0.033080 -0.000000
v -1.072258 1.655087 2.588659
v -0.536129 1.221290 3.138723
v -0.580302 0.235097 1.578480
v -2.144516 1.655088 -2.144516
v -1.072258 1.655088 -2.588659
v -0.536129 1.221290 -3.138723
v -3.032803 4.554343 3.032804
v -4.289031 4.554343 0.000001
v -2.801945 2.986987 2.801945
v -3.962548 2.986987 0.000000
v -0.347123 1.554264 3.482195
v -0.954157 2.321037 3.245833
v -0.688552 2.986986 3.688956
v -3.032803 4.554344 -3.032802
v -2.801945 2.986988 -2.801944
v -0.954157 2.321038 -3.245832
v -0.347123 1.554266 -3.482195
v -0.688553 2.986988 -3.688956
v -4.989752 11.162045 -0.123400
v -5.067554 11.129594 0.012477
v -5.011353 11.392532 0.012690
v -4.990229 11.162322 0.148346
v -4.736729 11.443240 0.012473
v -4.801099 11.350489 -0.142760
v -4.801100 11.350677 0.166796
v -4.870766 11.276808 -0.199334
v -4.894839 11.266634 0.227444
v -5.059947 10.801451 0.012767
v -4.905297 10.866907 0.284504
v -4.714518 11.075531 0.442701
v -4.527040 11.243616 0.321405
v -4.398297 11.428743 0.012758
v -4.527037 11.243238 -0.297707
v -4.666371 11.095880 -0.410855
v -4.904342 10.866352 -0.258988
vt 0.661541 0.831576
vt 0.644309 0.856145
vt 0.709973 0.863224
vt 0.697856 0.880683
vt 0.713490 0.779482
vt 0.734592 0.770550
vt 0.745574 0.827804
vt 0.760129 0.821643
vt 0.680554 0.811469
vt 0.723086 0.849354
vt 0.713360 0.779407
vt 0.745484 0.827752
vt 0.620872 0.792819
vt 0.637595 0.774768
vt 0.661541 0.831627
vt 0.687124 0.808692
vt 0.709973 0.863259
vt 0.727618 0.847439
vt 0.628771 0.754483
vt 0.527852 0.754483
vt 0.659709 0.668871
vt 0.527852 0.668871
vt 0.582469 0.811688
vt 0.527852 0.811688
vt 0.667857 0.743660
vt 0.686418 0.735804
vt 0.714326 0.668871
vt 0.527852 0.811688
vt 0.527852 0.831775
vt 0.582469 0.811688
vt 0.628771 0.754483
vt 0.659709 0.668871
vt 0.527852 0.754483
vt 0.527852 0.668871
vt 0.667742 0.743594
vt 0.620872 0.792774
vt 0.637595 0.775088
vt 0.606050 0.811389
vt 0.605092 0.389568
vt 0.670573 0.431449
vt 0.582469 0.389568
vt 0.628771 0.431449
vt 0.587348 0.382215
vt 0.582469 0.389568
vt 0.555160 0.364625
vt 0.557600 0.352005
vt 0.527852 0.339508
vt 0.527852 0.355716
vt 0.578311 0.431449
vt 0.555160 0.364625
vt 0.553082 0.411034
vt 0.527852 0.355716
vt 0.527852 0.401872
vt 0.628771 0.431449
vt 0.578311 0.431449
vt 0.553082 0.411034
vt 0.527852 0.401872
vt 0.670573 0.567885
vt 0.659709 0.494127
vt 0.729690 0.567885
vt 0.714326 0.494127
vt 0.544187 0.426704
vt 0.572754 0.462788
vt 0.527852 0.567885
vt 0.527852 0.531006
vt 0.527852 0.494127
vt 0.560255 0.494127
vt 0.527852 0.442373
vt 0.670573 0.567885
vt 0.659709 0.494127
vt 0.572754 0.462788
vt 0.544187 0.426704
vt 0.527852 0.567885
vt 0.527852 0.531006
vt 0.560255 0.494127
vt 0.527852 0.494127
vt 0.527852 0.442373
vt 0.762666 0.878839
vt 0.763682 0.889685
vt 0.766327 0.877311
vt 0.762688 0.878852
vt 0.750759 0.892071
vt 0.753788 0.887707
vt 0.753788 0.887715
vt 0.757066 0.884239
vt 0.758199 0.883760
vt 0.758691 0.864950
vt 0.765969 0.861869
vt 0.749713 0.874767
vt 0.740891 0.882677
vt 0.734832 0.891389
vt 0.740891 0.882659
vt 0.747448 0.875725
vt 0.758646 0.864923
vt 0.697856 0.880683
vt 0.644309 0.856145
vt 0.709973 0.863224
vt 0.661541 0.831576
vt 0.760129 0.821643
vt 0.734592 0.770550
vt 0.745574 0.827804
vt 0.713490 0.779482
vt 0.723086 0.849354
vt 0.680554 0.811469
vt 0.745484 0.827752
vt 0.713360 0.779407
vt 0.687124 0.808692
vt 0.637595 0.774768
vt 0.661541 0.831627
vt 0.620872 0.792819
vt 0.727618 0.847439
vt 0.709973 0.863259
vt 0.628771 0.754483
vt 0.659709 0.668871
vt 0.582469 0.811688
vt 0.667857 0.743660
vt 0.686418 0.735804
vt 0.714326 0.668871
vt 0.582469 0.811688
vt 0.628771 0.754483
vt 0.659709 0.668871
vt 0.667742 0.743594
vt 0.637595 0.775088
vt 0.620872 0.792774
vt 0.606050 0.811389
vt 0.605092 0.389568
vt 0.582469 0.389568
vt 0.670573 0.431449
vt 0.628771 0.431449
vt 0.587348 0.382215
vt 0.582469 0.389568
vt 0.555160 0.364625
vt 0.557600 0.352005
vt 0.578311 0.431449
vt 0.553082 0.411034
vt 0.555160 0.364625
vt 0.628771 0.431449
vt 0.578311 0.431449
vt 0.553082 0.411034
vt 0.670573 0.567885
vt 0.729690 0.567885
vt 0.659709 0.494127
vt 0.714326 0.494127
vt 0.544187 0.426704
vt 0.572754 0.462788
vt 0.560255 0.494127
vt 0.670573 0.567885
vt 0.659709 0.494127
vt 0.572754 0.462788
vt 0.544187 0.426704
vt 0.560255 0.494127
vt 0.762666 0.878839
vt 0.766327 0.877311
vt 0.763682 0.889685
vt 0.762688 0.878852
vt 0.750759 0.892071
vt 0.753788 0.887707
vt 0.753788 0.887715
vt 0.757066 0.884239
vt 0.758199 0.883760
vt 0.765969 0.861869
vt 0.758691 0.864950
vt 0.749713 0.874767
vt 0.740891 0.882677
vt 0.734832 0.891389
vt 0.740891 0.882659
vt 0.747448 0.875725
vt 0.758646 0.864923
vn -0.3864 0.5480 -0.7419
vn -0.5983 0.8013 0.0012
vn -0.1732 0.6793 -0.7131
vn -0.3545 0.9350 -0.0013
vn 0.5316 -0.4596 0.7114
vn 0.7757 -0.6310 -0.0002
vn 0.7135 -0.1832 0.6762
vn 0.9528 -0.3036 -0.0031
vn 0.0371 0.0905 -0.9952
vn 0.2588 0.2914 -0.9209
vn 0.5137 -0.4370 -0.7383
vn 0.6902 -0.1540 -0.7070
vn 0.0558 0.7918 0.6082
vn 0.3801 0.4668 0.7985
vn -0.3747 0.5368 0.7559
vn 0.0960 0.0450 0.9944
vn -0.1743 0.6656 0.7256
vn 0.3073 0.2523 0.9175
vn 0.5474 0.5819 0.6014
vn 0.0000 0.5936 0.8048
vn 0.6730 0.2897 0.6805
vn 0.0000 0.2958 0.9552
vn 0.3205 0.8720 0.3699
vn 0.0000 0.8604 0.5095
vn 0.7624 -0.0142 0.6470
vn 0.9716 -0.2365 -0.0017
vn 0.9632 0.2688 -0.0002
vn 0.0000 0.8604 -0.5095
vn 0.0000 1.0000 0.0000
vn 0.3199 0.8722 -0.3699
vn 0.5477 0.5812 -0.6017
vn 0.6730 0.2899 -0.6804
vn 0.0000 0.5936 -0.8048
vn 0.0000 0.2958 -0.9552
vn 0.7614 -0.0003 -0.6482
vn 0.0584 0.7940 -0.6050
vn 0.3894 0.4618 -0.7969
vn -0.1062 0.9943 0.0002
vn 0.4794 -0.8776 0.0000
vn 0.7161 -0.6980 0.0000
vn 0.6156 -0.7403 0.2702
vn 0.5128 -0.7052 0.4895
vn 0.5589 -0.8292 0.0000
vn 0.6156 -0.7403 -0.2702
vn 0.5811 -0.7553 -0.3029
vn 0.5574 -0.8303 0.0000
vn 0.0000 -1.0000 0.0000
vn 0.0000 -0.9185 -0.3952
vn 0.5486 -0.6093 0.5724
vn 0.5811 -0.7553 0.3029
vn 0.6525 -0.4994 0.5699
vn 0.0000 -0.9185 0.3952
vn 0.0000 -0.7023 0.7119
vn 0.5128 -0.7052 -0.4895
vn 0.5486 -0.6093 -0.5724
vn 0.6525 -0.4994 -0.5699
vn 0.0000 -0.7023 -0.7119
vn 0.7068 -0.0261 0.7068
vn 0.6634 -0.3708 0.6498
vn 0.9996 -0.0261 0.0000
vn 0.9252 -0.3794 0.0000
vn 0.5552 -0.3671 0.7463
vn 0.5032 -0.4209 0.7547
vn 0.0000 -0.0261 0.9996
vn 0.0008 -0.1336 0.9910
vn 0.0000 -0.1151 0.9933
vn 0.4723 -0.2268 0.8517
vn 0.0000 -0.3435 0.9391
vn 0.7072 -0.0255 -0.7065
vn 0.6640 -0.3715 -0.6488
vn 0.5032 -0.4209 -0.7547
vn 0.5552 -0.3671 -0.7463
vn 0.0000 -0.0261 -0.9996
vn -0.0008 -0.1336 -0.9910
vn 0.4701 -0.2305 -0.8519
vn 0.0000 -0.1151 -0.9933
vn 0.0000 -0.3435 -0.9391
vn 0.7831 0.1458 -0.6044
vn 0.6991 0.7149 -0.0078
vn 0.9971 0.0759 -0.0016
vn 0.8126 0.1240 0.5695
vn 0.0441 0.9990 0.0005
vn 0.1314 0.7980 -0.5881
vn 0.1278 0.7972 0.5899
vn 0.4610 0.4945 -0.7368
vn 0.5063 0.4808 0.7158
vn 0.7755 -0.0104 0.6312
vn 0.9959 -0.0897 0.0018
vn 0.3981 0.3858 0.8322
vn -0.0466 0.7377 0.6735
vn -0.1797 0.9837 0.0047
vn -0.0400 0.7481 -0.6624
vn 0.3556 0.4157 -0.8371
vn 0.7495 0.0204 -0.6616
vn 0.3545 0.9350 -0.0013
vn 0.5983 0.8013 0.0012
vn 0.1732 0.6793 -0.7131
vn 0.3864 0.5480 -0.7419
vn -0.9528 -0.3036 -0.0031
vn -0.7757 -0.6310 -0.0002
vn -0.7135 -0.1832 0.6762
vn -0.5316 -0.4596 0.7114
vn -0.2588 0.2914 -0.9209
vn -0.0371 0.0905 -0.9952
vn -0.6902 -0.1540 -0.7070
vn -0.5137 -0.4370 -0.7383
vn -0.0960 0.0450 0.9944
vn -0.3801 0.4668 0.7985
vn 0.3747 0.5368 0.7559
vn -0.0558 0.7918 0.6082
vn -0.3073 0.2523 0.9175
vn 0.1743 0.6656 0.7256
vn -0.5474 0.5819 0.6014
vn -0.6730 0.2897 0.6805
vn -0.3205 0.8720 0.3699
vn -0.7624 -0.0142 0.6470
vn -0.9716 -0.2365 -0.0017
vn -0.9632 0.2688 -0.0002
vn -0.3199 0.8722 -0.3699
vn -0.5477 0.5812 -0.6017
vn -0.6730 0.2899 -0.6804
vn -0.7614 -0.0003 -0.6482
vn -0.3894 0.4618 -0.7969
vn -0.0584 0.7940 -0.6050
vn 0.1062 0.9943 0.0002
vn -0.4794 -0.8776 0.0000
vn -0.6156 -0.7403 0.2702
vn -0.7161 -0.6980 0.0000
vn -0.5128 -0.7052 0.4895
vn -0.5589 -0.8292 0.0000
vn -0.6156 -0.7403 -0.2702
vn -0.5811 -0.7553 -0.3029
vn -0.5574 -0.8303 0.0000
vn -0.5486 -0.6093 0.5724
vn -0.6525 -0.4994 0.5699
vn -0.5811 -0.7553 0.3029
vn -0.5128 -0.7052 -0.4895
vn -0.5486 -0.6093 -0.5724
vn -0.6525 -0.4994 -0.5699
vn -0.7072 -0.0255 0.7065
vn -0.9996 -0.0261 0.0000
vn -0.6640 -0.3715 0.6488
vn -0.9252 -0.3794 0.0000
vn -0.5552 -0.3671 0.7463
vn -0.5032 -0.4209 0.7547
vn -0.4701 -0.2305 0.8519
vn -0.7068 -0.0261 -0.7068
vn -0.6634 -0.3708 -0.6498
vn -0.5032 -0.4209 -0.7547
vn -0.5552 -0.3671 -0.7463
vn -0.4723 -0.2268 -0.8517
vn -0.7831 0.1458 -0.6044
vn -0.9971 0.0759 -0.0016
vn -0.6991 0.7149 -0.0078
vn -0.8126 0.1240 0.5695
vn -0.0441 0.9990 0.0005
vn -0.1314 0.7980 -0.5881
vn -0.1278 0.7972 0.5899
vn -0.4610 0.4945 -0.7368
vn -0.5063 0.4808 0.7158
vn -0.9959 -0.0897 0.0018
vn -0.7755 -0.0104 0.6312
vn -0.3981 0.3858 0.8322
vn 0.0466 0.7377 0.6735
vn 0.1797 0.9837 0.0047
vn 0.0400 0.7481 -0.6624
vn -0.3556 0.4157 -0.8371
vn -0.7495 0.0204 -0.6616
usemtl None.005
s 1
f 1/1/1 2/2/2 3/3/3
f 3/3/3 2/2/2 4/4/4
f 5/5/5 6/6/6 7/7/7
f 7/7/7 6/6/6 8/8/8
f 9/9/9 1/1/1 10/10/10
f 10/10/10 1/1/1 3/3/3
f 9/9/9 10/10/10 11/11/11
f 11/11/11 10/10/10 12/12/12
f 11/11/11 12/12/12 6/6/6
f 6/6/6 12/12/12 8/8/8
f 13/13/13 14/14/14 15/15/15
f 15/15/15 14/14/14 16/16/16
f 15/15/15 16/16/16 17/17/17
f 17/17/17 16/16/16 18/18/18
f 15/15/15 17/17/17 2/2/2
f 2/2/2 17/17/17 4/4/4
f 19/19/19 20/20/20 21/21/21
f 21/21/21 20/20/20 22/22/22
f 23/23/23 24/24/24 19/19/19
f 19/19/19 24/24/24 20/20/20
f 25/25/25 19/19/19 21/21/21
f 19/19/19 25/25/25 14/14/14
f 25/25/25 26/26/26 5/5/5
f 5/5/5 26/26/26 6/6/6
f 5/5/5 16/16/16 25/25/25
f 25/25/25 16/16/16 14/14/14
f 16/16/16 5/5/5 18/18/18
f 18/18/18 5/5/5 7/7/7
f 27/27/27 26/26/26 25/25/25
f 21/21/21 27/27/27 25/25/25
f 23/23/23 19/19/19 14/14/14
f 23/23/23 14/14/14 13/13/13
f 28/28/28 29/29/29 30/30/30
f 31/31/31 32/32/32 33/33/33
f 33/33/33 32/32/32 34/34/34
f 30/30/30 31/31/31 28/28/28
f 28/28/28 31/31/31 33/33/33
f 32/32/32 31/31/31 35/35/35
f 36/36/36 1/1/1 37/37/37
f 37/37/37 1/1/1 9/9/9
f 37/37/37 9/9/9 35/35/35
f 35/35/35 9/9/9 11/11/11
f 35/35/35 11/11/11 26/26/26
f 26/26/26 11/11/11 6/6/6
f 35/35/35 26/26/26 27/27/27
f 35/35/35 27/27/27 32/32/32
f 23/23/23 29/29/29 24/24/24
f 30/30/30 29/29/29 38/38/38
f 38/38/38 29/29/29 23/23/23
f 36/36/36 38/38/38 1/1/1
f 1/1/1 38/38/38 2/2/2
f 13/13/13 15/15/15 38/38/38
f 38/38/38 15/15/15 2/2/2
f 37/37/37 35/35/35 31/31/31
f 13/13/13 38/38/38 23/23/23
f 37/37/37 31/31/31 30/30/30
f 36/36/36 37/37/37 30/30/30
f 30/30/30 38/38/38 36/36/36
f 39/39/39 40/40/40 41/41/41
f 41/41/41 40/40/40 42/42/42
f 43/43/43 39/39/39 41/41/41
f 44/44/44 39/39/39 43/43/43
f 45/45/45 44/44/44 46/46/46
f 46/46/46 44/44/44 43/43/43
f 46/46/46 47/47/47 45/45/45
f 45/45/45 47/47/47 48/48/48
f 41/41/41 42/42/42 49/49/49
f 41/41/41 49/49/49 50/50/50
f 50/50/50 49/49/49 51/51/51
f 43/43/43 41/41/41 46/46/46
f 46/46/46 41/41/41 50/50/50
f 52/52/52 47/47/47 50/50/50
f 50/50/50 47/47/47 46/46/46
f 53/53/53 52/52/52 51/51/51
f 51/51/51 52/52/52 50/50/50
f 44/44/44 54/54/54 39/39/39
f 39/39/39 54/54/54 40/40/40
f 55/55/55 54/54/54 44/44/44
f 44/44/44 45/45/45 55/55/55
f 55/55/55 45/45/45 56/56/56
f 57/57/57 56/56/56 48/48/48
f 48/48/48 56/56/56 45/45/45
f 58/58/58 59/59/59 60/60/60
f 60/60/60 59/59/59 61/61/61
f 60/60/60 27/27/27 58/58/58
f 58/58/58 27/27/27 21/21/21
f 42/42/42 40/40/40 59/59/59
f 59/59/59 40/40/40 61/61/61
f 51/51/51 49/49/49 62/62/62
f 62/62/62 49/49/49 63/63/63
f 53/53/53 51/51/51 62/62/62
f 21/21/21 22/22/22 58/58/58
f 58/58/58 22/22/22 64/64/64
f 65/65/65 66/66/66 67/67/67
f 66/66/66 68/68/68 63/63/63
f 63/63/63 68/68/68 62/62/62
f 67/67/67 66/66/66 63/63/63
f 62/62/62 68/68/68 53/53/53
f 58/58/58 64/64/64 59/59/59
f 64/64/64 65/65/65 59/59/59
f 65/65/65 67/67/67 59/59/59
f 67/67/67 63/63/63 59/59/59
f 59/59/59 63/63/63 42/42/42
f 63/63/63 49/49/49 42/42/42
f 60/60/60 69/69/69 27/27/27
f 27/27/27 69/69/69 32/32/32
f 40/40/40 54/54/54 61/61/61
f 61/61/61 54/54/54 70/70/70
f 61/61/61 70/70/70 60/60/60
f 60/60/60 70/70/70 69/69/69
f 71/71/71 55/55/55 72/72/72
f 72/72/72 55/55/55 56/56/56
f 72/72/72 56/56/56 57/57/57
f 34/34/34 32/32/32 73/73/73
f 73/73/73 32/32/32 69/69/69
f 73/73/73 69/69/69 74/74/74
f 74/74/74 69/69/69 75/75/75
f 70/70/70 75/75/75 69/69/69
f 75/75/75 70/70/70 71/71/71
f 70/70/70 54/54/54 71/71/71
f 54/54/54 55/55/55 71/71/71
f 76/76/76 71/71/71 77/77/77
f 77/77/77 71/71/71 72/72/72
f 57/57/57 77/77/77 72/72/72
f 75/75/75 76/76/76 74/74/74
f 71/71/71 76/76/76 75/75/75
f 78/78/78 79/79/79 80/80/80
f 80/80/80 79/79/79 81/81/81
f 82/82/82 79/79/79 83/83/83
f 84/84/84 79/79/79 82/82/82
f 83/83/83 79/79/79 85/85/85
f 85/85/85 79/79/79 78/78/78
f 81/81/81 79/79/79 86/86/86
f 86/86/86 79/79/79 84/84/84
f 7/7/7 8/8/8 87/87/87
f 87/87/87 8/8/8 88/88/88
f 7/7/7 87/87/87 18/18/18
f 18/18/18 87/87/87 89/89/89
f 18/18/18 89/89/89 17/17/17
f 17/17/17 89/89/89 90/90/90
f 17/17/17 90/90/90 4/4/4
f 4/4/4 90/90/90 91/91/91
f 3/3/3 4/4/4 92/92/92
f 92/92/92 4/4/4 91/91/91
f 10/10/10 3/3/3 93/93/93
f 93/93/93 3/3/3 92/92/92
f 12/12/12 10/10/10 94/94/94
f 94/94/94 10/10/10 93/93/93
f 12/12/12 94/94/94 8/8/8
f 8/8/8 94/94/94 88/88/88
f 87/87/87 88/88/88 81/81/81
f 81/81/81 88/88/88 80/80/80
f 89/89/89 87/87/87 86/86/86
f 86/86/86 87/87/87 81/81/81
f 84/84/84 90/90/90 86/86/86
f 86/86/86 90/90/90 89/89/89
f 91/91/91 90/90/90 82/82/82
f 82/82/82 90/90/90 84/84/84
f 83/83/83 92/92/92 82/82/82
f 82/82/82 92/92/92 91/91/91
f 93/93/93 92/92/92 85/85/85
f 85/85/85 92/92/92 83/83/83
f 78/78/78 94/94/94 85/85/85
f 85/85/85 94/94/94 93/93/93
f 80/80/80 88/88/88 78/78/78
f 78/78/78 88/88/88 94/94/94
f 95/95/95 96/96/96 97/97/97
f 97/97/97 96/96/96 98/98/98
f 99/99/99 100/100/100 101/101/101
f 101/101/101 100/100/100 102/102/102
f 97/97/97 98/98/98 103/103/103
f 103/103/103 98/98/98 104/104/104
f 105/105/105 103/103/103 106/106/106
f 106/106/106 103/103/103 104/104/104
f 99/99/99 105/105/105 100/100/100
f 100/100/100 105/105/105 106/106/106
f 107/107/107 108/108/108 109/109/109
f 109/109/109 108/108/108 110/110/110
f 111/111/111 107/107/107 112/112/112
f 112/112/112 107/107/107 109/109/109
f 95/95/95 112/112/112 96/96/96
f 96/96/96 112/112/112 109/109/109
f 113/113/113 114/114/114 20/20/20
f 20/20/20 114/114/114 22/22/22
f 115/115/115 113/113/113 24/24/24
f 24/24/24 113/113/113 20/20/20
f 116/116/116 114/114/114 113/113/113
f 113/113/113 108/108/108 116/116/116
f 100/100/100 117/117/117 102/102/102
f 102/102/102 117/117/117 116/116/116
f 108/108/108 107/107/107 116/116/116
f 116/116/116 107/107/107 102/102/102
f 101/101/101 102/102/102 111/111/111
f 111/111/111 102/102/102 107/107/107
f 118/118/118 116/116/116 117/117/117
f 114/114/114 116/116/116 118/118/118
f 115/115/115 108/108/108 113/113/113
f 115/115/115 110/110/110 108/108/108
f 28/28/28 119/119/119 29/29/29
f 120/120/120 33/33/33 121/121/121
f 121/121/121 33/33/33 34/34/34
f 119/119/119 28/28/28 120/120/120
f 120/120/120 28/28/28 33/33/33
f 121/121/121 122/122/122 120/120/120
f 104/104/104 98/98/98 123/123/123
f 123/123/123 98/98/98 124/124/124
f 106/106/106 104/104/104 122/122/122
f 122/122/122 104/104/104 123/123/123
f 100/100/100 106/106/106 117/117/117
f 117/117/117 106/106/106 122/122/122
f 122/122/122 118/118/118 117/117/117
f 122/122/122 121/121/121 118/118/118
f 115/115/115 24/24/24 29/29/29
f 119/119/119 125/125/125 29/29/29
f 125/125/125 115/115/115 29/29/29
f 96/96/96 125/125/125 98/98/98
f 98/98/98 125/125/125 124/124/124
f 96/96/96 109/109/109 125/125/125
f 125/125/125 109/109/109 110/110/110
f 123/123/123 120/120/120 122/122/122
f 110/110/110 115/115/115 125/125/125
f 123/123/123 119/119/119 120/120/120
f 124/124/124 119/119/119 123/123/123
f 119/119/119 124/124/124 125/125/125
f 126/126/126 127/127/127 128/128/128
f 128/128/128 127/127/127 129/129/129
f 130/130/130 127/127/127 126/126/126
f 131/131/131 130/130/130 126/126/126
f 132/132/132 133/133/133 131/131/131
f 131/131/131 133/133/133 130/130/130
f 133/133/133 132/132/132 47/47/47
f 47/47/47 132/132/132 48/48/48
f 127/127/127 134/134/134 129/129/129
f 135/135/135 134/134/134 136/136/136
f 136/136/136 134/134/134 127/127/127
f 136/136/136 127/127/127 133/133/133
f 133/133/133 127/127/127 130/130/130
f 133/133/133 47/47/47 136/136/136
f 136/136/136 47/47/47 52/52/52
f 136/136/136 52/52/52 135/135/135
f 135/135/135 52/52/52 53/53/53
f 131/131/131 126/126/126 137/137/137
f 137/137/137 126/126/126 128/128/128
f 138/138/138 131/131/131 137/137/137
f 139/139/139 132/132/132 138/138/138
f 138/138/138 132/132/132 131/131/131
f 132/132/132 139/139/139 48/48/48
f 48/48/48 139/139/139 57/57/57
f 140/140/140 141/141/141 142/142/142
f 142/142/142 141/141/141 143/143/143
f 141/141/141 140/140/140 118/118/118
f 118/118/118 140/140/140 114/114/114
f 129/129/129 142/142/142 128/128/128
f 128/128/128 142/142/142 143/143/143
f 135/135/135 144/144/144 134/134/134
f 134/134/134 144/144/144 145/145/145
f 53/53/53 144/144/144 135/135/135
f 114/114/114 140/140/140 22/22/22
f 22/22/22 140/140/140 64/64/64
f 65/65/65 146/146/146 66/66/66
f 144/144/144 68/68/68 145/145/145
f 145/145/145 68/68/68 66/66/66
f 146/146/146 145/145/145 66/66/66
f 144/144/144 53/53/53 68/68/68
f 64/64/64 140/140/140 65/65/65
f 65/65/65 140/140/140 146/146/146
f 140/140/140 142/142/142 146/146/146
f 146/146/146 142/142/142 145/145/145
f 142/142/142 129/129/129 145/145/145
f 129/129/129 134/134/134 145/145/145
f 141/141/141 118/118/118 147/147/147
f 147/147/147 118/118/118 121/121/121
f 128/128/128 143/143/143 137/137/137
f 137/137/137 143/143/143 148/148/148
f 143/143/143 141/141/141 148/148/148
f 148/148/148 141/141/141 147/147/147
f 149/149/149 150/150/150 138/138/138
f 138/138/138 150/150/150 139/139/139
f 150/150/150 57/57/57 139/139/139
f 34/34/34 73/73/73 121/121/121
f 121/121/121 73/73/73 147/147/147
f 147/147/147 73/73/73 148/148/148
f 73/73/73 74/74/74 148/148/148
f 148/148/148 74/74/74 151/151/151
f 151/151/151 149/149/149 148/148/148
f 148/148/148 149/149/149 137/137/137
f 149/149/149 138/138/138 137/137/137
f 150/150/150 149/149/149 77/77/77
f 77/77/77 149/149/149 76/76/76
f 57/57/57 150/150/150 77/77/77
f 151/151/151 74/74/74 76/76/76
f 149/149/149 151/151/151 76/76/76
f 152/152/152 153/153/153 154/154/154
f 153/153/153 155/155/155 154/154/154
f 156/156/156 157/157/157 154/154/154
f 158/158/158 156/156/156 154/154/154
f 157/157/157 159/159/159 154/154/154
f 159/159/159 152/152/152 154/154/154
f 155/155/155 160/160/160 154/154/154
f 160/160/160 158/158/158 154/154/154
f 161/161/161 99/99/99 162/162/162
f 162/162/162 99/99/99 101/101/101
f 163/163/163 162/162/162 111/111/111
f 111/111/111 162/162/162 101/101/101
f 164/164/164 163/163/163 112/112/112
f 112/112/112 163/163/163 111/111/111
f 165/165/165 164/164/164 95/95/95
f 95/95/95 164/164/164 112/112/112
f 165/165/165 95/95/95 166/166/166
f 166/166/166 95/95/95 97/97/97
f 166/166/166 97/97/97 167/167/167
f 167/167/167 97/97/97 103/103/103
f 167/167/167 103/103/103 168/168/168
f 168/168/168 103/103/103 105/105/105
f 161/161/161 168/168/168 99/99/99
f 99/99/99 168/168/168 105/105/105
f 153/153/153 161/161/161 155/155/155
f 155/155/155 161/161/161 162/162/162
f 155/155/155 162/162/162 160/160/160
f 160/160/160 162/162/162 163/163/163
f 158/158/158 160/160/160 164/164/164
f 164/164/164 160/160/160 163/163/163
f 158/158/158 164/164/164 156/156/156
f 156/156/156 164/164/164 165/165/165
f 157/157/157 156/156/156 166/166/166
f 166/166/166 156/156/156 165/165/165
f 157/157/157 166/166/166 159/159/159
f 159/159/159 166/166/166 167/167/167
f 152/152/152 159/159/159 168/168/168
f 168/168/168 159/159/159 167/167/167
f 153/153/153 152/152/152 161/161/161
f 161/161/161 152/152/152 168/168/168
